1: PREPARING DATA
2,3: RUNNING mummer AND CREATING CLUSTERS
# reading input file "/vol/codine-tmp/juene/tmp.PU4J41bUJD/quast/gage/tmp/ABYSS_PE_MIS_PE_sakai_mis-both_bi_2x250bp_SI_default.0.64percent.NEWBLER_124-scaffolds.ntref" of length 5594473
# construct suffix tree for sequence of length 5594473
# (maximum reference length is 536870908)
# (maximum query length is 4294967295)
# process 55944 characters per dot
#....................................................................................................
# CONSTRUCTIONTIME /vol/ngscomparison/software/analysis/quast-2.1/libs/MUMmer3.23-linux/mummer /vol/codine-tmp/juene/tmp.PU4J41bUJD/quast/gage/tmp/ABYSS_PE_MIS_PE_sakai_mis-both_bi_2x250bp_SI_default.0.64percent.NEWBLER_124-scaffolds.ntref 2.91
# reading input file "/vol/codine-tmp/juene/tmp.PU4J41bUJD/quast/corrected_input/ABYSS_PE_MIS_PE_sakai_mis-both_bi_2x250bp_SI_default.0.64percent.NEWBLER_124-scaffolds" of length 5641471
# matching query-file "/vol/codine-tmp/juene/tmp.PU4J41bUJD/quast/corrected_input/ABYSS_PE_MIS_PE_sakai_mis-both_bi_2x250bp_SI_default.0.64percent.NEWBLER_124-scaffolds"
# against subject-file "/vol/codine-tmp/juene/tmp.PU4J41bUJD/quast/gage/tmp/ABYSS_PE_MIS_PE_sakai_mis-both_bi_2x250bp_SI_default.0.64percent.NEWBLER_124-scaffolds.ntref"
# COMPLETETIME /vol/ngscomparison/software/analysis/quast-2.1/libs/MUMmer3.23-linux/mummer /vol/codine-tmp/juene/tmp.PU4J41bUJD/quast/gage/tmp/ABYSS_PE_MIS_PE_sakai_mis-both_bi_2x250bp_SI_default.0.64percent.NEWBLER_124-scaffolds.ntref 8.84
# SPACE /vol/ngscomparison/software/analysis/quast-2.1/libs/MUMmer3.23-linux/mummer /vol/codine-tmp/juene/tmp.PU4J41bUJD/quast/gage/tmp/ABYSS_PE_MIS_PE_sakai_mis-both_bi_2x250bp_SI_default.0.64percent.NEWBLER_124-scaffolds.ntref 10.90
4: FINISHING DATA
Filtering alignments
Extracting alignment coordinates
Analyzing SNPs
Extracting alignment breakpoints
Generating report file
Found genome size at position 4 with value 5594470 aka 5594470
Calculating point at 0 and the sum is 1138116 and i is327 and lens is 334 and length is 147150
Calculating point at 1 and the sum is 2070155 and i is320 and lens is 334 and length is 117592
Calculating point at 2 and the sum is 3056353 and i is308 and lens is 334 and length is 68744
Calculating point at 3 and the sum is 4038815 and i is290 and lens is 334 and length is 39090
Calculating point at 4 and the sum is 5005924 and i is247 and lens is 334 and length is 10077
