calling: java -cp /vol/ngscomparison/software/analysis/quast-2.1/libs/gage:. SizeFasta /vol/codine-tmp/juene/tmp.PU4J41bUJD/quast/corrected_input/Ecoli_Sakai_editedNew_plasmids.fasta |awk '{SUM+=; print SUM}'|tail -n 1
Contig Stats
Total units: 366
Reference: 5594470
BasesInFasta: 5639195
Min: 200
Max: 203546
N10: 168482 COUNT: 4
N25: 143190 COUNT: 9
N50: 85826 COUNT: 21
N75: 47056 COUNT: 43
E-size:92346.99

Genome Size: 5594470
Assembly Size: 5639195
Chaff bases: 0
Missing Reference Bases: 6781(0.12%)
Missing Assembly Bases: 9(0.00%)
Missing Assembly Contigs: 0(0.00%)
Duplicated Reference Bases: 125462
Compressed Reference Bases: 203005
Bad Trim: 0
Avg Idy: 99.98
SNPs: 444
Indels < 5bp: 27
Indels >= 5: 9
Inversions: 3
Relocation: 3
Translocation: 0

Corrected Contig Stats
calling: java -cp /vol/ngscomparison/software/analysis/quast-2.1/libs/gage:.:. GetFastaStats -o -min 199 -genomeSize 5594470 /vol/codine-tmp/juene/tmp.PU4J41bUJD/quast/gage/tmp/ABYSS_PE_MIS_PE_sakai_mis-both_bi_2x250bp_SI_default.0.64percent.NEWBLER_124-scaffolds_broken.matches.lens 2> /dev/null
Total units: 332
Reference: 5594470
BasesInFasta: 5520265
Min: 206
Max: 203546
N10: 149407 COUNT: 4
N25: 141889 COUNT: 9
N50: 72334 COUNT: 24
N75: 36383 COUNT: 50
E-size:83359.01

Done
