Assembly	VELVET_PGM_mrsa_pgm_200bp_es_316_IonOnev2_ts3.0_morestringent.0.230percent_165.final.contigs
GAGE_Contigs #	182
GAGE_Min contig	493
GAGE_Max contig	1386
GAGE_N50	0 COUNT: 0
GAGE_Genome size	2813862
GAGE_Assembly size	109138
GAGE_Chaff bases	0
GAGE_Missing reference bases	2689913(95.60%)
GAGE_Missing assembly bases	200(0.18%)
GAGE_Missing assembly contigs	0(0.00%)
GAGE_Duplicated reference bases	0
GAGE_Compressed reference bases	15766
GAGE_Bad trim	200
GAGE_Avg idy	99.93
GAGE_SNPs	12
GAGE_Indels < 5bp	63
GAGE_Indels >= 5	0
GAGE_Inversions	0
GAGE_Relocation	1
GAGE_Translocation	0
GAGE_Corrected contig #	182
GAGE_Corrected assembly size	108878
GAGE_Min correct contig	414
GAGE_Max correct contig	1389
GAGE_Corrected N50	0 COUNT: 0
