calling: java -cp /vol/ngscomparison/software/analysis/quast-2.1/libs/gage:. SizeFasta /vol/codine-tmp/juene/tmp.RfAEeyiMe8/quast/corrected_input/Ecoli_Sakai_editedNew_plasmids.fasta |awk '{SUM+=; print SUM}'|tail -n 1
Contig Stats
Total units: 262
Reference: 5594470
BasesInFasta: 5358215
Min: 205
Max: 374760
N10: 352829 COUNT: 2
N25: 238211 COUNT: 5
N50: 142589 COUNT: 13
N75: 66136 COUNT: 28
E-size:156718.47

Genome Size: 5594470
Assembly Size: 5358215
Chaff bases: 0
Missing Reference Bases: 21439(0.38%)
Missing Assembly Bases: 8697(0.16%)
Missing Assembly Contigs: 2(0.76%)
Duplicated Reference Bases: 6247
Compressed Reference Bases: 265993
Bad Trim: 324
Avg Idy: 99.99
SNPs: 176
Indels < 5bp: 19
Indels >= 5: 18
Inversions: 2
Relocation: 8
Translocation: 0

Corrected Contig Stats
calling: java -cp /vol/ngscomparison/software/analysis/quast-2.1/libs/gage:.:. GetFastaStats -o -min 199 -genomeSize 5594470 /vol/codine-tmp/juene/tmp.RfAEeyiMe8/quast/gage/tmp/CLC_MIS_PE_sakai_mis-1_bi_2x150bp_default__sakai_mis-2_bi_2x150bp_default.31coverage.result.matches.lens 2> /dev/null
Total units: 276
Reference: 5594470
BasesInFasta: 5344350
Min: 210
Max: 296118
N10: 211368 COUNT: 3
N25: 183637 COUNT: 7
N50: 141494 COUNT: 16
N75: 46489 COUNT: 34
E-size:119679.15

Done
