Assembly	#Mis_misassemblies	#Mis_relocations	#Mis_translocations	#Mis_inversions	#Mis_misassembled contigs	Mis_Misassembled contigs length	#Mis_local misassemblies	#mismatches	#indels	#Mis_short indels (<= 5 bp)	#Mis_long indels (> 5 bp)	Indels length
SOAP2_MIS_PE_sakai_mis-1_bi_2x150bp_default.0.826percent_77.final.scaf_broken	7	7	0	0	7	202517	1	48	25	22	3	76
SOAP2_MIS_PE_sakai_mis-1_bi_2x150bp_default.0.826percent_77.final.scaf	39	39	0	0	26	1145837	107	234	2797	2692	105	5541
