Assembly	SOAP2_PGM_mrsa_pgm_400bp_es_318_IKA_ts3.2_morestringent.0.165percent_23.final.contig
#Contigs (>= 0 bp)	543861
#Contigs (>= 1000 bp)	0
Total length (>= 0 bp)	20269966
Total length (>= 1000 bp)	0
#Contigs	79
Largest contig	436
Total length	20467
Reference length	2813862
GC (%)	32.81
Reference GC (%)	32.81
N50	262
NG50	None
N75	218
NG75	None
#misassemblies	0
#local misassemblies	0
#unaligned contigs	74 + 0 part
Unaligned contigs length	19275
Genome fraction (%)	0.043
Duplication ratio	0.995
#N's per 100 kbp	0.00
#mismatches per 100 kbp	333.89
#indels per 100 kbp	834.72
#genes	0 + 5 part
#predicted genes (unique)	64
#predicted genes (>= 0 bp)	64
#predicted genes (>= 300 bp)	2
#predicted genes (>= 1500 bp)	0
#predicted genes (>= 3000 bp)	0
Largest alignment	314
NA50	None
NGA50	None
NA75	None
NGA75	None
