Assembly	#Contigs	#Contigs (>= 0 bp)	#Contigs (>= 1000 bp)	Largest contig	Total length	Total length (>= 0 bp)	Total length (>= 1000 bp)	Reference length	N50	NG50	N75	NG75	L50	LG50	L75	LG75	#local misassemblies	#misassemblies	#misassembled contigs	Misassembled contigs length	Misassemblies inter-contig overlap	#unaligned contigs	Unaligned contigs length	#ambiguously mapped contigs	Extra bases in ambiguously mapped contigs	#N's	#N's per 100 kbp	Genome fraction (%)	Duplication ratio	#genes	#predicted genes (unique)	#predicted genes (>= 0 bp)	#predicted genes (>= 300 bp)	#predicted genes (>= 1500 bp)	#predicted genes (>= 3000 bp)	#mismatches	#indels	Indels length	#mismatches per 100 kbp	#indels per 100 kbp	GC (%)	Reference GC (%)	Average %IDY	Largest alignment	NA50	NGA50	NA75	NGA75	LA50	LGA50	LA75	LGA75	#Mis_misassemblies	#Mis_relocations	#Mis_translocations	#Mis_inversions	#Mis_misassembled contigs	Mis_Misassembled contigs length	#Mis_local misassemblies	#Mis_short indels (<= 5 bp)	#Mis_long indels (> 5 bp)	#Una_fully unaligned contigs	Una_Fully unaligned length	#Una_partially unaligned contigs	#Una_with misassembly	#Una_both parts are significant	Una_Partially unaligned length	GAGE_Contigs #	GAGE_Min contig	GAGE_Max contig	GAGE_N50	GAGE_Genome size	GAGE_Assembly size	GAGE_Chaff bases	GAGE_Missing reference bases	GAGE_Missing assembly bases	GAGE_Missing assembly contigs	GAGE_Duplicated reference bases	GAGE_Compressed reference bases	GAGE_Bad trim	GAGE_Avg idy	GAGE_SNPs	GAGE_Indels < 5bp	GAGE_Indels >= 5	GAGE_Inversions	GAGE_Relocation	GAGE_Translocation	GAGE_Corrected contig #	GAGE_Corrected assembly size	GAGE_Min correct contig	GAGE_Max correct contig	GAGE_Corrected N50
VELVET_MIS_PE_sakai_mis-both_bi_2x250bp_SI_default.0.64percent_43.final.contigs_broken	628	1026	361	104313	5307923	5358582	5194391	5594470	24850	23675	12894	11393	60	66	132	150	11	5	5	135888	1774	1 + 0 part	5173	149	-89172	0	0.00	93.156	1.001	4716 + 351 part	5468	5470	4487	639	60	693	78	170	13.30	1.50	50.27	50.48	99.423	104312	24850	23666	12871	11305	60	66	133	151	5	5	0	0	5	135888	11	71	7	1	5173	0	0	0	0	628	201	104313	23675 COUNT: 66	5594470	5307923	0	99856(1.78%)	5183(0.10%)	1(0.16%)	6711	219609	10	99.98	747	54	15	0	5	0	623	5298186	201	90227	23097 COUNT: 69
VELVET_MIS_PE_sakai_mis-both_bi_2x250bp_SI_default.0.64percent_43.final.contigs	410	799	168	335111	5322096	5371521	5220386	5594470	86774	77924	38012	30192	19	20	42	48	90	6	6	325945	1774	1 + 0 part	5173	148	-88645	12939	243.12	93.280	1.002	4839 + 232 part	5405	5407	4474	645	61	696	1141	3041	13.34	21.86	50.27	50.48	99.323	334516	86665	75765	36976	30168	19	21	43	49	6	6	0	0	6	325945	90	1054	87	1	5173	0	0	0	0	410	201	335111	77924 COUNT: 20	5594470	5322096	0	98301(1.76%)	17360(0.33%)	1(0.24%)	7195	219774	35	99.97	747	141	188	1	14	0	593	5298951	201	95446	25562 COUNT: 63
