calling: java -cp /vol/ngscomparison/software/analysis/quast-2.1/libs/gage:. SizeFasta /vol/codine-tmp/juene/tmp.VywK8tdc2h/quast/corrected_input/MRSA_COL_Plasmid.fasta |awk '{SUM+=; print SUM}'|tail -n 1
Contig Stats
Total units: 2267
Reference: 2813862
BasesInFasta: 2007702
Min: 329
Max: 6309
N10: 2295 COUNT: 89
N25: 1448 COUNT: 325
N50: 731 COUNT: 1017
N75: 0 COUNT: 0
E-size:989.71

Genome Size: 2813862
Assembly Size: 2007702
Chaff bases: 0
Missing Reference Bases: 879210(31.25%)
Missing Assembly Bases: 14(0.00%)
Missing Assembly Contigs: 0(0.00%)
Duplicated Reference Bases: 49096
Compressed Reference Bases: 30562
Bad Trim: 10
Avg Idy: 99.96
SNPs: 41
Indels < 5bp: 548
Indels >= 5: 0
Inversions: 11
Relocation: 6
Translocation: 1

Corrected Contig Stats
calling: java -cp /vol/ngscomparison/software/analysis/quast-2.1/libs/gage:.:. GetFastaStats -o -min 199 -genomeSize 2813862 /vol/codine-tmp/juene/tmp.VywK8tdc2h/quast/gage/tmp/VELVET_PGM_mrsa_pgm_400bp_es_318_IKA_ts3.2_morestringent.0.165percent_165.final.contigs.matches.lens 2> /dev/null
Total units: 2161
Reference: 2813862
BasesInFasta: 1958012
Min: 200
Max: 6309
N10: 2295 COUNT: 89
N25: 1436 COUNT: 326
N50: 726 COUNT: 1023
N75: 0 COUNT: 0
E-size:978.29

Done
