Assembly	VELVET_MIS_PE_mrsa_mis-1_bi_2x150bp_default__mrsa_mis-2_bi_2x150bp_default.0.527percent_69.final.contigs_broken	VELVET_MIS_PE_mrsa_mis-1_bi_2x150bp_default__mrsa_mis-2_bi_2x150bp_default.0.527percent_69.final.contigs
#Contigs (>= 0 bp)	124	82
#Contigs (>= 1000 bp)	63	28
Total length (>= 0 bp)	2789619	2791082
Total length (>= 1000 bp)	2774242	2779480
#Contigs	91	50
Largest contig	315696	673220
Total length	2784356	2785984
Reference length	2813862	2813862
GC (%)	32.69	32.69
Reference GC (%)	32.81	32.81
N50	93440	255378
NG50	93440	255378
N75	51234	114391
NG75	45894	114391
#misassemblies	3	10
#local misassemblies	2	12
#unaligned contigs	1 + 0 part	1 + 0 part
Unaligned contigs length	5454	5454
Genome fraction (%)	98.409	98.479
Duplication ratio	1.000	1.001
#N's per 100 kbp	0.00	52.51
#mismatches per 100 kbp	3.00	3.00
#indels per 100 kbp	0.33	8.95
#genes	2654 + 40 part	2672 + 25 part
#predicted genes (unique)	2653	2642
#predicted genes (>= 0 bp)	2655	2643
#predicted genes (>= 300 bp)	2296	2294
#predicted genes (>= 1500 bp)	301	301
#predicted genes (>= 3000 bp)	29	28
Largest alignment	315696	491061
NA50	93440	178775
NGA50	93440	178775
NA75	51234	78538
NGA75	45894	78538
