1: PREPARING DATA
2,3: RUNNING mummer AND CREATING CLUSTERS
# reading input file "/vol/codine-tmp/juene/tmp.ZvRvj4aeCs/quast/contigs_reports/nucmer_output/ABYSS_PE_PGM_mrsa_pgm_400bp_es_318_IKA_ts3.2_morestringent.21coverage_32.final.ntref" of length 2813864
# construct suffix tree for sequence of length 2813864
# (maximum reference length is 536870908)
# (maximum query length is 4294967295)
# process 28138 characters per dot
#....................................................................................................
# CONSTRUCTIONTIME /vol/ngscomparison/software/analysis/quast-2.1/libs/MUMmer3.23-linux/mummer /vol/codine-tmp/juene/tmp.ZvRvj4aeCs/quast/contigs_reports/nucmer_output/ABYSS_PE_PGM_mrsa_pgm_400bp_es_318_IKA_ts3.2_morestringent.21coverage_32.final.ntref 1.62
# reading input file "/vol/codine-tmp/juene/tmp.ZvRvj4aeCs/quast/corrected_input/ABYSS_PE_PGM_mrsa_pgm_400bp_es_318_IKA_ts3.2_morestringent.21coverage_32.final" of length 2697573
# matching query-file "/vol/codine-tmp/juene/tmp.ZvRvj4aeCs/quast/corrected_input/ABYSS_PE_PGM_mrsa_pgm_400bp_es_318_IKA_ts3.2_morestringent.21coverage_32.final"
# against subject-file "/vol/codine-tmp/juene/tmp.ZvRvj4aeCs/quast/contigs_reports/nucmer_output/ABYSS_PE_PGM_mrsa_pgm_400bp_es_318_IKA_ts3.2_morestringent.21coverage_32.final.ntref"
# COMPLETETIME /vol/ngscomparison/software/analysis/quast-2.1/libs/MUMmer3.23-linux/mummer /vol/codine-tmp/juene/tmp.ZvRvj4aeCs/quast/contigs_reports/nucmer_output/ABYSS_PE_PGM_mrsa_pgm_400bp_es_318_IKA_ts3.2_morestringent.21coverage_32.final.ntref 4.66
# SPACE /vol/ngscomparison/software/analysis/quast-2.1/libs/MUMmer3.23-linux/mummer /vol/codine-tmp/juene/tmp.ZvRvj4aeCs/quast/contigs_reports/nucmer_output/ABYSS_PE_PGM_mrsa_pgm_400bp_es_318_IKA_ts3.2_morestringent.21coverage_32.final.ntref 5.37
4: FINISHING DATA
