Assembly	SOAP2_MIS_PE_sakai_mis-1_bi_2x150bp_default.0.826percent_73.final.scaf_broken	SOAP2_MIS_PE_sakai_mis-1_bi_2x150bp_default.0.826percent_73.final.scaf
#Contigs	652	357
#Contigs (>= 0 bp)	1774	1274
#Contigs (>= 1000 bp)	252	124
Largest contig	203794	374855
Total length	5317495	5372907
Total length (>= 0 bp)	5472024	5498288
Total length (>= 1000 bp)	5169808	5281053
Reference length	5594470	5594470
N50	54593	148195
NG50	49336	145351
N75	24410	78462
NG75	19570	74006
L50	30	10
LG50	33	11
L75	69	22
LG75	78	24
#local misassemblies	1	117
#misassemblies	5	49
#misassembled contigs	5	31
Misassembled contigs length	92237	1660450
Misassemblies inter-contig overlap	5	386
#unaligned contigs	1 + 0 part	6 + 13 part
Unaligned contigs length	5459	22203
#ambiguously mapped contigs	167	144
Extra bases in ambiguously mapped contigs	-85595	-67890
#N's	32	26298
#N's per 100 kbp	0.60	489.46
Genome fraction (%)	93.379	93.559
Duplication ratio	1.000	1.009
#genes	4757 + 291 part	4886 + 198 part
#predicted genes (unique)	5459	5412
#predicted genes (>= 0 bp)	5463	5416
#predicted genes (>= 300 bp)	4404	4412
#predicted genes (>= 1500 bp)	657	660
#predicted genes (>= 3000 bp)	64	65
#mismatches	52	217
#indels	16	2234
Indels length	74	6444
#mismatches per 100 kbp	1.00	4.15
#indels per 100 kbp	0.31	42.68
GC (%)	50.26	50.28
Reference GC (%)	50.48	50.48
Average %IDY	99.186	99.020
Largest alignment	203793	361841
NA50	54593	145351
NGA50	44593	142994
NA75	24410	76100
NGA75	19469	72402
LA50	30	12
LGA50	33	13
LA75	69	24
LGA75	79	27
#Mis_misassemblies	5	49
#Mis_relocations	5	49
#Mis_translocations	0	0
#Mis_inversions	0	0
#Mis_misassembled contigs	5	31
Mis_Misassembled contigs length	92237	1660450
#Mis_local misassemblies	1	117
#Mis_short indels (<= 5 bp)	12	2078
#Mis_long indels (> 5 bp)	4	156
#Una_fully unaligned contigs	1	6
Una_Fully unaligned length	5459	8536
#Una_partially unaligned contigs	0	13
#Una_with misassembly	0	1
#Una_both parts are significant	0	7
Una_Partially unaligned length	0	13667
GAGE_Contigs #	652	357
GAGE_Min contig	200	200
GAGE_Max contig	203794	374855
GAGE_N50	49336 COUNT: 33	145351 COUNT: 11
GAGE_Genome size	5594470	5594470
GAGE_Assembly size	5317495	5372907
GAGE_Chaff bases	0	0
GAGE_Missing reference bases	109420(1.96%)	73842(1.32%)
GAGE_Missing assembly bases	5515(0.10%)	33969(0.63%)
GAGE_Missing assembly contigs	1(0.15%)	3(0.84%)
GAGE_Duplicated reference bases	5056	7365
GAGE_Compressed reference bases	213169	238488
GAGE_Bad trim	26	4663
GAGE_Avg idy	100.00	99.98
GAGE_SNPs	63	63
GAGE_Indels < 5bp	12	62
GAGE_Indels >= 5	5	287
GAGE_Inversions	2	7
GAGE_Relocation	5	22
GAGE_Translocation	0	0
GAGE_Corrected contig #	642	624
GAGE_Corrected assembly size	5306529	5306574
GAGE_Min correct contig	200	200
GAGE_Max correct contig	203792	203792
GAGE_Corrected N50	44593 COUNT: 33	53710 COUNT: 31
