Assembly	#Mis_misassemblies	#Mis_relocations	#Mis_translocations	#Mis_inversions	#Mis_misassembled contigs	Mis_Misassembled contigs length	#Mis_local misassemblies	#mismatches	#indels	#Mis_short indels (<= 5 bp)	#Mis_long indels (> 5 bp)	Indels length
VELVET_MIS_PE_mtbh37-1_mis_2x250bp_nextera_default__mtbh37-2_mis_2x250bp_nextera_default_61.final.contigs_broken	3	3	0	0	3	32824	25	343	98	93	5	234
VELVET_MIS_PE_mtbh37-1_mis_2x250bp_nextera_default__mtbh37-2_mis_2x250bp_nextera_default_61.final.contigs	10	10	0	0	8	268315	187	345	983	906	77	2713
