All statistics are based on contigs of size >= 200 bp, unless otherwise noted (e.g., "# contigs (>= 0 bp)" and "Total length (>= 0 bp)" include all contigs).

Assembly                                   CLC_MIS_PE_mtbh37-1_mis_2x250bp_nextera_default__mtbh37-2_mis_2x250bp_nextera_default.0.300percent.result_broken  CLC_MIS_PE_mtbh37-1_mis_2x250bp_nextera_default__mtbh37-2_mis_2x250bp_nextera_default.0.300percent.result
#Contigs                                   362                                                                                                               421                                                                                                      
#Contigs (>= 0 bp)                         685                                                                                                               421                                                                                                      
#Contigs (>= 1000 bp)                      174                                                                                                               144                                                                                                      
Largest contig                             141143                                                                                                            143438                                                                                                   
Total length                               4357704                                                                                                           4393248                                                                                                  
Total length (>= 0 bp)                     4382203                                                                                                           4393248                                                                                                  
Total length (>= 1000 bp)                  4292384                                                                                                           4308608                                                                                                  
Reference length                           4411532                                                                                                           4411532                                                                                                  
N50                                        44278                                                                                                             65058                                                                                                    
NG50                                       44278                                                                                                             65058                                                                                                    
N75                                        26727                                                                                                             33828                                                                                                    
NG75                                       25734                                                                                                             33221                                                                                                    
L50                                        28                                                                                                                24                                                                                                       
LG50                                       28                                                                                                                24                                                                                                       
L75                                        59                                                                                                                47                                                                                                       
LG75                                       61                                                                                                                48                                                                                                       
#local misassemblies                       8                                                                                                                 23                                                                                                       
#misassemblies                             10                                                                                                                10                                                                                                       
#misassembled contigs                      9                                                                                                                 9                                                                                                        
Misassembled contigs length                238506                                                                                                            238590                                                                                                   
Misassemblies inter-contig overlap         20823                                                                                                             20600                                                                                                    
#unaligned contigs                         41 + 48 part                                                                                                      105 + 96 part                                                                                            
Unaligned contigs length                   16733                                                                                                             41887                                                                                                    
#ambiguously mapped contigs                23                                                                                                                22                                                                                                       
Extra bases in ambiguously mapped contigs  -14924                                                                                                            -14382                                                                                                   
#N's                                       283                                                                                                               11543                                                                                                    
#N's per 100 kbp                           6.49                                                                                                              262.74                                                                                                   
Genome fraction (%)                        97.656                                                                                                            97.715                                                                                                   
Duplication ratio                          1.009                                                                                                             1.011                                                                                                    
#genes                                     3912 + 143 part                                                                                                   3927 + 128 part                                                                                          
#predicted genes (unique)                  4147                                                                                                              4144                                                                                                     
#predicted genes (>= 0 bp)                 4151                                                                                                              4148                                                                                                     
#predicted genes (>= 300 bp)               3580                                                                                                              3579                                                                                                     
#predicted genes (>= 1500 bp)              571                                                                                                               570                                                                                                      
#predicted genes (>= 3000 bp)              73                                                                                                                74                                                                                                       
#mismatches                                478                                                                                                               509                                                                                                      
#indels                                    221                                                                                                               375                                                                                                      
Indels length                              831                                                                                                               1431                                                                                                     
#mismatches per 100 kbp                    11.10                                                                                                             11.81                                                                                                    
#indels per 100 kbp                        5.13                                                                                                              8.70                                                                                                     
GC (%)                                     65.61                                                                                                             65.74                                                                                                    
Reference GC (%)                           65.61                                                                                                             65.61                                                                                                    
Average %IDY                               99.413                                                                                                            99.338                                                                                                   
Largest alignment                          141143                                                                                                            143295                                                                                                   
NA50                                       44278                                                                                                             64847                                                                                                    
NGA50                                      44278                                                                                                             64847                                                                                                    
NA75                                       25688                                                                                                             33221                                                                                                    
NGA75                                      24809                                                                                                             32608                                                                                                    
LA50                                       29                                                                                                                25                                                                                                       
LGA50                                      29                                                                                                                25                                                                                                       
LA75                                       61                                                                                                                48                                                                                                       
LGA75                                      62                                                                                                                49                                                                                                       
#Mis_misassemblies                         10                                                                                                                10                                                                                                       
#Mis_relocations                           10                                                                                                                10                                                                                                       
#Mis_translocations                        0                                                                                                                 0                                                                                                        
#Mis_inversions                            0                                                                                                                 0                                                                                                        
#Mis_misassembled contigs                  9                                                                                                                 9                                                                                                        
Mis_Misassembled contigs length            238506                                                                                                            238590                                                                                                   
#Mis_local misassemblies                   8                                                                                                                 23                                                                                                       
#Mis_short indels (<= 5 bp)                200                                                                                                               331                                                                                                      
#Mis_long indels (> 5 bp)                  21                                                                                                                44                                                                                                       
#Una_fully unaligned contigs               41                                                                                                                105                                                                                                      
Una_Fully unaligned length                 11510                                                                                                             28276                                                                                                    
#Una_partially unaligned contigs           48                                                                                                                96                                                                                                       
#Una_with misassembly                      0                                                                                                                 0                                                                                                        
#Una_both parts are significant            2                                                                                                                 3                                                                                                        
Una_Partially unaligned length             5223                                                                                                              13611                                                                                                    
GAGE_Contigs #                             362                                                                                                               421                                                                                                      
GAGE_Min contig                            201                                                                                                               200                                                                                                      
GAGE_Max contig                            141143                                                                                                            143438                                                                                                   
GAGE_N50                                   44278 COUNT: 28                                                                                                   65058 COUNT: 24                                                                                          
GAGE_Genome size                           4411532                                                                                                           4411532                                                                                                  
GAGE_Assembly size                         4357704                                                                                                           4393248                                                                                                  
GAGE_Chaff bases                           0                                                                                                                 0                                                                                                        
GAGE_Missing reference bases               41132(0.93%)                                                                                                      38232(0.87%)                                                                                             
GAGE_Missing assembly bases                18009(0.41%)                                                                                                      46938(1.07%)                                                                                             
GAGE_Missing assembly contigs              41(11.33%)                                                                                                        104(24.70%)                                                                                              
GAGE_Duplicated reference bases            15350                                                                                                             19461                                                                                                    
GAGE_Compressed reference bases            52944                                                                                                             53306                                                                                                    
GAGE_Bad trim                              6227                                                                                                              15317                                                                                                    
GAGE_Avg idy                               99.98                                                                                                             99.97                                                                                                    
GAGE_SNPs                                  339                                                                                                               365                                                                                                      
GAGE_Indels < 5bp                          59                                                                                                                84                                                                                                       
GAGE_Indels >= 5                           25                                                                                                                66                                                                                                       
GAGE_Inversions                            3                                                                                                                 3                                                                                                        
GAGE_Relocation                            4                                                                                                                 4                                                                                                        
GAGE_Translocation                         0                                                                                                                 0                                                                                                        
GAGE_Corrected contig #                    283                                                                                                               273                                                                                                      
GAGE_Corrected assembly size               4323827                                                                                                           4324701                                                                                                  
GAGE_Min correct contig                    204                                                                                                               204                                                                                                      
GAGE_Max correct contig                    139480                                                                                                            139480                                                                                                   
GAGE_Corrected N50                         39358 COUNT: 35                                                                                                   40166 COUNT: 34                                                                                          
