Assembly	CLC_PGM_sakai_pgm_mu_318_400bp_IO_TS3.4_ms.41coverage.result
#Contigs (>= 0 bp)	772
#Contigs (>= 1000 bp)	289
Total length (>= 0 bp)	5421161
Total length (>= 1000 bp)	5250190
#Contigs	772
Largest contig	219579
Total length	5421161
Reference length	5594470
GC (%)	50.28
Reference GC (%)	50.48
N50	39192
NG50	37747
N75	22224
NG75	20285
#misassemblies	5
#local misassemblies	8
#unaligned contigs	2 + 2 part
Unaligned contigs length	582
Genome fraction (%)	94.418
Duplication ratio	1.010
#N's per 100 kbp	1.81
#mismatches per 100 kbp	4.09
#indels per 100 kbp	13.90
#genes	4845 + 286 part
#predicted genes (unique)	5808
#predicted genes (>= 0 bp)	5815
#predicted genes (>= 300 bp)	4632
#predicted genes (>= 1500 bp)	610
#predicted genes (>= 3000 bp)	59
Largest alignment	167141
NA50	38483
NGA50	37747
NA75	22027
NGA75	20285
