calling: java -cp /vol/ngscomparison/software/analysis/quast-2.1/libs/gage:. SizeFasta /vol/codine-tmp/juene/tmp.MjtJonijsr/quast/corrected_input/Ecoli_Sakai_editedNew_plasmids.fasta |awk '{SUM+=; print SUM}'|tail -n 1
Contig Stats
Total units: 366
Reference: 5594470
BasesInFasta: 5426087
Min: 200
Max: 405556
N10: 374999 COUNT: 2
N25: 313951 COUNT: 4
N50: 145570 COUNT: 12
N75: 74903 COUNT: 25
E-size:178096.5

Genome Size: 5594470
Assembly Size: 5426087
Chaff bases: 0
Missing Reference Bases: 5080(0.09%)
Missing Assembly Bases: 10739(0.20%)
Missing Assembly Contigs: 1(0.27%)
Duplicated Reference Bases: 10715
Compressed Reference Bases: 251249
Bad Trim: 189
Avg Idy: 99.99
SNPs: 119
Indels < 5bp: 38
Indels >= 5: 41
Inversions: 4
Relocation: 10
Translocation: 0

Corrected Contig Stats
calling: java -cp /vol/ngscomparison/software/analysis/quast-2.1/libs/gage:.:. GetFastaStats -o -min 199 -genomeSize 5594470 /vol/codine-tmp/juene/tmp.MjtJonijsr/quast/gage/tmp/VELVET_MIS_PE_sakai_mis-1_bi_2x150bp_default__sakai_mis-2_bi_2x150bp_default.0.826percent_89.final.contigs.matches.lens 2> /dev/null
Total units: 410
Reference: 5594470
BasesInFasta: 5404946
Min: 200
Max: 217598
N10: 148980 COUNT: 4
N25: 127521 COUNT: 10
N50: 84221 COUNT: 23
N75: 40991 COUNT: 48
E-size:84760.87

Done
