Assembly	CLC_PGM_mrsa_pgm_200bp_es_316_IonOnev2_ts3.0_morestringent.26coverage.result
#Contigs	413
#Contigs (>= 0 bp)	413
#Contigs (>= 1000 bp)	227
Largest contig	81097
Total length	2792532
Total length (>= 0 bp)	2792532
Total length (>= 1000 bp)	2733848
Reference length	2813862
N50	18154
NG50	18154
N75	10671
NG75	10586
L50	48
LG50	48
L75	97
LG75	98
#local misassemblies	2
#misassemblies	30
#misassembled contigs	30
Misassembled contigs length	68053
Misassemblies inter-contig overlap	875
#unaligned contigs	1 + 27 part
Unaligned contigs length	1118
#ambiguously mapped contigs	9
Extra bases in ambiguously mapped contigs	-7982
#N's	46
#N's per 100 kbp	1.65
Genome fraction (%)	97.685
Duplication ratio	1.013
#genes	2535 + 143 part
#predicted genes (unique)	2996
#predicted genes (>= 0 bp)	2996
#predicted genes (>= 300 bp)	2361
#predicted genes (>= 1500 bp)	271
#predicted genes (>= 3000 bp)	23
#mismatches	131
#indels	518
Indels length	545
#mismatches per 100 kbp	4.77
#indels per 100 kbp	18.85
GC (%)	32.62
Reference GC (%)	32.81
Average %IDY	99.479
Largest alignment	81097
NA50	18154
NGA50	18154
NA75	10586
NGA75	10478
LA50	48
LGA50	48
LA75	97
LGA75	99
#Mis_misassemblies	30
#Mis_relocations	6
#Mis_translocations	0
#Mis_inversions	24
#Mis_misassembled contigs	30
Mis_Misassembled contigs length	68053
#Mis_local misassemblies	2
#Mis_short indels (<= 5 bp)	518
#Mis_long indels (> 5 bp)	0
#Una_fully unaligned contigs	1
Una_Fully unaligned length	351
#Una_partially unaligned contigs	27
#Una_with misassembly	0
#Una_both parts are significant	0
Una_Partially unaligned length	767
GAGE_Contigs #	413
GAGE_Min contig	200
GAGE_Max contig	81097
GAGE_N50	18154 COUNT: 48
GAGE_Genome size	2813862
GAGE_Assembly size	2792532
GAGE_Chaff bases	0
GAGE_Missing reference bases	21867(0.78%)
GAGE_Missing assembly bases	1440(0.05%)
GAGE_Missing assembly contigs	1(0.24%)
GAGE_Duplicated reference bases	28255
GAGE_Compressed reference bases	39823
GAGE_Bad trim	1089
GAGE_Avg idy	99.97
GAGE_SNPs	78
GAGE_Indels < 5bp	524
GAGE_Indels >= 5	4
GAGE_Inversions	0
GAGE_Relocation	2
GAGE_Translocation	0
GAGE_Corrected contig #	301
GAGE_Corrected assembly size	2764145
GAGE_Min correct contig	202
GAGE_Max correct contig	81104
GAGE_Corrected N50	18157 COUNT: 48
