calling: java -cp /vol/ngscomparison/software/analysis/quast-2.1/libs/gage:. SizeFasta /vol/codine-tmp/juene/tmp.p0W1dVNCol/quast/corrected_input/MRSA_COL_Plasmid.fasta |awk '{SUM+=; print SUM}'|tail -n 1
Contig Stats
Total units: 652
Reference: 2813862
BasesInFasta: 571671
Min: 449
Max: 4664
N10: 843 COUNT: 249
N25: 0 COUNT: 0
N50: 0 COUNT: 0
N75: 0 COUNT: 0
E-size:205.42

Genome Size: 2813862
Assembly Size: 571671
Chaff bases: 0
Missing Reference Bases: 2223207(79.01%)
Missing Assembly Bases: 3011(0.53%)
Missing Assembly Contigs: 3(0.46%)
Duplicated Reference Bases: 1122
Compressed Reference Bases: 41583
Bad Trim: 12
Avg Idy: 100.00
SNPs: 19
Indels < 5bp: 0
Indels >= 5: 0
Inversions: 0
Relocation: 1
Translocation: 0

Corrected Contig Stats
calling: java -cp /vol/ngscomparison/software/analysis/quast-2.1/libs/gage:.:. GetFastaStats -o -min 199 -genomeSize 2813862 /vol/codine-tmp/juene/tmp.p0W1dVNCol/quast/gage/tmp/VELVET_MIS_PE_mrsa_mis-1_bi_2x250bp_default__mrsa_mis-2_bi_2x250bp_default.0.460percent_225.final.contigs_broken.matches.lens 2> /dev/null
Total units: 648
Reference: 2813862
BasesInFasta: 567539
Min: 449
Max: 3990
N10: 841 COUNT: 251
N25: 0 COUNT: 0
N50: 0 COUNT: 0
N75: 0 COUNT: 0
E-size:201.87

Done
