Assembly	ABYSS_PE_PGM_sakai_pgm_mu_200bp_IO_TS3.0Disabled_stringent.0.34percent_98-unitigs
#Contigs (>= 0 bp)	4275
#Contigs (>= 1000 bp)	777
Total length (>= 0 bp)	5815103
Total length (>= 1000 bp)	5082885
#Contigs	1430
Largest contig	41943
Total length	5353412
Reference length	5594470
GC (%)	50.28
Reference GC (%)	50.48
N50	9300
NG50	8910
N75	4891
NG75	4258
#misassemblies	6
#local misassemblies	1
#unaligned contigs	0 + 1 part
Unaligned contigs length	30
Genome fraction (%)	93.874
Duplication ratio	1.004
#N's per 100 kbp	0.00
#mismatches per 100 kbp	1.45
#indels per 100 kbp	31.49
#genes	4334 + 800 part
#predicted genes (unique)	6702
#predicted genes (>= 0 bp)	6716
#predicted genes (>= 300 bp)	4972
#predicted genes (>= 1500 bp)	459
#predicted genes (>= 3000 bp)	24
Largest alignment	41943
NA50	9300
NGA50	8910
NA75	4891
NGA75	4258
