All statistics are based on contigs of size >= 200 bp, unless otherwise noted (e.g., "# contigs (>= 0 bp)" and "Total length (>= 0 bp)" include all contigs).

Assembly                                   ABYSS_PE_MIS_PE_mtbh37-1_mis_2x250bp_nextera_default__mtbh37-2_mis_2x250bp_nextera_default_86-scaffolds_broken  ABYSS_PE_MIS_PE_mtbh37-1_mis_2x250bp_nextera_default__mtbh37-2_mis_2x250bp_nextera_default_86-scaffolds
#Contigs                                   195                                                                                                             149                                                                                                    
#Contigs (>= 0 bp)                         256                                                                                                             210                                                                                                    
#Contigs (>= 1000 bp)                      168                                                                                                             123                                                                                                    
Largest contig                             162948                                                                                                          204567                                                                                                 
Total length                               4417600                                                                                                         4419534                                                                                                
Total length (>= 0 bp)                     4425400                                                                                                         4427334                                                                                                
Total length (>= 1000 bp)                  4405741                                                                                                         4408415                                                                                                
Reference length                           4411532                                                                                                         4411532                                                                                                
N50                                        57210                                                                                                           83840                                                                                                  
NG50                                       57210                                                                                                           83840                                                                                                  
N75                                        28940                                                                                                           43355                                                                                                  
NG75                                       28940                                                                                                           43355                                                                                                  
L50                                        27                                                                                                              17                                                                                                     
LG50                                       27                                                                                                              17                                                                                                     
L75                                        54                                                                                                              35                                                                                                     
LG75                                       54                                                                                                              35                                                                                                     
#local misassemblies                       18                                                                                                              26                                                                                                     
#misassemblies                             5                                                                                                               5                                                                                                      
#misassembled contigs                      4                                                                                                               4                                                                                                      
Misassembled contigs length                125139                                                                                                          125139                                                                                                 
Misassemblies inter-contig overlap         33427                                                                                                           67782                                                                                                  
#unaligned contigs                         0 + 1 part                                                                                                      0 + 1 part                                                                                             
Unaligned contigs length                   819                                                                                                             819                                                                                                    
#ambiguously mapped contigs                9                                                                                                               9                                                                                                      
Extra bases in ambiguously mapped contigs  -6369                                                                                                           -6369                                                                                                  
#N's                                       33                                                                                                              1967                                                                                                   
#N's per 100 kbp                           0.75                                                                                                            44.51                                                                                                  
Genome fraction (%)                        99.157                                                                                                          99.186                                                                                                 
Duplication ratio                          1.016                                                                                                           1.024                                                                                                  
#genes                                     3977 + 132 part                                                                                                 4015 + 94 part                                                                                         
#predicted genes (unique)                  4090                                                                                                            4079                                                                                                   
#predicted genes (>= 0 bp)                 4173                                                                                                            4161                                                                                                   
#predicted genes (>= 300 bp)               3657                                                                                                            3654                                                                                                   
#predicted genes (>= 1500 bp)              577                                                                                                             577                                                                                                    
#predicted genes (>= 3000 bp)              75                                                                                                              75                                                                                                     
#mismatches                                330                                                                                                             331                                                                                                    
#indels                                    82                                                                                                              273                                                                                                    
Indels length                              342                                                                                                             770                                                                                                    
#mismatches per 100 kbp                    7.54                                                                                                            7.56                                                                                                   
#indels per 100 kbp                        1.87                                                                                                            6.24                                                                                                   
GC (%)                                     65.53                                                                                                           65.53                                                                                                  
Reference GC (%)                           65.61                                                                                                           65.61                                                                                                  
Average %IDY                               99.738                                                                                                          99.739                                                                                                 
Largest alignment                          162948                                                                                                          204567                                                                                                 
NA50                                       55843                                                                                                           83173                                                                                                  
NGA50                                      55843                                                                                                           83173                                                                                                  
NA75                                       28940                                                                                                           40557                                                                                                  
NGA75                                      28940                                                                                                           40557                                                                                                  
LA50                                       28                                                                                                              18                                                                                                     
LGA50                                      28                                                                                                              18                                                                                                     
LA75                                       55                                                                                                              36                                                                                                     
LGA75                                      55                                                                                                              36                                                                                                     
#Mis_misassemblies                         5                                                                                                               5                                                                                                      
#Mis_relocations                           5                                                                                                               5                                                                                                      
#Mis_translocations                        0                                                                                                               0                                                                                                      
#Mis_inversions                            0                                                                                                               0                                                                                                      
#Mis_misassembled contigs                  4                                                                                                               4                                                                                                      
Mis_Misassembled contigs length            125139                                                                                                          125139                                                                                                 
#Mis_local misassemblies                   18                                                                                                              26                                                                                                     
#Mis_short indels (<= 5 bp)                72                                                                                                              248                                                                                                    
#Mis_long indels (> 5 bp)                  10                                                                                                              25                                                                                                     
#Una_fully unaligned contigs               0                                                                                                               0                                                                                                      
Una_Fully unaligned length                 0                                                                                                               0                                                                                                      
#Una_partially unaligned contigs           1                                                                                                               1                                                                                                      
#Una_with misassembly                      0                                                                                                               0                                                                                                      
#Una_both parts are significant            0                                                                                                               0                                                                                                      
Una_Partially unaligned length             819                                                                                                             819                                                                                                    
GAGE_Contigs #                             195                                                                                                             149                                                                                                    
GAGE_Min contig                            203                                                                                                             203                                                                                                    
GAGE_Max contig                            162948                                                                                                          204567                                                                                                 
GAGE_N50                                   57210 COUNT: 27                                                                                                 83840 COUNT: 17                                                                                        
GAGE_Genome size                           4411532                                                                                                         4411532                                                                                                
GAGE_Assembly size                         4417600                                                                                                         4419534                                                                                                
GAGE_Chaff bases                           0                                                                                                               0                                                                                                      
GAGE_Missing reference bases               28095(0.64%)                                                                                                    27634(0.63%)                                                                                           
GAGE_Missing assembly bases                909(0.02%)                                                                                                      2324(0.05%)                                                                                            
GAGE_Missing assembly contigs              0(0.00%)                                                                                                        0(0.00%)                                                                                               
GAGE_Duplicated reference bases            9005                                                                                                            9005                                                                                                   
GAGE_Compressed reference bases            17439                                                                                                           14882                                                                                                  
GAGE_Bad trim                              898                                                                                                             898                                                                                                    
GAGE_Avg idy                               99.99                                                                                                           99.97                                                                                                  
GAGE_SNPs                                  267                                                                                                             267                                                                                                    
GAGE_Indels < 5bp                          70                                                                                                              110                                                                                                    
GAGE_Indels >= 5                           26                                                                                                              56                                                                                                     
GAGE_Inversions                            0                                                                                                               0                                                                                                      
GAGE_Relocation                            1                                                                                                               1                                                                                                      
GAGE_Translocation                         0                                                                                                               0                                                                                                      
GAGE_Corrected contig #                    217                                                                                                             202                                                                                                    
GAGE_Corrected assembly size               4411360                                                                                                         4411971                                                                                                
GAGE_Min correct contig                    203                                                                                                             203                                                                                                    
GAGE_Max correct contig                    129270                                                                                                          204567                                                                                                 
GAGE_Corrected N50                         45812 COUNT: 33                                                                                                 52105 COUNT: 28                                                                                        
