Assembly	ABYSS_PE_MIS_PE_mtbh37-1_mis_2x250bp_nextera_default__mtbh37-2_mis_2x250bp_nextera_default_86-scaffolds_broken	ABYSS_PE_MIS_PE_mtbh37-1_mis_2x250bp_nextera_default__mtbh37-2_mis_2x250bp_nextera_default_86-scaffolds
GAGE_Contigs #	195	149
GAGE_Min contig	203	203
GAGE_Max contig	162948	204567
GAGE_N50	57210 COUNT: 27	83840 COUNT: 17
GAGE_Genome size	4411532	4411532
GAGE_Assembly size	4417600	4419534
GAGE_Chaff bases	0	0
GAGE_Missing reference bases	28095(0.64%)	27634(0.63%)
GAGE_Missing assembly bases	909(0.02%)	2324(0.05%)
GAGE_Missing assembly contigs	0(0.00%)	0(0.00%)
GAGE_Duplicated reference bases	9005	9005
GAGE_Compressed reference bases	17439	14882
GAGE_Bad trim	898	898
GAGE_Avg idy	99.99	99.97
GAGE_SNPs	267	267
GAGE_Indels < 5bp	70	110
GAGE_Indels >= 5	26	56
GAGE_Inversions	0	0
GAGE_Relocation	1	1
GAGE_Translocation	0	0
GAGE_Corrected contig #	217	202
GAGE_Corrected assembly size	4411360	4411971
GAGE_Min correct contig	203	203
GAGE_Max correct contig	129270	204567
GAGE_Corrected N50	45812 COUNT: 33	52105 COUNT: 28
