Assembly	VELVET_MIS_PE_mtbh37-1_mis_2x250bp_nextera_default__mtbh37-2_mis_2x250bp_nextera_default_133.final.contigs_broken	VELVET_MIS_PE_mtbh37-1_mis_2x250bp_nextera_default__mtbh37-2_mis_2x250bp_nextera_default_133.final.contigs
#Contigs (>= 0 bp)	360	192
#Contigs (>= 1000 bp)	314	161
Total length (>= 0 bp)	4282868	4307048
Total length (>= 1000 bp)	4256196	4290571
#Contigs	360	192
Largest contig	92960	149441
Total length	4282868	4307048
Reference length	4411532	4411532
GC (%)	65.47	65.47
Reference GC (%)	65.61	65.61
N50	22218	58697
NG50	21162	55121
N75	12072	26496
NG75	11719	24399
#misassemblies	6	13
#local misassemblies	10	155
#unaligned contigs	0 + 0 part	0 + 0 part
Unaligned contigs length	0	0
Genome fraction (%)	96.677	96.690
Duplication ratio	1.002	1.010
#N's per 100 kbp	0.00	561.41
#mismatches per 100 kbp	9.92	10.03
#indels per 100 kbp	1.13	8.09
#genes	3737 + 322 part	3753 + 306 part
#predicted genes (unique)	4161	4142
#predicted genes (>= 0 bp)	4171	4152
#predicted genes (>= 300 bp)	3592	3588
#predicted genes (>= 1500 bp)	541	543
#predicted genes (>= 3000 bp)	69	68
Largest alignment	92957	148471
NA50	22218	54656
NGA50	21162	49447
NA75	12067	24724
NGA75	11719	23101
