Assembly	#Contigs	#Contigs (>= 0 bp)	#Contigs (>= 1000 bp)	Largest contig	Total length	Total length (>= 0 bp)	Total length (>= 1000 bp)	Reference length	N50	NG50	N75	NG75	L50	LG50	L75	LG75	#local misassemblies	#misassemblies	#misassembled contigs	Misassembled contigs length	Misassemblies inter-contig overlap	#unaligned contigs	Unaligned contigs length	#ambiguously mapped contigs	Extra bases in ambiguously mapped contigs	#N's	#N's per 100 kbp	Genome fraction (%)	Duplication ratio	#genes	#predicted genes (unique)	#predicted genes (>= 0 bp)	#predicted genes (>= 300 bp)	#predicted genes (>= 1500 bp)	#predicted genes (>= 3000 bp)	#mismatches	#indels	Indels length	#mismatches per 100 kbp	#indels per 100 kbp	GC (%)	Reference GC (%)	Average %IDY	Largest alignment	NA50	NGA50	NA75	NGA75	LA50	LGA50	LA75	LGA75	#Mis_misassemblies	#Mis_relocations	#Mis_translocations	#Mis_inversions	#Mis_misassembled contigs	Mis_Misassembled contigs length	#Mis_local misassemblies	#Mis_short indels (<= 5 bp)	#Mis_long indels (> 5 bp)	#Una_fully unaligned contigs	Una_Fully unaligned length	#Una_partially unaligned contigs	#Una_with misassembly	#Una_both parts are significant	Una_Partially unaligned length	GAGE_Contigs #	GAGE_Min contig	GAGE_Max contig	GAGE_N50	GAGE_Genome size	GAGE_Assembly size	GAGE_Chaff bases	GAGE_Missing reference bases	GAGE_Missing assembly bases	GAGE_Missing assembly contigs	GAGE_Duplicated reference bases	GAGE_Compressed reference bases	GAGE_Bad trim	GAGE_Avg idy	GAGE_SNPs	GAGE_Indels < 5bp	GAGE_Indels >= 5	GAGE_Inversions	GAGE_Relocation	GAGE_Translocation	GAGE_Corrected contig #	GAGE_Corrected assembly size	GAGE_Min correct contig	GAGE_Max correct contig	GAGE_Corrected N50
ABYSS_PE_MIS_PE_sakai_mis-1_bi_2x150bp_default__sakai_mis-2_bi_2x150bp_default.0.826percent_46-scaffolds_broken	266	1346	187	290505	5428055	5527400	5383628	5594470	87541	85962	41316	38987	19	20	41	44	8	3	3	355887	21781	0 + 0 part	0	44	-44900	57	1.05	95.187	1.015	4992 + 168 part	5186	5296	4472	679	71	1054	60	155	19.79	1.13	50.38	50.48	99.109	251627	87541	85962	41207	37196	19	20	42	45	3	3	0	0	3	355887	8	55	5	0	0	0	0	0	0	266	201	290505	85962 COUNT: 20	5594470	5428055	0	84315(1.51%)	20(0.00%)	0(0.00%)	8202	217589	1	99.97	711	35	13	0	3	0	271	5422170	209	226872	79719 COUNT: 22
ABYSS_PE_MIS_PE_sakai_mis-1_bi_2x150bp_default__sakai_mis-2_bi_2x150bp_default.0.826percent_46-scaffolds	199	1274	155	375144	5435874	5534606	5410462	5594470	147240	127440	46750	44098	12	13	29	31	36	14	12	546328	21781	0 + 3 part	2629	20	-22730	7263	133.61	95.527	1.016	5021 + 163 part	5180	5290	4475	681	70	1130	271	508	21.14	5.07	50.38	50.48	99.055	353462	147240	127440	46750	43442	13	14	30	33	14	14	0	0	12	546328	36	257	14	0	0	3	0	3	2629	199	201	375144	127440 COUNT: 13	5594470	5435874	0	84784(1.52%)	6779(0.12%)	0(0.00%)	7999	215581	101	99.96	715	48	45	8	18	0	268	5423436	209	226872	79719 COUNT: 22
