calling: java -cp /vol/ngscomparison/software/analysis/quast-2.1/libs/gage:. SizeFasta /vol/codine-tmp/juene/tmp.ijfHzFzUEw/quast/corrected_input/MRSA_COL_Plasmid.fasta |awk '{SUM+=; print SUM}'|tail -n 1
Contig Stats
Total units: 658
Reference: 2813862
BasesInFasta: 2717648
Min: 200
Max: 26095
N10: 17164 COUNT: 14
N25: 12013 COUNT: 44
N50: 7107 COUNT: 123
N75: 3910 COUNT: 256
E-size:8371.75

Genome Size: 2813862
Assembly Size: 2717648
Chaff bases: 0
Missing Reference Bases: 67247(2.39%)
Missing Assembly Bases: 322(0.01%)
Missing Assembly Contigs: 0(0.00%)
Duplicated Reference Bases: 2269
Compressed Reference Bases: 32272
Bad Trim: 322
Avg Idy: 99.99
SNPs: 36
Indels < 5bp: 247
Indels >= 5: 4
Inversions: 5
Relocation: 1
Translocation: 0

Corrected Contig Stats
calling: java -cp /vol/ngscomparison/software/analysis/quast-2.1/libs/gage:.:. GetFastaStats -o -min 199 -genomeSize 2813862 /vol/codine-tmp/juene/tmp.ijfHzFzUEw/quast/gage/tmp/NEWBLER_PGM_mrsa_pgm_200bp_es_316_IonOnev2_ts3.0_morestringent.0.950percent.contigs.matches.lens 2> /dev/null
Total units: 649
Reference: 2813862
BasesInFasta: 2715407
Min: 200
Max: 26095
N10: 17165 COUNT: 14
N25: 11904 COUNT: 44
N50: 6984 COUNT: 124
N75: 3893 COUNT: 259
E-size:8312.39

Done
