All statistics are based on contigs of size >= 200 bp, unless otherwise noted (e.g., "# contigs (>= 0 bp)" and "Total length (>= 0 bp)" include all contigs).

Assembly                                   ABYSS_PE_MIS_PE_sakai_mis-1_bi_2x250bp_SI_default__sakai_mis-2_bi_2x250bp_SI_default.0.1percent_52.final_broken  ABYSS_PE_MIS_PE_sakai_mis-1_bi_2x250bp_SI_default__sakai_mis-2_bi_2x250bp_SI_default.0.1percent_52.final
#Contigs                                   1180                                                                                                             1180                                                                                                    
#Contigs (>= 0 bp)                         2451                                                                                                             2451                                                                                                    
#Contigs (>= 1000 bp)                      750                                                                                                              750                                                                                                     
Largest contig                             44712                                                                                                            44712                                                                                                   
Total length                               5247743                                                                                                          5247743                                                                                                 
Total length (>= 0 bp)                     5375251                                                                                                          5375251                                                                                                 
Total length (>= 1000 bp)                  5054534                                                                                                          5054534                                                                                                 
Reference length                           5594470                                                                                                          5594470                                                                                                 
N50                                        10037                                                                                                            10037                                                                                                   
NG50                                       9521                                                                                                             9521                                                                                                    
N75                                        5139                                                                                                             5139                                                                                                    
NG75                                       4464                                                                                                             4464                                                                                                    
L50                                        163                                                                                                              163                                                                                                     
LG50                                       181                                                                                                              181                                                                                                     
L75                                        343                                                                                                              343                                                                                                     
LG75                                       397                                                                                                              397                                                                                                     
#local misassemblies                       1                                                                                                                1                                                                                                       
#misassemblies                             3                                                                                                                3                                                                                                       
#misassembled contigs                      3                                                                                                                3                                                                                                       
Misassembled contigs length                31662                                                                                                            31662                                                                                                   
Misassemblies inter-contig overlap         259                                                                                                              259                                                                                                     
#unaligned contigs                         1 + 0 part                                                                                                       1 + 0 part                                                                                              
Unaligned contigs length                   5366                                                                                                             5366                                                                                                    
#ambiguously mapped contigs                116                                                                                                              116                                                                                                     
Extra bases in ambiguously mapped contigs  -84309                                                                                                           -84309                                                                                                  
#N's                                       0                                                                                                                0                                                                                                       
#N's per 100 kbp                           0.00                                                                                                             0.00                                                                                                    
Genome fraction (%)                        92.077                                                                                                           92.077                                                                                                  
Duplication ratio                          1.001                                                                                                            1.001                                                                                                   
#genes                                     4243 + 748 part                                                                                                  4243 + 748 part                                                                                         
#predicted genes (unique)                  5727                                                                                                             5727                                                                                                    
#predicted genes (>= 0 bp)                 5728                                                                                                             5728                                                                                                    
#predicted genes (>= 300 bp)               4552                                                                                                             4552                                                                                                    
#predicted genes (>= 1500 bp)              588                                                                                                              588                                                                                                     
#predicted genes (>= 3000 bp)              51                                                                                                               51                                                                                                      
#mismatches                                243                                                                                                              243                                                                                                     
#indels                                    14                                                                                                               14                                                                                                      
Indels length                              14                                                                                                               14                                                                                                      
#mismatches per 100 kbp                    4.72                                                                                                             4.72                                                                                                    
#indels per 100 kbp                        0.27                                                                                                             0.27                                                                                                    
GC (%)                                     50.28                                                                                                            50.28                                                                                                   
Reference GC (%)                           50.48                                                                                                            50.48                                                                                                   
Average %IDY                               99.859                                                                                                           99.859                                                                                                  
Largest alignment                          44712                                                                                                            44712                                                                                                   
NA50                                       10037                                                                                                            10037                                                                                                   
NGA50                                      9450                                                                                                             9450                                                                                                    
NA75                                       5058                                                                                                             5058                                                                                                    
NGA75                                      4406                                                                                                             4406                                                                                                    
LA50                                       163                                                                                                              163                                                                                                     
LGA50                                      181                                                                                                              181                                                                                                     
LA75                                       345                                                                                                              345                                                                                                     
LGA75                                      400                                                                                                              400                                                                                                     
#Mis_misassemblies                         3                                                                                                                3                                                                                                       
#Mis_relocations                           3                                                                                                                3                                                                                                       
#Mis_translocations                        0                                                                                                                0                                                                                                       
#Mis_inversions                            0                                                                                                                0                                                                                                       
#Mis_misassembled contigs                  3                                                                                                                3                                                                                                       
Mis_Misassembled contigs length            31662                                                                                                            31662                                                                                                   
#Mis_local misassemblies                   1                                                                                                                1                                                                                                       
#Mis_short indels (<= 5 bp)                14                                                                                                               14                                                                                                      
#Mis_long indels (> 5 bp)                  0                                                                                                                0                                                                                                       
#Una_fully unaligned contigs               1                                                                                                                1                                                                                                       
Una_Fully unaligned length                 5366                                                                                                             5366                                                                                                    
#Una_partially unaligned contigs           0                                                                                                                0                                                                                                       
#Una_with misassembly                      0                                                                                                                0                                                                                                       
#Una_both parts are significant            0                                                                                                                0                                                                                                       
Una_Partially unaligned length             0                                                                                                                0                                                                                                       
GAGE_Contigs #                             1180                                                                                                             1180                                                                                                    
GAGE_Min contig                            201                                                                                                              201                                                                                                     
GAGE_Max contig                            44712                                                                                                            44712                                                                                                   
GAGE_N50                                   9521 COUNT: 181                                                                                                  9521 COUNT: 181                                                                                         
GAGE_Genome size                           5594470                                                                                                          5594470                                                                                                 
GAGE_Assembly size                         5247743                                                                                                          5247743                                                                                                 
GAGE_Chaff bases                           0                                                                                                                0                                                                                                       
GAGE_Missing reference bases               160015(2.86%)                                                                                                    160015(2.86%)                                                                                           
GAGE_Missing assembly bases                5369(0.10%)                                                                                                      5369(0.10%)                                                                                             
GAGE_Missing assembly contigs              1(0.08%)                                                                                                         1(0.08%)                                                                                                
GAGE_Duplicated reference bases            405                                                                                                              405                                                                                                     
GAGE_Compressed reference bases            214585                                                                                                           214585                                                                                                  
GAGE_Bad trim                              3                                                                                                                3                                                                                                       
GAGE_Avg idy                               99.99                                                                                                            99.99                                                                                                   
GAGE_SNPs                                  331                                                                                                              331                                                                                                     
GAGE_Indels < 5bp                          15                                                                                                               15                                                                                                      
GAGE_Indels >= 5                           1                                                                                                                1                                                                                                       
GAGE_Inversions                            1                                                                                                                1                                                                                                       
GAGE_Relocation                            2                                                                                                                2                                                                                                       
GAGE_Translocation                         0                                                                                                                0                                                                                                       
GAGE_Corrected contig #                    1181                                                                                                             1181                                                                                                    
GAGE_Corrected assembly size               5242227                                                                                                          5242227                                                                                                 
GAGE_Min correct contig                    201                                                                                                              201                                                                                                     
GAGE_Max correct contig                    44712                                                                                                            44712                                                                                                   
GAGE_Corrected N50                         9396 COUNT: 181                                                                                                  9396 COUNT: 181                                                                                         
