Assembly	VELVET_MIS_PE_sakai_mis-both_bi_2x250bp_SI_default.0.64percent_133.final.contigs_broken	VELVET_MIS_PE_sakai_mis-both_bi_2x250bp_SI_default.0.64percent_133.final.contigs
#Contigs (>= 0 bp)	559	429
#Contigs (>= 1000 bp)	291	193
Total length (>= 0 bp)	5445884	5460430
Total length (>= 1000 bp)	5329660	5360557
#Contigs	556	429
Largest contig	127811	163506
Total length	5445446	5460430
Reference length	5594470	5594470
GC (%)	50.35	50.35
Reference GC (%)	50.48	50.48
N50	33402	67596
NG50	33202	61896
N75	17900	35581
NG75	17055	33329
#misassemblies	5	14
#local misassemblies	3	105
#unaligned contigs	1 + 0 part	1 + 0 part
Unaligned contigs length	5385	5385
Genome fraction (%)	95.217	95.386
Duplication ratio	1.001	1.004
#N's per 100 kbp	0.00	266.39
#mismatches per 100 kbp	2.29	3.43
#indels per 100 kbp	0.36	1.87
#genes	4938 + 296 part	4957 + 290 part
#predicted genes (unique)	5585	5561
#predicted genes (>= 0 bp)	5602	5579
#predicted genes (>= 300 bp)	4596	4592
#predicted genes (>= 1500 bp)	653	655
#predicted genes (>= 3000 bp)	64	64
Largest alignment	127811	163326
NA50	33329	61129
NGA50	33124	59946
NA75	17861	34176
NGA75	16861	32978
