Assembly	GAGE_Contigs #	GAGE_Min contig	GAGE_Max contig	GAGE_N50	GAGE_Genome size	GAGE_Assembly size	GAGE_Chaff bases	GAGE_Missing reference bases	GAGE_Missing assembly bases	GAGE_Missing assembly contigs	GAGE_Duplicated reference bases	GAGE_Compressed reference bases	GAGE_Bad trim	GAGE_Avg idy	GAGE_SNPs	GAGE_Indels < 5bp	GAGE_Indels >= 5	GAGE_Inversions	GAGE_Relocation	GAGE_Translocation	GAGE_Corrected contig #	GAGE_Corrected assembly size	GAGE_Min correct contig	GAGE_Max correct contig	GAGE_Corrected N50
ABYSS_PE_MIS_PE_mrsa_mis-1_bi_2x150bp_default__mrsa_mis-2_bi_2x150bp_default.0.527percent_58-scaffolds_broken	85	200	208040	87369 COUNT: 11	2813862	2785761	0	7019(0.25%)	5(0.00%)	0(0.00%)	230	38594	0	99.98	127	14	11	0	2	0	95	2786811	200	208040	68544 COUNT: 13
ABYSS_PE_MIS_PE_mrsa_mis-1_bi_2x150bp_default__mrsa_mis-2_bi_2x150bp_default.0.527percent_58-scaffolds	61	200	229682	139117 COUNT: 9	2813862	2787028	0	6674(0.24%)	1122(0.04%)	0(0.00%)	230	38695	50	99.98	127	23	19	0	7	0	92	2786958	200	208040	68544 COUNT: 13
