All statistics are based on contigs of size >= 200 bp, unless otherwise noted (e.g., "# contigs (>= 0 bp)" and "Total length (>= 0 bp)" include all contigs).

Assembly                                                                                                       #Contigs (>= 0 bp)  #Contigs (>= 1000 bp)  Total length (>= 0 bp)  Total length (>= 1000 bp)  #Contigs  Largest contig  Total length  Reference length  GC (%)  Reference GC (%)  N50     NG50    N75    NG75   #misassemblies  #local misassemblies  #unaligned contigs  Unaligned contigs length  Genome fraction (%)  Duplication ratio  #N's per 100 kbp  #mismatches per 100 kbp  #indels per 100 kbp  #genes          #predicted genes (unique)  #predicted genes (>= 0 bp)  #predicted genes (>= 300 bp)  #predicted genes (>= 1500 bp)  #predicted genes (>= 3000 bp)  Largest alignment  NA50    NGA50   NA75   NGA75
ABYSS_PE_MIS_PE_mrsa_mis-1_bi_2x150bp_default__mrsa_mis-2_bi_2x150bp_default.0.527percent_58-scaffolds_broken  309                 65                     2809104                 2776847                    85        208040          2785761       2813862           32.67   32.81             87369   87369   40152  38024  2               7                     0 + 0 part          0                         98.429               1.005              0.36              9.10                     0.61                 2638 + 37 part  2642                       2656                        2292                          301                            28                             208040             87369   87369   40152  38024
ABYSS_PE_MIS_PE_mrsa_mis-1_bi_2x150bp_default__mrsa_mis-2_bi_2x150bp_default.0.527percent_58-scaffolds         285                 49                     2810371                 2781013                    61        229682          2787028       2813862           32.67   32.81             139117  139117  60010  55995  7               17                    0 + 0 part          0                         98.719               1.004              45.82             9.25                     3.60                 2639 + 35 part  2635                       2649                        2291                          302                            28                             229632             139117  139117  55995  55995
