1: PREPARING DATA
2,3: RUNNING mummer AND CREATING CLUSTERS
# reading input file "/vol/codine-tmp/juene/tmp.nXeURW1H7D/quast/gage/tmp/ABYSS_PE_MIS_PE_sakai_mis-1_bi_2x150bp_default__sakai_mis-2_bi_2x150bp_default.0.826percent_92-scaffolds.ntref" of length 5594473
# construct suffix tree for sequence of length 5594473
# (maximum reference length is 536870908)
# (maximum query length is 4294967295)
# process 55944 characters per dot
#....................................................................................................
# CONSTRUCTIONTIME /vol/ngscomparison/software/analysis/quast-2.1/libs/MUMmer3.23-linux/mummer /vol/codine-tmp/juene/tmp.nXeURW1H7D/quast/gage/tmp/ABYSS_PE_MIS_PE_sakai_mis-1_bi_2x150bp_default__sakai_mis-2_bi_2x150bp_default.0.826percent_92-scaffolds.ntref 3.67
# reading input file "/vol/codine-tmp/juene/tmp.nXeURW1H7D/quast/corrected_input/ABYSS_PE_MIS_PE_sakai_mis-1_bi_2x150bp_default__sakai_mis-2_bi_2x150bp_default.0.826percent_92-scaffolds" of length 5601617
# matching query-file "/vol/codine-tmp/juene/tmp.nXeURW1H7D/quast/corrected_input/ABYSS_PE_MIS_PE_sakai_mis-1_bi_2x150bp_default__sakai_mis-2_bi_2x150bp_default.0.826percent_92-scaffolds"
# against subject-file "/vol/codine-tmp/juene/tmp.nXeURW1H7D/quast/gage/tmp/ABYSS_PE_MIS_PE_sakai_mis-1_bi_2x150bp_default__sakai_mis-2_bi_2x150bp_default.0.826percent_92-scaffolds.ntref"
# COMPLETETIME /vol/ngscomparison/software/analysis/quast-2.1/libs/MUMmer3.23-linux/mummer /vol/codine-tmp/juene/tmp.nXeURW1H7D/quast/gage/tmp/ABYSS_PE_MIS_PE_sakai_mis-1_bi_2x150bp_default__sakai_mis-2_bi_2x150bp_default.0.826percent_92-scaffolds.ntref 9.37
# SPACE /vol/ngscomparison/software/analysis/quast-2.1/libs/MUMmer3.23-linux/mummer /vol/codine-tmp/juene/tmp.nXeURW1H7D/quast/gage/tmp/ABYSS_PE_MIS_PE_sakai_mis-1_bi_2x150bp_default__sakai_mis-2_bi_2x150bp_default.0.826percent_92-scaffolds.ntref 10.86
4: FINISHING DATA
Filtering alignments
Extracting alignment coordinates
Analyzing SNPs
Extracting alignment breakpoints
Generating report file
Found genome size at position 4 with value 5594470 aka 5594470
Calculating point at 0 and the sum is 1078420 and i is268 and lens is 274 and length is 148423
Calculating point at 1 and the sum is 2015411 and i is261 and lens is 274 and length is 122008
Calculating point at 2 and the sum is 3052797 and i is251 and lens is 274 and length is 88542
Calculating point at 3 and the sum is 4019564 and i is236 and lens is 274 and length is 48006
Calculating point at 4 and the sum is 5013275 and i is203 and lens is 274 and length is 16636
