Assembly	NEWBLER_PGM_sakai_pgm_mu_200bp_IO_TS3.0Disabled_stringent.0.925percent.contigs
#Contigs (>= 0 bp)	629
#Contigs (>= 1000 bp)	240
Total length (>= 0 bp)	5331739
Total length (>= 1000 bp)	5217987
#Contigs	451
Largest contig	169129
Total length	5307960
Reference length	5594470
GC (%)	50.27
Reference GC (%)	50.48
N50	44594
NG50	42380
N75	23146
NG75	21251
#misassemblies	12
#local misassemblies	2
#unaligned contigs	0 + 1 part
Unaligned contigs length	53
Genome fraction (%)	93.317
Duplication ratio	1.000
#N's per 100 kbp	0.00
#mismatches per 100 kbp	1.23
#indels per 100 kbp	16.22
#genes	4832 + 249 part
#predicted genes (unique)	5728
#predicted genes (>= 0 bp)	5728
#predicted genes (>= 300 bp)	4658
#predicted genes (>= 1500 bp)	563
#predicted genes (>= 3000 bp)	49
Largest alignment	169129
NA50	43335
NGA50	40156
NA75	22818
NGA75	20363
