calling: java -cp /vol/ngscomparison/software/analysis/quast-2.1/libs/gage:. SizeFasta /vol/codine-tmp/juene/tmp.FTTBlLxXPs/quast/corrected_input/MRSA_COL_Plasmid.fasta |awk '{SUM+=; print SUM}'|tail -n 1
Contig Stats
Total units: 254
Reference: 2813862
BasesInFasta: 2784785
Min: 206
Max: 78063
N10: 52257 COUNT: 5
N25: 39979 COUNT: 14
N50: 24897 COUNT: 37
N75: 13257 COUNT: 75
E-size:28132.47

Genome Size: 2813862
Assembly Size: 2784785
Chaff bases: 0
Missing Reference Bases: 24678(0.88%)
Missing Assembly Bases: 9755(0.35%)
Missing Assembly Contigs: 9(3.54%)
Duplicated Reference Bases: 1676
Compressed Reference Bases: 27058
Bad Trim: 111
Avg Idy: 99.99
SNPs: 61
Indels < 5bp: 36
Indels >= 5: 63
Inversions: 1
Relocation: 3
Translocation: 0

Corrected Contig Stats
calling: java -cp /vol/ngscomparison/software/analysis/quast-2.1/libs/gage:.:. GetFastaStats -o -min 199 -genomeSize 2813862 /vol/codine-tmp/juene/tmp.FTTBlLxXPs/quast/gage/tmp/SOAP2_MIS_PE_mrsa_mis-1_bi_2x250bp_default.0.460percent_91.final.scaf.matches.lens 2> /dev/null
Total units: 312
Reference: 2813862
BasesInFasta: 2772350
Min: 202
Max: 71692
N10: 46536 COUNT: 5
N25: 33696 COUNT: 17
N50: 21579 COUNT: 43
N75: 10517 COUNT: 89
E-size:23579.06

Done
