Assembly	CLC_MIS_PE_mrsa_mis-1_bi_2x150bp_default__mrsa_mis-2_bi_2x150bp_default.0.400percent.result_broken	CLC_MIS_PE_mrsa_mis-1_bi_2x150bp_default__mrsa_mis-2_bi_2x150bp_default.0.400percent.result
#Contigs	54	51
#Contigs (>= 0 bp)	54	51
#Contigs (>= 1000 bp)	45	42
Largest contig	326523	456750
Total length	2778572	2778659
Total length (>= 0 bp)	2778572	2778659
Total length (>= 1000 bp)	2773472	2773559
Reference length	2813862	2813862
N50	144947	148211
NG50	144947	148211
N75	68245	68245
NG75	68245	68245
L50	7	6
LG50	7	6
L75	15	13
LG75	15	13
#local misassemblies	6	9
#misassemblies	2	2
#misassembled contigs	2	2
Misassembled contigs length	162128	162128
Misassemblies inter-contig overlap	1646	1646
#unaligned contigs	1 + 0 part	1 + 0 part
Unaligned contigs length	5386	5386
#ambiguously mapped contigs	5	5
Extra bases in ambiguously mapped contigs	-7411	-7411
#N's	51	138
#N's per 100 kbp	1.84	4.97
Genome fraction (%)	98.300	98.317
Duplication ratio	1.001	1.000
#genes	2678 + 23 part	2678 + 23 part
#predicted genes (unique)	2629	2629
#predicted genes (>= 0 bp)	2629	2629
#predicted genes (>= 300 bp)	2291	2291
#predicted genes (>= 1500 bp)	299	299
#predicted genes (>= 3000 bp)	30	30
#mismatches	114	117
#indels	32	33
Indels length	107	134
#mismatches per 100 kbp	4.12	4.23
#indels per 100 kbp	1.16	1.19
GC (%)	32.67	32.67
Reference GC (%)	32.81	32.81
Average %IDY	98.690	98.686
Largest alignment	326523	456750
NA50	112423	144947
NGA50	112423	112912
NA75	61215	61215
NGA75	61215	61215
LA50	8	6
LGA50	8	7
LA75	16	14
LGA75	16	14
#Mis_misassemblies	2	2
#Mis_relocations	2	2
#Mis_translocations	0	0
#Mis_inversions	0	0
#Mis_misassembled contigs	2	2
Mis_Misassembled contigs length	162128	162128
#Mis_local misassemblies	6	9
#Mis_short indels (<= 5 bp)	30	30
#Mis_long indels (> 5 bp)	2	3
#Una_fully unaligned contigs	1	1
Una_Fully unaligned length	5386	5386
#Una_partially unaligned contigs	0	0
#Una_with misassembly	0	0
#Una_both parts are significant	0	0
Una_Partially unaligned length	0	0
GAGE_Contigs #	54	51
GAGE_Min contig	219	219
GAGE_Max contig	326523	456750
GAGE_N50	144947 COUNT: 7	148211 COUNT: 6
GAGE_Genome size	2813862	2813862
GAGE_Assembly size	2778572	2778659
GAGE_Chaff bases	0	0
GAGE_Missing reference bases	6772(0.24%)	6772(0.24%)
GAGE_Missing assembly bases	5470(0.20%)	5557(0.20%)
GAGE_Missing assembly contigs	1(1.85%)	1(1.96%)
GAGE_Duplicated reference bases	0	0
GAGE_Compressed reference bases	36256	36256
GAGE_Bad trim	74	74
GAGE_Avg idy	99.99	99.99
GAGE_SNPs	45	45
GAGE_Indels < 5bp	13	13
GAGE_Indels >= 5	8	10
GAGE_Inversions	0	0
GAGE_Relocation	3	4
GAGE_Translocation	0	0
GAGE_Corrected contig #	65	65
GAGE_Corrected assembly size	2774387	2774387
GAGE_Min correct contig	219	219
GAGE_Max correct contig	326524	326524
GAGE_Corrected N50	97479 COUNT: 9	97479 COUNT: 9
