Assembly	GAGE_Contigs #	GAGE_Min contig	GAGE_Max contig	GAGE_N50	GAGE_Genome size	GAGE_Assembly size	GAGE_Chaff bases	GAGE_Missing reference bases	GAGE_Missing assembly bases	GAGE_Missing assembly contigs	GAGE_Duplicated reference bases	GAGE_Compressed reference bases	GAGE_Bad trim	GAGE_Avg idy	GAGE_SNPs	GAGE_Indels < 5bp	GAGE_Indels >= 5	GAGE_Inversions	GAGE_Relocation	GAGE_Translocation	GAGE_Corrected contig #	GAGE_Corrected assembly size	GAGE_Min correct contig	GAGE_Max correct contig	GAGE_Corrected N50
ABYSS_PE_MIS_PE_sakai_mis-1_bi_2x150bp_default__sakai_mis-2_bi_2x150bp_default.96coverage_70.final_broken	261	200	292298	100150 COUNT: 19	5594470	5494217	0	32112(0.57%)	209(0.00%)	0(0.00%)	18551	206758	190	99.97	527	33	8	1	3	0	248	5480360	202	228653	98911 COUNT: 20
ABYSS_PE_MIS_PE_sakai_mis-1_bi_2x150bp_default__sakai_mis-2_bi_2x150bp_default.96coverage_70.final	201	200	376744	147181 COUNT: 13	5594470	5497631	0	32014(0.57%)	3261(0.06%)	0(0.00%)	18551	207240	600	99.97	527	35	26	10	15	0	245	5480720	202	245373	100151 COUNT: 19
