Assembly	SOAP2_MIS_PE_sakai_mis-1_bi_2x250bp_SI_default.0.64percent_115.final.scaf_broken	SOAP2_MIS_PE_sakai_mis-1_bi_2x250bp_SI_default.0.64percent_115.final.scaf
#Contigs (>= 0 bp)	3440	2779
#Contigs (>= 1000 bp)	665	280
Total length (>= 0 bp)	5809192	5840244
Total length (>= 1000 bp)	5153823	5288140
#Contigs	2639	2028
Largest contig	43554	180063
Total length	5690650	5729582
Reference length	5594470	5594470
GC (%)	50.46	50.46
Reference GC (%)	50.48	50.48
N50	11457	40139
NG50	11710	41400
N75	5193	18515
NG75	5427	20301
#misassemblies	11	28
#local misassemblies	35	494
#unaligned contigs	10 + 1 part	23 + 13 part
Unaligned contigs length	8322	31978
Genome fraction (%)	94.763	94.764
Duplication ratio	1.041	1.049
#N's per 100 kbp	3.97	545.90
#mismatches per 100 kbp	7.51	9.51
#indels per 100 kbp	1.11	20.79
#genes	4420 + 774 part	4462 + 710 part
#predicted genes (unique)	7314	7138
#predicted genes (>= 0 bp)	7394	7215
#predicted genes (>= 300 bp)	4681	4655
#predicted genes (>= 1500 bp)	584	605
#predicted genes (>= 3000 bp)	48	50
Largest alignment	43554	179031
NA50	11420	39187
NGA50	11589	40098
NA75	5192	17692
NGA75	5412	19541
