All statistics are based on contigs of size >= 200 bp, unless otherwise noted (e.g., "# contigs (>= 0 bp)" and "Total length (>= 0 bp)" include all contigs).

Assembly                                                                                                          GAGE_Contigs #  GAGE_Min contig  GAGE_Max contig  GAGE_N50          GAGE_Genome size  GAGE_Assembly size  GAGE_Chaff bases  GAGE_Missing reference bases  GAGE_Missing assembly bases  GAGE_Missing assembly contigs  GAGE_Duplicated reference bases  GAGE_Compressed reference bases  GAGE_Bad trim  GAGE_Avg idy  GAGE_SNPs  GAGE_Indels < 5bp  GAGE_Indels >= 5  GAGE_Inversions  GAGE_Relocation  GAGE_Translocation  GAGE_Corrected contig #  GAGE_Corrected assembly size  GAGE_Min correct contig  GAGE_Max correct contig  GAGE_Corrected N50
ABYSS_PE_MIS_PE_sakai_mis-1_bi_2x150bp_default__sakai_mis-2_bi_2x150bp_default.0.826percent_126-scaffolds_broken  739             200              70524            16496 COUNT: 100  5594470           5618622             0                 30199(0.54%)                  5576(0.10%)                  1(0.14%)                       89305                            190962                           1              99.98         429        293                53                1                3                1                   735                      5530158                       200                      70521                    14429 COUNT: 113  
ABYSS_PE_MIS_PE_sakai_mis-1_bi_2x150bp_default__sakai_mis-2_bi_2x150bp_default.0.826percent_126-scaffolds         540             200              89487            26947 COUNT: 66   5594470           5630645             0                 29993(0.54%)                  17336(0.31%)                 1(0.19%)                       87350                            190696                           301            99.98         429        325                220               4                11               2                   727                      5532364                       200                      70521                    14570 COUNT: 111  
