All statistics are based on contigs of size >= 200 bp, unless otherwise noted (e.g., "# contigs (>= 0 bp)" and "Total length (>= 0 bp)" include all contigs).

Assembly                         ABYSS_PE_MIS_PE_sakai_mis-1_bi_2x150bp_default__sakai_mis-2_bi_2x150bp_default.0.826percent_126-scaffolds_broken  ABYSS_PE_MIS_PE_sakai_mis-1_bi_2x150bp_default__sakai_mis-2_bi_2x150bp_default.0.826percent_126-scaffolds
GAGE_Contigs #                   739                                                                                                               540                                                                                                      
GAGE_Min contig                  200                                                                                                               200                                                                                                      
GAGE_Max contig                  70524                                                                                                             89487                                                                                                    
GAGE_N50                         16496 COUNT: 100                                                                                                  26947 COUNT: 66                                                                                          
GAGE_Genome size                 5594470                                                                                                           5594470                                                                                                  
GAGE_Assembly size               5618622                                                                                                           5630645                                                                                                  
GAGE_Chaff bases                 0                                                                                                                 0                                                                                                        
GAGE_Missing reference bases     30199(0.54%)                                                                                                      29993(0.54%)                                                                                             
GAGE_Missing assembly bases      5576(0.10%)                                                                                                       17336(0.31%)                                                                                             
GAGE_Missing assembly contigs    1(0.14%)                                                                                                          1(0.19%)                                                                                                 
GAGE_Duplicated reference bases  89305                                                                                                             87350                                                                                                    
GAGE_Compressed reference bases  190962                                                                                                            190696                                                                                                   
GAGE_Bad trim                    1                                                                                                                 301                                                                                                      
GAGE_Avg idy                     99.98                                                                                                             99.98                                                                                                    
GAGE_SNPs                        429                                                                                                               429                                                                                                      
GAGE_Indels < 5bp                293                                                                                                               325                                                                                                      
GAGE_Indels >= 5                 53                                                                                                                220                                                                                                      
GAGE_Inversions                  1                                                                                                                 4                                                                                                        
GAGE_Relocation                  3                                                                                                                 11                                                                                                       
GAGE_Translocation               1                                                                                                                 2                                                                                                        
GAGE_Corrected contig #          735                                                                                                               727                                                                                                      
GAGE_Corrected assembly size     5530158                                                                                                           5532364                                                                                                  
GAGE_Min correct contig          200                                                                                                               200                                                                                                      
GAGE_Max correct contig          70521                                                                                                             70521                                                                                                    
GAGE_Corrected N50               14429 COUNT: 113                                                                                                  14570 COUNT: 111                                                                                         
