Assembly	#Contigs	#Contigs (>= 0 bp)	#Contigs (>= 1000 bp)	Largest contig	Total length	Total length (>= 0 bp)	Total length (>= 1000 bp)	Reference length	N50	NG50	N75	NG75	L50	LG50	L75	LG75	#local misassemblies	#misassemblies	#misassembled contigs	Misassembled contigs length	Misassemblies inter-contig overlap	#unaligned contigs	Unaligned contigs length	#ambiguously mapped contigs	Extra bases in ambiguously mapped contigs	#N's	#N's per 100 kbp	Genome fraction (%)	Duplication ratio	#genes	#predicted genes (unique)	#predicted genes (>= 0 bp)	#predicted genes (>= 300 bp)	#predicted genes (>= 1500 bp)	#predicted genes (>= 3000 bp)	#mismatches	#indels	Indels length	#mismatches per 100 kbp	#indels per 100 kbp	GC (%)	Reference GC (%)	Average %IDY	Largest alignment	NA50	NGA50	NA75	NGA75	LA50	LGA50	LA75	LGA75	#Mis_misassemblies	#Mis_relocations	#Mis_translocations	#Mis_inversions	#Mis_misassembled contigs	Mis_Misassembled contigs length	#Mis_local misassemblies	#Mis_short indels (<= 5 bp)	#Mis_long indels (> 5 bp)	#Una_fully unaligned contigs	Una_Fully unaligned length	#Una_partially unaligned contigs	#Una_with misassembly	#Una_both parts are significant	Una_Partially unaligned length	GAGE_Contigs #	GAGE_Min contig	GAGE_Max contig	GAGE_N50	GAGE_Genome size	GAGE_Assembly size	GAGE_Chaff bases	GAGE_Missing reference bases	GAGE_Missing assembly bases	GAGE_Missing assembly contigs	GAGE_Duplicated reference bases	GAGE_Compressed reference bases	GAGE_Bad trim	GAGE_Avg idy	GAGE_SNPs	GAGE_Indels < 5bp	GAGE_Indels >= 5	GAGE_Inversions	GAGE_Relocation	GAGE_Translocation	GAGE_Corrected contig #	GAGE_Corrected assembly size	GAGE_Min correct contig	GAGE_Max correct contig	GAGE_Corrected N50
ABYSS_PE_MIS_PE_mrsa_mis-1_bi_2x250bp_default__mrsa_mis-2_bi_2x250bp_default.21coverage_44.final_broken	429	1128	303	73966	2740278	2796812	2676994	2813862	14202	14075	7664	7302	57	59	122	129	0	2	2	10223	0	1 + 0 part	5416	9	-9152	2	0.07	96.776	1.001	2388 + 239 part	2800	2800	2320	285	24	73	7	49	2.68	0.26	32.67	32.81	99.930	73966	14202	14075	7629	7283	57	59	122	130	2	2	0	0	2	10223	0	6	1	1	5416	0	0	0	0	429	200	73966	14075 COUNT: 59	2813862	2740278	0	48243(1.71%)	5417(0.20%)	1(0.23%)	0	35389	0	100.00	78	7	1	0	2	0	431	2734864	200	73966	14075 COUNT: 59
ABYSS_PE_MIS_PE_mrsa_mis-1_bi_2x250bp_default__mrsa_mis-2_bi_2x250bp_default.21coverage_44.final	424	1122	303	73966	2740659	2797086	2680909	2813862	14202	14075	7664	7302	57	59	122	129	0	2	2	13609	0	1 + 0 part	5416	8	-9332	276	10.07	96.758	1.001	2389 + 238 part	2799	2799	2320	285	24	73	9	79	2.68	0.33	32.67	32.81	99.871	73966	14202	14075	7629	7283	57	59	122	130	2	2	0	0	2	13609	0	7	2	1	5416	0	0	0	0	424	200	73966	14075 COUNT: 59	2813862	2740659	0	47636(1.69%)	6185(0.23%)	1(0.24%)	0	36411	0	99.99	78	11	2	0	2	0	427	2734481	200	73966	14075 COUNT: 59
