Assembly	ABYSS_PE_PGM_sakai_pgm_mu_200bp_IO_TS3.0Disabled_stringent.0.34percent_92-unitigs
#Mis_misassemblies	5
#Mis_relocations	3
#Mis_translocations	0
#Mis_inversions	2
#Mis_misassembled contigs	5
Mis_Misassembled contigs length	35578
#Mis_local misassemblies	4
#mismatches	77
#indels	1572
#Mis_short indels (<= 5 bp)	1570
#Mis_long indels (> 5 bp)	2
Indels length	1671
