calling: java -cp /vol/ngscomparison/software/analysis/quast-2.1/libs/gage:. SizeFasta /vol/codine-tmp/juene/tmp.WyfptWbmNg/quast/corrected_input/MRSA_COL_Plasmid.fasta |awk '{SUM+=; print SUM}'|tail -n 1
Contig Stats
Total units: 75
Reference: 2813862
BasesInFasta: 2789186
Min: 201
Max: 498738
N10: 498738 COUNT: 1
N25: 159344 COUNT: 3
N50: 116326 COUNT: 8
N75: 48682 COUNT: 16
E-size:165335.43

Genome Size: 2813862
Assembly Size: 2789186
Chaff bases: 0
Missing Reference Bases: 1806(0.06%)
Missing Assembly Bases: 5207(0.19%)
Missing Assembly Contigs: 1(1.33%)
Duplicated Reference Bases: 501
Compressed Reference Bases: 35572
Bad Trim: 10
Avg Idy: 99.99
SNPs: 43
Indels < 5bp: 15
Indels >= 5: 2
Inversions: 0
Relocation: 2
Translocation: 0

Corrected Contig Stats
calling: java -cp /vol/ngscomparison/software/analysis/quast-2.1/libs/gage:.:. GetFastaStats -o -min 199 -genomeSize 2813862 /vol/codine-tmp/juene/tmp.WyfptWbmNg/quast/gage/tmp/VELVET_MIS_PE_mrsa_mis-1_bi_2x250bp_default__mrsa_mis-2_bi_2x250bp_default.0.460percent_97.final.contigs_broken.matches.lens 2> /dev/null
Total units: 76
Reference: 2813862
BasesInFasta: 2783760
Min: 201
Max: 498737
N10: 498737 COUNT: 1
N25: 148353 COUNT: 3
N50: 89529 COUNT: 9
N75: 48682 COUNT: 18
E-size:157095.33

Done
