All statistics are based on contigs of size >= 200 bp, unless otherwise noted (e.g., "# contigs (>= 0 bp)" and "Total length (>= 0 bp)" include all contigs).

Assembly                       ABYSS_PE_MIS_PE_sakai_mis-1_bi_2x250bp_SI_default__sakai_mis-2_bi_2x250bp_SI_default.0.15percent_72.final_broken  ABYSS_PE_MIS_PE_sakai_mis-1_bi_2x250bp_SI_default__sakai_mis-2_bi_2x250bp_SI_default.0.15percent_72.final
#Contigs (>= 0 bp)             1649                                                                                                              1649                                                                                                     
#Contigs (>= 1000 bp)          443                                                                                                               443                                                                                                      
Total length (>= 0 bp)         5431320                                                                                                           5431320                                                                                                  
Total length (>= 1000 bp)      5184498                                                                                                           5184498                                                                                                  
#Contigs                       818                                                                                                               818                                                                                                      
Largest contig                 115607                                                                                                            115607                                                                                                   
Total length                   5329474                                                                                                           5329474                                                                                                  
Reference length               5594470                                                                                                           5594470                                                                                                  
GC (%)                         50.29                                                                                                             50.29                                                                                                    
Reference GC (%)               50.48                                                                                                             50.48                                                                                                    
N50                            24188                                                                                                             24188                                                                                                    
NG50                           22643                                                                                                             22643                                                                                                    
N75                            10120                                                                                                             10120                                                                                                    
NG75                           9195                                                                                                              9195                                                                                                     
#misassemblies                 3                                                                                                                 3                                                                                                        
#local misassemblies           1                                                                                                                 1                                                                                                        
#unaligned contigs             1 + 0 part                                                                                                        1 + 0 part                                                                                               
Unaligned contigs length       5357                                                                                                              5357                                                                                                     
Genome fraction (%)            93.328                                                                                                            93.328                                                                                                   
Duplication ratio              1.002                                                                                                             1.002                                                                                                    
#N's per 100 kbp               0.00                                                                                                              0.00                                                                                                     
#mismatches per 100 kbp        4.86                                                                                                              4.86                                                                                                     
#indels per 100 kbp            0.48                                                                                                              0.48                                                                                                     
#genes                         4618 + 436 part                                                                                                   4618 + 436 part                                                                                          
#predicted genes (unique)      5602                                                                                                              5602                                                                                                     
#predicted genes (>= 0 bp)     5604                                                                                                              5604                                                                                                     
#predicted genes (>= 300 bp)   4502                                                                                                              4502                                                                                                     
#predicted genes (>= 1500 bp)  633                                                                                                               633                                                                                                      
#predicted genes (>= 3000 bp)  61                                                                                                                61                                                                                                       
Largest alignment              115607                                                                                                            115607                                                                                                   
NA50                           23812                                                                                                             23812                                                                                                    
NGA50                          21936                                                                                                             21936                                                                                                    
NA75                           10020                                                                                                             10020                                                                                                    
NGA75                          9108                                                                                                              9108                                                                                                     
