All statistics are based on contigs of size >= 200 bp, unless otherwise noted (e.g., "# contigs (>= 0 bp)" and "Total length (>= 0 bp)" include all contigs).

Assembly                                   ABYSS_PE_MIS_PE_sakai_mis-1_bi_2x250bp_SI_default__sakai_mis-2_bi_2x250bp_SI_default.0.125percent_66.final_broken  ABYSS_PE_MIS_PE_sakai_mis-1_bi_2x250bp_SI_default__sakai_mis-2_bi_2x250bp_SI_default.0.125percent_66.final
#Contigs                                   985                                                                                                                985                                                                                                       
#Contigs (>= 0 bp)                         1961                                                                                                               1961                                                                                                      
#Contigs (>= 1000 bp)                      578                                                                                                                578                                                                                                       
Largest contig                             53557                                                                                                              53557                                                                                                     
Total length                               5306529                                                                                                            5306529                                                                                                   
Total length (>= 0 bp)                     5420300                                                                                                            5420300                                                                                                   
Total length (>= 1000 bp)                  5138291                                                                                                            5138291                                                                                                   
Reference length                           5594470                                                                                                            5594470                                                                                                   
N50                                        14931                                                                                                              14931                                                                                                     
NG50                                       14035                                                                                                              14035                                                                                                     
N75                                        7655                                                                                                               7655                                                                                                      
NG75                                       6559                                                                                                               6559                                                                                                      
L50                                        110                                                                                                                110                                                                                                       
LG50                                       120                                                                                                                120                                                                                                       
L75                                        233                                                                                                                233                                                                                                       
LG75                                       264                                                                                                                264                                                                                                       
#local misassemblies                       1                                                                                                                  1                                                                                                         
#misassemblies                             2                                                                                                                  2                                                                                                         
#misassembled contigs                      2                                                                                                                  2                                                                                                         
Misassembled contigs length                44860                                                                                                              44860                                                                                                     
Misassemblies inter-contig overlap         5                                                                                                                  5                                                                                                         
#unaligned contigs                         1 + 0 part                                                                                                         1 + 0 part                                                                                                
Unaligned contigs length                   5385                                                                                                               5385                                                                                                      
#ambiguously mapped contigs                129                                                                                                                129                                                                                                       
Extra bases in ambiguously mapped contigs  -88777                                                                                                             -88777                                                                                                    
#N's                                       0                                                                                                                  0                                                                                                         
#N's per 100 kbp                           0.00                                                                                                               0.00                                                                                                      
Genome fraction (%)                        93.010                                                                                                             93.010                                                                                                    
Duplication ratio                          1.002                                                                                                              1.002                                                                                                     
#genes                                     4448 + 596 part                                                                                                    4448 + 596 part                                                                                           
#predicted genes (unique)                  5692                                                                                                               5692                                                                                                      
#predicted genes (>= 0 bp)                 5694                                                                                                               5694                                                                                                      
#predicted genes (>= 300 bp)               4519                                                                                                               4519                                                                                                      
#predicted genes (>= 1500 bp)              606                                                                                                                606                                                                                                       
#predicted genes (>= 3000 bp)              53                                                                                                                 53                                                                                                        
#mismatches                                180                                                                                                                180                                                                                                       
#indels                                    14                                                                                                                 14                                                                                                        
Indels length                              19                                                                                                                 19                                                                                                        
#mismatches per 100 kbp                    3.46                                                                                                               3.46                                                                                                      
#indels per 100 kbp                        0.27                                                                                                               0.27                                                                                                      
GC (%)                                     50.28                                                                                                              50.28                                                                                                     
Reference GC (%)                           50.48                                                                                                              50.48                                                                                                     
Average %IDY                               99.252                                                                                                             99.252                                                                                                    
Largest alignment                          53557                                                                                                              53557                                                                                                     
NA50                                       14931                                                                                                              14931                                                                                                     
NGA50                                      14035                                                                                                              14035                                                                                                     
NA75                                       7641                                                                                                               7641                                                                                                      
NGA75                                      6529                                                                                                               6529                                                                                                      
LA50                                       110                                                                                                                110                                                                                                       
LGA50                                      120                                                                                                                120                                                                                                       
LA75                                       234                                                                                                                234                                                                                                       
LGA75                                      265                                                                                                                265                                                                                                       
#Mis_misassemblies                         2                                                                                                                  2                                                                                                         
#Mis_relocations                           2                                                                                                                  2                                                                                                         
#Mis_translocations                        0                                                                                                                  0                                                                                                         
#Mis_inversions                            0                                                                                                                  0                                                                                                         
#Mis_misassembled contigs                  2                                                                                                                  2                                                                                                         
Mis_Misassembled contigs length            44860                                                                                                              44860                                                                                                     
#Mis_local misassemblies                   1                                                                                                                  1                                                                                                         
#Mis_short indels (<= 5 bp)                13                                                                                                                 13                                                                                                        
#Mis_long indels (> 5 bp)                  1                                                                                                                  1                                                                                                         
#Una_fully unaligned contigs               1                                                                                                                  1                                                                                                         
Una_Fully unaligned length                 5385                                                                                                               5385                                                                                                      
#Una_partially unaligned contigs           0                                                                                                                  0                                                                                                         
#Una_with misassembly                      0                                                                                                                  0                                                                                                         
#Una_both parts are significant            0                                                                                                                  0                                                                                                         
Una_Partially unaligned length             0                                                                                                                  0                                                                                                         
GAGE_Contigs #                             985                                                                                                                985                                                                                                       
GAGE_Min contig                            200                                                                                                                200                                                                                                       
GAGE_Max contig                            53557                                                                                                              53557                                                                                                     
GAGE_N50                                   14035 COUNT: 120                                                                                                   14035 COUNT: 120                                                                                          
GAGE_Genome size                           5594470                                                                                                            5594470                                                                                                   
GAGE_Assembly size                         5306529                                                                                                            5306529                                                                                                   
GAGE_Chaff bases                           0                                                                                                                  0                                                                                                         
GAGE_Missing reference bases               84932(1.52%)                                                                                                       84932(1.52%)                                                                                              
GAGE_Missing assembly bases                5385(0.10%)                                                                                                        5385(0.10%)                                                                                               
GAGE_Missing assembly contigs              1(0.10%)                                                                                                           1(0.10%)                                                                                                  
GAGE_Duplicated reference bases            2817                                                                                                               2817                                                                                                      
GAGE_Compressed reference bases            252767                                                                                                             252767                                                                                                    
GAGE_Bad trim                              0                                                                                                                  0                                                                                                         
GAGE_Avg idy                               99.99                                                                                                              99.99                                                                                                     
GAGE_SNPs                                  264                                                                                                                264                                                                                                       
GAGE_Indels < 5bp                          13                                                                                                                 13                                                                                                        
GAGE_Indels >= 5                           2                                                                                                                  2                                                                                                         
GAGE_Inversions                            0                                                                                                                  0                                                                                                         
GAGE_Relocation                            2                                                                                                                  2                                                                                                         
GAGE_Translocation                         0                                                                                                                  0                                                                                                         
GAGE_Corrected contig #                    978                                                                                                                978                                                                                                       
GAGE_Corrected assembly size               5298699                                                                                                            5298699                                                                                                   
GAGE_Min correct contig                    200                                                                                                                200                                                                                                       
GAGE_Max correct contig                    53557                                                                                                              53557                                                                                                     
GAGE_Corrected N50                         14035 COUNT: 120                                                                                                   14035 COUNT: 120                                                                                          
