calling: java -cp /vol/ngscomparison/software/analysis/quast-2.1/libs/gage:. SizeFasta /vol/codine-tmp/juene/tmp.1xQTpi26JE/quast/corrected_input/MRSA_COL_Plasmid.fasta |awk '{SUM+=; print SUM}'|tail -n 1
Contig Stats
Total units: 2113
Reference: 2813862
BasesInFasta: 2584991
Min: 200
Max: 10231
N10: 4437 COUNT: 49
N25: 3000 COUNT: 166
N50: 1730 COUNT: 481
N75: 808 COUNT: 1072
E-size:2126.09

Genome Size: 2813862
Assembly Size: 2584991
Chaff bases: 0
Missing Reference Bases: 224044(7.96%)
Missing Assembly Bases: 1(0.00%)
Missing Assembly Contigs: 0(0.00%)
Duplicated Reference Bases: 1344
Compressed Reference Bases: 13852
Bad Trim: 1
Avg Idy: 99.99
SNPs: 29
Indels < 5bp: 131
Indels >= 5: 2
Inversions: 0
Relocation: 1
Translocation: 0

Corrected Contig Stats
calling: java -cp /vol/ngscomparison/software/analysis/quast-2.1/libs/gage:.:. GetFastaStats -o -min 199 -genomeSize 2813862 /vol/codine-tmp/juene/tmp.1xQTpi26JE/quast/gage/tmp/ABYSS_PE_PGM_mrsa_pgm_400bp_es_318_IKA_ts3.2_morestringent.0.400percent_78.final.matches.lens 2> /dev/null
Total units: 2111
Reference: 2813862
BasesInFasta: 2584058
Min: 200
Max: 10232
N10: 4437 COUNT: 49
N25: 2987 COUNT: 166
N50: 1725 COUNT: 482
N75: 808 COUNT: 1073
E-size:2124.58

Done
