Assembly	VELVET_PGM_mtbh37_pgm_400bp_es_318v2_OT2_tsv3.6_morestringent_119.final.contigs
#Una_fully unaligned contigs	9
Una_Fully unaligned length	2343
#Una_partially unaligned contigs	8
#Una_with misassembly	0
#Una_both parts are significant	0
Una_Partially unaligned length	842
#N's	0
