calling: java -cp /vol/ngscomparison/software/analysis/quast-2.1/libs/gage:. SizeFasta /vol/codine-tmp/juene/tmp.1igrcZnf5H/quast/corrected_input/MRSA_COL_Plasmid.fasta |awk '{SUM+=; print SUM}'|tail -n 1
Contig Stats
Total units: 207
Reference: 2813862
BasesInFasta: 2823616
Min: 200
Max: 297853
N10: 297853 COUNT: 1
N25: 192157 COUNT: 3
N50: 129967 COUNT: 8
N75: 86631 COUNT: 14
E-size:143709.64

Genome Size: 2813862
Assembly Size: 2823616
Chaff bases: 0
Missing Reference Bases: 6832(0.24%)
Missing Assembly Bases: 46185(1.64%)
Missing Assembly Contigs: 152(73.43%)
Duplicated Reference Bases: 585
Compressed Reference Bases: 33154
Bad Trim: 253
Avg Idy: 99.99
SNPs: 51
Indels < 5bp: 11
Indels >= 5: 6
Inversions: 0
Relocation: 3
Translocation: 0

Corrected Contig Stats
calling: java -cp /vol/ngscomparison/software/analysis/quast-2.1/libs/gage:.:. GetFastaStats -o -min 199 -genomeSize 2813862 /vol/codine-tmp/juene/tmp.1igrcZnf5H/quast/gage/tmp/CLC_MIS_PE_mrsa_mis-1_bi_2x250bp_default__mrsa_mis-2_bi_2x250bp_default.51coverage.result_broken.matches.lens 2> /dev/null
Total units: 62
Reference: 2813862
BasesInFasta: 2778443
Min: 242
Max: 297853
N10: 297853 COUNT: 1
N25: 192158 COUNT: 3
N50: 116347 COUNT: 8
N75: 56504 COUNT: 17
E-size:129104.76

Done
