calling: java -cp /vol/ngscomparison/software/analysis/quast-2.1/libs/gage:. SizeFasta /vol/codine-tmp/juene/tmp.zc21dGQSZL/quast/corrected_input/MRSA_COL_Plasmid.fasta |awk '{SUM+=; print SUM}'|tail -n 1
Contig Stats
Total units: 382
Reference: 2813862
BasesInFasta: 2780778
Min: 200
Max: 52257
N10: 40810 COUNT: 7
N25: 28101 COUNT: 20
N50: 17739 COUNT: 51
N75: 8703 COUNT: 110
E-size:19639.84

Genome Size: 2813862
Assembly Size: 2780778
Chaff bases: 0
Missing Reference Bases: 33340(1.18%)
Missing Assembly Bases: 8608(0.31%)
Missing Assembly Contigs: 10(2.62%)
Duplicated Reference Bases: 3541
Compressed Reference Bases: 23392
Bad Trim: 13
Avg Idy: 100.00
SNPs: 61
Indels < 5bp: 23
Indels >= 5: 35
Inversions: 0
Relocation: 3
Translocation: 0

Corrected Contig Stats
calling: java -cp /vol/ngscomparison/software/analysis/quast-2.1/libs/gage:.:. GetFastaStats -o -min 199 -genomeSize 2813862 /vol/codine-tmp/juene/tmp.zc21dGQSZL/quast/gage/tmp/SOAP2_MIS_PE_mrsa_mis-1_bi_2x250bp_default.0.460percent_87.final.scaf_broken.matches.lens 2> /dev/null
Total units: 395
Reference: 2813862
BasesInFasta: 2767732
Min: 200
Max: 52257
N10: 34026 COUNT: 7
N25: 26175 COUNT: 21
N50: 16218 COUNT: 55
N75: 7857 COUNT: 120
E-size:18071.82

Done
