calling: java -cp /vol/ngscomparison/software/analysis/quast-2.1/libs/gage:. SizeFasta /vol/codine-tmp/juene/tmp.HbGT7dFyRz/quast/corrected_input/Ecoli_Sakai_editedNew_plasmids.fasta |awk '{SUM+=; print SUM}'|tail -n 1
Contig Stats
Total units: 305
Reference: 5594470
BasesInFasta: 5352509
Min: 200
Max: 315501
N10: 313764 COUNT: 2
N25: 196601 COUNT: 6
N50: 105968 COUNT: 16
N75: 49580 COUNT: 34
E-size:125690.68

Genome Size: 5594470
Assembly Size: 5352509
Chaff bases: 0
Missing Reference Bases: 38178(0.68%)
Missing Assembly Bases: 85(0.00%)
Missing Assembly Contigs: 0(0.00%)
Duplicated Reference Bases: 5921
Compressed Reference Bases: 228438
Bad Trim: 85
Avg Idy: 99.99
SNPs: 70
Indels < 5bp: 188
Indels >= 5: 5
Inversions: 0
Relocation: 5
Translocation: 0

Corrected Contig Stats
calling: java -cp /vol/ngscomparison/software/analysis/quast-2.1/libs/gage:.:. GetFastaStats -o -min 199 -genomeSize 5594470 /vol/codine-tmp/juene/tmp.HbGT7dFyRz/quast/gage/tmp/NEWBLER_PGM_sakai_pgm_mu_318_400bp_IO_TS3.4_ms.0.6percent.contigs.matches.lens 2> /dev/null
Total units: 293
Reference: 5594470
BasesInFasta: 5348733
Min: 201
Max: 313770
N10: 196606 COUNT: 3
N25: 148119 COUNT: 8
N50: 103795 COUNT: 18
N75: 44512 COUNT: 39
E-size:108374.6

Done
