Assembly	CLC_PGM_mrsa_pgm_400bp_es_318_IKA_ts3.2_morestringent.0.925percent.result
#Contigs	1115
#Contigs (>= 0 bp)	1115
#Contigs (>= 1000 bp)	172
Largest contig	64661
Total length	2976440
Total length (>= 0 bp)	2976440
Total length (>= 1000 bp)	2681861
Reference length	2813862
N50	22445
NG50	25351
N75	11003
NG75	13892
L50	40
LG50	36
L75	85
LG75	75
#local misassemblies	2
#misassemblies	6
#misassembled contigs	5
Misassembled contigs length	27771
Misassemblies inter-contig overlap	767
#unaligned contigs	19 + 11 part
Unaligned contigs length	6794
#ambiguously mapped contigs	20
Extra bases in ambiguously mapped contigs	-5578
#N's	1244
#N's per 100 kbp	41.79
Genome fraction (%)	97.413
Duplication ratio	1.082
#genes	2524 + 161 part
#predicted genes (unique)	3410
#predicted genes (>= 0 bp)	3460
#predicted genes (>= 300 bp)	2343
#predicted genes (>= 1500 bp)	283
#predicted genes (>= 3000 bp)	27
#mismatches	139
#indels	308
Indels length	322
#mismatches per 100 kbp	5.07
#indels per 100 kbp	11.24
GC (%)	32.55
Reference GC (%)	32.81
Average %IDY	99.208
Largest alignment	64661
NA50	22445
NGA50	25351
NA75	10983
NGA75	12218
LA50	40
LGA50	36
LA75	86
LGA75	75
#Mis_misassemblies	6
#Mis_relocations	6
#Mis_translocations	0
#Mis_inversions	0
#Mis_misassembled contigs	5
Mis_Misassembled contigs length	27771
#Mis_local misassemblies	2
#Mis_short indels (<= 5 bp)	308
#Mis_long indels (> 5 bp)	0
#Una_fully unaligned contigs	19
Una_Fully unaligned length	5661
#Una_partially unaligned contigs	11
#Una_with misassembly	0
#Una_both parts are significant	1
Una_Partially unaligned length	1133
GAGE_Contigs #	1115
GAGE_Min contig	200
GAGE_Max contig	64661
GAGE_N50	25351 COUNT: 36
GAGE_Genome size	2813862
GAGE_Assembly size	2976440
GAGE_Chaff bases	0
GAGE_Missing reference bases	42304(1.50%)
GAGE_Missing assembly bases	6527(0.22%)
GAGE_Missing assembly contigs	17(1.52%)
GAGE_Duplicated reference bases	220339
GAGE_Compressed reference bases	36984
GAGE_Bad trim	1577
GAGE_Avg idy	99.98
GAGE_SNPs	44
GAGE_Indels < 5bp	249
GAGE_Indels >= 5	0
GAGE_Inversions	1
GAGE_Relocation	2
GAGE_Translocation	0
GAGE_Corrected contig #	362
GAGE_Corrected assembly size	2752058
GAGE_Min correct contig	200
GAGE_Max correct contig	64665
GAGE_Corrected N50	25355 COUNT: 36
