Assembly	CLC_MIS_PE_sakai_mis-2_bi_2x150bp_default__sakai_mis-1_bi_2x150bp_default.0.990percent.result_broken	CLC_MIS_PE_sakai_mis-2_bi_2x150bp_default__sakai_mis-1_bi_2x150bp_default.0.990percent.result
#Contigs	295	271
#Contigs (>= 0 bp)	305	271
#Contigs (>= 1000 bp)	144	140
Largest contig	313894	374713
Total length	5359277	5364114
Total length (>= 0 bp)	5360835	5364114
Total length (>= 1000 bp)	5291699	5303632
Reference length	5594470	5594470
N50	142475	148175
NG50	142475	145459
N75	66155	77386
NG75	56972	73278
L50	15	13
LG50	15	14
L75	29	25
LG75	32	27
#local misassemblies	5	33
#misassemblies	4	6
#misassembled contigs	4	6
Misassembled contigs length	241187	484585
Misassemblies inter-contig overlap	21120	21120
#unaligned contigs	3 + 1 part	3 + 1 part
Unaligned contigs length	6064	6064
#ambiguously mapped contigs	99	82
Extra bases in ambiguously mapped contigs	-85584	-73393
#N's	60	3339
#N's per 100 kbp	1.12	62.25
Genome fraction (%)	94.120	94.359
Duplication ratio	1.004	1.005
#genes	4985 + 140 part	4988 + 149 part
#predicted genes (unique)	5271	5273
#predicted genes (>= 0 bp)	5274	5276
#predicted genes (>= 300 bp)	4435	4436
#predicted genes (>= 1500 bp)	672	673
#predicted genes (>= 3000 bp)	67	66
#mismatches	106	150
#indels	44	115
Indels length	110	203
#mismatches per 100 kbp	2.01	2.84
#indels per 100 kbp	0.84	2.18
GC (%)	50.29	50.29
Reference GC (%)	50.48	50.48
Average %IDY	98.734	98.739
Largest alignment	313894	313894
NA50	142475	147890
NGA50	124190	145459
NA75	66155	77119
NGA75	56972	73278
LA50	15	14
LGA50	16	15
LA75	29	26
LGA75	32	28
#Mis_misassemblies	4	6
#Mis_relocations	4	6
#Mis_translocations	0	0
#Mis_inversions	0	0
#Mis_misassembled contigs	4	6
Mis_Misassembled contigs length	241187	484585
#Mis_local misassemblies	5	33
#Mis_short indels (<= 5 bp)	40	109
#Mis_long indels (> 5 bp)	4	6
#Una_fully unaligned contigs	3	3
Una_Fully unaligned length	5958	5958
#Una_partially unaligned contigs	1	1
#Una_with misassembly	0	0
#Una_both parts are significant	0	0
Una_Partially unaligned length	106	106
GAGE_Contigs #	295	271
GAGE_Min contig	201	201
GAGE_Max contig	313894	374713
GAGE_N50	142475 COUNT: 15	145459 COUNT: 14
GAGE_Genome size	5594470	5594470
GAGE_Assembly size	5359277	5364114
GAGE_Chaff bases	0	0
GAGE_Missing reference bases	31723(0.57%)	29690(0.53%)
GAGE_Missing assembly bases	6140(0.11%)	9422(0.18%)
GAGE_Missing assembly contigs	3(1.02%)	3(1.11%)
GAGE_Duplicated reference bases	8029	8330
GAGE_Compressed reference bases	241465	243405
GAGE_Bad trim	154	417
GAGE_Avg idy	99.99	99.99
GAGE_SNPs	113	113
GAGE_Indels < 5bp	22	22
GAGE_Indels >= 5	7	17
GAGE_Inversions	2	2
GAGE_Relocation	3	8
GAGE_Translocation	0	0
GAGE_Corrected contig #	287	287
GAGE_Corrected assembly size	5346034	5346034
GAGE_Min correct contig	201	201
GAGE_Max correct contig	313894	313894
GAGE_Corrected N50	124190 COUNT: 16	124190 COUNT: 16
