Assembly	NEWBLER_PGM_mrsa_pgm_200bp_es_316_IonOnev2_ts3.0_morestringent.61coverage.contigs
#Mis_misassemblies	1
#Mis_relocations	1
#Mis_translocations	0
#Mis_inversions	0
#Mis_misassembled contigs	1
Mis_Misassembled contigs length	60111
#Mis_local misassemblies	6
#mismatches	58
#indels	231
#Mis_short indels (<= 5 bp)	230
#Mis_long indels (> 5 bp)	1
Indels length	335
