Assembly	SOAP2_MIS_PE_sakai_mis-1_bi_2x150bp_default.0.826percent_107.final.scaf_broken	SOAP2_MIS_PE_sakai_mis-1_bi_2x150bp_default.0.826percent_107.final.scaf
GAGE_Contigs #	980	651
GAGE_Min contig	200	200
GAGE_Max contig	142817	374600
GAGE_N50	36844 COUNT: 44	124399 COUNT: 14
GAGE_Genome size	5594470	5594470
GAGE_Assembly size	5445278	5469820
GAGE_Chaff bases	0	0
GAGE_Missing reference bases	10014(0.18%)	7279(0.13%)
GAGE_Missing assembly bases	5976(0.11%)	24001(0.44%)
GAGE_Missing assembly contigs	3(0.31%)	3(0.46%)
GAGE_Duplicated reference bases	18736	17351
GAGE_Compressed reference bases	280601	273417
GAGE_Bad trim	50	2440
GAGE_Avg idy	100.00	99.98
GAGE_SNPs	63	65
GAGE_Indels < 5bp	41	125
GAGE_Indels >= 5	26	204
GAGE_Inversions	1	2
GAGE_Relocation	3	15
GAGE_Translocation	0	0
GAGE_Corrected contig #	931	909
GAGE_Corrected assembly size	5419902	5422028
GAGE_Min correct contig	200	200
GAGE_Max correct contig	142816	142816
GAGE_Corrected N50	33539 COUNT: 49	36130 COUNT: 47
