1: PREPARING DATA
2,3: RUNNING mummer AND CREATING CLUSTERS
# reading input file "/vol/codine-tmp/juene/tmp.oaxWjzsEix/quast/gage/tmp/CLC_PGM_mrsa_pgm_400bp_es_318_IKA_ts3.2_morestringent.0.650percent.result.ntref" of length 2813864
# construct suffix tree for sequence of length 2813864
# (maximum reference length is 536870908)
# (maximum query length is 4294967295)
# process 28138 characters per dot
#....................................................................................................
# CONSTRUCTIONTIME /vol/ngscomparison/software/analysis/quast-2.1/libs/MUMmer3.23-linux/mummer /vol/codine-tmp/juene/tmp.oaxWjzsEix/quast/gage/tmp/CLC_PGM_mrsa_pgm_400bp_es_318_IKA_ts3.2_morestringent.0.650percent.result.ntref 1.94
# reading input file "/vol/codine-tmp/juene/tmp.oaxWjzsEix/quast/corrected_input/CLC_PGM_mrsa_pgm_400bp_es_318_IKA_ts3.2_morestringent.0.650percent.result" of length 2973248
# matching query-file "/vol/codine-tmp/juene/tmp.oaxWjzsEix/quast/corrected_input/CLC_PGM_mrsa_pgm_400bp_es_318_IKA_ts3.2_morestringent.0.650percent.result"
# against subject-file "/vol/codine-tmp/juene/tmp.oaxWjzsEix/quast/gage/tmp/CLC_PGM_mrsa_pgm_400bp_es_318_IKA_ts3.2_morestringent.0.650percent.result.ntref"
# COMPLETETIME /vol/ngscomparison/software/analysis/quast-2.1/libs/MUMmer3.23-linux/mummer /vol/codine-tmp/juene/tmp.oaxWjzsEix/quast/gage/tmp/CLC_PGM_mrsa_pgm_400bp_es_318_IKA_ts3.2_morestringent.0.650percent.result.ntref 6.34
# SPACE /vol/ngscomparison/software/analysis/quast-2.1/libs/MUMmer3.23-linux/mummer /vol/codine-tmp/juene/tmp.oaxWjzsEix/quast/gage/tmp/CLC_PGM_mrsa_pgm_400bp_es_318_IKA_ts3.2_morestringent.0.650percent.result.ntref 5.62
4: FINISHING DATA
Filtering alignments
Extracting alignment coordinates
Analyzing SNPs
Extracting alignment breakpoints
Generating report file
Found genome size at position 4 with value 2813862 aka 2813862
Calculating point at 0 and the sum is 1013754 and i is363 and lens is 385 and length is 32377
Calculating point at 1 and the sum is 2011498 and i is313 and lens is 385 and length is 13696
