All statistics are based on contigs of size >= 200 bp, unless otherwise noted (e.g., "# contigs (>= 0 bp)" and "Total length (>= 0 bp)" include all contigs).

Assembly                         CLC_MIS_PE_sakai_mis-1_bi_2x250bp_SI_default__sakai_mis-2_bi_2x250bp_SI_default.0.1percent.result_broken  CLC_MIS_PE_sakai_mis-1_bi_2x250bp_SI_default__sakai_mis-2_bi_2x250bp_SI_default.0.1percent.result
GAGE_Contigs #                   666                                                                                                       655                                                                                              
GAGE_Min contig                  201                                                                                                       201                                                                                              
GAGE_Max contig                  65826                                                                                                     65826                                                                                            
GAGE_N50                         22229 COUNT: 77                                                                                           22229 COUNT: 77                                                                                  
GAGE_Genome size                 5594470                                                                                                   5594470                                                                                          
GAGE_Assembly size               5394804                                                                                                   5395521                                                                                          
GAGE_Chaff bases                 0                                                                                                         0                                                                                                
GAGE_Missing reference bases     29046(0.52%)                                                                                              29742(0.53%)                                                                                     
GAGE_Missing assembly bases      15768(0.29%)                                                                                              16390(0.30%)                                                                                     
GAGE_Missing assembly contigs    38(5.71%)                                                                                                 38(5.80%)                                                                                        
GAGE_Duplicated reference bases  15427                                                                                                     16230                                                                                            
GAGE_Compressed reference bases  268950                                                                                                    268277                                                                                           
GAGE_Bad trim                    655                                                                                                       655                                                                                              
GAGE_Avg idy                     99.98                                                                                                     99.98                                                                                            
GAGE_SNPs                        399                                                                                                       385                                                                                              
GAGE_Indels < 5bp                52                                                                                                        51                                                                                               
GAGE_Indels >= 5                 24                                                                                                        28                                                                                               
GAGE_Inversions                  1                                                                                                         1                                                                                                
GAGE_Relocation                  6                                                                                                         8                                                                                                
GAGE_Translocation               1                                                                                                         1                                                                                                
GAGE_Corrected contig #          630                                                                                                       628                                                                                              
GAGE_Corrected assembly size     5368328                                                                                                   5367772                                                                                          
GAGE_Min correct contig          201                                                                                                       201                                                                                              
GAGE_Max correct contig          65826                                                                                                     65826                                                                                            
GAGE_Corrected N50               20503 COUNT: 84                                                                                           20503 COUNT: 84                                                                                  
