1: PREPARING DATA
2,3: RUNNING mummer AND CREATING CLUSTERS
# reading input file "/vol/codine-tmp/juene/tmp.yu8amkajG7/quast/gage/tmp/CLC_PGM_mtbh37_pgm_400bp_es_318v2_OT2_tsv3.6_morestringent.0.150percent.result.ntref" of length 4411533
# construct suffix tree for sequence of length 4411533
# (maximum reference length is 536870908)
# (maximum query length is 4294967295)
# process 44115 characters per dot
#....................................................................................................
# CONSTRUCTIONTIME /vol/ngscomparison/software/analysis/quast-2.1/libs/MUMmer3.23-linux/mummer /vol/codine-tmp/juene/tmp.yu8amkajG7/quast/gage/tmp/CLC_PGM_mtbh37_pgm_400bp_es_318v2_OT2_tsv3.6_morestringent.0.150percent.result.ntref 2.50
# reading input file "/vol/codine-tmp/juene/tmp.yu8amkajG7/quast/corrected_input/CLC_PGM_mtbh37_pgm_400bp_es_318v2_OT2_tsv3.6_morestringent.0.150percent.result" of length 4181064
# matching query-file "/vol/codine-tmp/juene/tmp.yu8amkajG7/quast/corrected_input/CLC_PGM_mtbh37_pgm_400bp_es_318v2_OT2_tsv3.6_morestringent.0.150percent.result"
# against subject-file "/vol/codine-tmp/juene/tmp.yu8amkajG7/quast/gage/tmp/CLC_PGM_mtbh37_pgm_400bp_es_318v2_OT2_tsv3.6_morestringent.0.150percent.result.ntref"
# COMPLETETIME /vol/ngscomparison/software/analysis/quast-2.1/libs/MUMmer3.23-linux/mummer /vol/codine-tmp/juene/tmp.yu8amkajG7/quast/gage/tmp/CLC_PGM_mtbh37_pgm_400bp_es_318v2_OT2_tsv3.6_morestringent.0.150percent.result.ntref 8.44
# SPACE /vol/ngscomparison/software/analysis/quast-2.1/libs/MUMmer3.23-linux/mummer /vol/codine-tmp/juene/tmp.yu8amkajG7/quast/gage/tmp/CLC_PGM_mtbh37_pgm_400bp_es_318v2_OT2_tsv3.6_morestringent.0.150percent.result.ntref 8.35
4: FINISHING DATA
Filtering alignments
Extracting alignment coordinates
Analyzing SNPs
Extracting alignment breakpoints
Generating report file
Found genome size at position 4 with value 4411532 aka 4411532
Calculating point at 0 and the sum is 1007722 and i is1633 and lens is 1698 and length is 10816
Calculating point at 1 and the sum is 2001217 and i is1513 and lens is 1698 and length is 6505
Calculating point at 2 and the sum is 3000026 and i is1303 and lens is 1698 and length is 3474
Calculating point at 3 and the sum is 4000244 and i is504 and lens is 1698 and length is 361
