All statistics are based on contigs of size >= 200 bp, unless otherwise noted (e.g., "# contigs (>= 0 bp)" and "Total length (>= 0 bp)" include all contigs).

Assembly                         VELVET_MIS_PE_mtbh37-1_mis_2x250bp_nextera_default__mtbh37-2_mis_2x250bp_nextera_default_101.final.contigs_broken  VELVET_MIS_PE_mtbh37-1_mis_2x250bp_nextera_default__mtbh37-2_mis_2x250bp_nextera_default_101.final.contigs
#Mis_misassemblies               6                                                                                                                  13                                                                                                        
#Mis_relocations                 6                                                                                                                  13                                                                                                        
#Mis_translocations              0                                                                                                                  0                                                                                                         
#Mis_inversions                  0                                                                                                                  0                                                                                                         
#Mis_misassembled contigs        6                                                                                                                  9                                                                                                         
Mis_Misassembled contigs length  26820                                                                                                              212815                                                                                                    
#Mis_local misassemblies         15                                                                                                                 314                                                                                                       
#mismatches                      394                                                                                                                371                                                                                                       
#indels                          50                                                                                                                 1048                                                                                                      
#Mis_short indels (<= 5 bp)      48                                                                                                                 1019                                                                                                      
#Mis_long indels (> 5 bp)        2                                                                                                                  29                                                                                                        
Indels length                    129                                                                                                                2069                                                                                                      
