All statistics are based on contigs of size >= 200 bp, unless otherwise noted (e.g., "# contigs (>= 0 bp)" and "Total length (>= 0 bp)" include all contigs).

Assembly                       VELVET_MIS_PE_sakai_mis-1_bi_2x150bp_default__sakai_mis-2_bi_2x150bp_default.0.826percent_41.final.contigs_broken  VELVET_MIS_PE_sakai_mis-1_bi_2x150bp_default__sakai_mis-2_bi_2x150bp_default.0.826percent_41.final.contigs
#Contigs (>= 0 bp)             894                                                                                                                736                                                                                                       
#Contigs (>= 1000 bp)          254                                                                                                                129                                                                                                       
Total length (>= 0 bp)         5369887                                                                                                            5377074                                                                                                   
Total length (>= 1000 bp)      5220696                                                                                                            5243244                                                                                                   
#Contigs                       495                                                                                                                341                                                                                                       
Largest contig                 140744                                                                                                             374632                                                                                                    
Total length                   5321176                                                                                                            5328975                                                                                                   
Reference length               5594470                                                                                                            5594470                                                                                                   
GC (%)                         50.28                                                                                                              50.28                                                                                                     
Reference GC (%)               50.48                                                                                                              50.48                                                                                                     
N50                            40817                                                                                                              141694                                                                                                    
NG50                           39334                                                                                                              130317                                                                                                    
N75                            21952                                                                                                              54980                                                                                                     
NG75                           19804                                                                                                              43403                                                                                                     
#misassemblies                 5                                                                                                                  9                                                                                                         
#local misassemblies           12                                                                                                                 52                                                                                                        
#unaligned contigs             1 + 0 part                                                                                                         1 + 1 part                                                                                                
Unaligned contigs length       5391                                                                                                               6382                                                                                                      
Genome fraction (%)            93.373                                                                                                             93.470                                                                                                    
Duplication ratio              1.001                                                                                                              1.001                                                                                                     
#N's per 100 kbp               0.00                                                                                                               134.87                                                                                                    
#mismatches per 100 kbp        9.69                                                                                                               10.27                                                                                                     
#indels per 100 kbp            1.24                                                                                                               10.38                                                                                                     
#genes                         4823 + 256 part                                                                                                    4915 + 165 part                                                                                           
#predicted genes (unique)      5374                                                                                                               5300                                                                                                      
#predicted genes (>= 0 bp)     5375                                                                                                               5302                                                                                                      
#predicted genes (>= 300 bp)   4447                                                                                                               4430                                                                                                      
#predicted genes (>= 1500 bp)  651                                                                                                                653                                                                                                       
#predicted genes (>= 3000 bp)  66                                                                                                                 68                                                                                                        
Largest alignment              140744                                                                                                             260074                                                                                                    
NA50                           40014                                                                                                              141394                                                                                                    
NGA50                          38051                                                                                                              130317                                                                                                    
NA75                           21638                                                                                                              54805                                                                                                     
NGA75                          19740                                                                                                              43172                                                                                                     
