calling: java -cp /vol/ngscomparison/software/analysis/quast-2.1/libs/gage:. SizeFasta /vol/codine-tmp/juene/tmp.A3uccfz5ed/quast/corrected_input/Ecoli_Sakai_editedNew_plasmids.fasta |awk '{SUM+=; print SUM}'|tail -n 1
Contig Stats
Total units: 1202
Reference: 5594470
BasesInFasta: 5297748
Min: 200
Max: 51806
N10: 27694 COUNT: 16
N25: 20433 COUNT: 51
N50: 11326 COUNT: 143
N75: 4914 COUNT: 331
E-size:13751.73

Genome Size: 5594470
Assembly Size: 5297748
Chaff bases: 0
Missing Reference Bases: 159560(2.85%)
Missing Assembly Bases: 83(0.00%)
Missing Assembly Contigs: 0(0.00%)
Duplicated Reference Bases: 5155
Compressed Reference Bases: 183906
Bad Trim: 83
Avg Idy: 99.99
SNPs: 81
Indels < 5bp: 227
Indels >= 5: 3
Inversions: 0
Relocation: 4
Translocation: 0

Corrected Contig Stats
calling: java -cp /vol/ngscomparison/software/analysis/quast-2.1/libs/gage:.:. GetFastaStats -o -min 199 -genomeSize 5594470 /vol/codine-tmp/juene/tmp.A3uccfz5ed/quast/gage/tmp/ABYSS_PE_PGM_sakai_pgm_mu_318_400bp_IO_TS3.4_ms.91coverage_80.final.matches.lens 2> /dev/null
Total units: 1187
Reference: 5594470
BasesInFasta: 5293165
Min: 200
Max: 51808
N10: 27250 COUNT: 16
N25: 20147 COUNT: 52
N50: 11327 COUNT: 144
N75: 4914 COUNT: 332
E-size:13668.51

Done
