Assembly	GAGE_Contigs #	GAGE_Min contig	GAGE_Max contig	GAGE_N50	GAGE_Genome size	GAGE_Assembly size	GAGE_Chaff bases	GAGE_Missing reference bases	GAGE_Missing assembly bases	GAGE_Missing assembly contigs	GAGE_Duplicated reference bases	GAGE_Compressed reference bases	GAGE_Bad trim	GAGE_Avg idy	GAGE_SNPs	GAGE_Indels < 5bp	GAGE_Indels >= 5	GAGE_Inversions	GAGE_Relocation	GAGE_Translocation	GAGE_Corrected contig #	GAGE_Corrected assembly size	GAGE_Min correct contig	GAGE_Max correct contig	GAGE_Corrected N50
SOAP2_MIS_PE_sakai_mis-1_bi_2x250bp_SI_default.0.64percent_41.final.scaf_broken	43047	200	1885	251 COUNT: 7137	5594470	11078647	0	2455663(43.89%)	7824807(70.63%)	33527(77.88%)	45660	28540	21798	99.80	5183	37	0	0	1	0	9126	3186382	200	1885	226 COUNT: 7289
SOAP2_MIS_PE_sakai_mis-1_bi_2x250bp_SI_default.0.64percent_41.final.scaf	43047	200	1885	251 COUNT: 7137	5594470	11078647	0	2455663(43.89%)	7824807(70.63%)	33527(77.88%)	45660	28540	21798	99.80	5183	37	0	0	1	0	9126	3186382	200	1885	226 COUNT: 7289
