Assembly	#Contigs (>= 0 bp)	#Contigs (>= 1000 bp)	Total length (>= 0 bp)	Total length (>= 1000 bp)	#Contigs	Largest contig	Total length	Reference length	GC (%)	Reference GC (%)	N50	NG50	N75	NG75	#misassemblies	#local misassemblies	#unaligned contigs	Unaligned contigs length	Genome fraction (%)	Duplication ratio	#N's per 100 kbp	#mismatches per 100 kbp	#indels per 100 kbp	#genes	#predicted genes (unique)	#predicted genes (>= 0 bp)	#predicted genes (>= 300 bp)	#predicted genes (>= 1500 bp)	#predicted genes (>= 3000 bp)	Largest alignment	NA50	NGA50	NA75	NGA75
SOAP2_MIS_PE_sakai_mis-1_bi_2x250bp_SI_default.0.64percent_41.final.scaf_broken	128355	99	24079529	120972	43047	1885	11078647	5594470	53.64	50.48	247	251	222	251	1	0	34525 + 1 part	8025714	53.345	1.021	0.00	4.36	0.20	282 + 4072 part	36914	36914	3065	0	0	1885	None	221	None	None
SOAP2_MIS_PE_sakai_mis-1_bi_2x250bp_SI_default.0.64percent_41.final.scaf	128355	99	24079529	120972	43047	1885	11078647	5594470	53.64	50.48	247	251	222	251	1	0	34525 + 1 part	8025714	53.345	1.021	0.00	4.36	0.20	282 + 4072 part	36914	36914	3065	0	0	1885	None	221	None	None
