calling: java -cp /vol/ngscomparison/software/analysis/quast-2.1/libs/gage:. SizeFasta /vol/codine-tmp/juene/tmp.hClEjG2J5w/quast/corrected_input/MRSA_COL_Plasmid.fasta |awk '{SUM+=; print SUM}'|tail -n 1
Contig Stats
Total units: 2404
Reference: 2813862
BasesInFasta: 2046102
Min: 325
Max: 6307
N10: 2227 COUNT: 93
N25: 1416 COUNT: 334
N50: 717 COUNT: 1044
N75: 0 COUNT: 0
E-size:965.77

Genome Size: 2813862
Assembly Size: 2046102
Chaff bases: 0
Missing Reference Bases: 853897(30.35%)
Missing Assembly Bases: 65(0.00%)
Missing Assembly Contigs: 0(0.00%)
Duplicated Reference Bases: 57089
Compressed Reference Bases: 30821
Bad Trim: 61
Avg Idy: 99.96
SNPs: 39
Indels < 5bp: 585
Indels >= 5: 0
Inversions: 13
Relocation: 5
Translocation: 3

Corrected Contig Stats
calling: java -cp /vol/ngscomparison/software/analysis/quast-2.1/libs/gage:.:. GetFastaStats -o -min 199 -genomeSize 2813862 /vol/codine-tmp/juene/tmp.hClEjG2J5w/quast/gage/tmp/VELVET_PGM_mrsa_pgm_400bp_es_318_IKA_ts3.2_morestringent.0.165percent_163.final.contigs.matches.lens 2> /dev/null
Total units: 2279
Reference: 2813862
BasesInFasta: 1987914
Min: 205
Max: 6307
N10: 2227 COUNT: 93
N25: 1406 COUNT: 336
N50: 708 COUNT: 1053
N75: 0 COUNT: 0
E-size:951.64

Done
