Assembly	CLC_PGM_mrsa_pgm_200bp_es_316_IonOnev2_ts3.0_morestringent.0.500percent.result
#Mis_misassemblies	17
#Mis_relocations	4
#Mis_translocations	0
#Mis_inversions	13
#Mis_misassembled contigs	17
Mis_Misassembled contigs length	105898
#Mis_local misassemblies	3
#mismatches	83
#indels	359
#Mis_short indels (<= 5 bp)	359
#Mis_long indels (> 5 bp)	0
Indels length	374
