All statistics are based on contigs of size >= 200 bp, unless otherwise noted (e.g., "# contigs (>= 0 bp)" and "Total length (>= 0 bp)" include all contigs).

Assembly                       VELVET_MIS_PE_mrsa_mis-1_bi_2x150bp_default__mrsa_mis-2_bi_2x150bp_default.0.527percent_59.final.contigs_broken  VELVET_MIS_PE_mrsa_mis-1_bi_2x150bp_default__mrsa_mis-2_bi_2x150bp_default.0.527percent_59.final.contigs
#Contigs (>= 0 bp)             144                                                                                                              104                                                                                                     
#Contigs (>= 1000 bp)          67                                                                                                               38                                                                                                      
Total length (>= 0 bp)         2789777                                                                                                          2791073                                                                                                 
Total length (>= 1000 bp)      2772749                                                                                                          2778112                                                                                                 
#Contigs                       100                                                                                                              62                                                                                                      
Largest contig                 269579                                                                                                           406141                                                                                                  
Total length                   2783445                                                                                                          2784957                                                                                                 
Reference length               2813862                                                                                                          2813862                                                                                                 
GC (%)                         32.68                                                                                                            32.69                                                                                                   
Reference GC (%)               32.81                                                                                                            32.81                                                                                                   
N50                            85247                                                                                                            184094                                                                                                  
NG50                           85247                                                                                                            184094                                                                                                  
N75                            40334                                                                                                            73327                                                                                                   
NG75                           39840                                                                                                            73327                                                                                                   
#misassemblies                 5                                                                                                                6                                                                                                       
#local misassemblies           5                                                                                                                13                                                                                                      
#unaligned contigs             1 + 1 part                                                                                                       1 + 1 part                                                                                              
Unaligned contigs length       5524                                                                                                             5524                                                                                                    
Genome fraction (%)            98.343                                                                                                           98.414                                                                                                  
Duplication ratio              1.001                                                                                                            1.001                                                                                                   
#N's per 100 kbp               0.00                                                                                                             46.54                                                                                                   
#mismatches per 100 kbp        6.11                                                                                                             5.99                                                                                                    
#indels per 100 kbp            1.23                                                                                                             3.21                                                                                                    
#genes                         2648 + 43 part                                                                                                   2667 + 26 part                                                                                          
#predicted genes (unique)      2665                                                                                                             2652                                                                                                    
#predicted genes (>= 0 bp)     2667                                                                                                             2654                                                                                                    
#predicted genes (>= 300 bp)   2291                                                                                                             2289                                                                                                    
#predicted genes (>= 1500 bp)  301                                                                                                              302                                                                                                     
#predicted genes (>= 3000 bp)  30                                                                                                               29                                                                                                      
Largest alignment              269424                                                                                                           318390                                                                                                  
NA50                           79663                                                                                                            159352                                                                                                  
NGA50                          79663                                                                                                            159352                                                                                                  
NA75                           40334                                                                                                            73327                                                                                                   
NGA75                          39160                                                                                                            68355                                                                                                   
