1: PREPARING DATA
2,3: RUNNING mummer AND CREATING CLUSTERS
# reading input file "/vol/codine-tmp/juene/tmp.FKHF9X3Uzm/quast/contigs_reports/nucmer_output/ABYSS_PE_PGM_sakai_pgm_mu_318_400bp_IO_TS3.4_ms.0.025percent_32.final.ntref" of length 5594473
# construct suffix tree for sequence of length 5594473
# (maximum reference length is 536870908)
# (maximum query length is 4294967295)
# process 55944 characters per dot
#....................................................................................................
# CONSTRUCTIONTIME /vol/ngscomparison/software/analysis/quast-2.1/libs/MUMmer3.23-linux/mummer /vol/codine-tmp/juene/tmp.FKHF9X3Uzm/quast/contigs_reports/nucmer_output/ABYSS_PE_PGM_sakai_pgm_mu_318_400bp_IO_TS3.4_ms.0.025percent_32.final.ntref 2.90
# reading input file "/vol/codine-tmp/juene/tmp.FKHF9X3Uzm/quast/corrected_input/ABYSS_PE_PGM_sakai_pgm_mu_318_400bp_IO_TS3.4_ms.0.025percent_32.final" of length 4504853
# matching query-file "/vol/codine-tmp/juene/tmp.FKHF9X3Uzm/quast/corrected_input/ABYSS_PE_PGM_sakai_pgm_mu_318_400bp_IO_TS3.4_ms.0.025percent_32.final"
# against subject-file "/vol/codine-tmp/juene/tmp.FKHF9X3Uzm/quast/contigs_reports/nucmer_output/ABYSS_PE_PGM_sakai_pgm_mu_318_400bp_IO_TS3.4_ms.0.025percent_32.final.ntref"
# COMPLETETIME /vol/ngscomparison/software/analysis/quast-2.1/libs/MUMmer3.23-linux/mummer /vol/codine-tmp/juene/tmp.FKHF9X3Uzm/quast/contigs_reports/nucmer_output/ABYSS_PE_PGM_sakai_pgm_mu_318_400bp_IO_TS3.4_ms.0.025percent_32.final.ntref 7.14
# SPACE /vol/ngscomparison/software/analysis/quast-2.1/libs/MUMmer3.23-linux/mummer /vol/codine-tmp/juene/tmp.FKHF9X3Uzm/quast/contigs_reports/nucmer_output/ABYSS_PE_PGM_sakai_pgm_mu_318_400bp_IO_TS3.4_ms.0.025percent_32.final.ntref 9.90
4: FINISHING DATA
