All statistics are based on contigs of size >= 200 bp, unless otherwise noted (e.g., "# contigs (>= 0 bp)" and "Total length (>= 0 bp)" include all contigs).

Assembly                                                                                                        #Contigs (>= 0 bp)  #Contigs (>= 1000 bp)  Total length (>= 0 bp)  Total length (>= 1000 bp)  #Contigs  Largest contig  Total length  Reference length  GC (%)  Reference GC (%)  N50    NG50   N75    NG75   #misassemblies  #local misassemblies  #unaligned contigs  Unaligned contigs length  Genome fraction (%)  Duplication ratio  #N's per 100 kbp  #mismatches per 100 kbp  #indels per 100 kbp  #genes          #predicted genes (unique)  #predicted genes (>= 0 bp)  #predicted genes (>= 300 bp)  #predicted genes (>= 1500 bp)  #predicted genes (>= 3000 bp)  Largest alignment  NA50   NGA50  NA75   NGA75
ABYSS_PE_MIS_PE_mrsa_mis-1_bi_2x150bp_default__mrsa_mis-2_bi_2x150bp_default.0.527percent_106-scaffolds_broken  134                 80                     2817036                 2804221                    102       216234          2812346       2813862           32.78   32.81             56888  56888  37047  37047  3               2                     0 + 0 part          0                         99.180               1.004              0.36              1.79                     0.61                 2666 + 50 part  2651                       2663                        2303                          297                            30                             216234             56888  56888  37047  37047
ABYSS_PE_MIS_PE_mrsa_mis-1_bi_2x150bp_default__mrsa_mis-2_bi_2x150bp_default.0.527percent_106-scaffolds         118                 69                     2817950                 2807287                    86        219591          2813260       2813862           32.78   32.81             80450  80450  46083  46083  5               7                     0 + 0 part          0                         99.228               1.005              32.84             1.68                     8.56                 2672 + 46 part  2648                       2658                        2300                          298                            30                             219433             80450  80450  45100  45100
