1: PREPARING DATA
2,3: RUNNING mummer AND CREATING CLUSTERS
# reading input file "/vol/codine-tmp/juene/tmp.1dmFCG295Y/quast/contigs_reports/nucmer_output/VELVET_PGM_mrsa_pgm_400bp_es_318_IKA_ts3.2_morestringent.0.165percent_209.final.contigs.ntref" of length 2813864
# construct suffix tree for sequence of length 2813864
# (maximum reference length is 536870908)
# (maximum query length is 4294967295)
# process 28138 characters per dot
#....................................................................................................
# CONSTRUCTIONTIME /vol/ngscomparison/software/analysis/quast-2.1/libs/MUMmer3.23-linux/mummer /vol/codine-tmp/juene/tmp.1dmFCG295Y/quast/contigs_reports/nucmer_output/VELVET_PGM_mrsa_pgm_400bp_es_318_IKA_ts3.2_morestringent.0.165percent_209.final.contigs.ntref 1.40
# reading input file "/vol/codine-tmp/juene/tmp.1dmFCG295Y/quast/corrected_input/VELVET_PGM_mrsa_pgm_400bp_es_318_IKA_ts3.2_morestringent.0.165percent_209.final.contigs" of length 2283595
# matching query-file "/vol/codine-tmp/juene/tmp.1dmFCG295Y/quast/corrected_input/VELVET_PGM_mrsa_pgm_400bp_es_318_IKA_ts3.2_morestringent.0.165percent_209.final.contigs"
# against subject-file "/vol/codine-tmp/juene/tmp.1dmFCG295Y/quast/contigs_reports/nucmer_output/VELVET_PGM_mrsa_pgm_400bp_es_318_IKA_ts3.2_morestringent.0.165percent_209.final.contigs.ntref"
# COMPLETETIME /vol/ngscomparison/software/analysis/quast-2.1/libs/MUMmer3.23-linux/mummer /vol/codine-tmp/juene/tmp.1dmFCG295Y/quast/contigs_reports/nucmer_output/VELVET_PGM_mrsa_pgm_400bp_es_318_IKA_ts3.2_morestringent.0.165percent_209.final.contigs.ntref 3.94
# SPACE /vol/ngscomparison/software/analysis/quast-2.1/libs/MUMmer3.23-linux/mummer /vol/codine-tmp/juene/tmp.1dmFCG295Y/quast/contigs_reports/nucmer_output/VELVET_PGM_mrsa_pgm_400bp_es_318_IKA_ts3.2_morestringent.0.165percent_209.final.contigs.ntref 4.98
4: FINISHING DATA
