All statistics are based on contigs of size >= 200 bp, unless otherwise noted (e.g., "# contigs (>= 0 bp)" and "Total length (>= 0 bp)" include all contigs).

Assembly                                                                       #Contigs  #Contigs (>= 0 bp)  #Contigs (>= 1000 bp)  Largest contig  Total length  Total length (>= 0 bp)  Total length (>= 1000 bp)  Reference length  N50  NG50  N75  NG75  L50   LG50  L75   LG75  #local misassemblies  #misassemblies  #misassembled contigs  Misassembled contigs length  Misassemblies inter-contig overlap  #unaligned contigs  Unaligned contigs length  #ambiguously mapped contigs  Extra bases in ambiguously mapped contigs  #N's    #N's per 100 kbp  Genome fraction (%)  Duplication ratio  #genes           #predicted genes (unique)  #predicted genes (>= 0 bp)  #predicted genes (>= 300 bp)  #predicted genes (>= 1500 bp)  #predicted genes (>= 3000 bp)  #mismatches  #indels  Indels length  #mismatches per 100 kbp  #indels per 100 kbp  GC (%)  Reference GC (%)  Average %IDY  Largest alignment  NA50  NGA50  NA75  NGA75  LA50  LGA50  LA75  LGA75  #Mis_misassemblies  #Mis_relocations  #Mis_translocations  #Mis_inversions  #Mis_misassembled contigs  Mis_Misassembled contigs length  #Mis_local misassemblies  #Mis_short indels (<= 5 bp)  #Mis_long indels (> 5 bp)  #Una_fully unaligned contigs  Una_Fully unaligned length  #Una_partially unaligned contigs  #Una_with misassembly  #Una_both parts are significant  Una_Partially unaligned length  GAGE_Contigs #  GAGE_Min contig  GAGE_Max contig  GAGE_N50         GAGE_Genome size  GAGE_Assembly size  GAGE_Chaff bases  GAGE_Missing reference bases  GAGE_Missing assembly bases  GAGE_Missing assembly contigs  GAGE_Duplicated reference bases  GAGE_Compressed reference bases  GAGE_Bad trim  GAGE_Avg idy  GAGE_SNPs  GAGE_Indels < 5bp  GAGE_Indels >= 5  GAGE_Inversions  GAGE_Relocation  GAGE_Translocation  GAGE_Corrected contig #  GAGE_Corrected assembly size  GAGE_Min correct contig  GAGE_Max correct contig  GAGE_Corrected N50
SOAP2_MIS_PE_sakai_mis-1_bi_2x150bp_default.0.826percent_25.final.scaf_broken  8162      60700               96                     2838            2842756       9694999                 122437                     5594470           354  203   262  None  2701  7937  5054  None  1                     2               2                      707                          0                                   57 + 11 part        15777                     14                           -3543                                      135     4.75              49.922               1.011              253 + 3942 part  8864                       8865                        2628                          4                              0                              183          71       92             6.55                     2.54                 48.51   50.48             99.989        2838               353   202    261   None   2705  7961   5064  None   2                   2                 0                    0                2                          707                              1                         69                           2                          57                            15032                       11                                0                      0                                745                             8162            200              2838             203 COUNT: 7937  5594470           2842756             0                 2792823(49.92%)               14333(0.50%)                 54(0.66%)                      205                              3718                             825            99.99         171        33                 11                0                2                0                   8104                     2825833                       200                      2838                     202 COUNT: 7962   
SOAP2_MIS_PE_sakai_mis-1_bi_2x150bp_default.0.826percent_25.final.scaf         7763      58888               315                    8197            3143583       9810283                 520285                     5594470           416  233   282  None  2128  6160  4443  None  411                   2               2                      707                          0                                   381 + 211 part      412831                    14                           -3543                                      115431  3671.96           46.664               1.045              258 + 3762 part  9377                       9378                        2723                          6                              0                              183          2236     4260           7.01                     85.67                48.58   50.48             99.935        7276               320   None   226   None   3035  None   5986  None   2                   2                 0                    0                2                          707                              411                       2158                         78                         381                           282218                      211                               2                      68                               130613                          7763            200              8197             233 COUNT: 6160  5594470           3143583             0                 2649480(47.36%)               168104(5.35%)                76(0.98%)                      410                              3718                             32460          99.98         189        68                 1488              0                4                0                   8034                     2806353                       200                      3089                     200 COUNT: 7989   
