Assembly	SOAP2_MIS_PE_sakai_mis-1_bi_2x150bp_default.0.826percent_27.final.scaf_broken	SOAP2_MIS_PE_sakai_mis-1_bi_2x150bp_default.0.826percent_27.final.scaf
GAGE_Contigs #	8718	8454
GAGE_Min contig	200	200
GAGE_Max contig	2817	7155
GAGE_N50	225 COUNT: 7266	249 COUNT: 6109
GAGE_Genome size	5594470	5594470
GAGE_Assembly size	3105359	3320229
GAGE_Chaff bases	0	0
GAGE_Missing reference bases	2540254(45.41%)	2433498(43.50%)
GAGE_Missing assembly bases	11887(0.38%)	115932(3.49%)
GAGE_Missing assembly contigs	46(0.53%)	56(0.66%)
GAGE_Duplicated reference bases	0	0
GAGE_Compressed reference bases	5675	5675
GAGE_Bad trim	179	21107
GAGE_Avg idy	99.99	99.98
GAGE_SNPs	103	119
GAGE_Indels < 5bp	39	66
GAGE_Indels >= 5	12	1064
GAGE_Inversions	0	0
GAGE_Relocation	2	2
GAGE_Translocation	0	0
GAGE_Corrected contig #	8674	8631
GAGE_Corrected assembly size	3091741	3081047
GAGE_Min correct contig	200	200
GAGE_Max correct contig	2817	2817
GAGE_Corrected N50	225 COUNT: 7283	224 COUNT: 7288
