calling: java -cp /vol/ngscomparison/software/analysis/quast-2.1/libs/gage:. SizeFasta /vol/codine-tmp/juene/tmp.pZAkgXeLww/quast/corrected_input/Ecoli_Sakai_editedNew_plasmids.fasta |awk '{SUM+=; print SUM}'|tail -n 1
Contig Stats
Total units: 381
Reference: 5594470
BasesInFasta: 5412745
Min: 201
Max: 378188
N10: 374684 COUNT: 2
N25: 327261 COUNT: 4
N50: 149531 COUNT: 11
N75: 75426 COUNT: 23
E-size:184796.74

Genome Size: 5594470
Assembly Size: 5412745
Chaff bases: 0
Missing Reference Bases: 12910(0.23%)
Missing Assembly Bases: 34077(0.63%)
Missing Assembly Contigs: 107(28.08%)
Duplicated Reference Bases: 15296
Compressed Reference Bases: 247466
Bad Trim: 693
Avg Idy: 99.99
SNPs: 88
Indels < 5bp: 20
Indels >= 5: 22
Inversions: 1
Relocation: 5
Translocation: 0

Corrected Contig Stats
calling: java -cp /vol/ngscomparison/software/analysis/quast-2.1/libs/gage:.:. GetFastaStats -o -min 199 -genomeSize 5594470 /vol/codine-tmp/juene/tmp.pZAkgXeLww/quast/gage/tmp/CLC_MIS_PE_sakai_mis-1_bi_2x250bp_SI_default__sakai_mis-2_bi_2x250bp_SI_default.41coverage.result.matches.lens 2> /dev/null
Total units: 271
Reference: 5594470
BasesInFasta: 5363710
Min: 201
Max: 377435
N10: 356145 COUNT: 2
N25: 235914 COUNT: 5
N50: 102472 COUNT: 14
N75: 43185 COUNT: 33
E-size:147602.06

Done
