Assembly	SOAP2_PGM_sakai_pgm_mu_200bp_IO_TS3.0Disabled_stringent.0.34percent_111.final.contig
GAGE_Contigs #	20451
GAGE_Min contig	200
GAGE_Max contig	4996
GAGE_N50	920 COUNT: 1870
GAGE_Genome size	5594470
GAGE_Assembly size	8213065
GAGE_Chaff bases	0
GAGE_Missing reference bases	69847(1.25%)
GAGE_Missing assembly bases	747(0.01%)
GAGE_Missing assembly contigs	0(0.00%)
GAGE_Duplicated reference bases	2401710
GAGE_Compressed reference bases	274588
GAGE_Bad trim	747
GAGE_Avg idy	99.96
GAGE_SNPs	51
GAGE_Indels < 5bp	1400
GAGE_Indels >= 5	0
GAGE_Inversions	0
GAGE_Relocation	3
GAGE_Translocation	0
GAGE_Corrected contig #	9625
GAGE_Corrected assembly size	5811302
GAGE_Min correct contig	200
GAGE_Max correct contig	4997
GAGE_Corrected N50	920 COUNT: 1870
