All statistics are based on contigs of size >= 200 bp, unless otherwise noted (e.g., "# contigs (>= 0 bp)" and "Total length (>= 0 bp)" include all contigs).

Assembly                         CLC_MIS_PE_sakai_mis-1_bi_2x250bp_SI_default__sakai_mis-2_bi_2x250bp_SI_default.0.125percent.result_broken  CLC_MIS_PE_sakai_mis-1_bi_2x250bp_SI_default__sakai_mis-2_bi_2x250bp_SI_default.0.125percent.result
#Mis_misassemblies               4                                                                                                           5                                                                                                  
#Mis_relocations                 3                                                                                                           4                                                                                                  
#Mis_translocations              1                                                                                                           1                                                                                                  
#Mis_inversions                  0                                                                                                           0                                                                                                  
#Mis_misassembled contigs        4                                                                                                           5                                                                                                  
Mis_Misassembled contigs length  314136                                                                                                      323317                                                                                             
#Mis_local misassemblies         11                                                                                                          28                                                                                                 
#mismatches                      332                                                                                                         329                                                                                                
#indels                          41                                                                                                          73                                                                                                 
#Mis_short indels (<= 5 bp)      31                                                                                                          61                                                                                                 
#Mis_long indels (> 5 bp)        10                                                                                                          12                                                                                                 
Indels length                    495                                                                                                         615                                                                                                
