All statistics are based on contigs of size >= 200 bp, unless otherwise noted (e.g., "# contigs (>= 0 bp)" and "Total length (>= 0 bp)" include all contigs).

Assembly                                   ABYSS_PE_MIS_PE_mtbh37-1_mis_2x250bp_nextera_default__mtbh37-2_mis_2x250bp_nextera_default_124-scaffolds_broken  ABYSS_PE_MIS_PE_mtbh37-1_mis_2x250bp_nextera_default__mtbh37-2_mis_2x250bp_nextera_default_124-scaffolds
#Contigs                                   247                                                                                                              197                                                                                                     
#Contigs (>= 0 bp)                         266                                                                                                              216                                                                                                     
#Contigs (>= 1000 bp)                      211                                                                                                              166                                                                                                     
Largest contig                             137714                                                                                                           163609                                                                                                  
Total length                               4422563                                                                                                          4425026                                                                                                 
Total length (>= 0 bp)                     4425580                                                                                                          4428043                                                                                                 
Total length (>= 1000 bp)                  4405439                                                                                                          4411360                                                                                                 
Reference length                           4411532                                                                                                          4411532                                                                                                 
N50                                        38014                                                                                                            53865                                                                                                   
NG50                                       38014                                                                                                            53865                                                                                                   
N75                                        21606                                                                                                            29653                                                                                                   
NG75                                       21606                                                                                                            29653                                                                                                   
L50                                        35                                                                                                               26                                                                                                      
LG50                                       35                                                                                                               26                                                                                                      
L75                                        74                                                                                                               55                                                                                                      
LG75                                       74                                                                                                               55                                                                                                      
#local misassemblies                       15                                                                                                               21                                                                                                      
#misassemblies                             5                                                                                                                6                                                                                                       
#misassembled contigs                      5                                                                                                                6                                                                                                       
Misassembled contigs length                12979                                                                                                            36920                                                                                                   
Misassemblies inter-contig overlap         19369                                                                                                            19393                                                                                                   
#unaligned contigs                         0 + 2 part                                                                                                       0 + 2 part                                                                                              
Unaligned contigs length                   296                                                                                                              296                                                                                                     
#ambiguously mapped contigs                9                                                                                                                9                                                                                                       
Extra bases in ambiguously mapped contigs  -6708                                                                                                            -6708                                                                                                   
#N's                                       36                                                                                                               2499                                                                                                    
#N's per 100 kbp                           0.81                                                                                                             56.47                                                                                                   
Genome fraction (%)                        99.037                                                                                                           99.071                                                                                                  
Duplication ratio                          1.015                                                                                                            1.015                                                                                                   
#genes                                     3939 + 171 part                                                                                                  3980 + 130 part                                                                                         
#predicted genes (unique)                  4126                                                                                                             4113                                                                                                    
#predicted genes (>= 0 bp)                 4215                                                                                                             4202                                                                                                    
#predicted genes (>= 300 bp)               3657                                                                                                             3650                                                                                                    
#predicted genes (>= 1500 bp)              564                                                                                                              564                                                                                                     
#predicted genes (>= 3000 bp)              72                                                                                                               73                                                                                                      
#mismatches                                261                                                                                                              254                                                                                                     
#indels                                    78                                                                                                               330                                                                                                     
Indels length                              258                                                                                                              1134                                                                                                    
#mismatches per 100 kbp                    5.97                                                                                                             5.81                                                                                                    
#indels per 100 kbp                        1.79                                                                                                             7.55                                                                                                    
GC (%)                                     65.50                                                                                                            65.50                                                                                                   
Reference GC (%)                           65.61                                                                                                            65.61                                                                                                   
Average %IDY                               99.765                                                                                                           99.748                                                                                                  
Largest alignment                          137714                                                                                                           163507                                                                                                  
NA50                                       38014                                                                                                            53766                                                                                                   
NGA50                                      38014                                                                                                            53766                                                                                                   
NA75                                       21606                                                                                                            29653                                                                                                   
NGA75                                      21606                                                                                                            29653                                                                                                   
LA50                                       35                                                                                                               26                                                                                                      
LGA50                                      35                                                                                                               26                                                                                                      
LA75                                       74                                                                                                               55                                                                                                      
LGA75                                      74                                                                                                               55                                                                                                      
#Mis_misassemblies                         5                                                                                                                6                                                                                                       
#Mis_relocations                           5                                                                                                                6                                                                                                       
#Mis_translocations                        0                                                                                                                0                                                                                                       
#Mis_inversions                            0                                                                                                                0                                                                                                       
#Mis_misassembled contigs                  5                                                                                                                6                                                                                                       
Mis_Misassembled contigs length            12979                                                                                                            36920                                                                                                   
#Mis_local misassemblies                   15                                                                                                               21                                                                                                      
#Mis_short indels (<= 5 bp)                67                                                                                                               293                                                                                                     
#Mis_long indels (> 5 bp)                  11                                                                                                               37                                                                                                      
#Una_fully unaligned contigs               0                                                                                                                0                                                                                                       
Una_Fully unaligned length                 0                                                                                                                0                                                                                                       
#Una_partially unaligned contigs           2                                                                                                                2                                                                                                       
#Una_with misassembly                      0                                                                                                                0                                                                                                       
#Una_both parts are significant            1                                                                                                                1                                                                                                       
Una_Partially unaligned length             296                                                                                                              296                                                                                                     
GAGE_Contigs #                             247                                                                                                              197                                                                                                     
GAGE_Min contig                            201                                                                                                              201                                                                                                     
GAGE_Max contig                            137714                                                                                                           163609                                                                                                  
GAGE_N50                                   38014 COUNT: 35                                                                                                  53865 COUNT: 26                                                                                         
GAGE_Genome size                           4411532                                                                                                          4411532                                                                                                 
GAGE_Assembly size                         4422563                                                                                                          4425026                                                                                                 
GAGE_Chaff bases                           0                                                                                                                0                                                                                                       
GAGE_Missing reference bases               38870(0.88%)                                                                                                     38631(0.88%)                                                                                            
GAGE_Missing assembly bases                1068(0.02%)                                                                                                      3297(0.07%)                                                                                             
GAGE_Missing assembly contigs              0(0.00%)                                                                                                         0(0.00%)                                                                                                
GAGE_Duplicated reference bases            16197                                                                                                            16197                                                                                                   
GAGE_Compressed reference bases            6407                                                                                                             6407                                                                                                    
GAGE_Bad trim                              1053                                                                                                             1053                                                                                                    
GAGE_Avg idy                               99.99                                                                                                            99.98                                                                                                   
GAGE_SNPs                                  194                                                                                                              194                                                                                                     
GAGE_Indels < 5bp                          55                                                                                                               72                                                                                                      
GAGE_Indels >= 5                           23                                                                                                               65                                                                                                      
GAGE_Inversions                            0                                                                                                                0                                                                                                       
GAGE_Relocation                            3                                                                                                                3                                                                                                       
GAGE_Translocation                         0                                                                                                                0                                                                                                       
GAGE_Corrected contig #                    258                                                                                                              250                                                                                                     
GAGE_Corrected assembly size               4410472                                                                                                          4410711                                                                                                 
GAGE_Min correct contig                    239                                                                                                              239                                                                                                     
GAGE_Max correct contig                    109649                                                                                                           149777                                                                                                  
GAGE_Corrected N50                         33130 COUNT: 39                                                                                                  37084 COUNT: 35                                                                                         
