Assembly	VELVET_MIS_PE_sakai_mis-both_bi_2x250bp_SI_default.0.64percent_175.final.contigs_broken	VELVET_MIS_PE_sakai_mis-both_bi_2x250bp_SI_default.0.64percent_175.final.contigs
#Contigs	627	463
#Contigs (>= 0 bp)	628	463
#Contigs (>= 1000 bp)	425	282
Largest contig	77611	121177
Total length	5475741	5497321
Total length (>= 0 bp)	5475916	5497321
Total length (>= 1000 bp)	5370035	5405248
Reference length	5594470	5594470
N50	22110	44571
NG50	21913	43676
N75	11848	20913
NG75	11493	19221
L50	76	41
LG50	79	42
L75	161	85
LG75	169	89
#local misassemblies	2	142
#misassemblies	7	14
#misassembled contigs	7	10
Misassembled contigs length	135509	313811
Misassemblies inter-contig overlap	4042	2289
#unaligned contigs	1 + 0 part	1 + 0 part
Unaligned contigs length	5560	5560
#ambiguously mapped contigs	163	156
Extra bases in ambiguously mapped contigs	-109693	-104786
#N's	0	21405
#N's per 100 kbp	0.00	389.37
Genome fraction (%)	95.505	95.586
Duplication ratio	1.004	1.008
#genes	4858 + 423 part	4878 + 405 part
#predicted genes (unique)	5658	5636
#predicted genes (>= 0 bp)	5690	5667
#predicted genes (>= 300 bp)	4702	4699
#predicted genes (>= 1500 bp)	640	639
#predicted genes (>= 3000 bp)	59	60
#mismatches	191	256
#indels	16	400
Indels length	16	906
#mismatches per 100 kbp	3.57	4.79
#indels per 100 kbp	0.30	7.48
GC (%)	50.36	50.36
Reference GC (%)	50.48	50.48
Average %IDY	98.860	98.844
Largest alignment	77611	120573
NA50	22021	42796
NGA50	21913	42593
NA75	11705	18962
NGA75	11349	17656
LA50	77	42
LGA50	79	43
LA75	162	88
LGA75	169	92
#Mis_misassemblies	7	14
#Mis_relocations	6	13
#Mis_translocations	1	1
#Mis_inversions	0	0
#Mis_misassembled contigs	7	10
Mis_Misassembled contigs length	135509	313811
#Mis_local misassemblies	2	142
#Mis_short indels (<= 5 bp)	16	388
#Mis_long indels (> 5 bp)	0	12
#Una_fully unaligned contigs	1	1
Una_Fully unaligned length	5560	5560
#Una_partially unaligned contigs	0	0
#Una_with misassembly	0	0
#Una_both parts are significant	0	0
Una_Partially unaligned length	0	0
GAGE_Contigs #	627	463
GAGE_Min contig	291	349
GAGE_Max contig	77611	121177
GAGE_N50	21913 COUNT: 79	43676 COUNT: 42
GAGE_Genome size	5594470	5594470
GAGE_Assembly size	5475741	5497321
GAGE_Chaff bases	0	0
GAGE_Missing reference bases	12338(0.22%)	12833(0.23%)
GAGE_Missing assembly bases	5767(0.11%)	27171(0.49%)
GAGE_Missing assembly contigs	1(0.16%)	1(0.22%)
GAGE_Duplicated reference bases	9611	7208
GAGE_Compressed reference bases	236420	235110
GAGE_Bad trim	207	187
GAGE_Avg idy	99.99	99.99
GAGE_SNPs	131	131
GAGE_Indels < 5bp	15	19
GAGE_Indels >= 5	2	147
GAGE_Inversions	2	5
GAGE_Relocation	3	9
GAGE_Translocation	1	1
GAGE_Corrected contig #	614	618
GAGE_Corrected assembly size	5464590	5467173
GAGE_Min correct contig	277	277
GAGE_Max correct contig	77611	77611
GAGE_Corrected N50	21774 COUNT: 81	21774 COUNT: 81
