Assembly	SOAP2_PGM_sakai_pgm_mu_200bp_IO_TS3.0Disabled_stringent.0.34percent_125.final.contig
#Contigs (>= 0 bp)	14456
#Contigs (>= 1000 bp)	1956
Total length (>= 0 bp)	7425421
Total length (>= 1000 bp)	3453763
#Contigs	12618
Largest contig	9549
Total length	7136047
Reference length	5594470
GC (%)	50.83
Reference GC (%)	50.48
N50	955
NG50	1272
N75	251
NG75	726
#misassemblies	6
#local misassemblies	1
#unaligned contigs	2 + 12 part
Unaligned contigs length	1388
Genome fraction (%)	92.415
Duplication ratio	1.339
#N's per 100 kbp	0.00
#mismatches per 100 kbp	1.74
#indels per 100 kbp	47.77
#genes	2175 + 2956 part
#predicted genes (unique)	16543
#predicted genes (>= 0 bp)	16850
#predicted genes (>= 300 bp)	5892
#predicted genes (>= 1500 bp)	175
#predicted genes (>= 3000 bp)	3
Largest alignment	9549
NA50	952
NGA50	1268
NA75	250
NGA75	718
