All statistics are based on contigs of size >= 200 bp, unless otherwise noted (e.g., "# contigs (>= 0 bp)" and "Total length (>= 0 bp)" include all contigs).

Assembly                       NEWBLER_MIS_PE_mtbh37-1_mis_2x250bp_nextera_default__mtbh37-2_mis_2x250bp_nextera_default.0.075percent.contigs_broken  NEWBLER_MIS_PE_mtbh37-1_mis_2x250bp_nextera_default__mtbh37-2_mis_2x250bp_nextera_default.0.075percent.contigs
#Contigs (>= 0 bp)             887                                                                                                                    637                                                                                                           
#Contigs (>= 1000 bp)          762                                                                                                                    637                                                                                                           
Total length (>= 0 bp)         2097635                                                                                                                2167584                                                                                                       
Total length (>= 1000 bp)      2004627                                                                                                                2167584                                                                                                       
#Contigs                       887                                                                                                                    637                                                                                                           
Largest contig                 8697                                                                                                                   13110                                                                                                         
Total length                   2097635                                                                                                                2167584                                                                                                       
Reference length               4411532                                                                                                                4411532                                                                                                       
GC (%)                         65.49                                                                                                                  65.49                                                                                                         
Reference GC (%)               65.61                                                                                                                  65.61                                                                                                         
N50                            2738                                                                                                                   3484                                                                                                          
NG50                           None                                                                                                                   None                                                                                                          
N75                            2135                                                                                                                   2705                                                                                                          
NG75                           None                                                                                                                   None                                                                                                          
#misassemblies                 7                                                                                                                      10                                                                                                            
#local misassemblies           4                                                                                                                      204                                                                                                           
#unaligned contigs             1 + 1 part                                                                                                             0 + 0 part                                                                                                    
Unaligned contigs length       778                                                                                                                    0                                                                                                             
Genome fraction (%)            47.537                                                                                                                 47.595                                                                                                        
Duplication ratio              1.000                                                                                                                  1.034                                                                                                         
#N's per 100 kbp               0.00                                                                                                                   3227.05                                                                                                       
#mismatches per 100 kbp        17.69                                                                                                                  18.19                                                                                                         
#indels per 100 kbp            2.81                                                                                                                   27.05                                                                                                         
#genes                         1248 + 1063 part                                                                                                       1275 + 1037 part                                                                                              
#predicted genes (unique)      2609                                                                                                                   2579                                                                                                          
#predicted genes (>= 0 bp)     2609                                                                                                                   2579                                                                                                          
#predicted genes (>= 300 bp)   2053                                                                                                                   2051                                                                                                          
#predicted genes (>= 1500 bp)  191                                                                                                                    190                                                                                                           
#predicted genes (>= 3000 bp)  7                                                                                                                      7                                                                                                             
Largest alignment              8697                                                                                                                   11935                                                                                                         
NA50                           2731                                                                                                                   3239                                                                                                          
NGA50                          None                                                                                                                   None                                                                                                          
NA75                           2122                                                                                                                   2494                                                                                                          
NGA75                          None                                                                                                                   None                                                                                                          
