All statistics are based on contigs of size >= 200 bp, unless otherwise noted (e.g., "# contigs (>= 0 bp)" and "Total length (>= 0 bp)" include all contigs).

Assembly                                                                                                           #Contigs (>= 0 bp)  #Contigs (>= 1000 bp)  Total length (>= 0 bp)  Total length (>= 1000 bp)  #Contigs  Largest contig  Total length  Reference length  GC (%)  Reference GC (%)  N50     NG50    N75    NG75   #misassemblies  #local misassemblies  #unaligned contigs  Unaligned contigs length  Genome fraction (%)  Duplication ratio  #N's per 100 kbp  #mismatches per 100 kbp  #indels per 100 kbp  #genes           #predicted genes (unique)  #predicted genes (>= 0 bp)  #predicted genes (>= 300 bp)  #predicted genes (>= 1500 bp)  #predicted genes (>= 3000 bp)  Largest alignment  NA50    NGA50   NA75   NGA75
VELVET_MIS_PE_sakai_mis-1_bi_2x150bp_default__sakai_mis-2_bi_2x150bp_default.0.826percent_55.final.contigs_broken  676                 195                    5394861                 5255350                    430       251822          5358903       5594470           50.29   50.48             69735   61455   36096  30901  3               9                     1 + 0 part          5440                      93.971               1.001              0.00              6.83                     0.63                 4924 + 195 part  5366                       5370                        4450                          661                            67                             251822             63377   60280   35681  30865
VELVET_MIS_PE_sakai_mis-1_bi_2x150bp_default__sakai_mis-2_bi_2x150bp_default.0.826percent_55.final.contigs         565                 123                    5399899                 5280293                    325       374966          5364739       5594470           50.29   50.48             148225  145183  73860  63377  13              47                    1 + 2 part          6168                      94.015               1.002              93.91             7.41                     5.46                 4971 + 153 part  5327                       5332                        4447                          664                            66                             352277             147976  142070  73760  63377
