Assembly	#Contigs	#Contigs (>= 0 bp)	#Contigs (>= 1000 bp)	Largest contig	Total length	Total length (>= 0 bp)	Total length (>= 1000 bp)	Reference length	N50	NG50	N75	NG75	L50	LG50	L75	LG75	#local misassemblies	#misassemblies	#misassembled contigs	Misassembled contigs length	Misassemblies inter-contig overlap	#unaligned contigs	Unaligned contigs length	#ambiguously mapped contigs	Extra bases in ambiguously mapped contigs	#N's	#N's per 100 kbp	Genome fraction (%)	Duplication ratio	#genes	#predicted genes (unique)	#predicted genes (>= 0 bp)	#predicted genes (>= 300 bp)	#predicted genes (>= 1500 bp)	#predicted genes (>= 3000 bp)	#mismatches	#indels	Indels length	#mismatches per 100 kbp	#indels per 100 kbp	GC (%)	Reference GC (%)	Average %IDY	Largest alignment	NA50	NGA50	NA75	NGA75	LA50	LGA50	LA75	LGA75	#Mis_misassemblies	#Mis_relocations	#Mis_translocations	#Mis_inversions	#Mis_misassembled contigs	Mis_Misassembled contigs length	#Mis_local misassemblies	#Mis_short indels (<= 5 bp)	#Mis_long indels (> 5 bp)	#Una_fully unaligned contigs	Una_Fully unaligned length	#Una_partially unaligned contigs	#Una_with misassembly	#Una_both parts are significant	Una_Partially unaligned length	GAGE_Contigs #	GAGE_Min contig	GAGE_Max contig	GAGE_N50	GAGE_Genome size	GAGE_Assembly size	GAGE_Chaff bases	GAGE_Missing reference bases	GAGE_Missing assembly bases	GAGE_Missing assembly contigs	GAGE_Duplicated reference bases	GAGE_Compressed reference bases	GAGE_Bad trim	GAGE_Avg idy	GAGE_SNPs	GAGE_Indels < 5bp	GAGE_Indels >= 5	GAGE_Inversions	GAGE_Relocation	GAGE_Translocation	GAGE_Corrected contig #	GAGE_Corrected assembly size	GAGE_Min correct contig	GAGE_Max correct contig	GAGE_Corrected N50
ABYSS_PE_MIS_PE_mrsa_mis-1_bi_2x150bp_default__mrsa_mis-2_bi_2x150bp_default.0.527percent_70-scaffolds_broken	81	211	64	229476	2792028	2807751	2784564	2813862	90629	90629	43987	43987	10	10	21	21	3	4	4	191282	2518	0 + 0 part	0	5	-5512	7	0.25	98.539	1.006	2654 + 32 part	2643	2661	2291	303	29	152	16	70	5.48	0.58	32.67	32.81	98.848	229476	90629	90629	43987	43987	10	10	21	21	4	4	0	0	4	191282	3	14	2	0	0	0	0	0	0	81	208	229476	90629 COUNT: 10	2813862	2792028	0	6225(0.22%)	1736(0.06%)	0(0.00%)	932	33776	1734	99.99	62	15	5	0	3	0	88	2791125	208	208052	85551 COUNT: 11
ABYSS_PE_MIS_PE_mrsa_mis-1_bi_2x150bp_default__mrsa_mis-2_bi_2x150bp_default.0.527percent_70-scaffolds	58	188	52	272759	2793199	2808922	2791287	2813862	137588	137588	68556	68556	8	8	15	15	12	6	6	263503	2587	0 + 0 part	0	1	-4940	1178	42.17	98.564	1.006	2663 + 27 part	2640	2657	2289	303	29	155	151	305	5.59	5.44	32.67	32.81	98.780	272759	137588	137588	68556	68556	8	8	15	15	6	6	0	0	6	263503	12	144	7	0	0	0	0	0	0	58	208	272759	137588 COUNT: 8	2813862	2793199	0	6225(0.22%)	2857(0.10%)	0(0.00%)	932	33901	1734	99.99	62	15	19	2	5	0	88	2791248	208	208052	85551 COUNT: 11
