Assembly	CLC_PGM_mrsa_pgm_400bp_es_318_IKA_ts3.2_morestringent.0.150percent.result
#Contigs (>= 0 bp)	562
#Contigs (>= 1000 bp)	172
Total length (>= 0 bp)	2841337
Total length (>= 1000 bp)	2716959
#Contigs	562
Largest contig	86939
Total length	2841337
Reference length	2813862
GC (%)	32.61
Reference GC (%)	32.81
N50	25723
NG50	26115
N75	13601
NG75	13926
#misassemblies	2
#local misassemblies	2
#unaligned contigs	11 + 11 part
Unaligned contigs length	4965
Genome fraction (%)	97.736
Duplication ratio	1.028
#N's per 100 kbp	23.79
#mismatches per 100 kbp	5.20
#indels per 100 kbp	16.58
#genes	2539 + 142 part
#predicted genes (unique)	3047
#predicted genes (>= 0 bp)	3062
#predicted genes (>= 300 bp)	2361
#predicted genes (>= 1500 bp)	278
#predicted genes (>= 3000 bp)	26
Largest alignment	86939
NA50	25720
NGA50	26115
NA75	13601
NGA75	13830
