1: PREPARING DATA
2,3: RUNNING mummer AND CREATING CLUSTERS
# reading input file "/vol/codine-tmp/juene/tmp.1BCna6NznI/quast/gage/tmp/NEWBLER_PGM_sakai_pgm_mu_318_400bp_IO_TS3.4_ms.81coverage.contigs.ntref" of length 5594473
# construct suffix tree for sequence of length 5594473
# (maximum reference length is 536870908)
# (maximum query length is 4294967295)
# process 55944 characters per dot
#....................................................................................................
# CONSTRUCTIONTIME /vol/ngscomparison/software/analysis/quast-2.1/libs/MUMmer3.23-linux/mummer /vol/codine-tmp/juene/tmp.1BCna6NznI/quast/gage/tmp/NEWBLER_PGM_sakai_pgm_mu_318_400bp_IO_TS3.4_ms.81coverage.contigs.ntref 2.87
# reading input file "/vol/codine-tmp/juene/tmp.1BCna6NznI/quast/corrected_input/NEWBLER_PGM_sakai_pgm_mu_318_400bp_IO_TS3.4_ms.81coverage.contigs" of length 5356762
# matching query-file "/vol/codine-tmp/juene/tmp.1BCna6NznI/quast/corrected_input/NEWBLER_PGM_sakai_pgm_mu_318_400bp_IO_TS3.4_ms.81coverage.contigs"
# against subject-file "/vol/codine-tmp/juene/tmp.1BCna6NznI/quast/gage/tmp/NEWBLER_PGM_sakai_pgm_mu_318_400bp_IO_TS3.4_ms.81coverage.contigs.ntref"
# COMPLETETIME /vol/ngscomparison/software/analysis/quast-2.1/libs/MUMmer3.23-linux/mummer /vol/codine-tmp/juene/tmp.1BCna6NznI/quast/gage/tmp/NEWBLER_PGM_sakai_pgm_mu_318_400bp_IO_TS3.4_ms.81coverage.contigs.ntref 8.37
# SPACE /vol/ngscomparison/software/analysis/quast-2.1/libs/MUMmer3.23-linux/mummer /vol/codine-tmp/juene/tmp.1BCna6NznI/quast/gage/tmp/NEWBLER_PGM_sakai_pgm_mu_318_400bp_IO_TS3.4_ms.81coverage.contigs.ntref 10.63
4: FINISHING DATA
Filtering alignments
Extracting alignment coordinates
Analyzing SNPs
Extracting alignment breakpoints
Generating report file
Found genome size at position 4 with value 5594470 aka 5594470
Calculating point at 0 and the sum is 1118327 and i is262 and lens is 267 and length is 184579
Calculating point at 1 and the sum is 2033078 and i is256 and lens is 267 and length is 145035
Calculating point at 2 and the sum is 3045599 and i is247 and lens is 267 and length is 95926
Calculating point at 3 and the sum is 4013588 and i is233 and lens is 267 and length is 50442
Calculating point at 4 and the sum is 5001549 and i is200 and lens is 267 and length is 11598
