Assembly	SOAP2_PGM_mtbh37_pgm_400bp_es_318v2_OT2_tsv3.6_morestringent_79.final.contig
GAGE_Contigs #	7997
GAGE_Min contig	200
GAGE_Max contig	1458
GAGE_N50	208 COUNT: 7533
GAGE_Genome size	4411532
GAGE_Assembly size	2300267
GAGE_Chaff bases	0
GAGE_Missing reference bases	2428345(55.05%)
GAGE_Missing assembly bases	34500(1.50%)
GAGE_Missing assembly contigs	79(0.99%)
GAGE_Duplicated reference bases	147622
GAGE_Compressed reference bases	21877
GAGE_Bad trim	12882
GAGE_Avg idy	99.08
GAGE_SNPs	599
GAGE_Indels < 5bp	14840
GAGE_Indels >= 5	22
GAGE_Inversions	11
GAGE_Relocation	10
GAGE_Translocation	0
GAGE_Corrected contig #	7208
GAGE_Corrected assembly size	2089356
GAGE_Min correct contig	200
GAGE_Max correct contig	1458
GAGE_Corrected N50	0 COUNT: 0
