Assembly	VELVET_PGM_mrsa_pgm_200bp_es_316_IonOnev2_ts3.0_morestringent.0.230percent_69.final.contigs
GAGE_Contigs #	867
GAGE_Min contig	201
GAGE_Max contig	30445
GAGE_N50	5710 COUNT: 145
GAGE_Genome size	2813862
GAGE_Assembly size	2750629
GAGE_Chaff bases	0
GAGE_Missing reference bases	51453(1.83%)
GAGE_Missing assembly bases	525(0.02%)
GAGE_Missing assembly contigs	0(0.00%)
GAGE_Duplicated reference bases	2809
GAGE_Compressed reference bases	38314
GAGE_Bad trim	325
GAGE_Avg idy	99.97
GAGE_SNPs	103
GAGE_Indels < 5bp	639
GAGE_Indels >= 5	22
GAGE_Inversions	5
GAGE_Relocation	2
GAGE_Translocation	1
GAGE_Corrected contig #	884
GAGE_Corrected assembly size	2747792
GAGE_Min correct contig	200
GAGE_Max correct contig	30446
GAGE_Corrected N50	5440 COUNT: 148
