Assembly	#Mis_misassemblies	#Mis_relocations	#Mis_translocations	#Mis_inversions	#Mis_misassembled contigs	Mis_Misassembled contigs length	#Mis_local misassemblies	#mismatches	#indels	#Mis_short indels (<= 5 bp)	#Mis_long indels (> 5 bp)	Indels length
NEWBLER_MIS_PE_mrsa_mis-1_bi_2x250bp_default__mrsa_mis-2_bi_2x250bp_default.0.150percent.contigs_broken	2	2	0	0	2	102072	2	50	9	9	0	9
NEWBLER_MIS_PE_mrsa_mis-1_bi_2x250bp_default__mrsa_mis-2_bi_2x250bp_default.0.150percent.contigs	2	2	0	0	2	102072	25	52	9	9	0	9
