1: PREPARING DATA
2,3: RUNNING mummer AND CREATING CLUSTERS
# reading input file "/vol/codine-tmp/juene/tmp.yWPPnwZ1N5/quast/contigs_reports/nucmer_output/NEWBLER_PGM_mrsa_pgm_200bp_es_316_IonOnev2_ts3.0_morestringent.11coverage.contigs.ntref" of length 2813864
# construct suffix tree for sequence of length 2813864
# (maximum reference length is 536870908)
# (maximum query length is 4294967295)
# process 28138 characters per dot
#....................................................................................................
# CONSTRUCTIONTIME /vol/ngscomparison/software/analysis/quast-2.1/libs/MUMmer3.23-linux/mummer /vol/codine-tmp/juene/tmp.yWPPnwZ1N5/quast/contigs_reports/nucmer_output/NEWBLER_PGM_mrsa_pgm_200bp_es_316_IonOnev2_ts3.0_morestringent.11coverage.contigs.ntref 1.62
# reading input file "/vol/codine-tmp/juene/tmp.yWPPnwZ1N5/quast/corrected_input/NEWBLER_PGM_mrsa_pgm_200bp_es_316_IonOnev2_ts3.0_morestringent.11coverage.contigs" of length 2735135
# matching query-file "/vol/codine-tmp/juene/tmp.yWPPnwZ1N5/quast/corrected_input/NEWBLER_PGM_mrsa_pgm_200bp_es_316_IonOnev2_ts3.0_morestringent.11coverage.contigs"
# against subject-file "/vol/codine-tmp/juene/tmp.yWPPnwZ1N5/quast/contigs_reports/nucmer_output/NEWBLER_PGM_mrsa_pgm_200bp_es_316_IonOnev2_ts3.0_morestringent.11coverage.contigs.ntref"
# COMPLETETIME /vol/ngscomparison/software/analysis/quast-2.1/libs/MUMmer3.23-linux/mummer /vol/codine-tmp/juene/tmp.yWPPnwZ1N5/quast/contigs_reports/nucmer_output/NEWBLER_PGM_mrsa_pgm_200bp_es_316_IonOnev2_ts3.0_morestringent.11coverage.contigs.ntref 4.74
# SPACE /vol/ngscomparison/software/analysis/quast-2.1/libs/MUMmer3.23-linux/mummer /vol/codine-tmp/juene/tmp.yWPPnwZ1N5/quast/contigs_reports/nucmer_output/NEWBLER_PGM_mrsa_pgm_200bp_es_316_IonOnev2_ts3.0_morestringent.11coverage.contigs.ntref 5.41
4: FINISHING DATA
