All statistics are based on contigs of size >= 200 bp, unless otherwise noted (e.g., "# contigs (>= 0 bp)" and "Total length (>= 0 bp)" include all contigs).

Assembly                                                                                         #Contigs (>= 0 bp)  #Contigs (>= 1000 bp)  Total length (>= 0 bp)  Total length (>= 1000 bp)  #Contigs  Largest contig  Total length  Reference length  GC (%)  Reference GC (%)  N50  NG50  N75  NG75  #misassemblies  #local misassemblies  #unaligned contigs  Unaligned contigs length  Genome fraction (%)  Duplication ratio  #N's per 100 kbp  #mismatches per 100 kbp  #indels per 100 kbp  #genes         #predicted genes (unique)  #predicted genes (>= 0 bp)  #predicted genes (>= 300 bp)  #predicted genes (>= 1500 bp)  #predicted genes (>= 3000 bp)  Largest alignment  NA50  NGA50  NA75  NGA75
CLC_MIS_PE_mrsa_mis-1_bi_2x150bp_default__mrsa_mis-2_bi_2x150bp_default.1coverage.result_broken  931                 7                      397051                  15138                      931       5297            397051        2813862           34.11   32.81             429  None  352  None  66              7                     3 + 14 part         3316                      13.977               1.003              8.06              140.35                   10.17                33 + 808 part  1059                       1059                        571                           0                              0                              3592               417   None   338   None 
CLC_MIS_PE_mrsa_mis-1_bi_2x150bp_default__mrsa_mis-2_bi_2x150bp_default.1coverage.result         931                 7                      397110                  15138                      931       5297            397110        2813862           34.11   32.81             429  None  352  None  66              7                     3 + 14 part         3375                      13.977               1.003              22.92             140.35                   10.17                33 + 808 part  1059                       1059                        571                           0                              0                              3592               417   None   338   None 
