calling: java -cp /vol/ngscomparison/software/analysis/quast-2.1/libs/gage:. SizeFasta /vol/codine-tmp/juene/tmp.YSxqvmic0u/quast/corrected_input/MRSA_COL_Plasmid.fasta |awk '{SUM+=; print SUM}'|tail -n 1
Contig Stats
Total units: 1053
Reference: 2813862
BasesInFasta: 609752
Min: 301
Max: 1521
N10: 568 COUNT: 396
N25: 0 COUNT: 0
N50: 0 COUNT: 0
N75: 0 COUNT: 0
E-size:133.2

Genome Size: 2813862
Assembly Size: 609752
Chaff bases: 0
Missing Reference Bases: 2190005(77.83%)
Missing Assembly Bases: 1382(0.23%)
Missing Assembly Contigs: 0(0.00%)
Duplicated Reference Bases: 0
Compressed Reference Bases: 30553
Bad Trim: 1382
Avg Idy: 99.91
SNPs: 60
Indels < 5bp: 429
Indels >= 5: 0
Inversions: 2
Relocation: 2
Translocation: 0

Corrected Contig Stats
calling: java -cp /vol/ngscomparison/software/analysis/quast-2.1/libs/gage:.:. GetFastaStats -o -min 199 -genomeSize 2813862 /vol/codine-tmp/juene/tmp.YSxqvmic0u/quast/gage/tmp/VELVET_PGM_mrsa_pgm_200bp_es_316_IonOnev2_ts3.0_morestringent.0.230percent_151.final.contigs.matches.lens 2> /dev/null
Total units: 1054
Reference: 2813862
BasesInFasta: 608478
Min: 300
Max: 1521
N10: 566 COUNT: 396
N25: 0 COUNT: 0
N50: 0 COUNT: 0
N75: 0 COUNT: 0
E-size:132.65

Done
