Assembly	VELVET_PGM_mrsa_pgm_200bp_es_316_IonOnev2_ts3.0_morestringent.0.230percent_135.final.contigs
#Mis_misassemblies	5
#Mis_relocations	1
#Mis_translocations	0
#Mis_inversions	4
#Mis_misassembled contigs	5
Mis_Misassembled contigs length	3371
#Mis_local misassemblies	0
#mismatches	143
#indels	1132
#Mis_short indels (<= 5 bp)	1132
#Mis_long indels (> 5 bp)	0
Indels length	1145
