Assembly	ABYSS_PE_PGM_sakai_pgm_mu_200bp_IO_TS3.0Disabled_stringent.11coverage_34.final
#Una_fully unaligned contigs	0
Una_Fully unaligned length	0
#Una_partially unaligned contigs	7
#Una_with misassembly	0
#Una_both parts are significant	0
Una_Partially unaligned length	207
#N's	0
