Assembly	VELVET_MIS_PE_mtbh37-1_mis_2x250bp_nextera_default__mtbh37-2_mis_2x250bp_nextera_default_209.final.contigs_broken	VELVET_MIS_PE_mtbh37-1_mis_2x250bp_nextera_default__mtbh37-2_mis_2x250bp_nextera_default_209.final.contigs
GAGE_Contigs #	2420	1610
GAGE_Min contig	417	417
GAGE_Max contig	10037	19266
GAGE_N50	1897 COUNT: 728	3312 COUNT: 396
GAGE_Genome size	4411532	4411532
GAGE_Assembly size	4057464	4192678
GAGE_Chaff bases	0	0
GAGE_Missing reference bases	407549(9.24%)	407545(9.24%)
GAGE_Missing assembly bases	1839(0.05%)	137122(3.27%)
GAGE_Missing assembly contigs	0(0.00%)	0(0.00%)
GAGE_Duplicated reference bases	901	901
GAGE_Compressed reference bases	52865	52868
GAGE_Bad trim	1839	1433
GAGE_Avg idy	99.99	99.99
GAGE_SNPs	308	308
GAGE_Indels < 5bp	31	31
GAGE_Indels >= 5	1	806
GAGE_Inversions	2	4
GAGE_Relocation	5	6
GAGE_Translocation	0	0
GAGE_Corrected contig #	2426	2426
GAGE_Corrected assembly size	4057602	4057533
GAGE_Min correct contig	240	240
GAGE_Max correct contig	10037	10037
GAGE_Corrected N50	1893 COUNT: 729	1893 COUNT: 729
