Assembly	CLC_MIS_PE_mtbh37-1_mis_2x250bp_nextera_default__mtbh37-2_mis_2x250bp_nextera_default.0.250percent.result_broken	CLC_MIS_PE_mtbh37-1_mis_2x250bp_nextera_default__mtbh37-2_mis_2x250bp_nextera_default.0.250percent.result
GAGE_Contigs #	372	391
GAGE_Min contig	200	200
GAGE_Max contig	132910	154206
GAGE_N50	44086 COUNT: 30	61936 COUNT: 25
GAGE_Genome size	4411532	4411532
GAGE_Assembly size	4337363	4369611
GAGE_Chaff bases	0	0
GAGE_Missing reference bases	56821(1.29%)	53812(1.22%)
GAGE_Missing assembly bases	17433(0.40%)	43474(0.99%)
GAGE_Missing assembly contigs	42(11.29%)	81(20.72%)
GAGE_Duplicated reference bases	10220	13365
GAGE_Compressed reference bases	50631	50908
GAGE_Bad trim	5982	15815
GAGE_Avg idy	99.98	99.97
GAGE_SNPs	531	555
GAGE_Indels < 5bp	64	77
GAGE_Indels >= 5	28	88
GAGE_Inversions	6	6
GAGE_Relocation	4	6
GAGE_Translocation	0	0
GAGE_Corrected contig #	320	316
GAGE_Corrected assembly size	4310555	4310827
GAGE_Min correct contig	200	200
GAGE_Max correct contig	132908	132908
GAGE_Corrected N50	34976 COUNT: 34	35834 COUNT: 33
