All statistics are based on contigs of size >= 200 bp, unless otherwise noted (e.g., "# contigs (>= 0 bp)" and "Total length (>= 0 bp)" include all contigs).

Assembly                                                                                                          #Contigs (>= 0 bp)  #Contigs (>= 1000 bp)  Total length (>= 0 bp)  Total length (>= 1000 bp)  #Contigs  Largest contig  Total length  Reference length  GC (%)  Reference GC (%)  N50    NG50   N75    NG75   #misassemblies  #local misassemblies  #unaligned contigs  Unaligned contigs length  Genome fraction (%)  Duplication ratio  #N's per 100 kbp  #mismatches per 100 kbp  #indels per 100 kbp  #genes           #predicted genes (unique)  #predicted genes (>= 0 bp)  #predicted genes (>= 300 bp)  #predicted genes (>= 1500 bp)  #predicted genes (>= 3000 bp)  Largest alignment  NA50   NGA50  NA75   NGA75
CLC_MIS_PE_mtbh37-1_mis_2x250bp_nextera_default__mtbh37-2_mis_2x250bp_nextera_default.0.250percent.result_broken  620                 189                    4357122                 4273646                    372       132910          4337363       4411532           65.58   65.61             45433  44086  23632  23098  17              9                     42 + 36 part        15928                     97.385               1.018              7.05              15.48                    7.19                 3894 + 151 part  4148                       4149                        3578                          564                            70                             132910             43962  42491  23098  20728
CLC_MIS_PE_mtbh37-1_mis_2x250bp_nextera_default__mtbh37-2_mis_2x250bp_nextera_default.0.250percent.result         391                 159                    4369611                 4295960                    391       154206          4369611       4411532           65.68   65.61             65334  61936  30207  29577  18              51                    82 + 77 part        34388                     97.435               1.020              296.69            16.66                    12.33                3907 + 140 part  4143                       4146                        3576                          563                            71                             154205             60290  60290  28746  28100
