Assembly	#Contigs	#Contigs (>= 0 bp)	#Contigs (>= 1000 bp)	Largest contig	Total length	Total length (>= 0 bp)	Total length (>= 1000 bp)	Reference length	N50	NG50	N75	NG75	L50	LG50	L75	LG75	#local misassemblies	#misassemblies	#misassembled contigs	Misassembled contigs length	Misassemblies inter-contig overlap	#unaligned contigs	Unaligned contigs length	#ambiguously mapped contigs	Extra bases in ambiguously mapped contigs	#N's	#N's per 100 kbp	Genome fraction (%)	Duplication ratio	#genes	#predicted genes (unique)	#predicted genes (>= 0 bp)	#predicted genes (>= 300 bp)	#predicted genes (>= 1500 bp)	#predicted genes (>= 3000 bp)	#mismatches	#indels	Indels length	#mismatches per 100 kbp	#indels per 100 kbp	GC (%)	Reference GC (%)	Average %IDY	Largest alignment	NA50	NGA50	NA75	NGA75	LA50	LGA50	LA75	LGA75	#Mis_misassemblies	#Mis_relocations	#Mis_translocations	#Mis_inversions	#Mis_misassembled contigs	Mis_Misassembled contigs length	#Mis_local misassemblies	#Mis_short indels (<= 5 bp)	#Mis_long indels (> 5 bp)	#Una_fully unaligned contigs	Una_Fully unaligned length	#Una_partially unaligned contigs	#Una_with misassembly	#Una_both parts are significant	Una_Partially unaligned length	GAGE_Contigs #	GAGE_Min contig	GAGE_Max contig	GAGE_N50	GAGE_Genome size	GAGE_Assembly size	GAGE_Chaff bases	GAGE_Missing reference bases	GAGE_Missing assembly bases	GAGE_Missing assembly contigs	GAGE_Duplicated reference bases	GAGE_Compressed reference bases	GAGE_Bad trim	GAGE_Avg idy	GAGE_SNPs	GAGE_Indels < 5bp	GAGE_Indels >= 5	GAGE_Inversions	GAGE_Relocation	GAGE_Translocation	GAGE_Corrected contig #	GAGE_Corrected assembly size	GAGE_Min correct contig	GAGE_Max correct contig	GAGE_Corrected N50
NEWBLER_MIS_PE_mtbh37-1_mis_2x250bp_nextera_default__mtbh37-2_mis_2x250bp_nextera_default.0.125percent.contigs_broken	756	756	705	24305	3986712	3986712	3949422	4411532	7280	6720	4471	3481	178	208	349	430	11	0	0	0	1019	0 + 3 part	1314	5	-11005	0	0.00	90.073	1.000	3144 + 742 part	4227	4227	3524	448	48	264	58	79	6.64	1.46	65.42	65.61	99.958	24305	7280	6718	4422	3457	178	208	350	431	0	0	0	0	0	0	11	57	1	0	0	3	0	1	1314	756	508	24305	6720 COUNT: 208	4411532	3986712	0	417851(9.47%)	1404(0.04%)	0(0.00%)	110	9330	1404	99.99	237	60	10	0	1	0	765	3985907	506	24305	6718 COUNT: 208
NEWBLER_MIS_PE_mtbh37-1_mis_2x250bp_nextera_default__mtbh37-2_mis_2x250bp_nextera_default.0.125percent.contigs	475	475	475	45165	4081942	4081942	4081942	4411532	11509	10858	7071	6036	120	135	234	271	254	2	2	26607	1019	0 + 1 part	1231	1	-7052	95230	2332.96	90.180	1.024	3175 + 714 part	4198	4198	3530	450	48	268	733	1354	6.74	18.42	65.42	65.61	99.911	44394	11128	10185	6621	5559	126	141	246	286	2	2	0	0	2	26607	254	716	17	0	0	1	0	1	1231	475	2016	45165	10858 COUNT: 135	4411532	4081942	0	417712(9.47%)	96542(2.37%)	0(0.00%)	110	9330	1319	99.99	237	74	284	1	4	0	762	3986003	506	24305	6720 COUNT: 208
