Assembly	#Contigs	#Contigs (>= 0 bp)	#Contigs (>= 1000 bp)	Largest contig	Total length	Total length (>= 0 bp)	Total length (>= 1000 bp)	Reference length	N50	NG50	N75	NG75	L50	LG50	L75	LG75	#local misassemblies	#misassemblies	#misassembled contigs	Misassembled contigs length	Misassemblies inter-contig overlap	#unaligned contigs	Unaligned contigs length	#ambiguously mapped contigs	Extra bases in ambiguously mapped contigs	#N's	#N's per 100 kbp	Genome fraction (%)	Duplication ratio	#genes	#predicted genes (unique)	#predicted genes (>= 0 bp)	#predicted genes (>= 300 bp)	#predicted genes (>= 1500 bp)	#predicted genes (>= 3000 bp)	#mismatches	#indels	Indels length	#mismatches per 100 kbp	#indels per 100 kbp	GC (%)	Reference GC (%)	Average %IDY	Largest alignment	NA50	NGA50	NA75	NGA75	LA50	LGA50	LA75	LGA75	#Mis_misassemblies	#Mis_relocations	#Mis_translocations	#Mis_inversions	#Mis_misassembled contigs	Mis_Misassembled contigs length	#Mis_local misassemblies	#Mis_short indels (<= 5 bp)	#Mis_long indels (> 5 bp)	#Una_fully unaligned contigs	Una_Fully unaligned length	#Una_partially unaligned contigs	#Una_with misassembly	#Una_both parts are significant	Una_Partially unaligned length	GAGE_Contigs #	GAGE_Min contig	GAGE_Max contig	GAGE_N50	GAGE_Genome size	GAGE_Assembly size	GAGE_Chaff bases	GAGE_Missing reference bases	GAGE_Missing assembly bases	GAGE_Missing assembly contigs	GAGE_Duplicated reference bases	GAGE_Compressed reference bases	GAGE_Bad trim	GAGE_Avg idy	GAGE_SNPs	GAGE_Indels < 5bp	GAGE_Indels >= 5	GAGE_Inversions	GAGE_Relocation	GAGE_Translocation	GAGE_Corrected contig #	GAGE_Corrected assembly size	GAGE_Min correct contig	GAGE_Max correct contig	GAGE_Corrected N50
NEWBLER_MIS_PE_sakai_mis-1_bi_2x250bp_SI_default__sakai_mis-2_bi_2x250bp_SI_default.0.925percent.contigs_broken	166	166	144	353758	5258955	5258955	5242584	5594470	98582	92038	54991	43145	15	17	32	38	2	3	3	341084	665	1 + 0 part	5386	27	-51792	0	0.00	92.986	1.000	4917 + 113 part	5078	5079	4358	664	67	82	12	12	1.58	0.23	50.25	50.48	98.910	353758	98582	92038	54991	43145	15	17	33	39	3	3	0	0	3	341084	2	12	0	1	5386	0	0	0	0	166	507	353758	92038 COUNT: 17	5594470	5258955	0	204150(3.65%)	5387(0.10%)	1(0.60%)	0	143310	1	100.00	60	11	2	0	3	0	170	5254231	507	353758	87729 COUNT: 18
NEWBLER_MIS_PE_sakai_mis-1_bi_2x250bp_SI_default__sakai_mis-2_bi_2x250bp_SI_default.0.925percent.contigs	93	93	93	375028	5301968	5301968	5301968	5594470	151531	148121	91412	75653	11	12	22	25	70	8	6	446220	665	1 + 0 part	5386	3	-19001	43013	811.26	93.571	1.008	4938 + 129 part	5056	5057	4356	664	66	146	23	56	2.79	0.44	50.25	50.48	98.910	362430	148121	147918	79759	74785	12	13	24	26	8	8	0	0	6	446220	70	22	1	1	5386	0	0	0	0	93	2154	375028	148121 COUNT: 12	5594470	5301968	0	204150(3.65%)	48400(0.91%)	1(1.08%)	0	143310	1	100.00	60	11	56	6	8	0	170	5254231	507	353758	87729 COUNT: 18
