Assembly	#Contigs	#Contigs (>= 0 bp)	#Contigs (>= 1000 bp)	Largest contig	Total length	Total length (>= 0 bp)	Total length (>= 1000 bp)	Reference length	N50	NG50	N75	NG75	L50	LG50	L75	LG75	#local misassemblies	#misassemblies	#misassembled contigs	Misassembled contigs length	Misassemblies inter-contig overlap	#unaligned contigs	Unaligned contigs length	#ambiguously mapped contigs	Extra bases in ambiguously mapped contigs	#N's	#N's per 100 kbp	Genome fraction (%)	Duplication ratio	#genes	#predicted genes (unique)	#predicted genes (>= 0 bp)	#predicted genes (>= 300 bp)	#predicted genes (>= 1500 bp)	#predicted genes (>= 3000 bp)	#mismatches	#indels	Indels length	#mismatches per 100 kbp	#indels per 100 kbp	GC (%)	Reference GC (%)	Average %IDY	Largest alignment	NA50	NGA50	NA75	NGA75	LA50	LGA50	LA75	LGA75	#Mis_misassemblies	#Mis_relocations	#Mis_translocations	#Mis_inversions	#Mis_misassembled contigs	Mis_Misassembled contigs length	#Mis_local misassemblies	#Mis_short indels (<= 5 bp)	#Mis_long indels (> 5 bp)	#Una_fully unaligned contigs	Una_Fully unaligned length	#Una_partially unaligned contigs	#Una_with misassembly	#Una_both parts are significant	Una_Partially unaligned length	GAGE_Contigs #	GAGE_Min contig	GAGE_Max contig	GAGE_N50	GAGE_Genome size	GAGE_Assembly size	GAGE_Chaff bases	GAGE_Missing reference bases	GAGE_Missing assembly bases	GAGE_Missing assembly contigs	GAGE_Duplicated reference bases	GAGE_Compressed reference bases	GAGE_Bad trim	GAGE_Avg idy	GAGE_SNPs	GAGE_Indels < 5bp	GAGE_Indels >= 5	GAGE_Inversions	GAGE_Relocation	GAGE_Translocation	GAGE_Corrected contig #	GAGE_Corrected assembly size	GAGE_Min correct contig	GAGE_Max correct contig	GAGE_Corrected N50
SOAP2_MIS_PE_mtbh37-1_mis_2x250bp_nextera_default_95.final.scaf_broken	761	1983	565	41100	4326674	4538440	4239853	4411532	11403	11129	6382	6069	126	130	252	262	16	2	2	1850	218	1 + 5 part	605	46	-21815	156	3.61	97.381	1.002	3488 + 562 part	4471	4478	3723	517	58	230	122	479	5.35	2.84	65.59	65.61	99.811	41100	11403	11129	6382	6069	126	130	252	262	2	2	0	0	2	1850	16	109	13	1	210	5	0	0	395	761	200	41100	11129 COUNT: 130	4411532	4326674	0	61353(1.39%)	1510(0.03%)	1(0.13%)	3918	50448	1054	99.99	212	62	27	0	2	0	766	4319717	200	39964	10861 COUNT: 137
SOAP2_MIS_PE_mtbh37-1_mis_2x250bp_nextera_default_95.final.scaf	210	1400	112	227387	4360333	4567629	4321749	4411532	78618	78618	45430	45186	18	18	35	36	419	4	4	19265	1212	2 + 0 part	1659	42	-19413	29346	673.02	97.527	1.009	3594 + 456 part	4330	4336	3680	531	61	235	1848	4996	5.46	42.95	65.59	65.61	99.744	225821	78180	78180	45012	44910	18	18	35	36	4	4	0	0	4	19265	419	1737	111	2	1659	0	0	0	0	210	200	227387	78618 COUNT: 18	4411532	4360333	0	58710(1.33%)	30276(0.69%)	1(0.48%)	6572	49675	1802	99.97	195	118	543	0	21	0	739	4319001	200	39964	11258 COUNT: 133
