Assembly	#Contigs (>= 0 bp)	#Contigs (>= 1000 bp)	Total length (>= 0 bp)	Total length (>= 1000 bp)	#Contigs	Largest contig	Total length	Reference length	GC (%)	Reference GC (%)	N50	NG50	N75	NG75	#misassemblies	#local misassemblies	#unaligned contigs	Unaligned contigs length	Genome fraction (%)	Duplication ratio	#N's per 100 kbp	#mismatches per 100 kbp	#indels per 100 kbp	#genes	#predicted genes (unique)	#predicted genes (>= 0 bp)	#predicted genes (>= 300 bp)	#predicted genes (>= 1500 bp)	#predicted genes (>= 3000 bp)	Largest alignment	NA50	NGA50	NA75	NGA75
CLC_MIS_PE_sakai_mis-1_bi_2x250bp_SI_default__sakai_mis-2_bi_2x250bp_SI_default.21coverage.result_broken	372	188	5390876	5321681	365	279459	5389899	5594470	50.27	50.48	81050	80247	37341	30780	9	6	50 + 2 part	18269	94.718	1.013	2.36	8.98	1.13	4988 + 173 part	5373	5374	4471	673	65	238253	81050	76288	34276	30127
CLC_MIS_PE_sakai_mis-1_bi_2x250bp_SI_default__sakai_mis-2_bi_2x250bp_SI_default.21coverage.result	352	176	5392204	5324257	352	301883	5392204	5594470	50.27	50.48	87831	87377	40871	37523	9	17	52 + 2 part	19116	94.924	1.013	26.98	9.45	1.37	5000 + 171 part	5372	5373	4469	673	65	261463	87813	81426	39806	33276
