All statistics are based on contigs of size >= 200 bp, unless otherwise noted (e.g., "# contigs (>= 0 bp)" and "Total length (>= 0 bp)" include all contigs).

Assembly                                                                                                  #Contigs  #Contigs (>= 0 bp)  #Contigs (>= 1000 bp)  Largest contig  Total length  Total length (>= 0 bp)  Total length (>= 1000 bp)  Reference length  N50    NG50   N75    NG75   L50  LG50  L75  LG75  #local misassemblies  #misassemblies  #misassembled contigs  Misassembled contigs length  Misassemblies inter-contig overlap  #unaligned contigs  Unaligned contigs length  #ambiguously mapped contigs  Extra bases in ambiguously mapped contigs  #N's  #N's per 100 kbp  Genome fraction (%)  Duplication ratio  #genes           #predicted genes (unique)  #predicted genes (>= 0 bp)  #predicted genes (>= 300 bp)  #predicted genes (>= 1500 bp)  #predicted genes (>= 3000 bp)  #mismatches  #indels  Indels length  #mismatches per 100 kbp  #indels per 100 kbp  GC (%)  Reference GC (%)  Average %IDY  Largest alignment  NA50   NGA50  NA75   NGA75  LA50  LGA50  LA75  LGA75  #Mis_misassemblies  #Mis_relocations  #Mis_translocations  #Mis_inversions  #Mis_misassembled contigs  Mis_Misassembled contigs length  #Mis_local misassemblies  #Mis_short indels (<= 5 bp)  #Mis_long indels (> 5 bp)  #Una_fully unaligned contigs  Una_Fully unaligned length  #Una_partially unaligned contigs  #Una_with misassembly  #Una_both parts are significant  Una_Partially unaligned length  GAGE_Contigs #  GAGE_Min contig  GAGE_Max contig  GAGE_N50         GAGE_Genome size  GAGE_Assembly size  GAGE_Chaff bases  GAGE_Missing reference bases  GAGE_Missing assembly bases  GAGE_Missing assembly contigs  GAGE_Duplicated reference bases  GAGE_Compressed reference bases  GAGE_Bad trim  GAGE_Avg idy  GAGE_SNPs  GAGE_Indels < 5bp  GAGE_Indels >= 5  GAGE_Inversions  GAGE_Relocation  GAGE_Translocation  GAGE_Corrected contig #  GAGE_Corrected assembly size  GAGE_Min correct contig  GAGE_Max correct contig  GAGE_Corrected N50
CLC_MIS_PE_sakai_mis-1_bi_2x250bp_SI_default__sakai_mis-2_bi_2x250bp_SI_default.21coverage.result_broken  365       372                 188                    279459          5389899       5390876                 5321681                    5594470           81050  80247  37341  30780  21   22    46   51    6                     9               8                      476587                       68295                               50 + 2 part         18269                     75                           -69518                                     127   2.36              94.718               1.013              4988 + 173 part  5373                       5374                        4471                          673                            65                             476          60       526            8.98                     1.13                 50.27   50.48             98.582        238253             81050  76288  34276  30127  21    23     48    53     9                   9                 0                    0                8                          476587                           6                         48                           12                         50                            18247                       2                                 0                      0                                22                              365             202              279459           80247 COUNT: 22  5594470           5389899             0                 16508(0.30%)                  18452(0.34%)                 50(13.70%)                     14796                            245621                           139            99.99         181        24                 14                2                5                0                   305                      5364732                       203                      239058                   72246 COUNT: 26   
CLC_MIS_PE_sakai_mis-1_bi_2x250bp_SI_default__sakai_mis-2_bi_2x250bp_SI_default.21coverage.result         352       352                 176                    301883          5392204       5392204                 5324257                    5594470           87831  87377  40871  37523  19   20    41   45    17                    9               8                      499011                       66542                               52 + 2 part         19116                     71                           -58511                                     1455  26.98             94.924               1.013              5000 + 171 part  5372                       5373                        4469                          673                            65                             502          73       638            9.45                     1.37                 50.27   50.48             98.579        261463             87813  81426  39806  33276  19    21     43    47     9                   9                 0                    0                8                          499011                           17                        58                           15                         52                            19094                       2                                 0                      0                                22                              352             202              301883           87377 COUNT: 20  5594470           5392204             0                 15936(0.28%)                  20148(0.37%)                 51(14.49%)                     14952                            245777                           317            99.99         219        26                 28                3                6                0                   305                      5364732                       203                      239058                   72246 COUNT: 26   
