All statistics are based on contigs of size >= 200 bp, unless otherwise noted (e.g., "# contigs (>= 0 bp)" and "Total length (>= 0 bp)" include all contigs).

Assembly                         ABYSS_PE_MIS_PE_mrsa_mis-1_bi_2x150bp_default__mrsa_mis-2_bi_2x150bp_default.0.527percent_86-scaffolds_broken  ABYSS_PE_MIS_PE_mrsa_mis-1_bi_2x150bp_default__mrsa_mis-2_bi_2x150bp_default.0.527percent_86-scaffolds
#Mis_misassemblies               2                                                                                                              5                                                                                                     
#Mis_relocations                 2                                                                                                              5                                                                                                     
#Mis_translocations              0                                                                                                              0                                                                                                     
#Mis_inversions                  0                                                                                                              0                                                                                                     
#Mis_misassembled contigs        2                                                                                                              4                                                                                                     
Mis_Misassembled contigs length  67285                                                                                                          704748                                                                                                
#Mis_local misassemblies         2                                                                                                              5                                                                                                     
#mismatches                      65                                                                                                             79                                                                                                    
#indels                          13                                                                                                             95                                                                                                    
#Mis_short indels (<= 5 bp)      12                                                                                                             90                                                                                                    
#Mis_long indels (> 5 bp)        1                                                                                                              5                                                                                                     
Indels length                    18                                                                                                             187                                                                                                   
