calling: java -cp /vol/ngscomparison/software/analysis/quast-2.1/libs/gage:. SizeFasta /vol/codine-tmp/juene/tmp.OOJRuvAaRv/quast/corrected_input/Mycobacterium_tuberculosis_H37Rv.fasta |awk '{SUM+=; print SUM}'|tail -n 1
Contig Stats
Total units: 174
Reference: 4411532
BasesInFasta: 4281867
Min: 220
Max: 207242
N10: 192500 COUNT: 3
N25: 106594 COUNT: 7
N50: 66128 COUNT: 21
N75: 32071 COUNT: 43
E-size:80539.47

Genome Size: 4411532
Assembly Size: 4281867
Chaff bases: 0
Missing Reference Bases: 108178(2.45%)
Missing Assembly Bases: 22154(0.52%)
Missing Assembly Contigs: 0(0.00%)
Duplicated Reference Bases: 1863
Compressed Reference Bases: 53939
Bad Trim: 1153
Avg Idy: 99.97
SNPs: 228
Indels < 5bp: 88
Indels >= 5: 226
Inversions: 3
Relocation: 18
Translocation: 0

Corrected Contig Stats
calling: java -cp /vol/ngscomparison/software/analysis/quast-2.1/libs/gage:.:. GetFastaStats -o -min 199 -genomeSize 4411532 /vol/codine-tmp/juene/tmp.OOJRuvAaRv/quast/gage/tmp/VELVET_MIS_PE_mtbh37-1_mis_2x250bp_nextera_default__mtbh37-2_mis_2x250bp_nextera_default_73.final.contigs.matches.lens 2> /dev/null
Total units: 420
Reference: 4411532
BasesInFasta: 4263753
Min: 226
Max: 62917
N10: 46562 COUNT: 9
N25: 35898 COUNT: 25
N50: 20847 COUNT: 66
N75: 9880 COUNT: 144
E-size:23398.11

Done
