Assembly	CLC_MIS_PE_mrsa_mis-1_bi_2x250bp_default__mrsa_mis-2_bi_2x250bp_default.11coverage.result_broken	CLC_MIS_PE_mrsa_mis-1_bi_2x250bp_default__mrsa_mis-2_bi_2x250bp_default.11coverage.result
#Contigs (>= 0 bp)	1158	1155
#Contigs (>= 1000 bp)	580	581
Total length (>= 0 bp)	2741252	2741381
Total length (>= 1000 bp)	2466826	2468119
#Contigs	1156	1155
Largest contig	38528	38528
Total length	2741137	2741381
Reference length	2813862	2813862
GC (%)	32.79	32.79
Reference GC (%)	32.81	32.81
N50	5343	5343
NG50	5080	5080
N75	2479	2479
NG75	2259	2259
#misassemblies	19	19
#local misassemblies	3	4
#unaligned contigs	39 + 8 part	39 + 9 part
Unaligned contigs length	15247	15321
Genome fraction (%)	95.542	95.546
Duplication ratio	1.014	1.014
#N's per 100 kbp	1.35	6.06
#mismatches per 100 kbp	23.02	23.14
#indels per 100 kbp	1.53	1.52
#genes	1991 + 659 part	1991 + 659 part
#predicted genes (unique)	3269	3270
#predicted genes (>= 0 bp)	3269	3270
#predicted genes (>= 300 bp)	2462	2462
#predicted genes (>= 1500 bp)	239	239
#predicted genes (>= 3000 bp)	17	17
Largest alignment	38528	38528
NA50	5147	5147
NGA50	4993	4993
NA75	2409	2411
NGA75	2195	2195
