Assembly	VELVET_PGM_mrsa_pgm_400bp_es_318_IKA_ts3.2_morestringent.0.165percent_215.final.contigs
#Mis_misassemblies	7
#Mis_relocations	7
#Mis_translocations	0
#Mis_inversions	0
#Mis_misassembled contigs	7
Mis_Misassembled contigs length	31455
#Mis_local misassemblies	0
#mismatches	131
#indels	846
#Mis_short indels (<= 5 bp)	846
#Mis_long indels (> 5 bp)	0
Indels length	869
