Assembly	NEWBLER_MIS_PE_sakai_mis-1_bi_2x250bp_SI_default__sakai_mis-2_bi_2x250bp_SI_default.0.5percent.contigs_broken	NEWBLER_MIS_PE_sakai_mis-1_bi_2x250bp_SI_default__sakai_mis-2_bi_2x250bp_SI_default.0.5percent.contigs
#Contigs	169	93
#Contigs (>= 0 bp)	169	93
#Contigs (>= 1000 bp)	141	93
Largest contig	337837	380428
Total length	5278683	5325492
Total length (>= 0 bp)	5278683	5325492
Total length (>= 1000 bp)	5258958	5325492
Reference length	5594470	5594470
N50	137233	149161
NG50	124154	148150
N75	65484	90802
NG75	44988	75132
L50	14	10
LG50	15	11
L75	29	21
LG75	33	24
#local misassemblies	4	63
#misassemblies	3	18
#misassembled contigs	3	12
Misassembled contigs length	209404	530054
Misassemblies inter-contig overlap	971	971
#unaligned contigs	1 + 0 part	1 + 0 part
Unaligned contigs length	5386	5386
#ambiguously mapped contigs	30	1
Extra bases in ambiguously mapped contigs	-55189	-5856
#N's	0	46809
#N's per 100 kbp	0.00	878.96
Genome fraction (%)	93.279	94.123
Duplication ratio	1.000	1.009
#genes	4932 + 130 part	4967 + 149 part
#predicted genes (unique)	5113	5086
#predicted genes (>= 0 bp)	5113	5086
#predicted genes (>= 300 bp)	4373	4371
#predicted genes (>= 1500 bp)	667	666
#predicted genes (>= 3000 bp)	68	67
#mismatches	66	143
#indels	14	21
Indels length	14	50
#mismatches per 100 kbp	1.26	2.72
#indels per 100 kbp	0.27	0.40
GC (%)	50.26	50.26
Reference GC (%)	50.48	50.48
Average %IDY	98.870	98.870
Largest alignment	337837	377246
NA50	137233	148150
NGA50	124154	147874
NA75	65484	90802
NGA75	44988	74108
LA50	14	11
LGA50	15	12
LA75	29	22
LGA75	33	25
#Mis_misassemblies	3	18
#Mis_relocations	3	18
#Mis_translocations	0	0
#Mis_inversions	0	0
#Mis_misassembled contigs	3	12
Mis_Misassembled contigs length	209404	530054
#Mis_local misassemblies	4	63
#Mis_short indels (<= 5 bp)	14	20
#Mis_long indels (> 5 bp)	0	1
#Una_fully unaligned contigs	1	1
Una_Fully unaligned length	5386	5386
#Una_partially unaligned contigs	0	0
#Una_with misassembly	0	0
#Una_both parts are significant	0	0
Una_Partially unaligned length	0	0
GAGE_Contigs #	169	93
GAGE_Min contig	498	2091
GAGE_Max contig	337837	380428
GAGE_N50	124154 COUNT: 15	148150 COUNT: 11
GAGE_Genome size	5594470	5594470
GAGE_Assembly size	5278683	5325492
GAGE_Chaff bases	0	0
GAGE_Missing reference bases	162260(2.90%)	162260(2.90%)
GAGE_Missing assembly bases	5390(0.10%)	52199(0.98%)
GAGE_Missing assembly contigs	1(0.59%)	1(1.08%)
GAGE_Duplicated reference bases	800	800
GAGE_Compressed reference bases	169444	169073
GAGE_Bad trim	4	641
GAGE_Avg idy	100.00	100.00
GAGE_SNPs	88	88
GAGE_Indels < 5bp	11	11
GAGE_Indels >= 5	4	55
GAGE_Inversions	0	9
GAGE_Relocation	3	13
GAGE_Translocation	0	0
GAGE_Corrected contig #	174	174
GAGE_Corrected assembly size	5273464	5273464
GAGE_Min correct contig	498	498
GAGE_Max correct contig	337837	337837
GAGE_Corrected N50	116988 COUNT: 15	116988 COUNT: 15
