Assembly	VELVET_MIS_PE_sakai_mis-1_bi_2x150bp_default__sakai_mis-2_bi_2x150bp_default.0.826percent_91.final.contigs_broken	VELVET_MIS_PE_sakai_mis-1_bi_2x150bp_default__sakai_mis-2_bi_2x150bp_default.0.826percent_91.final.contigs
#Mis_misassemblies	3	11
#Mis_relocations	3	11
#Mis_translocations	0	0
#Mis_inversions	0	0
#Mis_misassembled contigs	3	10
Mis_Misassembled contigs length	113624	1059891
#Mis_local misassemblies	2	36
#mismatches	111	153
#indels	15	428
#Mis_short indels (<= 5 bp)	15	401
#Mis_long indels (> 5 bp)	0	27
Indels length	15	1118
