All statistics are based on contigs of size >= 200 bp, unless otherwise noted (e.g., "# contigs (>= 0 bp)" and "Total length (>= 0 bp)" include all contigs).

Assembly                                                                                                           #Contigs  #Contigs (>= 0 bp)  #Contigs (>= 1000 bp)  Largest contig  Total length  Total length (>= 0 bp)  Total length (>= 1000 bp)  Reference length  N50    NG50   N75    NG75   L50  LG50  L75  LG75  #local misassemblies  #misassemblies  #misassembled contigs  Misassembled contigs length  Misassemblies inter-contig overlap  #unaligned contigs  Unaligned contigs length  #ambiguously mapped contigs  Extra bases in ambiguously mapped contigs  #N's  #N's per 100 kbp  Genome fraction (%)  Duplication ratio  #genes           #predicted genes (unique)  #predicted genes (>= 0 bp)  #predicted genes (>= 300 bp)  #predicted genes (>= 1500 bp)  #predicted genes (>= 3000 bp)  #mismatches  #indels  Indels length  #mismatches per 100 kbp  #indels per 100 kbp  GC (%)  Reference GC (%)  Average %IDY  Largest alignment  NA50   NGA50  NA75   NGA75  LA50  LGA50  LA75  LGA75  #Mis_misassemblies  #Mis_relocations  #Mis_translocations  #Mis_inversions  #Mis_misassembled contigs  Mis_Misassembled contigs length  #Mis_local misassemblies  #Mis_short indels (<= 5 bp)  #Mis_long indels (> 5 bp)  #Una_fully unaligned contigs  Una_Fully unaligned length  #Una_partially unaligned contigs  #Una_with misassembly  #Una_both parts are significant  Una_Partially unaligned length  GAGE_Contigs #  GAGE_Min contig  GAGE_Max contig  GAGE_N50         GAGE_Genome size  GAGE_Assembly size  GAGE_Chaff bases  GAGE_Missing reference bases  GAGE_Missing assembly bases  GAGE_Missing assembly contigs  GAGE_Duplicated reference bases  GAGE_Compressed reference bases  GAGE_Bad trim  GAGE_Avg idy  GAGE_SNPs  GAGE_Indels < 5bp  GAGE_Indels >= 5  GAGE_Inversions  GAGE_Relocation  GAGE_Translocation  GAGE_Corrected contig #  GAGE_Corrected assembly size  GAGE_Min correct contig  GAGE_Max correct contig  GAGE_Corrected N50
ABYSS_PE_MIS_PE_sakai_mis-1_bi_2x250bp_SI_default__sakai_mis-2_bi_2x250bp_SI_default.0.45percent_100.final_broken  588       1041                219                    259965          5393575       5460519                 5253337                    5594470           79037  72106  30703  28924  21   23    48   53    1                     2               2                      110331                       5                                   0 + 0 part          0                         189                          -111490                                    0     0.00              94.274               1.002              4892 + 265 part  5515                       5532                        4479                          662                            65                             51           13       13             0.97                     0.25                 50.32   50.48             98.743        259965             72447  71972  30423  28242  21    23     49    54     2                   2                 0                    0                2                          110331                           1                         13                           0                          0                             0                           0                                 0                      0                                0                               588             200              259965           72106 COUNT: 23  5594470           5393575             0                 12667(0.23%)                  0(0.00%)                     0(0.00%)                       4277                             267815                           0              99.99         154        14                 1                 0                2                0                   575                      5389301                       200                      259965                   71972 COUNT: 23   
ABYSS_PE_MIS_PE_sakai_mis-1_bi_2x250bp_SI_default__sakai_mis-2_bi_2x250bp_SI_default.0.45percent_100.final         588       1041                219                    259965          5393575       5460519                 5253337                    5594470           79037  72106  30703  28924  21   23    48   53    1                     2               2                      110331                       5                                   0 + 0 part          0                         189                          -111490                                    0     0.00              94.274               1.002              4892 + 265 part  5515                       5532                        4479                          662                            65                             51           13       13             0.97                     0.25                 50.32   50.48             98.743        259965             72447  71972  30423  28242  21    23     49    54     2                   2                 0                    0                2                          110331                           1                         13                           0                          0                             0                           0                                 0                      0                                0                               588             200              259965           72106 COUNT: 23  5594470           5393575             0                 12667(0.23%)                  0(0.00%)                     0(0.00%)                       4277                             267815                           0              99.99         154        14                 1                 0                2                0                   575                      5389301                       200                      259965                   71972 COUNT: 23   
