Assembly	GAGE_Contigs #	GAGE_Min contig	GAGE_Max contig	GAGE_N50	GAGE_Genome size	GAGE_Assembly size	GAGE_Chaff bases	GAGE_Missing reference bases	GAGE_Missing assembly bases	GAGE_Missing assembly contigs	GAGE_Duplicated reference bases	GAGE_Compressed reference bases	GAGE_Bad trim	GAGE_Avg idy	GAGE_SNPs	GAGE_Indels < 5bp	GAGE_Indels >= 5	GAGE_Inversions	GAGE_Relocation	GAGE_Translocation	GAGE_Corrected contig #	GAGE_Corrected assembly size	GAGE_Min correct contig	GAGE_Max correct contig	GAGE_Corrected N50
ABYSS_PE_MIS_PE_mrsa_mis-1_bi_2x250bp_default__mrsa_mis-2_bi_2x250bp_default.0.925percent_116.final_broken	176	201	457331	107612 COUNT: 8	2813862	2804497	0	136(0.00%)	17(0.00%)	0(0.00%)	9165	32146	17	99.99	39	6	0	0	2	0	137	2795244	201	457330	107613 COUNT: 8
ABYSS_PE_MIS_PE_mrsa_mis-1_bi_2x250bp_default__mrsa_mis-2_bi_2x250bp_default.0.925percent_116.final	176	201	457331	107612 COUNT: 8	2813862	2804497	0	136(0.00%)	17(0.00%)	0(0.00%)	9165	32146	17	99.99	39	6	0	0	2	0	137	2795244	201	457330	107613 COUNT: 8
