1: PREPARING DATA
2,3: RUNNING mummer AND CREATING CLUSTERS
# reading input file "/vol/codine-tmp/juene/tmp.0YNdUkGeZA/quast/gage/tmp/VELVET_MIS_PE_sakai_mis-both_bi_2x250bp_SI_default.0.64percent_117.final.contigs.ntref" of length 5594473
# construct suffix tree for sequence of length 5594473
# (maximum reference length is 536870908)
# (maximum query length is 4294967295)
# process 55944 characters per dot
#....................................................................................................
# CONSTRUCTIONTIME /vol/ngscomparison/software/analysis/quast-2.1/libs/MUMmer3.23-linux/mummer /vol/codine-tmp/juene/tmp.0YNdUkGeZA/quast/gage/tmp/VELVET_MIS_PE_sakai_mis-both_bi_2x250bp_SI_default.0.64percent_117.final.contigs.ntref 3.35
# reading input file "/vol/codine-tmp/juene/tmp.0YNdUkGeZA/quast/corrected_input/VELVET_MIS_PE_sakai_mis-both_bi_2x250bp_SI_default.0.64percent_117.final.contigs" of length 5448465
# matching query-file "/vol/codine-tmp/juene/tmp.0YNdUkGeZA/quast/corrected_input/VELVET_MIS_PE_sakai_mis-both_bi_2x250bp_SI_default.0.64percent_117.final.contigs"
# against subject-file "/vol/codine-tmp/juene/tmp.0YNdUkGeZA/quast/gage/tmp/VELVET_MIS_PE_sakai_mis-both_bi_2x250bp_SI_default.0.64percent_117.final.contigs.ntref"
# COMPLETETIME /vol/ngscomparison/software/analysis/quast-2.1/libs/MUMmer3.23-linux/mummer /vol/codine-tmp/juene/tmp.0YNdUkGeZA/quast/gage/tmp/VELVET_MIS_PE_sakai_mis-both_bi_2x250bp_SI_default.0.64percent_117.final.contigs.ntref 9.77
# SPACE /vol/ngscomparison/software/analysis/quast-2.1/libs/MUMmer3.23-linux/mummer /vol/codine-tmp/juene/tmp.0YNdUkGeZA/quast/gage/tmp/VELVET_MIS_PE_sakai_mis-both_bi_2x250bp_SI_default.0.64percent_117.final.contigs.ntref 10.73
4: FINISHING DATA
Filtering alignments
Extracting alignment coordinates
Analyzing SNPs
Extracting alignment breakpoints
Generating report file
Found genome size at position 4 with value 5594470 aka 5594470
Calculating point at 0 and the sum is 1011598 and i is743 and lens is 766 and length is 32794
Calculating point at 1 and the sum is 2003939 and i is708 and lens is 766 and length is 24026
Calculating point at 2 and the sum is 3006361 and i is660 and lens is 766 and length is 17929
Calculating point at 3 and the sum is 4003418 and i is588 and lens is 766 and length is 10934
Calculating point at 4 and the sum is 5000677 and i is440 and lens is 766 and length is 3397
