Assembly	SOAP2_PGM_mtbh37_pgm_400bp_es_318v2_OT2_tsv3.6_morestringent_63.final.contig
#Una_fully unaligned contigs	2845
Una_Fully unaligned length	645980
#Una_partially unaligned contigs	5
#Una_with misassembly	0
#Una_both parts are significant	0
Una_Partially unaligned length	356
#N's	0
