Assembly	NEWBLER_PGM_sakai_pgm_mu_200bp_IO_TS3.0Disabled_stringent.0.925percent.contigs
#Mis_misassemblies	12
#Mis_relocations	6
#Mis_translocations	0
#Mis_inversions	6
#Mis_misassembled contigs	12
Mis_Misassembled contigs length	110056
#Mis_local misassemblies	2
#mismatches	64
#indels	847
#Mis_short indels (<= 5 bp)	845
#Mis_long indels (> 5 bp)	2
Indels length	902
