Assembly	VELVET_PGM_sakai_pgm_mu_200bp_IO_TS3.0Disabled_stringent.0.34percent_155.final.contigs
#Contigs (>= 0 bp)	4422
#Contigs (>= 1000 bp)	1471
Total length (>= 0 bp)	4278447
Total length (>= 1000 bp)	2302271
#Contigs	4422
Largest contig	5803
Total length	4278447
Reference length	5594470
GC (%)	51.24
Reference GC (%)	50.48
N50	1070
NG50	834
N75	716
NG75	480
#misassemblies	11
#local misassemblies	6
#unaligned contigs	0 + 104 part
Unaligned contigs length	2945
Genome fraction (%)	72.547
Duplication ratio	1.041
#N's per 100 kbp	2.10
#mismatches per 100 kbp	7.02
#indels per 100 kbp	75.62
#genes	1443 + 3107 part
#predicted genes (unique)	7481
#predicted genes (>= 0 bp)	7487
#predicted genes (>= 300 bp)	5066
#predicted genes (>= 1500 bp)	102
#predicted genes (>= 3000 bp)	0
Largest alignment	5803
NA50	1063
NGA50	826
NA75	707
NGA75	468
