calling: java -cp /vol/ngscomparison/software/analysis/quast-2.1/libs/gage:. SizeFasta /vol/codine-tmp/juene/tmp.65qQ6ryrbF/quast/corrected_input/MRSA_COL_Plasmid.fasta |awk '{SUM+=; print SUM}'|tail -n 1
Contig Stats
Total units: 159
Reference: 2813862
BasesInFasta: 2760255
Min: 203
Max: 208034
N10: 148071 COUNT: 2
N25: 85089 COUNT: 6
N50: 46973 COUNT: 17
N75: 26092 COUNT: 37
E-size:65889.43

Genome Size: 2813862
Assembly Size: 2760255
Chaff bases: 0
Missing Reference Bases: 21632(0.77%)
Missing Assembly Bases: 18(0.00%)
Missing Assembly Contigs: 0(0.00%)
Duplicated Reference Bases: 0
Compressed Reference Bases: 38071
Bad Trim: 17
Avg Idy: 99.98
SNPs: 75
Indels < 5bp: 11
Indels >= 5: 4
Inversions: 1
Relocation: 2
Translocation: 0

Corrected Contig Stats
calling: java -cp /vol/ngscomparison/software/analysis/quast-2.1/libs/gage:.:. GetFastaStats -o -min 199 -genomeSize 2813862 /vol/codine-tmp/juene/tmp.65qQ6ryrbF/quast/gage/tmp/ABYSS_PE_MIS_PE_mrsa_mis-1_bi_2x250bp_default__mrsa_mis-2_bi_2x250bp_default.0.460percent_52-scaffolds_broken.matches.lens 2> /dev/null
Total units: 166
Reference: 2813862
BasesInFasta: 2762783
Min: 203
Max: 208034
N10: 148071 COUNT: 2
N25: 85089 COUNT: 6
N50: 46973 COUNT: 17
N75: 24817 COUNT: 38
E-size:64771.26

Done
