All statistics are based on contigs of size >= 200 bp, unless otherwise noted (e.g., "# contigs (>= 0 bp)" and "Total length (>= 0 bp)" include all contigs).

Assembly                         CLC_MIS_PE_mrsa_mis-1_bi_2x150bp_default__mrsa_mis-2_bi_2x150bp_default.26coverage.result_broken  CLC_MIS_PE_mrsa_mis-1_bi_2x150bp_default__mrsa_mis-2_bi_2x150bp_default.26coverage.result
GAGE_Contigs #                   91                                                                                                90                                                                                       
GAGE_Min contig                  205                                                                                               205                                                                                      
GAGE_Max contig                  219016                                                                                            219016                                                                                   
GAGE_N50                         75390 COUNT: 13                                                                                   81226 COUNT: 12                                                                          
GAGE_Genome size                 2813862                                                                                           2813862                                                                                  
GAGE_Assembly size               2777718                                                                                           2777950                                                                                  
GAGE_Chaff bases                 0                                                                                                 0                                                                                        
GAGE_Missing reference bases     8338(0.30%)                                                                                       8338(0.30%)                                                                              
GAGE_Missing assembly bases      5438(0.20%)                                                                                       5536(0.20%)                                                                              
GAGE_Missing assembly contigs    1(1.10%)                                                                                          1(1.11%)                                                                                 
GAGE_Duplicated reference bases  822                                                                                               956                                                                                      
GAGE_Compressed reference bases  38759                                                                                             38759                                                                                    
GAGE_Bad trim                    35                                                                                                120                                                                                      
GAGE_Avg idy                     99.99                                                                                             99.99                                                                                    
GAGE_SNPs                        58                                                                                                58                                                                                       
GAGE_Indels < 5bp                9                                                                                                 9                                                                                        
GAGE_Indels >= 5                 8                                                                                                 9                                                                                        
GAGE_Inversions                  0                                                                                                 0                                                                                        
GAGE_Relocation                  4                                                                                                 4                                                                                        
GAGE_Translocation               0                                                                                                 0                                                                                        
GAGE_Corrected contig #          102                                                                                               102                                                                                      
GAGE_Corrected assembly size     2772140                                                                                           2772140                                                                                  
GAGE_Min correct contig          205                                                                                               205                                                                                      
GAGE_Max correct contig          219016                                                                                            219016                                                                                   
GAGE_Corrected N50               58564 COUNT: 15                                                                                   58564 COUNT: 15                                                                          
