Assembly	VELVET_MIS_PE_mrsa_mis-1_bi_2x250bp_default__mrsa_mis-2_bi_2x250bp_default.0.460percent_31.final.contigs_broken	VELVET_MIS_PE_mrsa_mis-1_bi_2x250bp_default__mrsa_mis-2_bi_2x250bp_default.0.460percent_31.final.contigs
#Contigs	197	148
#Contigs (>= 0 bp)	448	398
#Contigs (>= 1000 bp)	153	118
Largest contig	76043	135260
Total length	2747537	2748965
Total length (>= 0 bp)	2769577	2770917
Total length (>= 1000 bp)	2728102	2736155
Reference length	2813862	2813862
N50	30343	45773
NG50	30225	41747
N75	17827	21971
NG75	16672	21314
L50	27	19
LG50	28	20
L75	56	42
LG75	59	44
#local misassemblies	15	32
#misassemblies	5	7
#misassembled contigs	5	6
Misassembled contigs length	128183	309942
Misassemblies inter-contig overlap	1932	2103
#unaligned contigs	3 + 0 part	3 + 0 part
Unaligned contigs length	4995	7510
#ambiguously mapped contigs	12	12
Extra bases in ambiguously mapped contigs	-9461	-9461
#N's	0	1340
#N's per 100 kbp	0.00	48.75
Genome fraction (%)	97.101	97.052
Duplication ratio	1.001	1.001
#genes	2542 + 97 part	2557 + 79 part
#predicted genes (unique)	2680	2664
#predicted genes (>= 0 bp)	2680	2664
#predicted genes (>= 300 bp)	2284	2281
#predicted genes (>= 1500 bp)	293	293
#predicted genes (>= 3000 bp)	26	26
#mismatches	279	290
#indels	104	270
Indels length	240	857
#mismatches per 100 kbp	10.21	10.62
#indels per 100 kbp	3.81	9.89
GC (%)	32.65	32.66
Reference GC (%)	32.81	32.81
Average %IDY	99.527	99.488
Largest alignment	76043	135104
NA50	30090	41747
NGA50	29979	40564
NA75	17476	21314
NGA75	16136	20412
LA50	27	20
LGA50	28	21
LA75	57	44
LGA75	60	47
#Mis_misassemblies	5	7
#Mis_relocations	5	7
#Mis_translocations	0	0
#Mis_inversions	0	0
#Mis_misassembled contigs	5	6
Mis_Misassembled contigs length	128183	309942
#Mis_local misassemblies	15	32
#Mis_short indels (<= 5 bp)	101	248
#Mis_long indels (> 5 bp)	3	22
#Una_fully unaligned contigs	3	3
Una_Fully unaligned length	4995	7510
#Una_partially unaligned contigs	0	0
#Una_with misassembly	0	0
#Una_both parts are significant	0	0
Una_Partially unaligned length	0	0
GAGE_Contigs #	197	148
GAGE_Min contig	206	213
GAGE_Max contig	76043	135260
GAGE_N50	30225 COUNT: 28	41747 COUNT: 20
GAGE_Genome size	2813862	2813862
GAGE_Assembly size	2747537	2748965
GAGE_Chaff bases	0	0
GAGE_Missing reference bases	36406(1.29%)	35992(1.28%)
GAGE_Missing assembly bases	5021(0.18%)	6282(0.23%)
GAGE_Missing assembly contigs	3(1.52%)	2(1.35%)
GAGE_Duplicated reference bases	862	862
GAGE_Compressed reference bases	37658	37934
GAGE_Bad trim	0	0
GAGE_Avg idy	99.98	99.98
GAGE_SNPs	188	188
GAGE_Indels < 5bp	36	56
GAGE_Indels >= 5	12	43
GAGE_Inversions	1	3
GAGE_Relocation	8	14
GAGE_Translocation	0	0
GAGE_Corrected contig #	211	206
GAGE_Corrected assembly size	2743371	2743438
GAGE_Min correct contig	206	206
GAGE_Max correct contig	73958	95574
GAGE_Corrected N50	25813 COUNT: 32	26857 COUNT: 31
