All statistics are based on contigs of size >= 200 bp, unless otherwise noted (e.g., "# contigs (>= 0 bp)" and "Total length (>= 0 bp)" include all contigs).

Assembly                                                                                GAGE_Contigs #  GAGE_Min contig  GAGE_Max contig  GAGE_N50         GAGE_Genome size  GAGE_Assembly size  GAGE_Chaff bases  GAGE_Missing reference bases  GAGE_Missing assembly bases  GAGE_Missing assembly contigs  GAGE_Duplicated reference bases  GAGE_Compressed reference bases  GAGE_Bad trim  GAGE_Avg idy  GAGE_SNPs  GAGE_Indels < 5bp  GAGE_Indels >= 5  GAGE_Inversions  GAGE_Relocation  GAGE_Translocation  GAGE_Corrected contig #  GAGE_Corrected assembly size  GAGE_Min correct contig  GAGE_Max correct contig  GAGE_Corrected N50
VELVET_MIS_PE_sakai_mis-both_bi_2x250bp_SI_default.0.64percent_89.final.contigs_broken  548             200              118406           35824 COUNT: 43  5594470           5402698             0                 15331(0.27%)                  5501(0.10%)                  1(0.18%)                       7549                             257708                           27             99.99         173        19                 5                 0                4                0                   530                      5391482                       201                      118406                   34832 COUNT: 45   
VELVET_MIS_PE_sakai_mis-both_bi_2x250bp_SI_default.0.64percent_89.final.contigs         411             200              201969           83002 COUNT: 22  5594470           5414463             0                 14969(0.27%)                  16270(0.30%)                 1(0.24%)                       8324                             258103                           401            99.99         190        48                 100               5                14               0                   520                      5391850                       201                      118406                   36577 COUNT: 44   
