Assembly	CLC_MIS_PE_mrsa_mis-1_bi_2x150bp_default__mrsa_mis-2_bi_2x150bp_default.11coverage.result_broken	CLC_MIS_PE_mrsa_mis-1_bi_2x150bp_default__mrsa_mis-2_bi_2x150bp_default.11coverage.result
#Contigs (>= 0 bp)	925	913
#Contigs (>= 1000 bp)	519	516
Total length (>= 0 bp)	2729586	2730007
Total length (>= 1000 bp)	2535860	2540060
#Contigs	923	913
Largest contig	45253	45253
Total length	2729233	2730007
Reference length	2813862	2813862
GC (%)	32.73	32.73
Reference GC (%)	32.81	32.81
N50	6428	6513
NG50	6177	6290
N75	3089	3181
NG75	2813	2877
#misassemblies	29	28
#local misassemblies	9	15
#unaligned contigs	6 + 3 part	7 + 4 part
Unaligned contigs length	9460	11314
Genome fraction (%)	95.870	95.823
Duplication ratio	1.007	1.007
#N's per 100 kbp	4.69	20.11
#mismatches per 100 kbp	25.99	26.00
#indels per 100 kbp	2.78	2.89
#genes	2121 + 548 part	2121 + 548 part
#predicted genes (unique)	3130	3190
#predicted genes (>= 0 bp)	3130	3190
#predicted genes (>= 300 bp)	2432	2428
#predicted genes (>= 1500 bp)	244	244
#predicted genes (>= 3000 bp)	18	18
Largest alignment	38262	38262
NA50	6122	6137
NGA50	5899	6000
NA75	2905	2950
NGA75	2677	2684
