Assembly	ABYSS_PE_MIS_PE_mrsa_mis-1_bi_2x150bp_default__mrsa_mis-2_bi_2x150bp_default.0.450percent_80.final_broken	ABYSS_PE_MIS_PE_mrsa_mis-1_bi_2x150bp_default__mrsa_mis-2_bi_2x150bp_default.0.450percent_80.final
#Mis_misassemblies	3	4
#Mis_relocations	3	4
#Mis_translocations	0	0
#Mis_inversions	0	0
#Mis_misassembled contigs	3	4
Mis_Misassembled contigs length	313192	314400
#Mis_local misassemblies	5	8
#mismatches	121	130
#indels	17	50
#Mis_short indels (<= 5 bp)	14	45
#Mis_long indels (> 5 bp)	3	5
Indels length	92	184
