calling: java -cp /vol/ngscomparison/software/analysis/quast-2.1/libs/gage:. SizeFasta /vol/codine-tmp/juene/tmp.8S2isU35PC/quast/corrected_input/MRSA_COL_Plasmid.fasta |awk '{SUM+=; print SUM}'|tail -n 1
Contig Stats
Total units: 498
Reference: 2813862
BasesInFasta: 2834202
Min: 200
Max: 121986
N10: 65700 COUNT: 4
N25: 43099 COUNT: 12
N50: 33128 COUNT: 31
N75: 16575 COUNT: 60
E-size:35106.66

Genome Size: 2813862
Assembly Size: 2834202
Chaff bases: 0
Missing Reference Bases: 19146(0.68%)
Missing Assembly Bases: 2846(0.10%)
Missing Assembly Contigs: 7(1.41%)
Duplicated Reference Bases: 66667
Compressed Reference Bases: 41470
Bad Trim: 402
Avg Idy: 99.98
SNPs: 48
Indels < 5bp: 250
Indels >= 5: 3
Inversions: 0
Relocation: 3
Translocation: 0

Corrected Contig Stats
calling: java -cp /vol/ngscomparison/software/analysis/quast-2.1/libs/gage:.:. GetFastaStats -o -min 199 -genomeSize 2813862 /vol/codine-tmp/juene/tmp.8S2isU35PC/quast/gage/tmp/CLC_PGM_mrsa_pgm_400bp_es_318_IKA_ts3.2_morestringent.0.165percent.result.matches.lens 2> /dev/null
Total units: 277
Reference: 2813862
BasesInFasta: 2765680
Min: 200
Max: 121995
N10: 65704 COUNT: 4
N25: 43103 COUNT: 12
N50: 31409 COUNT: 31
N75: 16323 COUNT: 61
E-size:34642.25

Done
