All statistics are based on contigs of size >= 200 bp, unless otherwise noted (e.g., "# contigs (>= 0 bp)" and "Total length (>= 0 bp)" include all contigs).

Assembly                                                                     #Contigs (>= 0 bp)  #Contigs (>= 1000 bp)  Total length (>= 0 bp)  Total length (>= 1000 bp)  #Contigs  Largest contig  Total length  Reference length  GC (%)  Reference GC (%)  N50  NG50  N75  NG75  #misassemblies  #local misassemblies  #unaligned contigs  Unaligned contigs length  Genome fraction (%)  Duplication ratio  #N's per 100 kbp  #mismatches per 100 kbp  #indels per 100 kbp  #genes           #predicted genes (unique)  #predicted genes (>= 0 bp)  #predicted genes (>= 300 bp)  #predicted genes (>= 1500 bp)  #predicted genes (>= 3000 bp)  Largest alignment  NA50  NGA50  NA75  NGA75
VELVET_PGM_sakai_pgm_mu_318_400bp_IO_TS3.4_ms_0.395percent_97.final.contigs  34215               0                      7929723                 0                          29121     732             6933084       5594470           49.77   50.48             233  243   214  224   928             5                     279 + 118 part      79555                     69.321               1.721              0.00              41.44                    1070.54              129 + 4713 part  26112                      26175                       334                           0                              0                              732                229   240    210   220  
