Assembly	ABYSS_PE_PGM_sakai_pgm_mu_318_400bp_IO_TS3.4_ms_0.395percent_48-unitigs
#Mis_misassemblies	2
#Mis_relocations	2
#Mis_translocations	0
#Mis_inversions	0
#Mis_misassembled contigs	2
Mis_Misassembled contigs length	20501
#Mis_local misassemblies	3
#mismatches	64
#indels	233
#Mis_short indels (<= 5 bp)	233
#Mis_long indels (> 5 bp)	0
Indels length	236
