Assembly	SOAP2_PGM_mrsa_pgm_200bp_es_316_IonOnev2_ts3.0_morestringent.0.230percent_27.final.contig
#Contigs (>= 0 bp)	229449
#Contigs (>= 1000 bp)	0
Total length (>= 0 bp)	12917458
Total length (>= 1000 bp)	0
#Contigs	405
Largest contig	419
Total length	96296
Reference length	2813862
GC (%)	33.71
Reference GC (%)	32.81
N50	229
NG50	None
N75	212
NG75	None
#misassemblies	0
#local misassemblies	0
#unaligned contigs	25 + 1 part
Unaligned contigs length	5475
Genome fraction (%)	3.224
Duplication ratio	1.001
#N's per 100 kbp	0.00
#mismatches per 100 kbp	11.02
#indels per 100 kbp	142.19
#genes	4 + 318 part
#predicted genes (unique)	392
#predicted genes (>= 0 bp)	392
#predicted genes (>= 300 bp)	22
#predicted genes (>= 1500 bp)	0
#predicted genes (>= 3000 bp)	0
Largest alignment	419
NA50	227
NGA50	None
NA75	210
NGA75	None
