Assembly	#Contigs (>= 0 bp)	#Contigs (>= 1000 bp)	Total length (>= 0 bp)	Total length (>= 1000 bp)	#Contigs	Largest contig	Total length	Reference length	GC (%)	Reference GC (%)	N50	NG50	N75	NG75	#misassemblies	#local misassemblies	#unaligned contigs	Unaligned contigs length	Genome fraction (%)	Duplication ratio	#N's per 100 kbp	#mismatches per 100 kbp	#indels per 100 kbp	#genes	#predicted genes (unique)	#predicted genes (>= 0 bp)	#predicted genes (>= 300 bp)	#predicted genes (>= 1500 bp)	#predicted genes (>= 3000 bp)	Largest alignment	NA50	NGA50	NA75	NGA75
ABYSS_PE_MIS_PE_mrsa_mis-1_bi_2x150bp_default__mrsa_mis-2_bi_2x150bp_default.0.527percent_120-scaffolds_broken	320	249	2813125	2785645	299	51258	2809995	2813862	32.87	32.81	18814	18814	10585	10585	2	2	2 + 0 part	478	98.848	1.005	1.21	1.73	0.93	2532 + 180 part	2775	2785	2325	278	27	51258	18431	18431	10585	10585
ABYSS_PE_MIS_PE_mrsa_mis-1_bi_2x150bp_default__mrsa_mis-2_bi_2x150bp_default.0.527percent_120-scaffolds	278	219	2815670	2795051	257	87367	2812540	2813862	32.87	32.81	21865	21865	11427	11427	4	16	2 + 0 part	478	98.848	1.006	91.70	1.73	17.76	2553 + 160 part	2765	2773	2325	278	27	87317	21507	21507	11427	11427
