calling: java -cp /vol/ngscomparison/software/analysis/quast-2.1/libs/gage:. SizeFasta /vol/codine-tmp/juene/tmp.2388Pxq2vi/quast/corrected_input/Ecoli_Sakai_editedNew_plasmids.fasta |awk '{SUM+=; print SUM}'|tail -n 1
Contig Stats
Total units: 1346
Reference: 5594470
BasesInFasta: 5223398
Min: 200
Max: 52530
N10: 26744 COUNT: 18
N25: 19397 COUNT: 54
N50: 9822 COUNT: 155
N75: 3910 COUNT: 370
E-size:12581.03

Genome Size: 5594470
Assembly Size: 5223398
Chaff bases: 0
Missing Reference Bases: 239440(4.28%)
Missing Assembly Bases: 89(0.00%)
Missing Assembly Contigs: 0(0.00%)
Duplicated Reference Bases: 233
Compressed Reference Bases: 148536
Bad Trim: 89
Avg Idy: 99.99
SNPs: 142
Indels < 5bp: 495
Indels >= 5: 2
Inversions: 0
Relocation: 4
Translocation: 0

Corrected Contig Stats
calling: java -cp /vol/ngscomparison/software/analysis/quast-2.1/libs/gage:.:. GetFastaStats -o -min 199 -genomeSize 5594470 /vol/codine-tmp/juene/tmp.2388Pxq2vi/quast/gage/tmp/ABYSS_PE_PGM_sakai_pgm_mu_318_400bp_IO_TS3.4_ms.26coverage_46.final.matches.lens 2> /dev/null
Total units: 1351
Reference: 5594470
BasesInFasta: 5223573
Min: 200
Max: 52532
N10: 26746 COUNT: 18
N25: 19397 COUNT: 54
N50: 9735 COUNT: 156
N75: 3910 COUNT: 372
E-size:12542.85

Done
