All statistics are based on contigs of size >= 200 bp, unless otherwise noted (e.g., "# contigs (>= 0 bp)" and "Total length (>= 0 bp)" include all contigs).

Assembly                                                                      GAGE_Contigs #  GAGE_Min contig  GAGE_Max contig  GAGE_N50         GAGE_Genome size  GAGE_Assembly size  GAGE_Chaff bases  GAGE_Missing reference bases  GAGE_Missing assembly bases  GAGE_Missing assembly contigs  GAGE_Duplicated reference bases  GAGE_Compressed reference bases  GAGE_Bad trim  GAGE_Avg idy  GAGE_SNPs  GAGE_Indels < 5bp  GAGE_Indels >= 5  GAGE_Inversions  GAGE_Relocation  GAGE_Translocation  GAGE_Corrected contig #  GAGE_Corrected assembly size  GAGE_Min correct contig  GAGE_Max correct contig  GAGE_Corrected N50
SOAP2_MIS_PE_mrsa_mis-1_bi_2x250bp_default.0.460percent_19.final.scaf_broken  4543            200              3688             536 COUNT: 1443  2813862           2377635             0                 684419(24.32%)                240001(10.09%)               922(20.29%)                    0                                1452                             2538           99.98         80         276                479               0                1                0                   3811                     2098262                       200                      3231                     478 COUNT: 1629   
SOAP2_MIS_PE_mrsa_mis-1_bi_2x250bp_default.0.460percent_19.final.scaf         3630            200              6575             1030 COUNT: 780  2813862           2612763             0                 590056(20.97%)                379264(14.52%)               937(25.81%)                    0                                2457                             36690          99.89         81         520                2162              0                7                0                   3716                     2086904                       200                      3708                     487 COUNT: 1592   
