All statistics are based on contigs of size >= 200 bp, unless otherwise noted (e.g., "# contigs (>= 0 bp)" and "Total length (>= 0 bp)" include all contigs).

Assembly                         NEWBLER_MIS_PE_sakai_mis-2_bi_2x150bp_default__sakai_mis-1_bi_2x150bp_default.0.075percent.contigs_broken  NEWBLER_MIS_PE_sakai_mis-2_bi_2x150bp_default__sakai_mis-1_bi_2x150bp_default.0.075percent.contigs
#Mis_misassemblies               8                                                                                                          162                                                                                               
#Mis_relocations                 8                                                                                                          162                                                                                               
#Mis_translocations              0                                                                                                          0                                                                                                 
#Mis_inversions                  0                                                                                                          0                                                                                                 
#Mis_misassembled contigs        8                                                                                                          149                                                                                               
Mis_Misassembled contigs length  30590                                                                                                      1825417                                                                                           
#Mis_local misassemblies         4                                                                                                          1005                                                                                              
#mismatches                      459                                                                                                        607                                                                                               
#indels                          61                                                                                                         71                                                                                                
#Mis_short indels (<= 5 bp)      61                                                                                                         71                                                                                                
#Mis_long indels (> 5 bp)        0                                                                                                          0                                                                                                 
Indels length                    66                                                                                                         78                                                                                                
