All statistics are based on contigs of size >= 200 bp, unless otherwise noted (e.g., "# contigs (>= 0 bp)" and "Total length (>= 0 bp)" include all contigs).

Assembly                          NEWBLER_MIS_PE_sakai_mis-1_bi_2x250bp_SI_default__sakai_mis-2_bi_2x250bp_SI_default.0.35percent.contigs_broken  NEWBLER_MIS_PE_sakai_mis-1_bi_2x250bp_SI_default__sakai_mis-2_bi_2x250bp_SI_default.0.35percent.contigs
#Una_fully unaligned contigs      1                                                                                                               1                                                                                                      
Una_Fully unaligned length        5386                                                                                                            5386                                                                                                   
#Una_partially unaligned contigs  0                                                                                                               0                                                                                                      
#Una_with misassembly             0                                                                                                               0                                                                                                      
#Una_both parts are significant   0                                                                                                               0                                                                                                      
Una_Partially unaligned length    0                                                                                                               0                                                                                                      
#N's                              0                                                                                                               39096                                                                                                  
