1: PREPARING DATA
2,3: RUNNING mummer AND CREATING CLUSTERS
# reading input file "/vol/codine-tmp/juene/tmp.mrOkl2IvHt/quast/contigs_reports/nucmer_output/CLC_MIS_PE_sakai_mis-2_bi_2x150bp_default__sakai_mis-1_bi_2x150bp_default.0.350percent.result_broken.ntref" of length 5594473
# construct suffix tree for sequence of length 5594473
# (maximum reference length is 536870908)
# (maximum query length is 4294967295)
# process 55944 characters per dot
#....................................................................................................
# CONSTRUCTIONTIME /vol/ngscomparison/software/analysis/quast-2.1/libs/MUMmer3.23-linux/mummer /vol/codine-tmp/juene/tmp.mrOkl2IvHt/quast/contigs_reports/nucmer_output/CLC_MIS_PE_sakai_mis-2_bi_2x150bp_default__sakai_mis-1_bi_2x150bp_default.0.350percent.result_broken.ntref 2.73
# reading input file "/vol/codine-tmp/juene/tmp.mrOkl2IvHt/quast/corrected_input/CLC_MIS_PE_sakai_mis-2_bi_2x150bp_default__sakai_mis-1_bi_2x150bp_default.0.350percent.result_broken" of length 5353097
# matching query-file "/vol/codine-tmp/juene/tmp.mrOkl2IvHt/quast/corrected_input/CLC_MIS_PE_sakai_mis-2_bi_2x150bp_default__sakai_mis-1_bi_2x150bp_default.0.350percent.result_broken"
# against subject-file "/vol/codine-tmp/juene/tmp.mrOkl2IvHt/quast/contigs_reports/nucmer_output/CLC_MIS_PE_sakai_mis-2_bi_2x150bp_default__sakai_mis-1_bi_2x150bp_default.0.350percent.result_broken.ntref"
# COMPLETETIME /vol/ngscomparison/software/analysis/quast-2.1/libs/MUMmer3.23-linux/mummer /vol/codine-tmp/juene/tmp.mrOkl2IvHt/quast/contigs_reports/nucmer_output/CLC_MIS_PE_sakai_mis-2_bi_2x150bp_default__sakai_mis-1_bi_2x150bp_default.0.350percent.result_broken.ntref 8.06
# SPACE /vol/ngscomparison/software/analysis/quast-2.1/libs/MUMmer3.23-linux/mummer /vol/codine-tmp/juene/tmp.mrOkl2IvHt/quast/contigs_reports/nucmer_output/CLC_MIS_PE_sakai_mis-2_bi_2x150bp_default__sakai_mis-1_bi_2x150bp_default.0.350percent.result_broken.ntref 10.62
4: FINISHING DATA
