All statistics are based on contigs of size >= 200 bp, unless otherwise noted (e.g., "# contigs (>= 0 bp)" and "Total length (>= 0 bp)" include all contigs).

Assembly                                                                                      GAGE_Contigs #  GAGE_Min contig  GAGE_Max contig  GAGE_N50          GAGE_Genome size  GAGE_Assembly size  GAGE_Chaff bases  GAGE_Missing reference bases  GAGE_Missing assembly bases  GAGE_Missing assembly contigs  GAGE_Duplicated reference bases  GAGE_Compressed reference bases  GAGE_Bad trim  GAGE_Avg idy  GAGE_SNPs  GAGE_Indels < 5bp  GAGE_Indels >= 5  GAGE_Inversions  GAGE_Relocation  GAGE_Translocation  GAGE_Corrected contig #  GAGE_Corrected assembly size  GAGE_Min correct contig  GAGE_Max correct contig  GAGE_Corrected N50
ABYSS_PE_MIS_PE_sakai_mis-both_bi_2x250bp_SI_default.0.64percent.NEWBLER_70-scaffolds_broken  317             200              240043           93867 COUNT: 18   5594470           5461787             0                 34976(0.63%)                  14(0.00%)                    0(0.00%)                       16351                            228779                           0              99.98         535        33                 9                 0                4                0                   307                      5448529                       200                      224178                   85106 COUNT: 21   
ABYSS_PE_MIS_PE_sakai_mis-both_bi_2x250bp_SI_default.0.64percent.NEWBLER_70-scaffolds         276             200              376791           127568 COUNT: 15  5594470           5463717             0                 34883(0.62%)                  1810(0.03%)                  0(0.00%)                       16351                            228614                           50             99.97         524        38                 34                5                7                0                   304                      5448658                       200                      224178                   85106 COUNT: 21   
