Assembly	CLC_PGM_sakai_pgm_mu_318_400bp_IO_TS3.4_ms.0.85percent.result
GAGE_Contigs #	1114
GAGE_Min contig	200
GAGE_Max contig	131484
GAGE_N50	38772 COUNT: 48
GAGE_Genome size	5594470
GAGE_Assembly size	5492004
GAGE_Chaff bases	0
GAGE_Missing reference bases	48878(0.87%)
GAGE_Missing assembly bases	5599(0.10%)
GAGE_Missing assembly contigs	18(1.62%)
GAGE_Duplicated reference bases	139370
GAGE_Compressed reference bases	242903
GAGE_Bad trim	497
GAGE_Avg idy	99.98
GAGE_SNPs	236
GAGE_Indels < 5bp	383
GAGE_Indels >= 5	3
GAGE_Inversions	1
GAGE_Relocation	6
GAGE_Translocation	0
GAGE_Corrected contig #	647
GAGE_Corrected assembly size	5349918
GAGE_Min correct contig	200
GAGE_Max correct contig	131486
GAGE_Corrected N50	38560 COUNT: 49
