Assembly	NEWBLER_MIS_PE_mrsa_mis-1_bi_2x150bp_default__mrsa_mis-2_bi_2x150bp_default.21coverage.contigs
#Contigs (>= 0 bp)	276
#Contigs (>= 1000 bp)	192
Total length (>= 0 bp)	2768696
Total length (>= 1000 bp)	2739888
#Contigs	243
Largest contig	147978
Total length	2764020
Reference length	2813862
GC (%)	32.69
Reference GC (%)	32.81
N50	27336
NG50	26570
N75	14484
NG75	13549
#misassemblies	2
#local misassemblies	5
#unaligned contigs	1 + 0 part
Unaligned contigs length	5386
Genome fraction (%)	97.673
Duplication ratio	1.001
#N's per 100 kbp	0.00
#mismatches per 100 kbp	3.17
#indels per 100 kbp	0.40
#genes	2550 + 130 part
#predicted genes (unique)	2701
#predicted genes (>= 0 bp)	2702
#predicted genes (>= 300 bp)	2295
#predicted genes (>= 1500 bp)	295
#predicted genes (>= 3000 bp)	26
Largest alignment	147978
NA50	26570
NGA50	25989
NA75	14364
NGA75	13549
