Assembly	VELVET_MIS_PE_sakai_mis-both_bi_2x250bp_SI_default.0.64percent_153.final.contigs_broken	VELVET_MIS_PE_sakai_mis-both_bi_2x250bp_SI_default.0.64percent_153.final.contigs
#Contigs (>= 0 bp)	497	394
#Contigs (>= 1000 bp)	278	197
Total length (>= 0 bp)	5457623	5470381
Total length (>= 1000 bp)	5354345	5378488
#Contigs	496	394
Largest contig	150463	212373
Total length	5457528	5470381
Reference length	5594470	5594470
GC (%)	50.36	50.36
Reference GC (%)	50.48	50.48
N50	38875	73365
NG50	37800	72827
N75	21558	32998
NG75	19511	31945
#misassemblies	6	12
#local misassemblies	1	86
#unaligned contigs	1 + 0 part	1 + 0 part
Unaligned contigs length	5538	5538
Genome fraction (%)	95.444	95.568
Duplication ratio	1.001	1.004
#N's per 100 kbp	0.00	233.22
#mismatches per 100 kbp	2.92	2.94
#indels per 100 kbp	0.62	4.51
#genes	4968 + 299 part	4980 + 294 part
#predicted genes (unique)	5545	5524
#predicted genes (>= 0 bp)	5567	5547
#predicted genes (>= 300 bp)	4635	4627
#predicted genes (>= 1500 bp)	651	654
#predicted genes (>= 3000 bp)	61	61
Largest alignment	150463	211924
NA50	37782	70559
NGA50	36648	70041
NA75	20520	32347
NGA75	18823	31485
