Assembly	CLC_PGM_mtbh37_pgm_400bp_es_318v2_OT2_tsv3.6_morestringent.0.550percent.result
#Mis_misassemblies	20
#Mis_relocations	20
#Mis_translocations	0
#Mis_inversions	0
#Mis_misassembled contigs	19
Mis_Misassembled contigs length	192875
#Mis_local misassemblies	7
#mismatches	257
#indels	1379
#Mis_short indels (<= 5 bp)	1376
#Mis_long indels (> 5 bp)	3
Indels length	1524
