All statistics are based on contigs of size >= 200 bp, unless otherwise noted (e.g., "# contigs (>= 0 bp)" and "Total length (>= 0 bp)" include all contigs).

Assembly                                                                                                         #Contigs  #Contigs (>= 0 bp)  #Contigs (>= 1000 bp)  Largest contig  Total length  Total length (>= 0 bp)  Total length (>= 1000 bp)  Reference length  N50   NG50  N75   NG75  L50  LG50  L75  LG75  #local misassemblies  #misassemblies  #misassembled contigs  Misassembled contigs length  Misassemblies inter-contig overlap  #unaligned contigs  Unaligned contigs length  #ambiguously mapped contigs  Extra bases in ambiguously mapped contigs  #N's   #N's per 100 kbp  Genome fraction (%)  Duplication ratio  #genes           #predicted genes (unique)  #predicted genes (>= 0 bp)  #predicted genes (>= 300 bp)  #predicted genes (>= 1500 bp)  #predicted genes (>= 3000 bp)  #mismatches  #indels  Indels length  #mismatches per 100 kbp  #indels per 100 kbp  GC (%)  Reference GC (%)  Average %IDY  Largest alignment  NA50  NGA50  NA75  NGA75  LA50  LGA50  LA75  LGA75  #Mis_misassemblies  #Mis_relocations  #Mis_translocations  #Mis_inversions  #Mis_misassembled contigs  Mis_Misassembled contigs length  #Mis_local misassemblies  #Mis_short indels (<= 5 bp)  #Mis_long indels (> 5 bp)  #Una_fully unaligned contigs  Una_Fully unaligned length  #Una_partially unaligned contigs  #Una_with misassembly  #Una_both parts are significant  Una_Partially unaligned length  GAGE_Contigs #  GAGE_Min contig  GAGE_Max contig  GAGE_N50         GAGE_Genome size  GAGE_Assembly size  GAGE_Chaff bases  GAGE_Missing reference bases  GAGE_Missing assembly bases  GAGE_Missing assembly contigs  GAGE_Duplicated reference bases  GAGE_Compressed reference bases  GAGE_Bad trim  GAGE_Avg idy  GAGE_SNPs  GAGE_Indels < 5bp  GAGE_Indels >= 5  GAGE_Inversions  GAGE_Relocation  GAGE_Translocation  GAGE_Corrected contig #  GAGE_Corrected assembly size  GAGE_Min correct contig  GAGE_Max correct contig  GAGE_Corrected N50
NEWBLER_MIS_PE_sakai_mis-1_bi_2x250bp_SI_default__sakai_mis-2_bi_2x250bp_SI_default.0.075percent.contigs_broken  814       814                 766                    26712           4807759       4807759                 4774227                    5594470           8126  7015  4832  3363  184  235   372  517   7                     4               4                      17434                        2091                                1 + 0 part          5386                      25                           -45919                                     0      0.00              85.014               1.001              3887 + 770 part  5079                       5079                        4215                          548                            52                             361          57       64             7.59                     1.20                 50.54   50.48             99.684        26712              8123  6985   4803  3294   184   236    374   521    4                   4                 0                    0                4                          17434                            7                         57                           0                          1                             5386                        0                                 0                      0                                0                               814             504              26712            7015 COUNT: 235  5594470           4807759             0                 622136(11.12%)                5405(0.11%)                  1(0.12%)                       0                                169856                           9              99.99         357        46                 8                 0                4                0                   826                      4807691                       327                      26712                    6970 COUNT: 236   
NEWBLER_MIS_PE_sakai_mis-1_bi_2x250bp_SI_default__sakai_mis-2_bi_2x250bp_SI_default.0.075percent.contigs         667       667                 667                    36229           4861414       4861414                 4861414                    5594470           9743  8258  5583  4081  166  207   330  445   133                   20              18                     120946                       4770                                1 + 0 part          5386                      3                            -12138                                     53655  1103.69           85.680               1.012              3913 + 776 part  5053                       5053                        4217                          549                            52                             503          198      246            10.49                    4.13                 50.54   50.48             99.678        35370              9365  7984   5310  3834   168   211    340   463    20                  20                0                    0                18                         120946                           133                       196                          2                          1                             5386                        0                                 0                      0                                0                               667             2004             36229            8258 COUNT: 207  5594470           4861414             0                 622094(11.12%)                59023(1.21%)                 1(0.15%)                       0                                169856                           6              99.99         357        51                 130               13               14               1                   825                      4807733                       327                      26712                    6970 COUNT: 236   
