Assembly	ABYSS_PE_MIS_PE_mtbh37-1_mis_2x250bp_nextera_default__mtbh37-2_mis_2x250bp_nextera_default_36-scaffolds_broken	ABYSS_PE_MIS_PE_mtbh37-1_mis_2x250bp_nextera_default__mtbh37-2_mis_2x250bp_nextera_default_36-scaffolds
#Contigs	220	153
#Contigs (>= 0 bp)	673	595
#Contigs (>= 1000 bp)	175	132
Largest contig	142080	212170
Total length	4401934	4408381
Total length (>= 0 bp)	4433809	4438650
Total length (>= 1000 bp)	4376174	4395703
Reference length	4411532	4411532
N50	58762	89351
NG50	58762	89351
N75	27699	40636
NG75	27699	40636
L50	25	17
LG50	25	17
L75	53	34
LG75	53	34
#local misassemblies	30	60
#misassemblies	4	6
#misassembled contigs	4	6
Misassembled contigs length	11452	195606
Misassemblies inter-contig overlap	74132	74155
#unaligned contigs	0 + 0 part	0 + 0 part
Unaligned contigs length	0	0
#ambiguously mapped contigs	9	5
Extra bases in ambiguously mapped contigs	-6061	-5125
#N's	92	4933
#N's per 100 kbp	2.09	111.90
Genome fraction (%)	99.020	99.073
Duplication ratio	1.023	1.024
#genes	3965 + 132 part	3984 + 115 part
#predicted genes (unique)	4106	4097
#predicted genes (>= 0 bp)	4176	4166
#predicted genes (>= 300 bp)	3668	3663
#predicted genes (>= 1500 bp)	568	571
#predicted genes (>= 3000 bp)	74	74
#mismatches	415	419
#indels	109	193
Indels length	495	974
#mismatches per 100 kbp	9.50	9.59
#indels per 100 kbp	2.50	4.42
GC (%)	65.56	65.56
Reference GC (%)	65.61	65.61
Average %IDY	99.779	99.668
Largest alignment	142080	212142
NA50	58762	84878
NGA50	58762	84878
NA75	27699	40636
NGA75	27699	40636
LA50	25	18
LGA50	25	18
LA75	53	35
LGA75	53	35
#Mis_misassemblies	4	6
#Mis_relocations	4	6
#Mis_translocations	0	0
#Mis_inversions	0	0
#Mis_misassembled contigs	4	6
Mis_Misassembled contigs length	11452	195606
#Mis_local misassemblies	30	60
#Mis_short indels (<= 5 bp)	96	161
#Mis_long indels (> 5 bp)	13	32
#Una_fully unaligned contigs	0	0
Una_Fully unaligned length	0	0
#Una_partially unaligned contigs	0	0
#Una_with misassembly	0	0
#Una_both parts are significant	0	0
Una_Partially unaligned length	0	0
GAGE_Contigs #	220	153
GAGE_Min contig	215	233
GAGE_Max contig	142080	212170
GAGE_N50	58762 COUNT: 25	89351 COUNT: 17
GAGE_Genome size	4411532	4411532
GAGE_Assembly size	4401934	4408381
GAGE_Chaff bases	0	0
GAGE_Missing reference bases	27880(0.63%)	26613(0.60%)
GAGE_Missing assembly bases	869(0.02%)	5722(0.13%)
GAGE_Missing assembly contigs	0(0.00%)	0(0.00%)
GAGE_Duplicated reference bases	8905	7929
GAGE_Compressed reference bases	37535	38134
GAGE_Bad trim	847	2033
GAGE_Avg idy	99.98	99.96
GAGE_SNPs	263	261
GAGE_Indels < 5bp	93	121
GAGE_Indels >= 5	34	78
GAGE_Inversions	0	0
GAGE_Relocation	10	13
GAGE_Translocation	0	0
GAGE_Corrected contig #	256	238
GAGE_Corrected assembly size	4396716	4399241
GAGE_Min correct contig	233	231
GAGE_Max correct contig	136509	163132
GAGE_Corrected N50	44799 COUNT: 31	49215 COUNT: 28
