All statistics are based on contigs of size >= 200 bp, unless otherwise noted (e.g., "# contigs (>= 0 bp)" and "Total length (>= 0 bp)" include all contigs).

Assembly                       ABYSS_PE_MIS_PE_mtbh37-1_mis_2x250bp_nextera_default__mtbh37-2_mis_2x250bp_nextera_default_36-scaffolds_broken  ABYSS_PE_MIS_PE_mtbh37-1_mis_2x250bp_nextera_default__mtbh37-2_mis_2x250bp_nextera_default_36-scaffolds
#Contigs (>= 0 bp)             673                                                                                                             595                                                                                                    
#Contigs (>= 1000 bp)          175                                                                                                             132                                                                                                    
Total length (>= 0 bp)         4433809                                                                                                         4438650                                                                                                
Total length (>= 1000 bp)      4376174                                                                                                         4395703                                                                                                
#Contigs                       220                                                                                                             153                                                                                                    
Largest contig                 142080                                                                                                          212170                                                                                                 
Total length                   4401934                                                                                                         4408381                                                                                                
Reference length               4411532                                                                                                         4411532                                                                                                
GC (%)                         65.56                                                                                                           65.56                                                                                                  
Reference GC (%)               65.61                                                                                                           65.61                                                                                                  
N50                            58762                                                                                                           89351                                                                                                  
NG50                           58762                                                                                                           89351                                                                                                  
N75                            27699                                                                                                           40636                                                                                                  
NG75                           27699                                                                                                           40636                                                                                                  
#misassemblies                 4                                                                                                               6                                                                                                      
#local misassemblies           30                                                                                                              60                                                                                                     
#unaligned contigs             0 + 0 part                                                                                                      0 + 0 part                                                                                             
Unaligned contigs length       0                                                                                                               0                                                                                                      
Genome fraction (%)            99.020                                                                                                          99.073                                                                                                 
Duplication ratio              1.023                                                                                                           1.024                                                                                                  
#N's per 100 kbp               2.09                                                                                                            111.90                                                                                                 
#mismatches per 100 kbp        9.50                                                                                                            9.59                                                                                                   
#indels per 100 kbp            2.50                                                                                                            4.42                                                                                                   
#genes                         3965 + 132 part                                                                                                 3984 + 115 part                                                                                        
#predicted genes (unique)      4106                                                                                                            4097                                                                                                   
#predicted genes (>= 0 bp)     4176                                                                                                            4166                                                                                                   
#predicted genes (>= 300 bp)   3668                                                                                                            3663                                                                                                   
#predicted genes (>= 1500 bp)  568                                                                                                             571                                                                                                    
#predicted genes (>= 3000 bp)  74                                                                                                              74                                                                                                     
Largest alignment              142080                                                                                                          212142                                                                                                 
NA50                           58762                                                                                                           84878                                                                                                  
NGA50                          58762                                                                                                           84878                                                                                                  
NA75                           27699                                                                                                           40636                                                                                                  
NGA75                          27699                                                                                                           40636                                                                                                  
