Assembly	VELVET_MIS_PE_sakai_mis-both_bi_2x250bp_SI_default.0.64percent_213.final.contigs_broken	VELVET_MIS_PE_sakai_mis-both_bi_2x250bp_SI_default.0.64percent_213.final.contigs
GAGE_Contigs #	3515	2272
GAGE_Min contig	234	425
GAGE_Max contig	8554	15489
GAGE_N50	1675 COUNT: 1055	3111 COUNT: 549
GAGE_Genome size	5594470	5594470
GAGE_Assembly size	5215464	5405351
GAGE_Chaff bases	0	0
GAGE_Missing reference bases	360195(6.44%)	360194(6.44%)
GAGE_Missing assembly bases	6164(0.12%)	196070(3.63%)
GAGE_Missing assembly contigs	1(0.03%)	1(0.04%)
GAGE_Duplicated reference bases	7907	8544
GAGE_Compressed reference bases	264672	265089
GAGE_Bad trim	566	731
GAGE_Avg idy	99.99	99.99
GAGE_SNPs	202	192
GAGE_Indels < 5bp	16	16
GAGE_Indels >= 5	2	1231
GAGE_Inversions	5	7
GAGE_Relocation	4	11
GAGE_Translocation	1	1
GAGE_Corrected contig #	3515	3514
GAGE_Corrected assembly size	5208415	5207759
GAGE_Min correct contig	222	222
GAGE_Max correct contig	8554	8554
GAGE_Corrected N50	1670 COUNT: 1060	1670 COUNT: 1060
