1: PREPARING DATA
2,3: RUNNING mummer AND CREATING CLUSTERS
# reading input file "/vol/codine-tmp/juene/tmp.vnn1hOnnsl/quast/contigs_reports/nucmer_output/VELVET_MIS_PE_mrsa_mis-1_bi_2x150bp_default__mrsa_mis-2_bi_2x150bp_default.0.527percent_81.final.contigs_broken.ntref" of length 2813864
# construct suffix tree for sequence of length 2813864
# (maximum reference length is 536870908)
# (maximum query length is 4294967295)
# process 28138 characters per dot
#....................................................................................................
# CONSTRUCTIONTIME /vol/ngscomparison/software/analysis/quast-2.1/libs/MUMmer3.23-linux/mummer /vol/codine-tmp/juene/tmp.vnn1hOnnsl/quast/contigs_reports/nucmer_output/VELVET_MIS_PE_mrsa_mis-1_bi_2x150bp_default__mrsa_mis-2_bi_2x150bp_default.0.527percent_81.final.contigs_broken.ntref 1.64
# reading input file "/vol/codine-tmp/juene/tmp.vnn1hOnnsl/quast/corrected_input/VELVET_MIS_PE_mrsa_mis-1_bi_2x150bp_default__mrsa_mis-2_bi_2x150bp_default.0.527percent_81.final.contigs_broken" of length 2787486
# matching query-file "/vol/codine-tmp/juene/tmp.vnn1hOnnsl/quast/corrected_input/VELVET_MIS_PE_mrsa_mis-1_bi_2x150bp_default__mrsa_mis-2_bi_2x150bp_default.0.527percent_81.final.contigs_broken"
# against subject-file "/vol/codine-tmp/juene/tmp.vnn1hOnnsl/quast/contigs_reports/nucmer_output/VELVET_MIS_PE_mrsa_mis-1_bi_2x150bp_default__mrsa_mis-2_bi_2x150bp_default.0.527percent_81.final.contigs_broken.ntref"
# COMPLETETIME /vol/ngscomparison/software/analysis/quast-2.1/libs/MUMmer3.23-linux/mummer /vol/codine-tmp/juene/tmp.vnn1hOnnsl/quast/contigs_reports/nucmer_output/VELVET_MIS_PE_mrsa_mis-1_bi_2x150bp_default__mrsa_mis-2_bi_2x150bp_default.0.527percent_81.final.contigs_broken.ntref 5.22
# SPACE /vol/ngscomparison/software/analysis/quast-2.1/libs/MUMmer3.23-linux/mummer /vol/codine-tmp/juene/tmp.vnn1hOnnsl/quast/contigs_reports/nucmer_output/VELVET_MIS_PE_mrsa_mis-1_bi_2x150bp_default__mrsa_mis-2_bi_2x150bp_default.0.527percent_81.final.contigs_broken.ntref 5.43
4: FINISHING DATA
