All statistics are based on contigs of size >= 200 bp, unless otherwise noted (e.g., "# contigs (>= 0 bp)" and "Total length (>= 0 bp)" include all contigs).

Assembly                                                                #Contigs (>= 0 bp)  #Contigs (>= 1000 bp)  Total length (>= 0 bp)  Total length (>= 1000 bp)  #Contigs  Largest contig  Total length  Reference length  GC (%)  Reference GC (%)  N50    NG50   N75    NG75   #misassemblies  #local misassemblies  #unaligned contigs  Unaligned contigs length  Genome fraction (%)  Duplication ratio  #N's per 100 kbp  #mismatches per 100 kbp  #indels per 100 kbp  #genes           #predicted genes (unique)  #predicted genes (>= 0 bp)  #predicted genes (>= 300 bp)  #predicted genes (>= 1500 bp)  #predicted genes (>= 3000 bp)  Largest alignment  NA50   NGA50  NA75   NGA75
SOAP2_MIS_PE_mtbh37-1_mis_2x250bp_nextera_default_87.final.scaf_broken  3349                819                    4667469                 4146510                    1173      37401           4310955       4411532           65.59   65.61             6983   6825   3776   3541   2               20                    1 + 6 part          733                       96.629               1.006              5.27              7.93                     3.82                 3187 + 856 part  4756                       4776                        3809                          470                            48                             37401              6983   6825   3776   3541 
SOAP2_MIS_PE_mtbh37-1_mis_2x250bp_nextera_default_87.final.scaf         2365                119                    4715320                 4320290                    261       231382          4368629       4411532           65.59   65.61             74828  74828  39589  37981  6               763                   2 + 1 part          1244                      96.821               1.018              1100.53           6.53                     60.90                3318 + 729 part  4498                       4519                        3742                          497                            51                             229217             73605  73605  37738  37031
