Assembly	VELVET_PGM_mtbh37_pgm_400bp_es_318v2_OT2_tsv3.6_morestringent_25.final.contigs
#Contigs (>= 0 bp)	3282
#Contigs (>= 1000 bp)	1279
Total length (>= 0 bp)	4240281
Total length (>= 1000 bp)	3573371
#Contigs	2395
Largest contig	18007
Total length	4149909
Reference length	4411532
GC (%)	65.22
Reference GC (%)	65.61
N50	2905
NG50	2746
N75	1549
NG75	1338
#misassemblies	1
#local misassemblies	5
#unaligned contigs	1 + 3 part
Unaligned contigs length	836
Genome fraction (%)	93.126
Duplication ratio	1.006
#N's per 100 kbp	0.24
#mismatches per 100 kbp	7.18
#indels per 100 kbp	57.25
#genes	2533 + 1460 part
#predicted genes (unique)	6010
#predicted genes (>= 0 bp)	6012
#predicted genes (>= 300 bp)	4255
#predicted genes (>= 1500 bp)	241
#predicted genes (>= 3000 bp)	7
Largest alignment	18007
NA50	2905
NGA50	2746
NA75	1549
NGA75	1338
