All statistics are based on contigs of size >= 200 bp, unless otherwise noted (e.g., "# contigs (>= 0 bp)" and "Total length (>= 0 bp)" include all contigs).

Assembly                                                                #Contigs  #Contigs (>= 0 bp)  #Contigs (>= 1000 bp)  Largest contig  Total length  Total length (>= 0 bp)  Total length (>= 1000 bp)  Reference length  N50  NG50  N75  NG75  L50    LG50  L75    LG75  #local misassemblies  #misassemblies  #misassembled contigs  Misassembled contigs length  Misassemblies inter-contig overlap  #unaligned contigs  Unaligned contigs length  #ambiguously mapped contigs  Extra bases in ambiguously mapped contigs  #N's  #N's per 100 kbp  Genome fraction (%)  Duplication ratio  #genes           #predicted genes (unique)  #predicted genes (>= 0 bp)  #predicted genes (>= 300 bp)  #predicted genes (>= 1500 bp)  #predicted genes (>= 3000 bp)  #mismatches  #indels  Indels length  #mismatches per 100 kbp  #indels per 100 kbp  GC (%)  Reference GC (%)  Average %IDY  Largest alignment  NA50  NGA50  NA75  NGA75  LA50  LGA50  LA75  LGA75  #Mis_misassemblies  #Mis_relocations  #Mis_translocations  #Mis_inversions  #Mis_misassembled contigs  Mis_Misassembled contigs length  #Mis_local misassemblies  #Mis_short indels (<= 5 bp)  #Mis_long indels (> 5 bp)  #Una_fully unaligned contigs  Una_Fully unaligned length  #Una_partially unaligned contigs  #Una_with misassembly  #Una_both parts are significant  Una_Partially unaligned length  GAGE_Contigs #  GAGE_Min contig  GAGE_Max contig  GAGE_N50         GAGE_Genome size  GAGE_Assembly size  GAGE_Chaff bases  GAGE_Missing reference bases  GAGE_Missing assembly bases  GAGE_Missing assembly contigs  GAGE_Duplicated reference bases  GAGE_Compressed reference bases  GAGE_Bad trim  GAGE_Avg idy  GAGE_SNPs  GAGE_Indels < 5bp  GAGE_Indels >= 5  GAGE_Inversions  GAGE_Relocation  GAGE_Translocation  GAGE_Corrected contig #  GAGE_Corrected assembly size  GAGE_Min correct contig  GAGE_Max correct contig  GAGE_Corrected N50
SOAP2_MIS_PE_mtbh37-1_mis_2x250bp_nextera_default_65.final.scaf_broken  106942    129003              138                    2084            26622431      29860769                167505                     4411532           249  349   226  258   47829  4161  75634  7938  3                     9               9                      2119                         75                                  86057 + 3864 part   20827359                  95                           -23057                                     1     0.00              89.538               1.461              308 + 3705 part  71465                      71647                       4168                          1                              0                              31473        552      570            796.80                   13.97                70.55   65.61             98.284        2084               None  347    None  245    None  4167   None  8018   9                   4                 0                    5                9                          2119                             3                         551                          1                          86057                         20468594                    3864                              0                      0                                358765                          106942          200              2084             349 COUNT: 4161  4411532           26622431            0                 323070(7.32%)                 19906668(74.77%)             81863(76.55%)                  1957436                          64987                            463005         99.23         17543      256                5                 2                2                0                   13523                    4522321                       200                      2084                     347 COUNT: 4166   
SOAP2_MIS_PE_mtbh37-1_mis_2x250bp_nextera_default_65.final.scaf         106944    128975              139                    2084            26629124      29862820                169333                     4411532           249  350   226  258   47819  4148  75628  7915  14                    9               9                      2119                         75                                  86067 + 3866 part   20833935                  95                           -23057                                     2052  7.71              89.517               1.462              308 + 3705 part  71473                      71655                       4172                          1                              0                              31736        590      608            803.65                   14.94                70.55   65.61             98.284        2084               None  347    None  245    None  4163   None  8015   9                   4                 0                    5                9                          2119                             14                        589                          1                          86067                         20473951                    3866                              0                      1                                359984                          106944          200              2084             350 COUNT: 4148  4411532           26629124            0                 320760(7.27%)                 19908719(74.76%)             81863(76.55%)                  1959300                          65067                            463399         99.23         17494      256                17                2                2                0                   13522                    4522068                       200                      2084                     347 COUNT: 4166   
