calling: java -cp /vol/ngscomparison/software/analysis/quast-2.1/libs/gage:. SizeFasta /vol/codine-tmp/juene/tmp.ezxDB2qgbO/quast/corrected_input/Mycobacterium_tuberculosis_H37Rv.fasta |awk '{SUM+=; print SUM}'|tail -n 1
Contig Stats
Total units: 146
Reference: 4411532
BasesInFasta: 4421693
Min: 211
Max: 207765
N10: 193952 COUNT: 3
N25: 138300 COUNT: 7
N50: 78349 COUNT: 17
N75: 49283 COUNT: 34
E-size:96718.73

Genome Size: 4411532
Assembly Size: 4421693
Chaff bases: 0
Missing Reference Bases: 26908(0.61%)
Missing Assembly Bases: 3318(0.08%)
Missing Assembly Contigs: 0(0.00%)
Duplicated Reference Bases: 9502
Compressed Reference Bases: 13923
Bad Trim: 1674
Avg Idy: 99.97
SNPs: 225
Indels < 5bp: 105
Indels >= 5: 54
Inversions: 2
Relocation: 4
Translocation: 0

Corrected Contig Stats
calling: java -cp /vol/ngscomparison/software/analysis/quast-2.1/libs/gage:.:. GetFastaStats -o -min 199 -genomeSize 4411532 /vol/codine-tmp/juene/tmp.ezxDB2qgbO/quast/gage/tmp/ABYSS_PE_MIS_PE_mtbh37-1_mis_2x250bp_nextera_default__mtbh37-2_mis_2x250bp_nextera_default_70-scaffolds.matches.lens 2> /dev/null
Total units: 201
Reference: 4411532
BasesInFasta: 4413346
Min: 211
Max: 204567
N10: 122993 COUNT: 3
N25: 86580 COUNT: 9
N50: 52105 COUNT: 26
N75: 27600 COUNT: 55
E-size:64367.87

Done
