Assembly	CLC_MIS_PE_mrsa_mis-1_bi_2x250bp_default__mrsa_mis-2_bi_2x250bp_default.66coverage.result_broken	CLC_MIS_PE_mrsa_mis-1_bi_2x250bp_default__mrsa_mis-2_bi_2x250bp_default.66coverage.result
#Contigs	232	231
#Contigs (>= 0 bp)	239	231
#Contigs (>= 1000 bp)	42	38
Largest contig	297853	384993
Total length	2830248	2831416
Total length (>= 0 bp)	2830936	2831416
Total length (>= 1000 bp)	2776756	2777124
Reference length	2813862	2813862
N50	129695	157891
NG50	129695	157891
N75	69409	78475
NG75	74481	78475
L50	8	6
LG50	8	6
L75	16	13
LG75	15	13
#local misassemblies	6	10
#misassemblies	3	3
#misassembled contigs	3	3
Misassembled contigs length	311161	311172
Misassemblies inter-contig overlap	966	1353
#unaligned contigs	179 + 0 part	181 + 1 part
Unaligned contigs length	53561	54210
#ambiguously mapped contigs	7	7
Extra bases in ambiguously mapped contigs	-7578	-7578
#N's	45	531
#N's per 100 kbp	1.59	18.75
Genome fraction (%)	98.422	98.434
Duplication ratio	1.000	1.000
#genes	2678 + 23 part	2678 + 23 part
#predicted genes (unique)	2816	2819
#predicted genes (>= 0 bp)	2817	2820
#predicted genes (>= 300 bp)	2299	2299
#predicted genes (>= 1500 bp)	301	301
#predicted genes (>= 3000 bp)	30	30
#mismatches	89	107
#indels	21	21
Indels length	112	148
#mismatches per 100 kbp	3.21	3.86
#indels per 100 kbp	0.76	0.76
GC (%)	33.03	33.03
Reference GC (%)	32.81	32.81
Average %IDY	98.466	98.459
Largest alignment	297853	384792
NA50	115885	115885
NGA50	116347	148827
NA75	69409	74476
NGA75	69409	74476
LA50	9	7
LGA50	8	6
LA75	16	14
LGA75	16	14
#Mis_misassemblies	3	3
#Mis_relocations	3	3
#Mis_translocations	0	0
#Mis_inversions	0	0
#Mis_misassembled contigs	3	3
Mis_Misassembled contigs length	311161	311172
#Mis_local misassemblies	6	10
#Mis_short indels (<= 5 bp)	19	17
#Mis_long indels (> 5 bp)	2	4
#Una_fully unaligned contigs	179	181
Una_Fully unaligned length	53561	54109
#Una_partially unaligned contigs	0	1
#Una_with misassembly	0	0
#Una_both parts are significant	0	0
Una_Partially unaligned length	0	101
GAGE_Contigs #	232	231
GAGE_Min contig	201	201
GAGE_Max contig	297853	384993
GAGE_N50	129695 COUNT: 8	157891 COUNT: 6
GAGE_Genome size	2813862	2813862
GAGE_Assembly size	2830248	2831416
GAGE_Chaff bases	0	0
GAGE_Missing reference bases	6937(0.25%)	6998(0.25%)
GAGE_Missing assembly bases	53613(1.89%)	54630(1.93%)
GAGE_Missing assembly contigs	179(77.16%)	181(78.35%)
GAGE_Duplicated reference bases	309	460
GAGE_Compressed reference bases	32253	32253
GAGE_Bad trim	40	284
GAGE_Avg idy	99.99	99.99
GAGE_SNPs	54	54
GAGE_Indels < 5bp	10	10
GAGE_Indels >= 5	9	11
GAGE_Inversions	1	1
GAGE_Relocation	2	3
GAGE_Translocation	0	0
GAGE_Corrected contig #	64	64
GAGE_Corrected assembly size	2777808	2777747
GAGE_Min correct contig	218	218
GAGE_Max correct contig	297853	297853
GAGE_Corrected N50	97477 COUNT: 9	97477 COUNT: 9
