All statistics are based on contigs of size >= 200 bp, unless otherwise noted (e.g., "# contigs (>= 0 bp)" and "Total length (>= 0 bp)" include all contigs).

Assembly                         VELVET_MIS_PE_mrsa_mis-1_bi_2x150bp_default__mrsa_mis-2_bi_2x150bp_default.0.527percent_53.final.contigs_broken  VELVET_MIS_PE_mrsa_mis-1_bi_2x150bp_default__mrsa_mis-2_bi_2x150bp_default.0.527percent_53.final.contigs
GAGE_Contigs #                   118                                                                                                              70                                                                                                      
GAGE_Min contig                  201                                                                                                              201                                                                                                     
GAGE_Max contig                  241286                                                                                                           486857                                                                                                  
GAGE_N50                         67795 COUNT: 13                                                                                                  145196 COUNT: 7                                                                                         
GAGE_Genome size                 2813862                                                                                                          2813862                                                                                                 
GAGE_Assembly size               2775017                                                                                                          2777364                                                                                                 
GAGE_Chaff bases                 0                                                                                                                0                                                                                                       
GAGE_Missing reference bases     8827(0.31%)                                                                                                      8622(0.31%)                                                                                             
GAGE_Missing assembly bases      5947(0.21%)                                                                                                      7685(0.28%)                                                                                             
GAGE_Missing assembly contigs    2(1.69%)                                                                                                         1(1.43%)                                                                                                
GAGE_Duplicated reference bases  2351                                                                                                             2594                                                                                                    
GAGE_Compressed reference bases  42361                                                                                                            42454                                                                                                   
GAGE_Bad trim                    1                                                                                                                170                                                                                                     
GAGE_Avg idy                     99.98                                                                                                            99.97                                                                                                   
GAGE_SNPs                        83                                                                                                               83                                                                                                      
GAGE_Indels < 5bp                24                                                                                                               38                                                                                                      
GAGE_Indels >= 5                 9                                                                                                                34                                                                                                      
GAGE_Inversions                  2                                                                                                                4                                                                                                       
GAGE_Relocation                  7                                                                                                                14                                                                                                      
GAGE_Translocation               0                                                                                                                0                                                                                                       
GAGE_Corrected contig #          127                                                                                                              121                                                                                                     
GAGE_Corrected assembly size     2771536                                                                                                          2771504                                                                                                 
GAGE_Min correct contig          201                                                                                                              201                                                                                                     
GAGE_Max correct contig          241286                                                                                                           241286                                                                                                  
GAGE_Corrected N50               52965 COUNT: 15                                                                                                  54385 COUNT: 15                                                                                         
