All statistics are based on contigs of size >= 200 bp, unless otherwise noted (e.g., "# contigs (>= 0 bp)" and "Total length (>= 0 bp)" include all contigs).

Assembly                       VELVET_MIS_PE_mrsa_mis-1_bi_2x150bp_default__mrsa_mis-2_bi_2x150bp_default.0.527percent_53.final.contigs_broken  VELVET_MIS_PE_mrsa_mis-1_bi_2x150bp_default__mrsa_mis-2_bi_2x150bp_default.0.527percent_53.final.contigs
#Contigs (>= 0 bp)             185                                                                                                              134                                                                                                     
#Contigs (>= 1000 bp)          81                                                                                                               41                                                                                                      
Total length (>= 0 bp)         2784224                                                                                                          2786159                                                                                                 
Total length (>= 1000 bp)      2762529                                                                                                          2768720                                                                                                 
#Contigs                       118                                                                                                              70                                                                                                      
Largest contig                 241286                                                                                                           486857                                                                                                  
Total length                   2775017                                                                                                          2777364                                                                                                 
Reference length               2813862                                                                                                          2813862                                                                                                 
GC (%)                         32.69                                                                                                            32.69                                                                                                   
Reference GC (%)               32.81                                                                                                            32.81                                                                                                   
N50                            67795                                                                                                            145196                                                                                                  
NG50                           67795                                                                                                            145196                                                                                                  
N75                            37879                                                                                                            78321                                                                                                   
NG75                           36857                                                                                                            73307                                                                                                   
#misassemblies                 8                                                                                                                12                                                                                                      
#local misassemblies           12                                                                                                               26                                                                                                      
#unaligned contigs             2 + 0 part                                                                                                       1 + 0 part                                                                                              
Unaligned contigs length       5946                                                                                                             5438                                                                                                    
Genome fraction (%)            98.095                                                                                                           98.166                                                                                                  
Duplication ratio              1.001                                                                                                            1.001                                                                                                   
#N's per 100 kbp               0.00                                                                                                             69.67                                                                                                   
#mismatches per 100 kbp        12.39                                                                                                            12.09                                                                                                   
#indels per 100 kbp            1.74                                                                                                             6.01                                                                                                    
#genes                         2628 + 55 part                                                                                                   2650 + 35 part                                                                                          
#predicted genes (unique)      2671                                                                                                             2656                                                                                                    
#predicted genes (>= 0 bp)     2671                                                                                                             2656                                                                                                    
#predicted genes (>= 300 bp)   2281                                                                                                             2281                                                                                                    
#predicted genes (>= 1500 bp)  298                                                                                                              298                                                                                                     
#predicted genes (>= 3000 bp)  30                                                                                                               30                                                                                                      
Largest alignment              241286                                                                                                           241286                                                                                                  
NA50                           55722                                                                                                            145196                                                                                                  
NGA50                          55722                                                                                                            145196                                                                                                  
NA75                           36857                                                                                                            61368                                                                                                   
NGA75                          35682                                                                                                            61368                                                                                                   
