Assembly	SOAP2_PGM_mrsa_pgm_400bp_es_318_IKA_ts3.2_morestringent.0.165percent_77.final.contig
GAGE_Contigs #	26478
GAGE_Min contig	200
GAGE_Max contig	659
GAGE_N50	306 COUNT: 4135
GAGE_Genome size	2813862
GAGE_Assembly size	7168229
GAGE_Chaff bases	0
GAGE_Missing reference bases	269735(9.59%)
GAGE_Missing assembly bases	695342(9.70%)
GAGE_Missing assembly contigs	1861(7.03%)
GAGE_Duplicated reference bases	3178644
GAGE_Compressed reference bases	49459
GAGE_Bad trim	171921
GAGE_Avg idy	97.73
GAGE_SNPs	2514
GAGE_Indels < 5bp	40712
GAGE_Indels >= 5	8
GAGE_Inversions	13
GAGE_Relocation	13
GAGE_Translocation	0
GAGE_Corrected contig #	12068
GAGE_Corrected assembly size	3216485
GAGE_Min correct contig	200
GAGE_Max correct contig	622
GAGE_Corrected N50	269 COUNT: 4621
