All statistics are based on contigs of size >= 200 bp, unless otherwise noted (e.g., "# contigs (>= 0 bp)" and "Total length (>= 0 bp)" include all contigs).

Assembly                                   ABYSS_PE_MIS_PE_mrsa_mis-1_bi_2x250bp_default__mrsa_mis-2_bi_2x250bp_default.0.750percent_116.final_broken  ABYSS_PE_MIS_PE_mrsa_mis-1_bi_2x250bp_default__mrsa_mis-2_bi_2x250bp_default.0.750percent_116.final
#Contigs                                   166                                                                                                         166                                                                                                
#Contigs (>= 0 bp)                         262                                                                                                         262                                                                                                
#Contigs (>= 1000 bp)                      56                                                                                                          56                                                                                                 
Largest contig                             457318                                                                                                      457318                                                                                             
Total length                               2802774                                                                                                     2802774                                                                                            
Total length (>= 0 bp)                     2816877                                                                                                     2816877                                                                                            
Total length (>= 1000 bp)                  2768161                                                                                                     2768161                                                                                            
Reference length                           2813862                                                                                                     2813862                                                                                            
N50                                        109660                                                                                                      109660                                                                                             
NG50                                       109660                                                                                                      109660                                                                                             
N75                                        52922                                                                                                       52922                                                                                              
NG75                                       52922                                                                                                       52922                                                                                              
L50                                        8                                                                                                           8                                                                                                  
LG50                                       8                                                                                                           8                                                                                                  
L75                                        17                                                                                                          17                                                                                                 
LG75                                       17                                                                                                          17                                                                                                 
#local misassemblies                       0                                                                                                           0                                                                                                  
#misassemblies                             3                                                                                                           3                                                                                                  
#misassembled contigs                      3                                                                                                           3                                                                                                  
Misassembled contigs length                68945                                                                                                       68945                                                                                              
Misassemblies inter-contig overlap         1                                                                                                           1                                                                                                  
#unaligned contigs                         0 + 1 part                                                                                                  0 + 1 part                                                                                         
Unaligned contigs length                   17                                                                                                          17                                                                                                 
#ambiguously mapped contigs                26                                                                                                          26                                                                                                 
Extra bases in ambiguously mapped contigs  -12353                                                                                                      -12353                                                                                             
#N's                                       0                                                                                                           0                                                                                                  
#N's per 100 kbp                           0.00                                                                                                        0.00                                                                                               
Genome fraction (%)                        98.701                                                                                                      98.701                                                                                             
Duplication ratio                          1.005                                                                                                       1.005                                                                                              
#genes                                     2666 + 45 part                                                                                              2666 + 45 part                                                                                     
#predicted genes (unique)                  2710                                                                                                        2710                                                                                               
#predicted genes (>= 0 bp)                 2714                                                                                                        2714                                                                                               
#predicted genes (>= 300 bp)               2294                                                                                                        2294                                                                                               
#predicted genes (>= 1500 bp)              298                                                                                                         298                                                                                                
#predicted genes (>= 3000 bp)              30                                                                                                          30                                                                                                 
#mismatches                                41                                                                                                          41                                                                                                 
#indels                                    9                                                                                                           9                                                                                                  
Indels length                              9                                                                                                           9                                                                                                  
#mismatches per 100 kbp                    1.48                                                                                                        1.48                                                                                               
#indels per 100 kbp                        0.32                                                                                                        0.32                                                                                               
GC (%)                                     32.68                                                                                                       32.68                                                                                              
Reference GC (%)                           32.81                                                                                                       32.81                                                                                              
Average %IDY                               98.806                                                                                                      98.806                                                                                             
Largest alignment                          457318                                                                                                      457318                                                                                             
NA50                                       109660                                                                                                      109660                                                                                             
NGA50                                      109660                                                                                                      109660                                                                                             
NA75                                       52922                                                                                                       52922                                                                                              
NGA75                                      52922                                                                                                       52922                                                                                              
LA50                                       8                                                                                                           8                                                                                                  
LGA50                                      8                                                                                                           8                                                                                                  
LA75                                       17                                                                                                          17                                                                                                 
LGA75                                      17                                                                                                          17                                                                                                 
#Mis_misassemblies                         3                                                                                                           3                                                                                                  
#Mis_relocations                           3                                                                                                           3                                                                                                  
#Mis_translocations                        0                                                                                                           0                                                                                                  
#Mis_inversions                            0                                                                                                           0                                                                                                  
#Mis_misassembled contigs                  3                                                                                                           3                                                                                                  
Mis_Misassembled contigs length            68945                                                                                                       68945                                                                                              
#Mis_local misassemblies                   0                                                                                                           0                                                                                                  
#Mis_short indels (<= 5 bp)                9                                                                                                           9                                                                                                  
#Mis_long indels (> 5 bp)                  0                                                                                                           0                                                                                                  
#Una_fully unaligned contigs               0                                                                                                           0                                                                                                  
Una_Fully unaligned length                 0                                                                                                           0                                                                                                  
#Una_partially unaligned contigs           1                                                                                                           1                                                                                                  
#Una_with misassembly                      0                                                                                                           0                                                                                                  
#Una_both parts are significant            0                                                                                                           0                                                                                                  
Una_Partially unaligned length             17                                                                                                          17                                                                                                 
GAGE_Contigs #                             166                                                                                                         166                                                                                                
GAGE_Min contig                            205                                                                                                         205                                                                                                
GAGE_Max contig                            457318                                                                                                      457318                                                                                             
GAGE_N50                                   109660 COUNT: 8                                                                                             109660 COUNT: 8                                                                                    
GAGE_Genome size                           2813862                                                                                                     2813862                                                                                            
GAGE_Assembly size                         2802774                                                                                                     2802774                                                                                            
GAGE_Chaff bases                           0                                                                                                           0                                                                                                  
GAGE_Missing reference bases               139(0.00%)                                                                                                  139(0.00%)                                                                                         
GAGE_Missing assembly bases                17(0.00%)                                                                                                   17(0.00%)                                                                                          
GAGE_Missing assembly contigs              0(0.00%)                                                                                                    0(0.00%)                                                                                           
GAGE_Duplicated reference bases            8200                                                                                                        8200                                                                                               
GAGE_Compressed reference bases            32146                                                                                                       32146                                                                                              
GAGE_Bad trim                              17                                                                                                          17                                                                                                 
GAGE_Avg idy                               99.99                                                                                                       99.99                                                                                              
GAGE_SNPs                                  41                                                                                                          41                                                                                                 
GAGE_Indels < 5bp                          6                                                                                                           6                                                                                                  
GAGE_Indels >= 5                           0                                                                                                           0                                                                                                  
GAGE_Inversions                            0                                                                                                           0                                                                                                  
GAGE_Relocation                            2                                                                                                           2                                                                                                  
GAGE_Translocation                         0                                                                                                           0                                                                                                  
GAGE_Corrected contig #                    131                                                                                                         131                                                                                                
GAGE_Corrected assembly size               2794468                                                                                                     2794468                                                                                            
GAGE_Min correct contig                    205                                                                                                         205                                                                                                
GAGE_Max correct contig                    457317                                                                                                      457317                                                                                             
GAGE_Corrected N50                         109660 COUNT: 8                                                                                             109660 COUNT: 8                                                                                    
