Assembly	#Contigs (>= 0 bp)	#Contigs (>= 1000 bp)	Total length (>= 0 bp)	Total length (>= 1000 bp)	#Contigs	Largest contig	Total length	Reference length	GC (%)	Reference GC (%)	N50	NG50	N75	NG75	#misassemblies	#local misassemblies	#unaligned contigs	Unaligned contigs length	Genome fraction (%)	Duplication ratio	#N's per 100 kbp	#mismatches per 100 kbp	#indels per 100 kbp	#genes	#predicted genes (unique)	#predicted genes (>= 0 bp)	#predicted genes (>= 300 bp)	#predicted genes (>= 1500 bp)	#predicted genes (>= 3000 bp)	Largest alignment	NA50	NGA50	NA75	NGA75
ABYSS_PE_MIS_PE_sakai_mis-1_bi_2x150bp_default__sakai_mis-2_bi_2x150bp_default.0.826percent_68-scaffolds_broken	841	187	5562629	5453639	255	292288	5491777	5594470	50.39	50.48	107867	100154	50109	47800	5	7	0 + 0 part	0	96.344	1.012	0.64	17.98	1.08	5078 + 182 part	5260	5369	4519	692	75	264361	100100	100100	50109	41857
ABYSS_PE_MIS_PE_sakai_mis-1_bi_2x150bp_default__sakai_mis-2_bi_2x150bp_default.0.826percent_68-scaffolds	791	161	5565542	5469113	205	376797	5494690	5594470	50.39	50.48	147262	147262	67329	66512	21	18	0 + 1 part	1446	96.593	1.013	53.65	18.52	7.05	5104 + 171 part	5246	5355	4520	693	74	353854	147262	147262	67329	66512
