Assembly	ABYSS_PE_PGM_mrsa_pgm_200bp_es_316_IonOnev2_ts3.0_morestringent.51coverage_36.final
#Contigs (>= 0 bp)	4498
#Contigs (>= 1000 bp)	204
Total length (>= 0 bp)	2959884
Total length (>= 1000 bp)	2685055
#Contigs	316
Largest contig	97933
Total length	2731147
Reference length	2813862
GC (%)	32.59
Reference GC (%)	32.81
N50	25592
NG50	25284
N75	12579
NG75	11632
#misassemblies	1
#local misassemblies	3
#unaligned contigs	0 + 0 part
Unaligned contigs length	0
Genome fraction (%)	96.774
Duplication ratio	1.001
#N's per 100 kbp	0.00
#mismatches per 100 kbp	2.39
#indels per 100 kbp	7.90
#genes	2503 + 122 part
#predicted genes (unique)	2769
#predicted genes (>= 0 bp)	2769
#predicted genes (>= 300 bp)	2315
#predicted genes (>= 1500 bp)	276
#predicted genes (>= 3000 bp)	22
Largest alignment	97933
NA50	25592
NGA50	25284
NA75	12579
NGA75	11632
