Assembly	#Contigs (>= 0 bp)	#Contigs (>= 1000 bp)	Total length (>= 0 bp)	Total length (>= 1000 bp)	#Contigs	Largest contig	Total length	Reference length	GC (%)	Reference GC (%)	N50	NG50	N75	NG75	#misassemblies	#local misassemblies	#unaligned contigs	Unaligned contigs length	Genome fraction (%)	Duplication ratio	#N's per 100 kbp	#mismatches per 100 kbp	#indels per 100 kbp	#genes	#predicted genes (unique)	#predicted genes (>= 0 bp)	#predicted genes (>= 300 bp)	#predicted genes (>= 1500 bp)	#predicted genes (>= 3000 bp)	Largest alignment	NA50	NGA50	NA75	NGA75
VELVET_MIS_PE_mrsa_mis-1_bi_2x250bp_default__mrsa_mis-2_bi_2x250bp_default.0.460percent_35.final.contigs_broken	424	162	2771573	2731504	204	89721	2750223	2813862	32.67	32.81	29567	27014	16459	15857	7	12	4 + 0 part	4960	97.219	1.001	0.00	12.36	2.01	2543 + 106 part	2687	2687	2290	292	26	89721	25795	24902	16129	15699
VELVET_MIS_PE_mrsa_mis-1_bi_2x250bp_default__mrsa_mis-2_bi_2x250bp_default.0.460percent_35.final.contigs	372	124	2772795	2739967	153	149165	2751525	2813862	32.67	32.81	39193	37812	20833	19891	10	30	2 + 0 part	4986	97.263	1.001	44.41	11.98	7.20	2560 + 90 part	2668	2668	2281	292	26	127396	36394	36394	20518	19593
