1: PREPARING DATA
2,3: RUNNING mummer AND CREATING CLUSTERS
# reading input file "/vol/codine-tmp/juene/tmp.2UBjB1S7xR/quast/gage/tmp/VELVET_PGM_mrsa_pgm_400bp_es_318_IKA_ts3.2_morestringent.0.165percent_145.final.contigs.ntref" of length 2813864
# construct suffix tree for sequence of length 2813864
# (maximum reference length is 536870908)
# (maximum query length is 4294967295)
# process 28138 characters per dot
#....................................................................................................
# CONSTRUCTIONTIME /vol/ngscomparison/software/analysis/quast-2.1/libs/MUMmer3.23-linux/mummer /vol/codine-tmp/juene/tmp.2UBjB1S7xR/quast/gage/tmp/VELVET_PGM_mrsa_pgm_400bp_es_318_IKA_ts3.2_morestringent.0.165percent_145.final.contigs.ntref 1.18
# reading input file "/vol/codine-tmp/juene/tmp.2UBjB1S7xR/quast/corrected_input/VELVET_PGM_mrsa_pgm_400bp_es_318_IKA_ts3.2_morestringent.0.165percent_145.final.contigs" of length 3417789
# matching query-file "/vol/codine-tmp/juene/tmp.2UBjB1S7xR/quast/corrected_input/VELVET_PGM_mrsa_pgm_400bp_es_318_IKA_ts3.2_morestringent.0.165percent_145.final.contigs"
# against subject-file "/vol/codine-tmp/juene/tmp.2UBjB1S7xR/quast/gage/tmp/VELVET_PGM_mrsa_pgm_400bp_es_318_IKA_ts3.2_morestringent.0.165percent_145.final.contigs.ntref"
# COMPLETETIME /vol/ngscomparison/software/analysis/quast-2.1/libs/MUMmer3.23-linux/mummer /vol/codine-tmp/juene/tmp.2UBjB1S7xR/quast/gage/tmp/VELVET_PGM_mrsa_pgm_400bp_es_318_IKA_ts3.2_morestringent.0.165percent_145.final.contigs.ntref 5.98
# SPACE /vol/ngscomparison/software/analysis/quast-2.1/libs/MUMmer3.23-linux/mummer /vol/codine-tmp/juene/tmp.2UBjB1S7xR/quast/gage/tmp/VELVET_PGM_mrsa_pgm_400bp_es_318_IKA_ts3.2_morestringent.0.165percent_145.final.contigs.ntref 6.39
4: FINISHING DATA
Filtering alignments
Extracting alignment coordinates
Analyzing SNPs
Extracting alignment breakpoints
Generating report file
Found genome size at position 4 with value 2813862 aka 2813862
Calculating point at 0 and the sum is 1000055 and i is4068 and lens is 6619 and length is 330
Calculating point at 1 and the sum is 2000048 and i is793 and lens is 6619 and length is 289
