Assembly	#Contigs (>= 0 bp)	#Contigs (>= 1000 bp)	Total length (>= 0 bp)	Total length (>= 1000 bp)	#Contigs	Largest contig	Total length	Reference length	GC (%)	Reference GC (%)	N50	NG50	N75	NG75	#misassemblies	#local misassemblies	#unaligned contigs	Unaligned contigs length	Genome fraction (%)	Duplication ratio	#N's per 100 kbp	#mismatches per 100 kbp	#indels per 100 kbp	#genes	#predicted genes (unique)	#predicted genes (>= 0 bp)	#predicted genes (>= 300 bp)	#predicted genes (>= 1500 bp)	#predicted genes (>= 3000 bp)	Largest alignment	NA50	NGA50	NA75	NGA75
CLC_MIS_PE_mrsa_mis-1_bi_2x250bp_default__mrsa_mis-2_bi_2x250bp_default.0.600percent.result_broken	339	37	2863279	2780869	339	454169	2863279	2813862	33.25	32.81	164380	164380	87045	109042	2	2	294 + 0 part	84723	98.463	1.000	1.01	2.35	0.76	2684 + 18 part	2925	2925	2318	298	29	454169	164380	164380	87018	87018
CLC_MIS_PE_mrsa_mis-1_bi_2x250bp_default__mrsa_mis-2_bi_2x250bp_default.0.600percent.result	336	34	2863439	2781029	336	464088	2863439	2813862	33.25	32.81	192312	192312	109042	112676	2	5	294 + 0 part	84723	98.468	1.001	6.60	1.99	0.79	2685 + 17 part	2925	2925	2318	298	29	464064	192312	192312	97762	97762
