1: PREPARING DATA
2,3: RUNNING mummer AND CREATING CLUSTERS
# reading input file "/vol/codine-tmp/juene/tmp.tVr5lQUK8F/quast/contigs_reports/nucmer_output/ABYSS_PE_MIS_PE_sakai_mis-both_bi_2x250bp_SI_default.0.64percent.NEWBLER_106-scaffolds_broken.ntref" of length 5594473
# construct suffix tree for sequence of length 5594473
# (maximum reference length is 536870908)
# (maximum query length is 4294967295)
# process 55944 characters per dot
#....................................................................................................
# CONSTRUCTIONTIME /vol/ngscomparison/software/analysis/quast-2.1/libs/MUMmer3.23-linux/mummer /vol/codine-tmp/juene/tmp.tVr5lQUK8F/quast/contigs_reports/nucmer_output/ABYSS_PE_MIS_PE_sakai_mis-both_bi_2x250bp_SI_default.0.64percent.NEWBLER_106-scaffolds_broken.ntref 3.34
# reading input file "/vol/codine-tmp/juene/tmp.tVr5lQUK8F/quast/corrected_input/ABYSS_PE_MIS_PE_sakai_mis-both_bi_2x250bp_SI_default.0.64percent.NEWBLER_106-scaffolds_broken" of length 5520030
# matching query-file "/vol/codine-tmp/juene/tmp.tVr5lQUK8F/quast/corrected_input/ABYSS_PE_MIS_PE_sakai_mis-both_bi_2x250bp_SI_default.0.64percent.NEWBLER_106-scaffolds_broken"
# against subject-file "/vol/codine-tmp/juene/tmp.tVr5lQUK8F/quast/contigs_reports/nucmer_output/ABYSS_PE_MIS_PE_sakai_mis-both_bi_2x250bp_SI_default.0.64percent.NEWBLER_106-scaffolds_broken.ntref"
# COMPLETETIME /vol/ngscomparison/software/analysis/quast-2.1/libs/MUMmer3.23-linux/mummer /vol/codine-tmp/juene/tmp.tVr5lQUK8F/quast/contigs_reports/nucmer_output/ABYSS_PE_MIS_PE_sakai_mis-both_bi_2x250bp_SI_default.0.64percent.NEWBLER_106-scaffolds_broken.ntref 9.13
# SPACE /vol/ngscomparison/software/analysis/quast-2.1/libs/MUMmer3.23-linux/mummer /vol/codine-tmp/juene/tmp.tVr5lQUK8F/quast/contigs_reports/nucmer_output/ABYSS_PE_MIS_PE_sakai_mis-both_bi_2x250bp_SI_default.0.64percent.NEWBLER_106-scaffolds_broken.ntref 10.78
4: FINISHING DATA
