Assembly	NEWBLER_PGM_sakai_pgm_mu_200bp_IO_TS3.0Disabled_stringent.6coverage.contigs
#Contigs (>= 0 bp)	3706
#Contigs (>= 1000 bp)	1771
Total length (>= 0 bp)	4993814
Total length (>= 1000 bp)	3978650
#Contigs	3502
Largest contig	13053
Total length	4964713
Reference length	5594470
GC (%)	50.35
Reference GC (%)	50.48
N50	2100
NG50	1840
N75	1164
NG75	862
#misassemblies	94
#local misassemblies	9
#unaligned contigs	0 + 39 part
Unaligned contigs length	3044
Genome fraction (%)	86.994
Duplication ratio	1.002
#N's per 100 kbp	0.00
#mismatches per 100 kbp	15.37
#indels per 100 kbp	85.11
#genes	2558 + 2364 part
#predicted genes (unique)	8211
#predicted genes (>= 0 bp)	8211
#predicted genes (>= 300 bp)	5314
#predicted genes (>= 1500 bp)	180
#predicted genes (>= 3000 bp)	4
Largest alignment	13053
NA50	2056
NGA50	1805
NA75	1120
NGA75	808
