Assembly	VELVET_MIS_PE_sakai_mis-both_bi_2x250bp_SI_default.0.64percent_31.final.contigs_broken	VELVET_MIS_PE_sakai_mis-both_bi_2x250bp_SI_default.0.64percent_31.final.contigs
#Una_fully unaligned contigs	2	1
Una_Fully unaligned length	5988	5416
#Una_partially unaligned contigs	1	0
#Una_with misassembly	0	0
#Una_both parts are significant	1	0
Una_Partially unaligned length	720	0
#N's	0	6861
