1: PREPARING DATA
2,3: RUNNING mummer AND CREATING CLUSTERS
# reading input file "/vol/codine-tmp/juene/tmp.sCjuoXA73N/quast/gage/tmp/NEWBLER_PGM_mtbh37_pgm_400bp_es_318v2_OT2_tsv3.6_morestringent.contigs.ntref" of length 4411533
# construct suffix tree for sequence of length 4411533
# (maximum reference length is 536870908)
# (maximum query length is 4294967295)
# process 44115 characters per dot
#....................................................................................................
# CONSTRUCTIONTIME /vol/ngscomparison/software/analysis/quast-2.1/libs/MUMmer3.23-linux/mummer /vol/codine-tmp/juene/tmp.sCjuoXA73N/quast/gage/tmp/NEWBLER_PGM_mtbh37_pgm_400bp_es_318v2_OT2_tsv3.6_morestringent.contigs.ntref 2.48
# reading input file "/vol/codine-tmp/juene/tmp.sCjuoXA73N/quast/corrected_input/NEWBLER_PGM_mtbh37_pgm_400bp_es_318v2_OT2_tsv3.6_morestringent.contigs" of length 4301457
# matching query-file "/vol/codine-tmp/juene/tmp.sCjuoXA73N/quast/corrected_input/NEWBLER_PGM_mtbh37_pgm_400bp_es_318v2_OT2_tsv3.6_morestringent.contigs"
# against subject-file "/vol/codine-tmp/juene/tmp.sCjuoXA73N/quast/gage/tmp/NEWBLER_PGM_mtbh37_pgm_400bp_es_318v2_OT2_tsv3.6_morestringent.contigs.ntref"
# COMPLETETIME /vol/ngscomparison/software/analysis/quast-2.1/libs/MUMmer3.23-linux/mummer /vol/codine-tmp/juene/tmp.sCjuoXA73N/quast/gage/tmp/NEWBLER_PGM_mtbh37_pgm_400bp_es_318v2_OT2_tsv3.6_morestringent.contigs.ntref 9.28
# SPACE /vol/ngscomparison/software/analysis/quast-2.1/libs/MUMmer3.23-linux/mummer /vol/codine-tmp/juene/tmp.sCjuoXA73N/quast/gage/tmp/NEWBLER_PGM_mtbh37_pgm_400bp_es_318v2_OT2_tsv3.6_morestringent.contigs.ntref 8.46
4: FINISHING DATA
Filtering alignments
Extracting alignment coordinates
Analyzing SNPs
Extracting alignment breakpoints
Generating report file
Found genome size at position 4 with value 4411532 aka 4411532
Calculating point at 0 and the sum is 1043722 and i is210 and lens is 219 and length is 86561
Calculating point at 1 and the sum is 2023135 and i is196 and lens is 219 and length is 62691
Calculating point at 2 and the sum is 3034332 and i is174 and lens is 219 and length is 36413
Calculating point at 3 and the sum is 4001271 and i is131 and lens is 219 and length is 11277
