Assembly	VELVET_PGM_sakai_pgm_mu_200bp_IO_TS3.0Disabled_stringent.0.34percent_53.final.contigs
#Contigs	1458
#Contigs (>= 0 bp)	1926
#Contigs (>= 1000 bp)	834
Largest contig	38912
Total length	5294262
Total length (>= 0 bp)	5362963
Total length (>= 1000 bp)	5010833
Reference length	5594470
N50	8396
NG50	7956
N75	4717
NG75	3907
L50	196
LG50	214
L75	404
LG75	456
#local misassemblies	10
#misassemblies	4
#misassembled contigs	4
Misassembled contigs length	31472
Misassemblies inter-contig overlap	1088
#unaligned contigs	1 + 2 part
Unaligned contigs length	1049
#ambiguously mapped contigs	172
Extra bases in ambiguously mapped contigs	-79502
#N's	80
#N's per 100 kbp	1.51
Genome fraction (%)	92.890
Duplication ratio	1.003
#genes	4270 + 756 part
#predicted genes (unique)	6747
#predicted genes (>= 0 bp)	6750
#predicted genes (>= 300 bp)	4983
#predicted genes (>= 1500 bp)	428
#predicted genes (>= 3000 bp)	23
#mismatches	193
#indels	2474
Indels length	2675
#mismatches per 100 kbp	3.71
#indels per 100 kbp	47.61
GC (%)	50.27
Reference GC (%)	50.48
Average %IDY	99.745
Largest alignment	38912
NA50	8396
NGA50	7955
NA75	4696
NGA75	3899
LA50	196
LGA50	215
LA75	405
LGA75	458
#Mis_misassemblies	4
#Mis_relocations	4
#Mis_translocations	0
#Mis_inversions	0
#Mis_misassembled contigs	4
Mis_Misassembled contigs length	31472
#Mis_local misassemblies	10
#Mis_short indels (<= 5 bp)	2471
#Mis_long indels (> 5 bp)	3
#Una_fully unaligned contigs	1
Una_Fully unaligned length	831
#Una_partially unaligned contigs	2
#Una_with misassembly	0
#Una_both parts are significant	0
Una_Partially unaligned length	218
GAGE_Contigs #	1458
GAGE_Min contig	200
GAGE_Max contig	38912
GAGE_N50	7956 COUNT: 214
GAGE_Genome size	5594470
GAGE_Assembly size	5294262
GAGE_Chaff bases	0
GAGE_Missing reference bases	147690(2.64%)
GAGE_Missing assembly bases	204(0.00%)
GAGE_Missing assembly contigs	0(0.00%)
GAGE_Duplicated reference bases	2531
GAGE_Compressed reference bases	191505
GAGE_Bad trim	134
GAGE_Avg idy	99.95
GAGE_SNPs	188
GAGE_Indels < 5bp	2516
GAGE_Indels >= 5	12
GAGE_Inversions	1
GAGE_Relocation	6
GAGE_Translocation	0
GAGE_Corrected contig #	1468
GAGE_Corrected assembly size	5294523
GAGE_Min correct contig	200
GAGE_Max correct contig	38928
GAGE_Corrected N50	7933 COUNT: 215
