Assembly	ABYSS_PE_PGM_mrsa_pgm_200bp_es_316_IonOnev2_ts3.0_morestringent.0.230percent_104-unitigs
#Contigs	1506
#Contigs (>= 0 bp)	2441
#Contigs (>= 1000 bp)	714
Largest contig	24484
Total length	2851560
Total length (>= 0 bp)	2972922
Total length (>= 1000 bp)	2568325
Reference length	2813862
N50	4233
NG50	4300
N75	2137
NG75	2235
L50	201
LG50	197
L75	434
LG75	421
#local misassemblies	0
#misassemblies	39
#misassembled contigs	39
Misassembled contigs length	76838
Misassemblies inter-contig overlap	257
#unaligned contigs	1 + 5 part
Unaligned contigs length	316
#ambiguously mapped contigs	72
Extra bases in ambiguously mapped contigs	-18069
#N's	0
#N's per 100 kbp	0.00
Genome fraction (%)	97.350
Duplication ratio	1.034
#genes	2111 + 572 part
#predicted genes (unique)	3726
#predicted genes (>= 0 bp)	3739
#predicted genes (>= 300 bp)	2554
#predicted genes (>= 1500 bp)	217
#predicted genes (>= 3000 bp)	20
#mismatches	59
#indels	680
Indels length	689
#mismatches per 100 kbp	2.15
#indels per 100 kbp	24.82
GC (%)	32.66
Reference GC (%)	32.81
Average %IDY	99.463
Largest alignment	24484
NA50	4233
NGA50	4300
NA75	2122
NGA75	2235
LA50	201
LGA50	197
LA75	435
LGA75	422
#Mis_misassemblies	39
#Mis_relocations	21
#Mis_translocations	0
#Mis_inversions	18
#Mis_misassembled contigs	39
Mis_Misassembled contigs length	76838
#Mis_local misassemblies	0
#Mis_short indels (<= 5 bp)	680
#Mis_long indels (> 5 bp)	0
#Una_fully unaligned contigs	1
Una_Fully unaligned length	204
#Una_partially unaligned contigs	5
#Una_with misassembly	0
#Una_both parts are significant	0
Una_Partially unaligned length	112
GAGE_Contigs #	1506
GAGE_Min contig	200
GAGE_Max contig	24484
GAGE_N50	4300 COUNT: 197
GAGE_Genome size	2813862
GAGE_Assembly size	2851560
GAGE_Chaff bases	0
GAGE_Missing reference bases	34138(1.21%)
GAGE_Missing assembly bases	221(0.01%)
GAGE_Missing assembly contigs	0(0.00%)
GAGE_Duplicated reference bases	72505
GAGE_Compressed reference bases	42865
GAGE_Bad trim	221
GAGE_Avg idy	99.97
GAGE_SNPs	52
GAGE_Indels < 5bp	678
GAGE_Indels >= 5	0
GAGE_Inversions	1
GAGE_Relocation	1
GAGE_Translocation	0
GAGE_Corrected contig #	1171
GAGE_Corrected assembly size	2779095
GAGE_Min correct contig	200
GAGE_Max correct contig	24484
GAGE_Corrected N50	4301 COUNT: 197
