Assembly	VELVET_PGM_mrsa_pgm_400bp_es_318_IKA_ts3.2_morestringent.0.165percent_21.final.contigs
#Contigs	437
#Contigs (>= 0 bp)	28761
#Contigs (>= 1000 bp)	0
Largest contig	552
Total length	105146
Total length (>= 0 bp)	2172348
Total length (>= 1000 bp)	0
Reference length	2813862
N50	231
NG50	None
N75	213
NG75	None
L50	191
LG50	None
L75	310
LG75	None
#local misassemblies	0
#misassemblies	0
#misassembled contigs	0
Misassembled contigs length	0
Misassemblies inter-contig overlap	0
#unaligned contigs	0 + 0 part
Unaligned contigs length	0
#ambiguously mapped contigs	0
Extra bases in ambiguously mapped contigs	0
#N's	0
#N's per 100 kbp	0.00
Genome fraction (%)	3.737
Duplication ratio	1.000
#genes	1 + 373 part
#predicted genes (unique)	441
#predicted genes (>= 0 bp)	441
#predicted genes (>= 300 bp)	28
#predicted genes (>= 1500 bp)	0
#predicted genes (>= 3000 bp)	0
#mismatches	7
#indels	60
Indels length	63
#mismatches per 100 kbp	6.66
#indels per 100 kbp	57.05
GC (%)	35.80
Reference GC (%)	32.81
Average %IDY	99.932
Largest alignment	552
NA50	231
NGA50	None
NA75	213
NGA75	None
LA50	191
LGA50	None
LA75	310
LGA75	None
#Mis_misassemblies	0
#Mis_relocations	0
#Mis_translocations	0
#Mis_inversions	0
#Mis_misassembled contigs	0
Mis_Misassembled contigs length	0
#Mis_local misassemblies	0
#Mis_short indels (<= 5 bp)	60
#Mis_long indels (> 5 bp)	0
#Una_fully unaligned contigs	0
Una_Fully unaligned length	0
#Una_partially unaligned contigs	0
#Una_with misassembly	0
#Una_both parts are significant	0
Una_Partially unaligned length	0
GAGE_Contigs #	437
GAGE_Min contig	200
GAGE_Max contig	552
GAGE_N50	0 COUNT: 0
GAGE_Genome size	2813862
GAGE_Assembly size	105146
GAGE_Chaff bases	0
GAGE_Missing reference bases	2708697(96.26%)
GAGE_Missing assembly bases	1(0.00%)
GAGE_Missing assembly contigs	0(0.00%)
GAGE_Duplicated reference bases	0
GAGE_Compressed reference bases	0
GAGE_Bad trim	1
GAGE_Avg idy	99.93
GAGE_SNPs	7
GAGE_Indels < 5bp	63
GAGE_Indels >= 5	0
GAGE_Inversions	0
GAGE_Relocation	0
GAGE_Translocation	0
GAGE_Corrected contig #	437
GAGE_Corrected assembly size	105178
GAGE_Min correct contig	200
GAGE_Max correct contig	552
GAGE_Corrected N50	0 COUNT: 0
