calling: java -cp /vol/ngscomparison/software/analysis/quast-2.1/libs/gage:. SizeFasta /vol/codine-tmp/juene/tmp.0bVlWFtCfM/quast/corrected_input/MRSA_COL_Plasmid.fasta |awk '{SUM+=; print SUM}'|tail -n 1
Contig Stats
Total units: 901
Reference: 2813862
BasesInFasta: 2693239
Min: 253
Max: 29921
N10: 14566 COUNT: 15
N25: 8897 COUNT: 53
N50: 4787 COUNT: 158
N75: 2304 COUNT: 367
E-size:6610.03

Genome Size: 2813862
Assembly Size: 2693239
Chaff bases: 0
Missing Reference Bases: 229937(8.17%)
Missing Assembly Bases: 128281(4.76%)
Missing Assembly Contigs: 1(0.11%)
Duplicated Reference Bases: 1660
Compressed Reference Bases: 43279
Bad Trim: 1844
Avg Idy: 99.98
SNPs: 69
Indels < 5bp: 33
Indels >= 5: 1544
Inversions: 4
Relocation: 7
Translocation: 0

Corrected Contig Stats
calling: java -cp /vol/ngscomparison/software/analysis/quast-2.1/libs/gage:.:. GetFastaStats -o -min 199 -genomeSize 2813862 /vol/codine-tmp/juene/tmp.0bVlWFtCfM/quast/gage/tmp/VELVET_MIS_PE_mrsa_mis-1_bi_2x150bp_default__mrsa_mis-2_bi_2x150bp_default.0.527percent_127.final.contigs.matches.lens 2> /dev/null
Total units: 2452
Reference: 2813862
BasesInFasta: 2564225
Min: 253
Max: 10070
N10: 3739 COUNT: 56
N25: 2189 COUNT: 210
N50: 1230 COUNT: 647
N75: 645 COUNT: 1432
E-size:1697.34

Done
