Assembly	ABYSS_PE_MIS_PE_sakai_mis-2_bi_2x150bp_default__sakai_mis-1_bi_2x150bp_default.0.550percent_46.final_broken	ABYSS_PE_MIS_PE_sakai_mis-2_bi_2x150bp_default__sakai_mis-1_bi_2x150bp_default.0.550percent_46.final
#Contigs (>= 0 bp)	1316	1257
#Contigs (>= 1000 bp)	199	172
Total length (>= 0 bp)	5536475	5543101
Total length (>= 1000 bp)	5403692	5424295
#Contigs	267	214
Largest contig	238524	374894
Total length	5440914	5448430
Reference length	5594470	5594470
GC (%)	50.39	50.39
Reference GC (%)	50.48	50.48
N50	86641	131045
NG50	85994	131045
N75	41491	47781
NG75	40948	43562
#misassemblies	4	14
#local misassemblies	6	29
#unaligned contigs	0 + 0 part	0 + 1 part
Unaligned contigs length	0	1131
Genome fraction (%)	95.200	95.413
Duplication ratio	1.016	1.017
#N's per 100 kbp	1.56	123.17
#mismatches per 100 kbp	22.27	23.57
#indels per 100 kbp	1.07	5.58
#genes	4987 + 177 part	5011 + 171 part
#predicted genes (unique)	5192	5181
#predicted genes (>= 0 bp)	5313	5300
#predicted genes (>= 300 bp)	4491	4492
#predicted genes (>= 1500 bp)	684	686
#predicted genes (>= 3000 bp)	72	71
Largest alignment	238524	261310
NA50	86641	131045
NGA50	85994	131045
NA75	41207	46857
NGA75	35781	43442
