calling: java -cp /vol/ngscomparison/software/analysis/quast-2.1/libs/gage:. SizeFasta /vol/codine-tmp/juene/tmp.82258x4Rm6/quast/corrected_input/MRSA_COL_Plasmid.fasta |awk '{SUM+=; print SUM}'|tail -n 1
Contig Stats
Total units: 75
Reference: 2813862
BasesInFasta: 2788792
Min: 200
Max: 305404
N10: 305404 COUNT: 1
N25: 208197 COUNT: 3
N50: 116992 COUNT: 8
N75: 56447 COUNT: 16
E-size:134948.7

Genome Size: 2813862
Assembly Size: 2788792
Chaff bases: 0
Missing Reference Bases: 1982(0.07%)
Missing Assembly Bases: 5584(0.20%)
Missing Assembly Contigs: 1(1.33%)
Duplicated Reference Bases: 932
Compressed Reference Bases: 36031
Bad Trim: 30
Avg Idy: 99.99
SNPs: 48
Indels < 5bp: 21
Indels >= 5: 4
Inversions: 2
Relocation: 3
Translocation: 0

Corrected Contig Stats
calling: java -cp /vol/ngscomparison/software/analysis/quast-2.1/libs/gage:.:. GetFastaStats -o -min 199 -genomeSize 2813862 /vol/codine-tmp/juene/tmp.82258x4Rm6/quast/gage/tmp/VELVET_MIS_PE_mrsa_mis-1_bi_2x250bp_default__mrsa_mis-2_bi_2x250bp_default.0.460percent_93.final.contigs.matches.lens 2> /dev/null
Total units: 83
Reference: 2813862
BasesInFasta: 2782798
Min: 200
Max: 263364
N10: 208200 COUNT: 2
N25: 145283 COUNT: 4
N50: 116321 COUNT: 9
N75: 48678 COUNT: 19
E-size:111957.97

Done
