1: PREPARING DATA
2,3: RUNNING mummer AND CREATING CLUSTERS
# reading input file "/vol/codine-tmp/juene/tmp.VibXXf19YG/quast/contigs_reports/nucmer_output/SOAP2_MIS_PE_mrsa_mis-1_bi_2x150bp_default.0.527percent_125.final.scaf.ntref" of length 2813864
# construct suffix tree for sequence of length 2813864
# (maximum reference length is 536870908)
# (maximum query length is 4294967295)
# process 28138 characters per dot
#....................................................................................................
# CONSTRUCTIONTIME /vol/ngscomparison/software/analysis/quast-2.1/libs/MUMmer3.23-linux/mummer /vol/codine-tmp/juene/tmp.VibXXf19YG/quast/contigs_reports/nucmer_output/SOAP2_MIS_PE_mrsa_mis-1_bi_2x150bp_default.0.527percent_125.final.scaf.ntref 1.54
# reading input file "/vol/codine-tmp/juene/tmp.VibXXf19YG/quast/corrected_input/SOAP2_MIS_PE_mrsa_mis-1_bi_2x150bp_default.0.527percent_125.final.scaf" of length 2712835
# matching query-file "/vol/codine-tmp/juene/tmp.VibXXf19YG/quast/corrected_input/SOAP2_MIS_PE_mrsa_mis-1_bi_2x150bp_default.0.527percent_125.final.scaf"
# against subject-file "/vol/codine-tmp/juene/tmp.VibXXf19YG/quast/contigs_reports/nucmer_output/SOAP2_MIS_PE_mrsa_mis-1_bi_2x150bp_default.0.527percent_125.final.scaf.ntref"
# COMPLETETIME /vol/ngscomparison/software/analysis/quast-2.1/libs/MUMmer3.23-linux/mummer /vol/codine-tmp/juene/tmp.VibXXf19YG/quast/contigs_reports/nucmer_output/SOAP2_MIS_PE_mrsa_mis-1_bi_2x150bp_default.0.527percent_125.final.scaf.ntref 4.41
# SPACE /vol/ngscomparison/software/analysis/quast-2.1/libs/MUMmer3.23-linux/mummer /vol/codine-tmp/juene/tmp.VibXXf19YG/quast/contigs_reports/nucmer_output/SOAP2_MIS_PE_mrsa_mis-1_bi_2x150bp_default.0.527percent_125.final.scaf.ntref 5.37
4: FINISHING DATA
