Assembly	SOAP2_MIS_PE_mrsa_mis-1_bi_2x150bp_default.0.527percent_125.final.scaf_broken	SOAP2_MIS_PE_mrsa_mis-1_bi_2x150bp_default.0.527percent_125.final.scaf
#Una_fully unaligned contigs	5	8
Una_Fully unaligned length	9046	16108
#Una_partially unaligned contigs	0	3
#Una_with misassembly	0	0
#Una_both parts are significant	0	3
Una_Partially unaligned length	0	2942
#N's	1040	33971
