Assembly	#Contigs	#Contigs (>= 0 bp)	#Contigs (>= 1000 bp)	Largest contig	Total length	Total length (>= 0 bp)	Total length (>= 1000 bp)	Reference length	N50	NG50	N75	NG75	L50	LG50	L75	LG75	#local misassemblies	#misassemblies	#misassembled contigs	Misassembled contigs length	Misassemblies inter-contig overlap	#unaligned contigs	Unaligned contigs length	#ambiguously mapped contigs	Extra bases in ambiguously mapped contigs	#N's	#N's per 100 kbp	Genome fraction (%)	Duplication ratio	#genes	#predicted genes (unique)	#predicted genes (>= 0 bp)	#predicted genes (>= 300 bp)	#predicted genes (>= 1500 bp)	#predicted genes (>= 3000 bp)	#mismatches	#indels	Indels length	#mismatches per 100 kbp	#indels per 100 kbp	GC (%)	Reference GC (%)	Average %IDY	Largest alignment	NA50	NGA50	NA75	NGA75	LA50	LGA50	LA75	LGA75	#Mis_misassemblies	#Mis_relocations	#Mis_translocations	#Mis_inversions	#Mis_misassembled contigs	Mis_Misassembled contigs length	#Mis_local misassemblies	#Mis_short indels (<= 5 bp)	#Mis_long indels (> 5 bp)	#Una_fully unaligned contigs	Una_Fully unaligned length	#Una_partially unaligned contigs	#Una_with misassembly	#Una_both parts are significant	Una_Partially unaligned length	GAGE_Contigs #	GAGE_Min contig	GAGE_Max contig	GAGE_N50	GAGE_Genome size	GAGE_Assembly size	GAGE_Chaff bases	GAGE_Missing reference bases	GAGE_Missing assembly bases	GAGE_Missing assembly contigs	GAGE_Duplicated reference bases	GAGE_Compressed reference bases	GAGE_Bad trim	GAGE_Avg idy	GAGE_SNPs	GAGE_Indels < 5bp	GAGE_Indels >= 5	GAGE_Inversions	GAGE_Relocation	GAGE_Translocation	GAGE_Corrected contig #	GAGE_Corrected assembly size	GAGE_Min correct contig	GAGE_Max correct contig	GAGE_Corrected N50
VELVET_MIS_PE_sakai_mis-1_bi_2x150bp_default__sakai_mis-2_bi_2x150bp_default.0.826percent_143.final.contigs_broken	24	24	6	2436	19014	19014	9031	5594470	855	None	557	None	7	None	14	None	0	0	0	0	0	0 + 0 part	0	17	-15020	0	0.00	0.071	1.004	2 + 7 part	31	31	19	0	0	3	0	0	75.38	0.00	54.05	50.48	99.261	1119	None	None	None	None	None	None	None	None	0	0	0	0	0	0	0	0	0	0	0	0	0	0	0	24	367	2436	0 COUNT: 0	5594470	19014	0	5476734(97.90%)	5(0.03%)	0(0.00%)	0	99480	5	99.96	4	0	0	1	0	0	25	19672	367	2436	0 COUNT: 0
VELVET_MIS_PE_sakai_mis-1_bi_2x150bp_default__sakai_mis-2_bi_2x150bp_default.0.826percent_143.final.contigs	21	21	8	2436	19475	19475	12341	5594470	1260	None	641	None	6	None	11	None	3	0	0	0	0	0 + 0 part	0	15	-13627	461	2367.14	0.096	1.088	3 + 8 part	31	31	19	0	0	3	0	0	55.83	0.00	54.05	50.48	99.261	1456	None	None	None	None	None	None	None	None	0	0	0	0	0	0	3	0	0	0	0	0	0	0	0	21	428	2436	0 COUNT: 0	5594470	19475	0	5476734(97.90%)	466(2.39%)	0(0.00%)	0	99480	5	99.96	4	0	3	1	0	0	25	19672	367	2436	0 COUNT: 0
