calling: java -cp /vol/ngscomparison/software/analysis/quast-2.1/libs/gage:. SizeFasta /vol/codine-tmp/juene/tmp.9KgbKI3LiG/quast/corrected_input/MRSA_COL_Plasmid.fasta |awk '{SUM+=; print SUM}'|tail -n 1
Contig Stats
Total units: 315
Reference: 2813862
BasesInFasta: 2732236
Min: 206
Max: 100835
N10: 90498 COUNT: 3
N25: 36947 COUNT: 12
N50: 20378 COUNT: 38
N75: 10220 COUNT: 85
E-size:29324.17

Genome Size: 2813862
Assembly Size: 2732236
Chaff bases: 0
Missing Reference Bases: 68841(2.45%)
Missing Assembly Bases: 28(0.00%)
Missing Assembly Contigs: 0(0.00%)
Duplicated Reference Bases: 0
Compressed Reference Bases: 15863
Bad Trim: 28
Avg Idy: 99.99
SNPs: 64
Indels < 5bp: 222
Indels >= 5: 2
Inversions: 0
Relocation: 1
Translocation: 0

Corrected Contig Stats
calling: java -cp /vol/ngscomparison/software/analysis/quast-2.1/libs/gage:.:. GetFastaStats -o -min 199 -genomeSize 2813862 /vol/codine-tmp/juene/tmp.9KgbKI3LiG/quast/gage/tmp/ABYSS_PE_PGM_mrsa_pgm_200bp_es_316_IonOnev2_ts3.0_morestringent.46coverage_38.final.matches.lens 2> /dev/null
Total units: 318
Reference: 2813862
BasesInFasta: 2732716
Min: 206
Max: 100840
N10: 90507 COUNT: 3
N25: 36952 COUNT: 12
N50: 20265 COUNT: 38
N75: 9994 COUNT: 87
E-size:29161.74

Done
