Assembly	#Una_fully unaligned contigs	Una_Fully unaligned length	#Una_partially unaligned contigs	#Una_with misassembly	#Una_both parts are significant	Una_Partially unaligned length	#N's
SOAP2_MIS_PE_mrsa_mis-1_bi_2x250bp_default.0.460percent_35.final.scaf_broken	2825	703927	4	0	0	243	1146
SOAP2_MIS_PE_mrsa_mis-1_bi_2x250bp_default.0.460percent_35.final.scaf	2983	872211	80	0	44	62205	39738
