calling: java -cp /vol/ngscomparison/software/analysis/quast-2.1/libs/gage:. SizeFasta /vol/codine-tmp/juene/tmp.VD9pT5Haj2/quast/corrected_input/Ecoli_Sakai_editedNew_plasmids.fasta |awk '{SUM+=; print SUM}'|tail -n 1
Contig Stats
Total units: 456
Reference: 5594470
BasesInFasta: 5494004
Min: 345
Max: 129280
N10: 99431 COUNT: 5
N25: 72660 COUNT: 16
N50: 49381 COUNT: 39
N75: 20913 COUNT: 82
E-size:50309.3

Genome Size: 5594470
Assembly Size: 5494004
Chaff bases: 0
Missing Reference Bases: 11405(0.20%)
Missing Assembly Bases: 24055(0.44%)
Missing Assembly Contigs: 1(0.22%)
Duplicated Reference Bases: 10808
Compressed Reference Bases: 231757
Bad Trim: 193
Avg Idy: 100.00
SNPs: 117
Indels < 5bp: 16
Indels >= 5: 124
Inversions: 4
Relocation: 9
Translocation: 1

Corrected Contig Stats
calling: java -cp /vol/ngscomparison/software/analysis/quast-2.1/libs/gage:.:. GetFastaStats -o -min 199 -genomeSize 5594470 /vol/codine-tmp/juene/tmp.VD9pT5Haj2/quast/gage/tmp/VELVET_MIS_PE_sakai_mis-both_bi_2x250bp_SI_default.0.64percent_173.final.contigs.matches.lens 2> /dev/null
Total units: 584
Reference: 5594470
BasesInFasta: 5461932
Min: 275
Max: 93220
N10: 56547 COUNT: 9
N25: 41650 COUNT: 26
N50: 24148 COUNT: 71
N75: 12177 COUNT: 152
E-size:28328.37

Done
