Assembly	NEWBLER_MIS_PE_mrsa_mis-1_bi_2x250bp_default__mrsa_mis-2_bi_2x250bp_default.0.500percent.contigs_broken	NEWBLER_MIS_PE_mrsa_mis-1_bi_2x250bp_default__mrsa_mis-2_bi_2x250bp_default.0.500percent.contigs
#Mis_misassemblies	2	2
#Mis_relocations	2	2
#Mis_translocations	0	0
#Mis_inversions	0	0
#Mis_misassembled contigs	2	2
Mis_Misassembled contigs length	161328	161328
#Mis_local misassemblies	0	19
#mismatches	30	32
#indels	10	10
#Mis_short indels (<= 5 bp)	10	10
#Mis_long indels (> 5 bp)	0	0
Indels length	10	10
