calling: java -cp /vol/ngscomparison/software/analysis/quast-2.1/libs/gage:. SizeFasta /vol/codine-tmp/juene/tmp.53Ifg7oOiE/quast/corrected_input/Ecoli_Sakai_editedNew_plasmids.fasta |awk '{SUM+=; print SUM}'|tail -n 1
Contig Stats
Total units: 207
Reference: 5594470
BasesInFasta: 5479540
Min: 203
Max: 375297
N10: 264444 COUNT: 2
N25: 203278 COUNT: 6
N50: 148367 COUNT: 14
N75: 66512 COUNT: 30
E-size:139302.67

Genome Size: 5594470
Assembly Size: 5479540
Chaff bases: 0
Missing Reference Bases: 43534(0.78%)
Missing Assembly Bases: 4109(0.07%)
Missing Assembly Contigs: 0(0.00%)
Duplicated Reference Bases: 14307
Compressed Reference Bases: 200840
Bad Trim: 784
Avg Idy: 99.96
SNPs: 592
Indels < 5bp: 32
Indels >= 5: 32
Inversions: 5
Relocation: 16
Translocation: 1

Corrected Contig Stats
calling: java -cp /vol/ngscomparison/software/analysis/quast-2.1/libs/gage:.:. GetFastaStats -o -min 199 -genomeSize 5594470 /vol/codine-tmp/juene/tmp.53Ifg7oOiE/quast/gage/tmp/ABYSS_PE_MIS_PE_sakai_mis-2_bi_2x150bp_default__sakai_mis-1_bi_2x150bp_default.0.600percent_64.final.matches.lens 2> /dev/null
Total units: 249
Reference: 5594470
BasesInFasta: 5466146
Min: 206
Max: 227542
N10: 219503 COUNT: 3
N25: 148367 COUNT: 8
N50: 86101 COUNT: 20
N75: 39091 COUNT: 43
E-size:99885.48

Done
