Assembly	ABYSS_PE_MIS_PE_sakai_mis-1_bi_2x150bp_default__sakai_mis-2_bi_2x150bp_default.0.826percent_38-scaffolds_broken	ABYSS_PE_MIS_PE_sakai_mis-1_bi_2x150bp_default__sakai_mis-2_bi_2x150bp_default.0.826percent_38-scaffolds
#Una_fully unaligned contigs	0	0
Una_Fully unaligned length	0	0
#Una_partially unaligned contigs	1	1
#Una_with misassembly	0	0
#Una_both parts are significant	1	1
Una_Partially unaligned length	475	935
#N's	85	4862
