All statistics are based on contigs of size >= 200 bp, unless otherwise noted (e.g., "# contigs (>= 0 bp)" and "Total length (>= 0 bp)" include all contigs).

Assembly                                   ABYSS_PE_MIS_PE_mrsa_mis-1_bi_2x250bp_default__mrsa_mis-2_bi_2x250bp_default.0.460percent_102-scaffolds_broken  ABYSS_PE_MIS_PE_mrsa_mis-1_bi_2x250bp_default__mrsa_mis-2_bi_2x250bp_default.0.460percent_102-scaffolds
#Contigs                                   138                                                                                                             129                                                                                                    
#Contigs (>= 0 bp)                         232                                                                                                             223                                                                                                    
#Contigs (>= 1000 bp)                      61                                                                                                              59                                                                                                     
Largest contig                             208538                                                                                                          208538                                                                                                 
Total length                               2805199                                                                                                         2805649                                                                                                
Total length (>= 0 bp)                     2818133                                                                                                         2818583                                                                                                
Total length (>= 1000 bp)                  2779168                                                                                                         2782525                                                                                                
Reference length                           2813862                                                                                                         2813862                                                                                                
N50                                        107410                                                                                                          107410                                                                                                 
NG50                                       107410                                                                                                          107410                                                                                                 
N75                                        58103                                                                                                           58103                                                                                                  
NG75                                       52894                                                                                                           52894                                                                                                  
L50                                        10                                                                                                              10                                                                                                     
LG50                                       10                                                                                                              10                                                                                                     
L75                                        18                                                                                                              18                                                                                                     
LG75                                       19                                                                                                              19                                                                                                     
#local misassemblies                       0                                                                                                               4                                                                                                      
#misassemblies                             4                                                                                                               5                                                                                                      
#misassembled contigs                      4                                                                                                               5                                                                                                      
Misassembled contigs length                226729                                                                                                          231393                                                                                                 
Misassemblies inter-contig overlap         1749                                                                                                            1749                                                                                                   
#unaligned contigs                         0 + 0 part                                                                                                      0 + 0 part                                                                                             
Unaligned contigs length                   0                                                                                                               0                                                                                                      
#ambiguously mapped contigs                23                                                                                                              20                                                                                                     
Extra bases in ambiguously mapped contigs  -13987                                                                                                          -11648                                                                                                 
#N's                                       1                                                                                                               451                                                                                                    
#N's per 100 kbp                           0.04                                                                                                            16.07                                                                                                  
Genome fraction (%)                        98.874                                                                                                          98.942                                                                                                 
Duplication ratio                          1.004                                                                                                           1.004                                                                                                  
#genes                                     2676 + 36 part                                                                                                  2677 + 36 part                                                                                         
#predicted genes (unique)                  2689                                                                                                            2689                                                                                                   
#predicted genes (>= 0 bp)                 2696                                                                                                            2695                                                                                                   
#predicted genes (>= 300 bp)               2282                                                                                                            2282                                                                                                   
#predicted genes (>= 1500 bp)              299                                                                                                             299                                                                                                    
#predicted genes (>= 3000 bp)              30                                                                                                              30                                                                                                     
#mismatches                                61                                                                                                              63                                                                                                     
#indels                                    10                                                                                                              11                                                                                                     
Indels length                              23                                                                                                              28                                                                                                     
#mismatches per 100 kbp                    2.19                                                                                                            2.26                                                                                                   
#indels per 100 kbp                        0.36                                                                                                            0.40                                                                                                   
GC (%)                                     32.73                                                                                                           32.73                                                                                                  
Reference GC (%)                           32.81                                                                                                           32.81                                                                                                  
Average %IDY                               98.758                                                                                                          98.753                                                                                                 
Largest alignment                          208538                                                                                                          208538                                                                                                 
NA50                                       107410                                                                                                          107410                                                                                                 
NGA50                                      107410                                                                                                          107410                                                                                                 
NA75                                       52894                                                                                                           52894                                                                                                  
NGA75                                      52894                                                                                                           52894                                                                                                  
LA50                                       10                                                                                                              10                                                                                                     
LGA50                                      10                                                                                                              10                                                                                                     
LA75                                       19                                                                                                              19                                                                                                     
LGA75                                      19                                                                                                              19                                                                                                     
#Mis_misassemblies                         4                                                                                                               5                                                                                                      
#Mis_relocations                           4                                                                                                               5                                                                                                      
#Mis_translocations                        0                                                                                                               0                                                                                                      
#Mis_inversions                            0                                                                                                               0                                                                                                      
#Mis_misassembled contigs                  4                                                                                                               5                                                                                                      
Mis_Misassembled contigs length            226729                                                                                                          231393                                                                                                 
#Mis_local misassemblies                   0                                                                                                               4                                                                                                      
#Mis_short indels (<= 5 bp)                9                                                                                                               10                                                                                                     
#Mis_long indels (> 5 bp)                  1                                                                                                               1                                                                                                      
#Una_fully unaligned contigs               0                                                                                                               0                                                                                                      
Una_Fully unaligned length                 0                                                                                                               0                                                                                                      
#Una_partially unaligned contigs           0                                                                                                               0                                                                                                      
#Una_with misassembly                      0                                                                                                               0                                                                                                      
#Una_both parts are significant            0                                                                                                               0                                                                                                      
Una_Partially unaligned length             0                                                                                                               0                                                                                                      
GAGE_Contigs #                             138                                                                                                             129                                                                                                    
GAGE_Min contig                            200                                                                                                             200                                                                                                    
GAGE_Max contig                            208538                                                                                                          208538                                                                                                 
GAGE_N50                                   107410 COUNT: 10                                                                                                107410 COUNT: 10                                                                                       
GAGE_Genome size                           2813862                                                                                                         2813862                                                                                                
GAGE_Assembly size                         2805199                                                                                                         2805649                                                                                                
GAGE_Chaff bases                           0                                                                                                               0                                                                                                      
GAGE_Missing reference bases               106(0.00%)                                                                                                      106(0.00%)                                                                                             
GAGE_Missing assembly bases                1(0.00%)                                                                                                        401(0.01%)                                                                                             
GAGE_Missing assembly contigs              0(0.00%)                                                                                                        0(0.00%)                                                                                               
GAGE_Duplicated reference bases            10341                                                                                                           10922                                                                                                  
GAGE_Compressed reference bases            31921                                                                                                           32329                                                                                                  
GAGE_Bad trim                              0                                                                                                               150                                                                                                    
GAGE_Avg idy                               99.99                                                                                                           99.99                                                                                                  
GAGE_SNPs                                  40                                                                                                              40                                                                                                     
GAGE_Indels < 5bp                          6                                                                                                               11                                                                                                     
GAGE_Indels >= 5                           1                                                                                                               3                                                                                                      
GAGE_Inversions                            1                                                                                                               2                                                                                                      
GAGE_Relocation                            2                                                                                                               3                                                                                                      
GAGE_Translocation                         0                                                                                                               0                                                                                                      
GAGE_Corrected contig #                    117                                                                                                             114                                                                                                    
GAGE_Corrected assembly size               2796614                                                                                                         2796040                                                                                                
GAGE_Min correct contig                    200                                                                                                             201                                                                                                    
GAGE_Max correct contig                    208537                                                                                                          208537                                                                                                 
GAGE_Corrected N50                         107410 COUNT: 10                                                                                                107410 COUNT: 10                                                                                       
