Assembly	VELVET_MIS_PE_mrsa_mis-1_bi_2x150bp_default__mrsa_mis-2_bi_2x150bp_default.0.527percent_27.final.contigs_broken	VELVET_MIS_PE_mrsa_mis-1_bi_2x150bp_default__mrsa_mis-2_bi_2x150bp_default.0.527percent_27.final.contigs
#Mis_misassemblies	4	8
#Mis_relocations	4	8
#Mis_translocations	0	0
#Mis_inversions	0	0
#Mis_misassembled contigs	3	5
Mis_Misassembled contigs length	70551	227642
#Mis_local misassemblies	19	51
#mismatches	530	537
#indels	88	193
#Mis_short indels (<= 5 bp)	78	135
#Mis_long indels (> 5 bp)	10	58
Indels length	346	1426
