Assembly	SOAP2_MIS_PE_mrsa_mis-1_bi_2x150bp_default.0.527percent_109.final.scaf_broken	SOAP2_MIS_PE_mrsa_mis-1_bi_2x150bp_default.0.527percent_109.final.scaf
GAGE_Contigs #	348	192
GAGE_Min contig	200	200
GAGE_Max contig	64665	229521
GAGE_N50	22014 COUNT: 40	57980 COUNT: 16
GAGE_Genome size	2813862	2813862
GAGE_Assembly size	2802518	2807972
GAGE_Chaff bases	0	0
GAGE_Missing reference bases	4722(0.17%)	4369(0.16%)
GAGE_Missing assembly bases	5997(0.21%)	10487(0.37%)
GAGE_Missing assembly contigs	3(0.86%)	3(1.56%)
GAGE_Duplicated reference bases	4939	4864
GAGE_Compressed reference bases	45468	44494
GAGE_Bad trim	20	155
GAGE_Avg idy	99.99	99.98
GAGE_SNPs	33	33
GAGE_Indels < 5bp	46	86
GAGE_Indels >= 5	36	153
GAGE_Inversions	0	0
GAGE_Relocation	3	5
GAGE_Translocation	0	0
GAGE_Corrected contig #	365	345
GAGE_Corrected assembly size	2791126	2791929
GAGE_Min correct contig	202	202
GAGE_Max correct contig	63719	63719
GAGE_Corrected N50	19232 COUNT: 45	21018 COUNT: 42
