Assembly	VELVET_PGM_sakai_pgm_mu_200bp_IO_TS3.0Disabled_stringent.0.34percent_69.final.contigs
#Mis_misassemblies	42
#Mis_relocations	37
#Mis_translocations	0
#Mis_inversions	5
#Mis_misassembled contigs	38
Mis_Misassembled contigs length	328918
#Mis_local misassemblies	37
#mismatches	181
#indels	2726
#Mis_short indels (<= 5 bp)	2705
#Mis_long indels (> 5 bp)	21
Indels length	4024
