All statistics are based on contigs of size >= 200 bp, unless otherwise noted (e.g., "# contigs (>= 0 bp)" and "Total length (>= 0 bp)" include all contigs).

Assembly                                   ABYSS_PE_MIS_PE_sakai_mis-2_bi_2x150bp_default__sakai_mis-1_bi_2x150bp_default.0.975percent_58.final_broken  ABYSS_PE_MIS_PE_sakai_mis-2_bi_2x150bp_default__sakai_mis-1_bi_2x150bp_default.0.975percent_58.final
#Contigs                                   264                                                                                                          205                                                                                                 
#Contigs (>= 0 bp)                         1061                                                                                                         1000                                                                                                
#Contigs (>= 1000 bp)                      184                                                                                                          157                                                                                                 
Largest contig                             290857                                                                                                       375482                                                                                              
Total length                               5455619                                                                                                      5459417                                                                                             
Total length (>= 0 bp)                     5542185                                                                                                      5545738                                                                                             
Total length (>= 1000 bp)                  5412404                                                                                                      5433242                                                                                             
Reference length                           5594470                                                                                                      5594470                                                                                             
N50                                        100080                                                                                                       149773                                                                                              
NG50                                       98911                                                                                                        148465                                                                                              
N75                                        42287                                                                                                        55007                                                                                               
NG75                                       41409                                                                                                        47904                                                                                               
L50                                        17                                                                                                           12                                                                                                  
LG50                                       18                                                                                                           13                                                                                                  
L75                                        37                                                                                                           27                                                                                                  
LG75                                       40                                                                                                           29                                                                                                  
#local misassemblies                       4                                                                                                            25                                                                                                  
#misassemblies                             3                                                                                                            16                                                                                                  
#misassembled contigs                      3                                                                                                            10                                                                                                  
Misassembled contigs length                350531                                                                                                       634690                                                                                              
Misassemblies inter-contig overlap         984                                                                                                          5549                                                                                                
#unaligned contigs                         0 + 0 part                                                                                                   1 + 1 part                                                                                          
Unaligned contigs length                   0                                                                                                            3098                                                                                                
#ambiguously mapped contigs                43                                                                                                           25                                                                                                  
Extra bases in ambiguously mapped contigs  -44367                                                                                                       -22105                                                                                              
#N's                                       48                                                                                                           3601                                                                                                
#N's per 100 kbp                           0.88                                                                                                         65.96                                                                                               
Genome fraction (%)                        95.567                                                                                                       95.838                                                                                              
Duplication ratio                          1.012                                                                                                        1.015                                                                                               
#genes                                     5028 + 167 part                                                                                              5060 + 158 part                                                                                     
#predicted genes (unique)                  5228                                                                                                         5223                                                                                                
#predicted genes (>= 0 bp)                 5331                                                                                                         5321                                                                                                
#predicted genes (>= 300 bp)               4498                                                                                                         4500                                                                                                
#predicted genes (>= 1500 bp)              685                                                                                                          685                                                                                                 
#predicted genes (>= 3000 bp)              75                                                                                                           74                                                                                                  
#mismatches                                1006                                                                                                         1112                                                                                                
#indels                                    35                                                                                                           165                                                                                                 
Indels length                              129                                                                                                          717                                                                                                 
#mismatches per 100 kbp                    18.82                                                                                                        20.74                                                                                               
#indels per 100 kbp                        0.65                                                                                                         3.08                                                                                                
GC (%)                                     50.39                                                                                                        50.39                                                                                               
Reference GC (%)                           50.48                                                                                                        50.48                                                                                               
Average %IDY                               98.864                                                                                                       98.832                                                                                              
Largest alignment                          227536                                                                                                       353873                                                                                              
NA50                                       98911                                                                                                        148272                                                                                              
NGA50                                      98911                                                                                                        147454                                                                                              
NA75                                       41857                                                                                                        55007                                                                                               
NGA75                                      41236                                                                                                        47904                                                                                               
LA50                                       18                                                                                                           13                                                                                                  
LGA50                                      18                                                                                                           14                                                                                                  
LA75                                       38                                                                                                           28                                                                                                  
LGA75                                      41                                                                                                           30                                                                                                  
#Mis_misassemblies                         3                                                                                                            16                                                                                                  
#Mis_relocations                           2                                                                                                            15                                                                                                  
#Mis_translocations                        1                                                                                                            1                                                                                                   
#Mis_inversions                            0                                                                                                            0                                                                                                   
#Mis_misassembled contigs                  3                                                                                                            10                                                                                                  
Mis_Misassembled contigs length            350531                                                                                                       634690                                                                                              
#Mis_local misassemblies                   4                                                                                                            25                                                                                                  
#Mis_short indels (<= 5 bp)                33                                                                                                           144                                                                                                 
#Mis_long indels (> 5 bp)                  2                                                                                                            21                                                                                                  
#Una_fully unaligned contigs               0                                                                                                            1                                                                                                   
Una_Fully unaligned length                 0                                                                                                            1093                                                                                                
#Una_partially unaligned contigs           0                                                                                                            1                                                                                                   
#Una_with misassembly                      0                                                                                                            0                                                                                                   
#Una_both parts are significant            0                                                                                                            0                                                                                                   
Una_Partially unaligned length             0                                                                                                            2005                                                                                                
GAGE_Contigs #                             264                                                                                                          205                                                                                                 
GAGE_Min contig                            202                                                                                                          203                                                                                                 
GAGE_Max contig                            290857                                                                                                       375482                                                                                              
GAGE_N50                                   98911 COUNT: 18                                                                                              148465 COUNT: 13                                                                                    
GAGE_Genome size                           5594470                                                                                                      5594470                                                                                             
GAGE_Assembly size                         5455619                                                                                                      5459417                                                                                             
GAGE_Chaff bases                           0                                                                                                            0                                                                                                   
GAGE_Missing reference bases               61163(1.09%)                                                                                                 62781(1.12%)                                                                                        
GAGE_Missing assembly bases                5(0.00%)                                                                                                     4101(0.08%)                                                                                         
GAGE_Missing assembly contigs              0(0.00%)                                                                                                     0(0.00%)                                                                                            
GAGE_Duplicated reference bases            15395                                                                                                        15520                                                                                               
GAGE_Compressed reference bases            200132                                                                                                       199251                                                                                              
GAGE_Bad trim                              4                                                                                                            323                                                                                                 
GAGE_Avg idy                               99.97                                                                                                        99.96                                                                                               
GAGE_SNPs                                  644                                                                                                          644                                                                                                 
GAGE_Indels < 5bp                          31                                                                                                           38                                                                                                  
GAGE_Indels >= 5                           7                                                                                                            29                                                                                                  
GAGE_Inversions                            1                                                                                                            10                                                                                                  
GAGE_Relocation                            2                                                                                                            14                                                                                                  
GAGE_Translocation                         1                                                                                                            2                                                                                                   
GAGE_Corrected contig #                    256                                                                                                          252                                                                                                 
GAGE_Corrected assembly size               5442504                                                                                                      5442117                                                                                             
GAGE_Min correct contig                    202                                                                                                          202                                                                                                 
GAGE_Max correct contig                    227536                                                                                                       312088                                                                                              
GAGE_Corrected N50                         95727 COUNT: 19                                                                                              100154 COUNT: 17                                                                                    
