All statistics are based on contigs of size >= 200 bp, unless otherwise noted (e.g., "# contigs (>= 0 bp)" and "Total length (>= 0 bp)" include all contigs).

Assembly                                                                                                       #Contigs (>= 0 bp)  #Contigs (>= 1000 bp)  Total length (>= 0 bp)  Total length (>= 1000 bp)  #Contigs  Largest contig  Total length  Reference length  GC (%)  Reference GC (%)  N50    NG50   N75    NG75   #misassemblies  #local misassemblies  #unaligned contigs  Unaligned contigs length  Genome fraction (%)  Duplication ratio  #N's per 100 kbp  #mismatches per 100 kbp  #indels per 100 kbp  #genes          #predicted genes (unique)  #predicted genes (>= 0 bp)  #predicted genes (>= 300 bp)  #predicted genes (>= 1500 bp)  #predicted genes (>= 3000 bp)  Largest alignment  NA50   NGA50  NA75   NGA75
ABYSS_PE_MIS_PE_mrsa_mis-1_bi_2x150bp_default__mrsa_mis-2_bi_2x150bp_default.0.527percent_40-scaffolds_broken  695                 89                     2814982                 2764095                    106       148439          2772638       2813862           32.64   32.81             51550  51550  30874  29621  2               5                     0 + 0 part          0                         97.928               1.004              1.59              9.91                     0.76                 2610 + 48 part  2628                       2643                        2290                          300                            28                             148439             51550  51550  29621  29443
ABYSS_PE_MIS_PE_mrsa_mis-1_bi_2x150bp_default__mrsa_mis-2_bi_2x150bp_default.0.527percent_40-scaffolds         656                 67                     2817070                 2771531                    76        208081          2775862       2813862           32.65   32.81             87627  85456  46476  45786  5               19                    0 + 0 part          0                         97.950               1.006              76.80             9.98                     4.25                 2614 + 48 part  2625                       2641                        2290                          300                            28                             207985             85456  85456  43140  37988
