All statistics are based on contigs of size >= 200 bp, unless otherwise noted (e.g., "# contigs (>= 0 bp)" and "Total length (>= 0 bp)" include all contigs).

Assembly                         ABYSS_PE_MIS_PE_mrsa_mis-1_bi_2x250bp_default__mrsa_mis-2_bi_2x250bp_default.86coverage_124.final_broken  ABYSS_PE_MIS_PE_mrsa_mis-1_bi_2x250bp_default__mrsa_mis-2_bi_2x250bp_default.86coverage_124.final
#Mis_misassemblies               3                                                                                                         4                                                                                                
#Mis_relocations                 3                                                                                                         4                                                                                                
#Mis_translocations              0                                                                                                         0                                                                                                
#Mis_inversions                  0                                                                                                         0                                                                                                
#Mis_misassembled contigs        3                                                                                                         4                                                                                                
Mis_Misassembled contigs length  75488                                                                                                     82592                                                                                            
#Mis_local misassemblies         0                                                                                                         1                                                                                                
#mismatches                      40                                                                                                        38                                                                                               
#indels                          10                                                                                                        12                                                                                               
#Mis_short indels (<= 5 bp)      9                                                                                                         9                                                                                                
#Mis_long indels (> 5 bp)        1                                                                                                         3                                                                                                
Indels length                    23                                                                                                        73                                                                                               
