Assembly	CLC_MIS_PE_sakai_mis-1_bi_2x250bp_SI_default__sakai_mis-2_bi_2x250bp_SI_default.0.9percent.result_broken	CLC_MIS_PE_sakai_mis-1_bi_2x250bp_SI_default__sakai_mis-2_bi_2x250bp_SI_default.0.9percent.result
GAGE_Contigs #	618	612
GAGE_Min contig	200	200
GAGE_Max contig	377991	377991
GAGE_N50	146495 COUNT: 11	157725 COUNT: 10
GAGE_Genome size	5594470	5594470
GAGE_Assembly size	5490424	5493457
GAGE_Chaff bases	0	0
GAGE_Missing reference bases	10310(0.18%)	10298(0.18%)
GAGE_Missing assembly bases	100719(1.83%)	103238(1.88%)
GAGE_Missing assembly contigs	341(55.18%)	345(56.37%)
GAGE_Duplicated reference bases	15733	16121
GAGE_Compressed reference bases	244168	243954
GAGE_Bad trim	377	624
GAGE_Avg idy	99.99	99.99
GAGE_SNPs	81	81
GAGE_Indels < 5bp	14	14
GAGE_Indels >= 5	7	11
GAGE_Inversions	0	0
GAGE_Relocation	4	4
GAGE_Translocation	0	0
GAGE_Corrected contig #	240	240
GAGE_Corrected assembly size	5375513	5375440
GAGE_Min correct contig	203	203
GAGE_Max correct contig	377429	377429
GAGE_Corrected N50	144813 COUNT: 13	144813 COUNT: 13
