Assembly	ABYSS_PE_MIS_PE_sakai_mis-both_bi_2x250bp_SI_default.0.64percent.NEWBLER_46-scaffolds_broken	ABYSS_PE_MIS_PE_sakai_mis-both_bi_2x250bp_SI_default.0.64percent.NEWBLER_46-scaffolds
#Contigs	290	246
#Contigs (>= 0 bp)	1415	1367
#Contigs (>= 1000 bp)	200	183
Largest contig	290520	374758
Total length	5407226	5410295
Total length (>= 0 bp)	5509389	5511896
Total length (>= 1000 bp)	5360368	5377816
Reference length	5594470	5594470
N50	87541	116867
NG50	86488	100154
N75	39765	43137
NG75	35413	41360
L50	17	15
LG50	18	16
L75	40	33
LG75	44	36
#local misassemblies	8	29
#misassemblies	4	10
#misassembled contigs	4	9
Misassembled contigs length	372437	489317
Misassemblies inter-contig overlap	42489	45647
#unaligned contigs	0 + 1 part	1 + 1 part
Unaligned contigs length	354	627
#ambiguously mapped contigs	42	23
Extra bases in ambiguously mapped contigs	-56010	-35844
#N's	121	2628
#N's per 100 kbp	2.24	48.57
Genome fraction (%)	94.864	95.209
Duplication ratio	1.016	1.017
#genes	4959 + 169 part	4983 + 168 part
#predicted genes (unique)	5200	5193
#predicted genes (>= 0 bp)	5301	5294
#predicted genes (>= 300 bp)	4458	4456
#predicted genes (>= 1500 bp)	684	685
#predicted genes (>= 3000 bp)	69	68
#mismatches	942	1028
#indels	52	296
Indels length	229	764
#mismatches per 100 kbp	17.75	19.30
#indels per 100 kbp	0.98	5.56
GC (%)	50.37	50.37
Reference GC (%)	50.48	50.48
Average %IDY	99.225	99.207
Largest alignment	235235	235235
NA50	86488	116867
NGA50	85704	100154
NA75	39050	43137
NGA75	31629	41207
LA50	18	16
LGA50	19	17
LA75	41	34
LGA75	45	37
#Mis_misassemblies	4	10
#Mis_relocations	3	9
#Mis_translocations	1	1
#Mis_inversions	0	0
#Mis_misassembled contigs	4	9
Mis_Misassembled contigs length	372437	489317
#Mis_local misassemblies	8	29
#Mis_short indels (<= 5 bp)	43	271
#Mis_long indels (> 5 bp)	9	25
#Una_fully unaligned contigs	0	1
Una_Fully unaligned length	0	492
#Una_partially unaligned contigs	1	1
#Una_with misassembly	0	0
#Una_both parts are significant	1	0
Una_Partially unaligned length	354	135
GAGE_Contigs #	290	246
GAGE_Min contig	200	200
GAGE_Max contig	290520	374758
GAGE_N50	86488 COUNT: 18	100154 COUNT: 16
GAGE_Genome size	5594470	5594470
GAGE_Assembly size	5407226	5410295
GAGE_Chaff bases	0	0
GAGE_Missing reference bases	95647(1.71%)	96319(1.72%)
GAGE_Missing assembly bases	381(0.01%)	3218(0.06%)
GAGE_Missing assembly contigs	0(0.00%)	1(0.41%)
GAGE_Duplicated reference bases	8640	8386
GAGE_Compressed reference bases	216789	214379
GAGE_Bad trim	364	282
GAGE_Avg idy	99.97	99.96
GAGE_SNPs	657	650
GAGE_Indels < 5bp	36	46
GAGE_Indels >= 5	16	38
GAGE_Inversions	0	5
GAGE_Relocation	3	15
GAGE_Translocation	1	1
GAGE_Corrected contig #	296	292
GAGE_Corrected assembly size	5400850	5401877
GAGE_Min correct contig	200	200
GAGE_Max correct contig	235234	235234
GAGE_Corrected N50	66513 COUNT: 23	66513 COUNT: 23
