Assembly	#Contigs (>= 0 bp)	#Contigs (>= 1000 bp)	Total length (>= 0 bp)	Total length (>= 1000 bp)	#Contigs	Largest contig	Total length	Reference length	GC (%)	Reference GC (%)	N50	NG50	N75	NG75	#misassemblies	#local misassemblies	#unaligned contigs	Unaligned contigs length	Genome fraction (%)	Duplication ratio	#N's per 100 kbp	#mismatches per 100 kbp	#indels per 100 kbp	#genes	#predicted genes (unique)	#predicted genes (>= 0 bp)	#predicted genes (>= 300 bp)	#predicted genes (>= 1500 bp)	#predicted genes (>= 3000 bp)	Largest alignment	NA50	NGA50	NA75	NGA75
VELVET_MIS_PE_mrsa_mis-1_bi_2x250bp_default__mrsa_mis-2_bi_2x250bp_default.0.460percent_51.final.contigs_broken	218	109	2782187	2759564	146	107944	2772649	2813862	32.69	32.81	46309	46090	23859	23111	3	11	3 + 0 part	5311	97.924	1.001	0.00	10.13	1.67	2601 + 73 part	2671	2671	2297	296	28	107944	43557	43557	23859	21951
VELVET_MIS_PE_mrsa_mis-1_bi_2x250bp_default__mrsa_mis-2_bi_2x250bp_default.0.460percent_51.final.contigs	186	85	2783150	2763237	118	144817	2774047	2813862	32.69	32.81	57008	57008	33734	32486	3	32	1 + 0 part	5344	97.946	1.001	34.71	9.36	2.32	2609 + 65 part	2664	2664	2297	296	28	144817	56970	56970	33734	32486
