Assembly	VELVET_PGM_sakai_pgm_mu_318_400bp_IO_TS3.4_ms_0.395percent_21.final.contigs
#Contigs (>= 0 bp)	5485
#Contigs (>= 1000 bp)	1663
Total length (>= 0 bp)	5338623
Total length (>= 1000 bp)	4365620
#Contigs	3171
Largest contig	13674
Total length	5140832
Reference length	5594470
GC (%)	50.23
Reference GC (%)	50.48
N50	2707
NG50	2455
N75	1435
NG75	1155
#misassemblies	6
#local misassemblies	14
#unaligned contigs	1 + 3 part
Unaligned contigs length	466
Genome fraction (%)	90.279
Duplication ratio	1.007
#N's per 100 kbp	3.31
#mismatches per 100 kbp	8.00
#indels per 100 kbp	39.84
#genes	3160 + 1709 part
#predicted genes (unique)	7424
#predicted genes (>= 0 bp)	7424
#predicted genes (>= 300 bp)	5190
#predicted genes (>= 1500 bp)	328
#predicted genes (>= 3000 bp)	20
Largest alignment	13674
NA50	2707
NGA50	2455
NA75	1432
NGA75	1150
