All statistics are based on contigs of size >= 200 bp, unless otherwise noted (e.g., "# contigs (>= 0 bp)" and "Total length (>= 0 bp)" include all contigs).

Assembly                       ABYSS_PE_MIS_PE_mrsa_mis-1_bi_2x250bp_default__mrsa_mis-2_bi_2x250bp_default.0.460percent_100-scaffolds_broken  ABYSS_PE_MIS_PE_mrsa_mis-1_bi_2x250bp_default__mrsa_mis-2_bi_2x250bp_default.0.460percent_100-scaffolds
#Contigs (>= 0 bp)             236                                                                                                             230                                                                                                    
#Contigs (>= 1000 bp)          58                                                                                                              56                                                                                                     
Total length (>= 0 bp)         2810658                                                                                                         2810919                                                                                                
Total length (>= 1000 bp)      2773135                                                                                                         2774625                                                                                                
#Contigs                       101                                                                                                             95                                                                                                     
Largest contig                 208534                                                                                                          208534                                                                                                 
Total length                   2790276                                                                                                         2790537                                                                                                
Reference length               2813862                                                                                                         2813862                                                                                                
GC (%)                         32.69                                                                                                           32.69                                                                                                  
Reference GC (%)               32.81                                                                                                           32.81                                                                                                  
N50                            107406                                                                                                          107406                                                                                                 
NG50                           107406                                                                                                          107406                                                                                                 
N75                            52890                                                                                                           52890                                                                                                  
NG75                           50480                                                                                                           50581                                                                                                  
#misassemblies                 3                                                                                                               3                                                                                                      
#local misassemblies           0                                                                                                               2                                                                                                      
#unaligned contigs             0 + 0 part                                                                                                      0 + 0 part                                                                                             
Unaligned contigs length       0                                                                                                               0                                                                                                      
Genome fraction (%)            98.804                                                                                                          98.765                                                                                                 
Duplication ratio              1.001                                                                                                           1.002                                                                                                  
#N's per 100 kbp               0.25                                                                                                            9.60                                                                                                   
#mismatches per 100 kbp        2.12                                                                                                            2.12                                                                                                   
#indels per 100 kbp            0.36                                                                                                            0.40                                                                                                   
#genes                         2676 + 36 part                                                                                                  2676 + 36 part                                                                                         
#predicted genes (unique)      2654                                                                                                            2652                                                                                                   
#predicted genes (>= 0 bp)     2659                                                                                                            2657                                                                                                   
#predicted genes (>= 300 bp)   2280                                                                                                            2280                                                                                                   
#predicted genes (>= 1500 bp)  299                                                                                                             299                                                                                                    
#predicted genes (>= 3000 bp)  30                                                                                                              30                                                                                                     
Largest alignment              208534                                                                                                          208534                                                                                                 
NA50                           107406                                                                                                          107406                                                                                                 
NGA50                          107406                                                                                                          107406                                                                                                 
NA75                           50480                                                                                                           50581                                                                                                  
NGA75                          50480                                                                                                           50581                                                                                                  
