1: PREPARING DATA
2,3: RUNNING mummer AND CREATING CLUSTERS
# reading input file "/vol/codine-tmp/juene/tmp.YC1PFmxjvB/quast/gage/tmp/ABYSS_PE_MIS_PE_mtbh37-1_mis_2x250bp_nextera_default__mtbh37-2_mis_2x250bp_nextera_default_118-scaffolds.ntref" of length 4411533
# construct suffix tree for sequence of length 4411533
# (maximum reference length is 536870908)
# (maximum query length is 4294967295)
# process 44115 characters per dot
#....................................................................................................
# CONSTRUCTIONTIME /vol/ngscomparison/software/analysis/quast-2.1/libs/MUMmer3.23-linux/mummer /vol/codine-tmp/juene/tmp.YC1PFmxjvB/quast/gage/tmp/ABYSS_PE_MIS_PE_mtbh37-1_mis_2x250bp_nextera_default__mtbh37-2_mis_2x250bp_nextera_default_118-scaffolds.ntref 2.78
# reading input file "/vol/codine-tmp/juene/tmp.YC1PFmxjvB/quast/corrected_input/ABYSS_PE_MIS_PE_mtbh37-1_mis_2x250bp_nextera_default__mtbh37-2_mis_2x250bp_nextera_default_118-scaffolds" of length 4415911
# matching query-file "/vol/codine-tmp/juene/tmp.YC1PFmxjvB/quast/corrected_input/ABYSS_PE_MIS_PE_mtbh37-1_mis_2x250bp_nextera_default__mtbh37-2_mis_2x250bp_nextera_default_118-scaffolds"
# against subject-file "/vol/codine-tmp/juene/tmp.YC1PFmxjvB/quast/gage/tmp/ABYSS_PE_MIS_PE_mtbh37-1_mis_2x250bp_nextera_default__mtbh37-2_mis_2x250bp_nextera_default_118-scaffolds.ntref"
# COMPLETETIME /vol/ngscomparison/software/analysis/quast-2.1/libs/MUMmer3.23-linux/mummer /vol/codine-tmp/juene/tmp.YC1PFmxjvB/quast/gage/tmp/ABYSS_PE_MIS_PE_mtbh37-1_mis_2x250bp_nextera_default__mtbh37-2_mis_2x250bp_nextera_default_118-scaffolds.ntref 8.17
# SPACE /vol/ngscomparison/software/analysis/quast-2.1/libs/MUMmer3.23-linux/mummer /vol/codine-tmp/juene/tmp.YC1PFmxjvB/quast/gage/tmp/ABYSS_PE_MIS_PE_mtbh37-1_mis_2x250bp_nextera_default__mtbh37-2_mis_2x250bp_nextera_default_118-scaffolds.ntref 8.56
4: FINISHING DATA
Filtering alignments
Extracting alignment coordinates
Analyzing SNPs
Extracting alignment breakpoints
Generating report file
Found genome size at position 4 with value 4411532 aka 4411532
Calculating point at 0 and the sum is 1016522 and i is225 and lens is 235 and length is 77973
Calculating point at 1 and the sum is 2024711 and i is207 and lens is 235 and length is 44413
Calculating point at 2 and the sum is 3018662 and i is178 and lens is 235 and length is 27383
Calculating point at 3 and the sum is 4000077 and i is120 and lens is 235 and length is 9737
