All statistics are based on contigs of size >= 200 bp, unless otherwise noted (e.g., "# contigs (>= 0 bp)" and "Total length (>= 0 bp)" include all contigs).

Assembly                                   ABYSS_PE_MIS_PE_sakai_mis-1_bi_2x250bp_SI_default__sakai_mis-2_bi_2x250bp_SI_default.51coverage_84.final_broken  ABYSS_PE_MIS_PE_sakai_mis-1_bi_2x250bp_SI_default__sakai_mis-2_bi_2x250bp_SI_default.51coverage_84.final
#Contigs                                   424                                                                                                              400                                                                                                     
#Contigs (>= 0 bp)                         912                                                                                                              888                                                                                                     
#Contigs (>= 1000 bp)                      215                                                                                                              212                                                                                                     
Largest contig                             211471                                                                                                           211471                                                                                                  
Total length                               5418380                                                                                                          5419766                                                                                                 
Total length (>= 0 bp)                     5484580                                                                                                          5485966                                                                                                 
Total length (>= 1000 bp)                  5328170                                                                                                          5337236                                                                                                 
Reference length                           5594470                                                                                                          5594470                                                                                                 
N50                                        95324                                                                                                            106491                                                                                                  
NG50                                       86427                                                                                                            95986                                                                                                   
N75                                        39876                                                                                                            40822                                                                                                   
NG75                                       35893                                                                                                            35893                                                                                                   
L50                                        20                                                                                                               19                                                                                                      
LG50                                       21                                                                                                               20                                                                                                      
L75                                        43                                                                                                               40                                                                                                      
LG75                                       46                                                                                                               44                                                                                                      
#local misassemblies                       2                                                                                                                14                                                                                                      
#misassemblies                             4                                                                                                                8                                                                                                       
#misassembled contigs                      4                                                                                                                8                                                                                                       
Misassembled contigs length                210612                                                                                                           215934                                                                                                  
Misassemblies inter-contig overlap         1538                                                                                                             1538                                                                                                    
#unaligned contigs                         0 + 0 part                                                                                                       1 + 0 part                                                                                              
Unaligned contigs length                   0                                                                                                                653                                                                                                     
#ambiguously mapped contigs                74                                                                                                               57                                                                                                      
Extra bases in ambiguously mapped contigs  -81593                                                                                                           -69861                                                                                                  
#N's                                       34                                                                                                               1420                                                                                                    
#N's per 100 kbp                           0.63                                                                                                             26.20                                                                                                   
Genome fraction (%)                        95.156                                                                                                           95.341                                                                                                  
Duplication ratio                          1.003                                                                                                            1.003                                                                                                   
#genes                                     4974 + 226 part                                                                                                  4983 + 229 part                                                                                         
#predicted genes (unique)                  5393                                                                                                             5387                                                                                                    
#predicted genes (>= 0 bp)                 5431                                                                                                             5424                                                                                                    
#predicted genes (>= 300 bp)               4477                                                                                                             4478                                                                                                    
#predicted genes (>= 1500 bp)              680                                                                                                              680                                                                                                     
#predicted genes (>= 3000 bp)              69                                                                                                               69                                                                                                      
#mismatches                                424                                                                                                              425                                                                                                     
#indels                                    37                                                                                                               102                                                                                                     
Indels length                              356                                                                                                              555                                                                                                     
#mismatches per 100 kbp                    7.96                                                                                                             7.97                                                                                                    
#indels per 100 kbp                        0.70                                                                                                             1.91                                                                                                    
GC (%)                                     50.35                                                                                                            50.35                                                                                                   
Reference GC (%)                           50.48                                                                                                            50.48                                                                                                   
Average %IDY                               98.759                                                                                                           98.749                                                                                                  
Largest alignment                          211471                                                                                                           211471                                                                                                  
NA50                                       95324                                                                                                            106491                                                                                                  
NGA50                                      86427                                                                                                            95986                                                                                                   
NA75                                       39876                                                                                                            39876                                                                                                   
NGA75                                      35893                                                                                                            35893                                                                                                   
LA50                                       20                                                                                                               19                                                                                                      
LGA50                                      21                                                                                                               20                                                                                                      
LA75                                       43                                                                                                               41                                                                                                      
LGA75                                      46                                                                                                               44                                                                                                      
#Mis_misassemblies                         4                                                                                                                8                                                                                                       
#Mis_relocations                           4                                                                                                                8                                                                                                       
#Mis_translocations                        0                                                                                                                0                                                                                                       
#Mis_inversions                            0                                                                                                                0                                                                                                       
#Mis_misassembled contigs                  4                                                                                                                8                                                                                                       
Mis_Misassembled contigs length            210612                                                                                                           215934                                                                                                  
#Mis_local misassemblies                   2                                                                                                                14                                                                                                      
#Mis_short indels (<= 5 bp)                25                                                                                                               86                                                                                                      
#Mis_long indels (> 5 bp)                  12                                                                                                               16                                                                                                      
#Una_fully unaligned contigs               0                                                                                                                1                                                                                                       
Una_Fully unaligned length                 0                                                                                                                653                                                                                                     
#Una_partially unaligned contigs           0                                                                                                                0                                                                                                       
#Una_with misassembly                      0                                                                                                                0                                                                                                       
#Una_both parts are significant            0                                                                                                                0                                                                                                       
Una_Partially unaligned length             0                                                                                                                0                                                                                                       
GAGE_Contigs #                             424                                                                                                              400                                                                                                     
GAGE_Min contig                            200                                                                                                              200                                                                                                     
GAGE_Max contig                            211471                                                                                                           211471                                                                                                  
GAGE_N50                                   86427 COUNT: 21                                                                                                  95986 COUNT: 20                                                                                         
GAGE_Genome size                           5594470                                                                                                          5594470                                                                                                 
GAGE_Assembly size                         5418380                                                                                                          5419766                                                                                                 
GAGE_Chaff bases                           0                                                                                                                0                                                                                                       
GAGE_Missing reference bases               17114(0.31%)                                                                                                     17351(0.31%)                                                                                            
GAGE_Missing assembly bases                23(0.00%)                                                                                                        1353(0.02%)                                                                                             
GAGE_Missing assembly contigs              0(0.00%)                                                                                                         0(0.00%)                                                                                                
GAGE_Duplicated reference bases            20553                                                                                                            21025                                                                                                   
GAGE_Compressed reference bases            281878                                                                                                           277584                                                                                                  
GAGE_Bad trim                              0                                                                                                                150                                                                                                     
GAGE_Avg idy                               99.99                                                                                                            99.99                                                                                                   
GAGE_SNPs                                  319                                                                                                              335                                                                                                     
GAGE_Indels < 5bp                          33                                                                                                               36                                                                                                      
GAGE_Indels >= 5                           13                                                                                                               28                                                                                                      
GAGE_Inversions                            2                                                                                                                3                                                                                                       
GAGE_Relocation                            3                                                                                                                4                                                                                                       
GAGE_Translocation                         0                                                                                                                0                                                                                                       
GAGE_Corrected contig #                    414                                                                                                              416                                                                                                     
GAGE_Corrected assembly size               5399090                                                                                                          5398941                                                                                                 
GAGE_Min correct contig                    200                                                                                                              200                                                                                                     
GAGE_Max correct contig                    211473                                                                                                           211473                                                                                                  
GAGE_Corrected N50                         72593 COUNT: 24                                                                                                  72593 COUNT: 24                                                                                         
