Assembly	SOAP2_PGM_mrsa_pgm_400bp_es_318_IKA_ts3.2_morestringent.0.165percent_57.final.contig
GAGE_Contigs #	13492
GAGE_Min contig	200
GAGE_Max contig	659
GAGE_N50	229 COUNT: 5406
GAGE_Genome size	2813862
GAGE_Assembly size	3120659
GAGE_Chaff bases	0
GAGE_Missing reference bases	1297389(46.11%)
GAGE_Missing assembly bases	948132(30.38%)
GAGE_Missing assembly contigs	3709(27.49%)
GAGE_Duplicated reference bases	371393
GAGE_Compressed reference bases	24874
GAGE_Bad trim	73161
GAGE_Avg idy	96.85
GAGE_SNPs	2447
GAGE_Indels < 5bp	36909
GAGE_Indels >= 5	3
GAGE_Inversions	4
GAGE_Relocation	1
GAGE_Translocation	0
GAGE_Corrected contig #	6924
GAGE_Corrected assembly size	1590274
GAGE_Min correct contig	200
GAGE_Max correct contig	422
GAGE_Corrected N50	205 COUNT: 6018
