All statistics are based on contigs of size >= 200 bp, unless otherwise noted (e.g., "# contigs (>= 0 bp)" and "Total length (>= 0 bp)" include all contigs).

Assembly                          VELVET_MIS_PE_mrsa_mis-1_bi_2x250bp_default__mrsa_mis-2_bi_2x250bp_default.0.460percent_19.final.contigs_broken  VELVET_MIS_PE_mrsa_mis-1_bi_2x250bp_default__mrsa_mis-2_bi_2x250bp_default.0.460percent_19.final.contigs
#Una_fully unaligned contigs      4                                                                                                                2                                                                                                       
Una_Fully unaligned length        6872                                                                                                             5629                                                                                                    
#Una_partially unaligned contigs  4                                                                                                                0                                                                                                       
#Una_with misassembly             0                                                                                                                0                                                                                                       
#Una_both parts are significant   1                                                                                                                0                                                                                                       
Una_Partially unaligned length    1070                                                                                                             0                                                                                                       
#N's                              0                                                                                                                2383                                                                                                    
