calling: java -cp /vol/ngscomparison/software/analysis/quast-2.1/libs/gage:. SizeFasta /vol/codine-tmp/juene/tmp.uM2HAiiZ0f/quast/corrected_input/Ecoli_Sakai_editedNew_plasmids.fasta |awk '{SUM+=; print SUM}'|tail -n 1
Contig Stats
Total units: 2217
Reference: 5594470
BasesInFasta: 5753514
Min: 200
Max: 144839
N10: 81567 COUNT: 6
N25: 58823 COUNT: 18
N50: 38016 COUNT: 49
N75: 17069 COUNT: 102
E-size:41199.94

Genome Size: 5594470
Assembly Size: 5753514
Chaff bases: 0
Missing Reference Bases: 7367(0.13%)
Missing Assembly Bases: 42571(0.74%)
Missing Assembly Contigs: 8(0.36%)
Duplicated Reference Bases: 188088
Compressed Reference Bases: 272809
Bad Trim: 3635
Avg Idy: 99.98
SNPs: 131
Indels < 5bp: 95
Indels >= 5: 124
Inversions: 3
Relocation: 10
Translocation: 0

Corrected Contig Stats
calling: java -cp /vol/ngscomparison/software/analysis/quast-2.1/libs/gage:.:. GetFastaStats -o -min 199 -genomeSize 5594470 /vol/codine-tmp/juene/tmp.uM2HAiiZ0f/quast/gage/tmp/SOAP2_MIS_PE_sakai_mis-1_bi_2x250bp_SI_default.0.64percent_113.final.scaf.matches.lens 2> /dev/null
Total units: 2079
Reference: 5594470
BasesInFasta: 5516646
Min: 200
Max: 43556
N10: 25349 COUNT: 18
N25: 17554 COUNT: 59
N50: 10382 COUNT: 164
N75: 4719 COUNT: 362
E-size:12233.88

Done
