Assembly	ABYSS_PE_PGM_sakai_pgm_mu_318_400bp_IO_TS3.4_ms.81coverage_78.final
#Contigs (>= 0 bp)	5228
#Contigs (>= 1000 bp)	646
Total length (>= 0 bp)	5822700
Total length (>= 1000 bp)	5093430
#Contigs	1157
Largest contig	50331
Total length	5302203
Reference length	5594470
GC (%)	50.26
Reference GC (%)	50.48
N50	13241
NG50	11639
N75	6474
NG75	5392
#misassemblies	3
#local misassemblies	7
#unaligned contigs	0 + 0 part
Unaligned contigs length	0
Genome fraction (%)	93.335
Duplication ratio	1.002
#N's per 100 kbp	0.00
#mismatches per 100 kbp	1.32
#indels per 100 kbp	4.60
#genes	4426 + 655 part
#predicted genes (unique)	5883
#predicted genes (>= 0 bp)	5887
#predicted genes (>= 300 bp)	4599
#predicted genes (>= 1500 bp)	589
#predicted genes (>= 3000 bp)	47
Largest alignment	50331
NA50	13241
NGA50	11639
NA75	6474
NGA75	5392
