Assembly	VELVET_PGM_sakai_pgm_mu_318_400bp_IO_TS3.4_ms_0.395percent_193.final.contigs
GAGE_Contigs #	1873
GAGE_Min contig	385
GAGE_Max contig	16999
GAGE_N50	3005 COUNT: 516
GAGE_Genome size	5594470
GAGE_Assembly size	4645558
GAGE_Chaff bases	0
GAGE_Missing reference bases	922613(16.49%)
GAGE_Missing assembly bases	1450(0.03%)
GAGE_Missing assembly contigs	0(0.00%)
GAGE_Duplicated reference bases	46284
GAGE_Compressed reference bases	236136
GAGE_Bad trim	1120
GAGE_Avg idy	99.97
GAGE_SNPs	55
GAGE_Indels < 5bp	835
GAGE_Indels >= 5	33
GAGE_Inversions	1
GAGE_Relocation	5
GAGE_Translocation	1
GAGE_Corrected contig #	1868
GAGE_Corrected assembly size	4600338
GAGE_Min correct contig	382
GAGE_Max correct contig	16998
GAGE_Corrected N50	2878 COUNT: 538
