All statistics are based on contigs of size >= 200 bp, unless otherwise noted (e.g., "# contigs (>= 0 bp)" and "Total length (>= 0 bp)" include all contigs).

Assembly                                                                         GAGE_Contigs #  GAGE_Min contig  GAGE_Max contig  GAGE_N50         GAGE_Genome size  GAGE_Assembly size  GAGE_Chaff bases  GAGE_Missing reference bases  GAGE_Missing assembly bases  GAGE_Missing assembly contigs  GAGE_Duplicated reference bases  GAGE_Compressed reference bases  GAGE_Bad trim  GAGE_Avg idy  GAGE_SNPs  GAGE_Indels < 5bp  GAGE_Indels >= 5  GAGE_Inversions  GAGE_Relocation  GAGE_Translocation  GAGE_Corrected contig #  GAGE_Corrected assembly size  GAGE_Min correct contig  GAGE_Max correct contig  GAGE_Corrected N50
SOAP2_MIS_PE_sakai_mis-1_bi_2x250bp_SI_default.0.64percent_21.final.scaf_broken  13388           200              2271             220 COUNT: 9550  5594470           3600357             0                 3875278(69.27%)               1876846(52.13%)              8097(60.48%)                   0                                1554                             77             99.99         157        7                  0                 0                0                0                   5290                     1723332                       200                      2271                     0 COUNT: 0        
SOAP2_MIS_PE_sakai_mis-1_bi_2x250bp_SI_default.0.64percent_21.final.scaf         13388           200              2271             220 COUNT: 9550  5594470           3600357             0                 3875278(69.27%)               1876846(52.13%)              8097(60.48%)                   0                                1554                             77             99.99         157        7                  0                 0                0                0                   5290                     1723332                       200                      2271                     0 COUNT: 0        
