All statistics are based on contigs of size >= 200 bp, unless otherwise noted (e.g., "# contigs (>= 0 bp)" and "Total length (>= 0 bp)" include all contigs).

Assembly                                                                      #Contigs (>= 0 bp)  #Contigs (>= 1000 bp)  Total length (>= 0 bp)  Total length (>= 1000 bp)  #Contigs  Largest contig  Total length  Reference length  GC (%)  Reference GC (%)  N50    NG50   N75    NG75   #misassemblies  #local misassemblies  #unaligned contigs  Unaligned contigs length  Genome fraction (%)  Duplication ratio  #N's per 100 kbp  #mismatches per 100 kbp  #indels per 100 kbp  #genes          #predicted genes (unique)  #predicted genes (>= 0 bp)  #predicted genes (>= 300 bp)  #predicted genes (>= 1500 bp)  #predicted genes (>= 3000 bp)  Largest alignment  NA50   NGA50  NA75   NGA75
CLC_PGM_mrsa_pgm_200bp_es_316_IonOnev2_ts3.0_morestringent.71coverage.result  256                 120                    2778099                 2739369                    256       148025          2778099       2813862           32.63   32.81             38193  38193  22985  21438  16              0                     3 + 17 part         1691                      97.682               1.008              7.34              1.42                     12.04                2619 + 65 part  2828                       2829                        2331                          278                            24                             148025             37897  37897  22985  21358
