Assembly	NEWBLER_PGM_mrsa_pgm_400bp_es_318_IKA_ts3.2_morestringent.0.925percent.contigs
#Una_fully unaligned contigs	0
Una_Fully unaligned length	0
#Una_partially unaligned contigs	3
#Una_with misassembly	0
#Una_both parts are significant	0
Una_Partially unaligned length	122
#N's	0
