Assembly	VELVET_MIS_PE_sakai_mis-both_bi_2x250bp_SI_default.0.64percent_61.final.contigs_broken	VELVET_MIS_PE_sakai_mis-both_bi_2x250bp_SI_default.0.64percent_61.final.contigs
GAGE_Contigs #	617	399
GAGE_Min contig	200	200
GAGE_Max contig	131607	291819
GAGE_N50	26398 COUNT: 66	73255 COUNT: 23
GAGE_Genome size	5594470	5594470
GAGE_Assembly size	5351049	5368005
GAGE_Chaff bases	0	0
GAGE_Missing reference bases	51005(0.91%)	50034(0.89%)
GAGE_Missing assembly bases	5506(0.10%)	20741(0.39%)
GAGE_Missing assembly contigs	1(0.16%)	1(0.25%)
GAGE_Duplicated reference bases	12437	11906
GAGE_Compressed reference bases	248569	247423
GAGE_Bad trim	55	429
GAGE_Avg idy	99.99	99.98
GAGE_SNPs	388	389
GAGE_Indels < 5bp	32	88
GAGE_Indels >= 5	11	183
GAGE_Inversions	1	5
GAGE_Relocation	10	20
GAGE_Translocation	0	0
GAGE_Corrected contig #	599	581
GAGE_Corrected assembly size	5336836	5338284
GAGE_Min correct contig	200	200
GAGE_Max correct contig	123484	123484
GAGE_Corrected N50	24858 COUNT: 68	26404 COUNT: 66
