All statistics are based on contigs of size >= 200 bp, unless otherwise noted (e.g., "# contigs (>= 0 bp)" and "Total length (>= 0 bp)" include all contigs).

Assembly                                                                                         #Contigs (>= 0 bp)  #Contigs (>= 1000 bp)  Total length (>= 0 bp)  Total length (>= 1000 bp)  #Contigs  Largest contig  Total length  Reference length  GC (%)  Reference GC (%)  N50   NG50  N75  NG75  #misassemblies  #local misassemblies  #unaligned contigs  Unaligned contigs length  Genome fraction (%)  Duplication ratio  #N's per 100 kbp  #mismatches per 100 kbp  #indels per 100 kbp  #genes            #predicted genes (unique)  #predicted genes (>= 0 bp)  #predicted genes (>= 300 bp)  #predicted genes (>= 1500 bp)  #predicted genes (>= 3000 bp)  Largest alignment  NA50  NGA50  NA75  NGA75
CLC_MIS_PE_mrsa_mis-1_bi_2x250bp_default__mrsa_mis-2_bi_2x250bp_default.6coverage.result_broken  2366                752                    2387887                 1606140                    2358      29463           2387343       2813862           33.04   32.81             1582  1270  772  465   129             5                     23 + 14 part        12858                     83.365               1.013              2.35              68.46                    4.39                 1026 + 1496 part  3819                       3821                        2473                          116                            8                              29463              1431  1173   736   444  
CLC_MIS_PE_mrsa_mis-1_bi_2x250bp_default__mrsa_mis-2_bi_2x250bp_default.6coverage.result         2353                751                    2388368                 1609041                    2353      29463           2388368       2813862           33.04   32.81             1589  1282  772  467   130             6                     23 + 19 part        12913                     83.322               1.014              23.36             68.54                    4.39                 1027 + 1495 part  3820                       3822                        2474                          116                            8                              29463              1431  1173   735   444  
