Assembly	SOAP2_MIS_PE_mtbh37-1_mis_2x250bp_nextera_default_93.final.scaf_broken	SOAP2_MIS_PE_mtbh37-1_mis_2x250bp_nextera_default_93.final.scaf
#Mis_misassemblies	2	3
#Mis_relocations	2	3
#Mis_translocations	0	0
#Mis_inversions	0	0
#Mis_misassembled contigs	2	3
Mis_Misassembled contigs length	1842	2554
#Mis_local misassemblies	15	467
#mismatches	253	247
#indels	105	2216
#Mis_short indels (<= 5 bp)	95	2104
#Mis_long indels (> 5 bp)	10	112
Indels length	379	5232
