Assembly	#Contigs (>= 0 bp)	#Contigs (>= 1000 bp)	Total length (>= 0 bp)	Total length (>= 1000 bp)	#Contigs	Largest contig	Total length	Reference length	GC (%)	Reference GC (%)	N50	NG50	N75	NG75	#misassemblies	#local misassemblies	#unaligned contigs	Unaligned contigs length	Genome fraction (%)	Duplication ratio	#N's per 100 kbp	#mismatches per 100 kbp	#indels per 100 kbp	#genes	#predicted genes (unique)	#predicted genes (>= 0 bp)	#predicted genes (>= 300 bp)	#predicted genes (>= 1500 bp)	#predicted genes (>= 3000 bp)	Largest alignment	NA50	NGA50	NA75	NGA75
VELVET_MIS_PE_mtbh37-1_mis_2x250bp_nextera_default__mtbh37-2_mis_2x250bp_nextera_default_57.final.contigs_broken	519	391	4257938	4204467	478	69385	4252313	4411532	65.37	65.61	18143	17585	9047	8269	2	29	0 + 2 part	956	95.753	1.001	0.00	8.76	2.37	3650 + 377 part	4246	4248	3655	528	65	69385	17895	17429	9047	8269
VELVET_MIS_PE_mtbh37-1_mis_2x250bp_nextera_default__mtbh37-2_mis_2x250bp_nextera_default_57.final.contigs	224	140	4279899	4248791	190	183168	4275368	4411532	65.37	65.61	65399	64118	34398	31866	5	187	0 + 2 part	956	95.820	1.006	513.66	8.94	25.43	3770 + 255 part	4192	4194	3632	528	67	182511	63669	63145	31876	29014
