Assembly	ABYSS_PE_MIS_PE_mtbh37-1_mis_2x250bp_nextera_default__mtbh37-2_mis_2x250bp_nextera_default.0.975percent_76.final_broken	ABYSS_PE_MIS_PE_mtbh37-1_mis_2x250bp_nextera_default__mtbh37-2_mis_2x250bp_nextera_default.0.975percent_76.final
#Contigs	194	149
#Contigs (>= 0 bp)	258	213
#Contigs (>= 1000 bp)	162	120
Largest contig	129270	211754
Total length	4422140	4424375
Total length (>= 0 bp)	4429803	4432038
Total length (>= 1000 bp)	4405363	4409586
Reference length	4411532	4411532
N50	59551	95961
NG50	59551	95961
N75	32430	45248
NG75	32430	45248
L50	28	17
LG50	28	17
L75	53	34
LG75	53	34
#local misassemblies	17	28
#misassemblies	6	7
#misassembled contigs	5	6
Misassembled contigs length	186212	387677
Misassemblies inter-contig overlap	33220	68424
#unaligned contigs	0 + 0 part	0 + 0 part
Unaligned contigs length	0	0
#ambiguously mapped contigs	10	9
Extra bases in ambiguously mapped contigs	-6942	-6396
#N's	46	2281
#N's per 100 kbp	1.04	51.56
Genome fraction (%)	99.164	99.205
Duplication ratio	1.017	1.025
#genes	3985 + 125 part	4016 + 95 part
#predicted genes (unique)	4088	4081
#predicted genes (>= 0 bp)	4173	4166
#predicted genes (>= 300 bp)	3658	3655
#predicted genes (>= 1500 bp)	576	573
#predicted genes (>= 3000 bp)	77	78
#mismatches	319	329
#indels	83	281
Indels length	509	1037
#mismatches per 100 kbp	7.29	7.52
#indels per 100 kbp	1.90	6.42
GC (%)	65.53	65.53
Reference GC (%)	65.61	65.61
Average %IDY	99.763	99.775
Largest alignment	129270	211754
NA50	59551	78265
NGA50	59551	78265
NA75	30857	43544
NGA75	30857	43544
LA50	28	18
LGA50	28	18
LA75	54	36
LGA75	54	36
#Mis_misassemblies	6	7
#Mis_relocations	6	7
#Mis_translocations	0	0
#Mis_inversions	0	0
#Mis_misassembled contigs	5	6
Mis_Misassembled contigs length	186212	387677
#Mis_local misassemblies	17	28
#Mis_short indels (<= 5 bp)	69	250
#Mis_long indels (> 5 bp)	14	31
#Una_fully unaligned contigs	0	0
Una_Fully unaligned length	0	0
#Una_partially unaligned contigs	0	0
#Una_with misassembly	0	0
#Una_both parts are significant	0	0
Una_Partially unaligned length	0	0
GAGE_Contigs #	194	149
GAGE_Min contig	206	206
GAGE_Max contig	129270	211754
GAGE_N50	59551 COUNT: 28	95961 COUNT: 17
GAGE_Genome size	4411532	4411532
GAGE_Assembly size	4422140	4424375
GAGE_Chaff bases	0	0
GAGE_Missing reference bases	28123(0.64%)	27805(0.63%)
GAGE_Missing assembly bases	889(0.02%)	2617(0.06%)
GAGE_Missing assembly contigs	0(0.00%)	0(0.00%)
GAGE_Duplicated reference bases	14192	14192
GAGE_Compressed reference bases	16523	13314
GAGE_Bad trim	868	934
GAGE_Avg idy	99.99	99.97
GAGE_SNPs	245	233
GAGE_Indels < 5bp	77	104
GAGE_Indels >= 5	28	59
GAGE_Inversions	1	2
GAGE_Relocation	1	3
GAGE_Translocation	0	0
GAGE_Corrected contig #	218	208
GAGE_Corrected assembly size	4410765	4412181
GAGE_Min correct contig	206	206
GAGE_Max correct contig	129270	191672
GAGE_Corrected N50	43544 COUNT: 34	47276 COUNT: 30
