Assembly	GAGE_Contigs #	GAGE_Min contig	GAGE_Max contig	GAGE_N50	GAGE_Genome size	GAGE_Assembly size	GAGE_Chaff bases	GAGE_Missing reference bases	GAGE_Missing assembly bases	GAGE_Missing assembly contigs	GAGE_Duplicated reference bases	GAGE_Compressed reference bases	GAGE_Bad trim	GAGE_Avg idy	GAGE_SNPs	GAGE_Indels < 5bp	GAGE_Indels >= 5	GAGE_Inversions	GAGE_Relocation	GAGE_Translocation	GAGE_Corrected contig #	GAGE_Corrected assembly size	GAGE_Min correct contig	GAGE_Max correct contig	GAGE_Corrected N50
ABYSS_PE_MIS_PE_mtbh37-1_mis_2x250bp_nextera_default__mtbh37-2_mis_2x250bp_nextera_default.0.975percent_76.final_broken	194	206	129270	59551 COUNT: 28	4411532	4422140	0	28123(0.64%)	889(0.02%)	0(0.00%)	14192	16523	868	99.99	245	77	28	1	1	0	218	4410765	206	129270	43544 COUNT: 34
ABYSS_PE_MIS_PE_mtbh37-1_mis_2x250bp_nextera_default__mtbh37-2_mis_2x250bp_nextera_default.0.975percent_76.final	149	206	211754	95961 COUNT: 17	4411532	4424375	0	27805(0.63%)	2617(0.06%)	0(0.00%)	14192	13314	934	99.97	233	104	59	2	3	0	208	4412181	206	191672	47276 COUNT: 30
