All statistics are based on contigs of size >= 200 bp, unless otherwise noted (e.g., "# contigs (>= 0 bp)" and "Total length (>= 0 bp)" include all contigs).

Assembly                         CLC_MIS_PE_mrsa_mis-1_bi_2x150bp_default__mrsa_mis-2_bi_2x150bp_default.0.175percent.result_broken  CLC_MIS_PE_mrsa_mis-1_bi_2x150bp_default__mrsa_mis-2_bi_2x150bp_default.0.175percent.result
#Mis_misassemblies               2                                                                                                   3                                                                                          
#Mis_relocations                 2                                                                                                   3                                                                                          
#Mis_translocations              0                                                                                                   0                                                                                          
#Mis_inversions                  0                                                                                                   0                                                                                          
#Mis_misassembled contigs        2                                                                                                   3                                                                                          
Mis_Misassembled contigs length  52681                                                                                               305897                                                                                     
#Mis_local misassemblies         10                                                                                                  13                                                                                         
#mismatches                      139                                                                                                 139                                                                                        
#indels                          57                                                                                                  58                                                                                         
#Mis_short indels (<= 5 bp)      48                                                                                                  48                                                                                         
#Mis_long indels (> 5 bp)        9                                                                                                   10                                                                                         
Indels length                    405                                                                                                 461                                                                                        
