All statistics are based on contigs of size >= 200 bp, unless otherwise noted (e.g., "# contigs (>= 0 bp)" and "Total length (>= 0 bp)" include all contigs).

Assembly                                   VELVET_MIS_PE_sakai_mis-both_bi_2x250bp_SI_default.0.64percent_21.final.contigs_broken  VELVET_MIS_PE_sakai_mis-both_bi_2x250bp_SI_default.0.64percent_21.final.contigs
#Contigs                                   7298                                                                                    7298                                                                           
#Contigs (>= 0 bp)                         153771                                                                                  153771                                                                         
#Contigs (>= 1000 bp)                      98                                                                                      98                                                                             
Largest contig                             2253                                                                                    2253                                                                           
Total length                               2668057                                                                                 2668057                                                                        
Total length (>= 0 bp)                     12760295                                                                                12760295                                                                       
Total length (>= 1000 bp)                  119849                                                                                  119849                                                                         
Reference length                           5594470                                                                                 5594470                                                                        
N50                                        381                                                                                     381                                                                            
NG50                                       None                                                                                    None                                                                           
N75                                        274                                                                                     274                                                                            
NG75                                       None                                                                                    None                                                                           
L50                                        2347                                                                                    2347                                                                           
LG50                                       None                                                                                    None                                                                           
L75                                        4420                                                                                    4420                                                                           
LG75                                       None                                                                                    None                                                                           
#local misassemblies                       0                                                                                       0                                                                              
#misassemblies                             0                                                                                       0                                                                              
#misassembled contigs                      0                                                                                       0                                                                              
Misassembled contigs length                0                                                                                       0                                                                              
Misassemblies inter-contig overlap         0                                                                                       0                                                                              
#unaligned contigs                         768 + 0 part                                                                            768 + 0 part                                                                   
Unaligned contigs length                   205495                                                                                  205495                                                                         
#ambiguously mapped contigs                19                                                                                      19                                                                             
Extra bases in ambiguously mapped contigs  -4973                                                                                   -4973                                                                          
#N's                                       0                                                                                       0                                                                              
#N's per 100 kbp                           0.00                                                                                    0.00                                                                           
Genome fraction (%)                        43.794                                                                                  43.794                                                                         
Duplication ratio                          1.003                                                                                   1.003                                                                          
#genes                                     254 + 3704 part                                                                         254 + 3704 part                                                                
#predicted genes (unique)                  7956                                                                                    7956                                                                           
#predicted genes (>= 0 bp)                 7956                                                                                    7956                                                                           
#predicted genes (>= 300 bp)               2667                                                                                    2667                                                                           
#predicted genes (>= 1500 bp)              2                                                                                       2                                                                              
#predicted genes (>= 3000 bp)              0                                                                                       0                                                                              
#mismatches                                27                                                                                      27                                                                             
#indels                                    11                                                                                      11                                                                             
Indels length                              11                                                                                      11                                                                             
#mismatches per 100 kbp                    1.10                                                                                    1.10                                                                           
#indels per 100 kbp                        0.45                                                                                    0.45                                                                           
GC (%)                                     48.73                                                                                   48.73                                                                          
Reference GC (%)                           50.48                                                                                   50.48                                                                          
Average %IDY                               99.998                                                                                  99.998                                                                         
Largest alignment                          2253                                                                                    2253                                                                           
NA50                                       374                                                                                     374                                                                            
NGA50                                      None                                                                                    None                                                                           
NA75                                       261                                                                                     261                                                                            
NGA75                                      None                                                                                    None                                                                           
LA50                                       2360                                                                                    2360                                                                           
LGA50                                      None                                                                                    None                                                                           
LA75                                       4510                                                                                    4510                                                                           
LGA75                                      None                                                                                    None                                                                           
#Mis_misassemblies                         0                                                                                       0                                                                              
#Mis_relocations                           0                                                                                       0                                                                              
#Mis_translocations                        0                                                                                       0                                                                              
#Mis_inversions                            0                                                                                       0                                                                              
#Mis_misassembled contigs                  0                                                                                       0                                                                              
Mis_Misassembled contigs length            0                                                                                       0                                                                              
#Mis_local misassemblies                   0                                                                                       0                                                                              
#Mis_short indels (<= 5 bp)                11                                                                                      11                                                                             
#Mis_long indels (> 5 bp)                  0                                                                                       0                                                                              
#Una_fully unaligned contigs               768                                                                                     768                                                                            
Una_Fully unaligned length                 205495                                                                                  205495                                                                         
#Una_partially unaligned contigs           0                                                                                       0                                                                              
#Una_with misassembly                      0                                                                                       0                                                                              
#Una_both parts are significant            0                                                                                       0                                                                              
Una_Partially unaligned length             0                                                                                       0                                                                              
GAGE_Contigs #                             7298                                                                                    7298                                                                           
GAGE_Min contig                            200                                                                                     200                                                                            
GAGE_Max contig                            2253                                                                                    2253                                                                           
GAGE_N50                                   0 COUNT: 0                                                                              0 COUNT: 0                                                                     
GAGE_Genome size                           5594470                                                                                 5594470                                                                        
GAGE_Assembly size                         2668057                                                                                 2668057                                                                        
GAGE_Chaff bases                           0                                                                                       0                                                                              
GAGE_Missing reference bases               3134514(56.03%)                                                                         3134514(56.03%)                                                                
GAGE_Missing assembly bases                205531(7.70%)                                                                           205531(7.70%)                                                                  
GAGE_Missing assembly contigs              768(10.52%)                                                                             768(10.52%)                                                                    
GAGE_Duplicated reference bases            0                                                                                       0                                                                              
GAGE_Compressed reference bases            4973                                                                                    4973                                                                           
GAGE_Bad trim                              36                                                                                      36                                                                             
GAGE_Avg idy                               100.00                                                                                  100.00                                                                         
GAGE_SNPs                                  28                                                                                      28                                                                             
GAGE_Indels < 5bp                          11                                                                                      11                                                                             
GAGE_Indels >= 5                           0                                                                                       0                                                                              
GAGE_Inversions                            0                                                                                       0                                                                              
GAGE_Relocation                            0                                                                                       0                                                                              
GAGE_Translocation                         0                                                                                       0                                                                              
GAGE_Corrected contig #                    6530                                                                                    6530                                                                           
GAGE_Corrected assembly size               2462525                                                                                 2462525                                                                        
GAGE_Min correct contig                    200                                                                                     200                                                                            
GAGE_Max correct contig                    2253                                                                                    2253                                                                           
GAGE_Corrected N50                         0 COUNT: 0                                                                              0 COUNT: 0                                                                     
