Assembly	NEWBLER_PGM_mrsa_pgm_200bp_es_316_IonOnev2_ts3.0_morestringent.0.250percent.contigs
#Contigs	111
#Contigs (>= 0 bp)	166
#Contigs (>= 1000 bp)	84
Largest contig	150313
Total length	2764778
Total length (>= 0 bp)	2772140
Total length (>= 1000 bp)	2753964
Reference length	2813862
N50	57600
NG50	57600
N75	36633
NG75	35642
L50	17
LG50	17
L75	32
LG75	33
#local misassemblies	9
#misassemblies	1
#misassembled contigs	1
Misassembled contigs length	46703
Misassemblies inter-contig overlap	1569
#unaligned contigs	0 + 0 part
Unaligned contigs length	0
#ambiguously mapped contigs	12
Extra bases in ambiguously mapped contigs	-9356
#N's	0
#N's per 100 kbp	0.00
Genome fraction (%)	97.933
Duplication ratio	1.000
#genes	2637 + 56 part
#predicted genes (unique)	2708
#predicted genes (>= 0 bp)	2708
#predicted genes (>= 300 bp)	2315
#predicted genes (>= 1500 bp)	289
#predicted genes (>= 3000 bp)	26
#mismatches	85
#indels	220
Indels length	381
#mismatches per 100 kbp	3.08
#indels per 100 kbp	7.98
GC (%)	32.64
Reference GC (%)	32.81
Average %IDY	99.070
Largest alignment	150313
NA50	57600
NGA50	57600
NA75	35642
NGA75	34342
LA50	17
LGA50	17
LA75	33
LGA75	34
#Mis_misassemblies	1
#Mis_relocations	1
#Mis_translocations	0
#Mis_inversions	0
#Mis_misassembled contigs	1
Mis_Misassembled contigs length	46703
#Mis_local misassemblies	9
#Mis_short indels (<= 5 bp)	218
#Mis_long indels (> 5 bp)	2
#Una_fully unaligned contigs	0
Una_Fully unaligned length	0
#Una_partially unaligned contigs	0
#Una_with misassembly	0
#Una_both parts are significant	0
Una_Partially unaligned length	0
GAGE_Contigs #	111
GAGE_Min contig	200
GAGE_Max contig	150313
GAGE_N50	57600 COUNT: 17
GAGE_Genome size	2813862
GAGE_Assembly size	2764778
GAGE_Chaff bases	0
GAGE_Missing reference bases	10224(0.36%)
GAGE_Missing assembly bases	25(0.00%)
GAGE_Missing assembly contigs	0(0.00%)
GAGE_Duplicated reference bases	814
GAGE_Compressed reference bases	42224
GAGE_Bad trim	25
GAGE_Avg idy	99.98
GAGE_SNPs	38
GAGE_Indels < 5bp	251
GAGE_Indels >= 5	10
GAGE_Inversions	0
GAGE_Relocation	2
GAGE_Translocation	0
GAGE_Corrected contig #	121
GAGE_Corrected assembly size	2766432
GAGE_Min correct contig	200
GAGE_Max correct contig	150321
GAGE_Corrected N50	45802 COUNT: 20
