Assembly	GAGE_Contigs #	GAGE_Min contig	GAGE_Max contig	GAGE_N50	GAGE_Genome size	GAGE_Assembly size	GAGE_Chaff bases	GAGE_Missing reference bases	GAGE_Missing assembly bases	GAGE_Missing assembly contigs	GAGE_Duplicated reference bases	GAGE_Compressed reference bases	GAGE_Bad trim	GAGE_Avg idy	GAGE_SNPs	GAGE_Indels < 5bp	GAGE_Indels >= 5	GAGE_Inversions	GAGE_Relocation	GAGE_Translocation	GAGE_Corrected contig #	GAGE_Corrected assembly size	GAGE_Min correct contig	GAGE_Max correct contig	GAGE_Corrected N50
SOAP2_MIS_PE_mtbh37-1_mis_2x250bp_nextera_default_67.final.scaf_broken	107284	200	3072	381 COUNT: 3809																					
SOAP2_MIS_PE_mtbh37-1_mis_2x250bp_nextera_default_67.final.scaf	107284	200	3072	383 COUNT: 3795	4411532	27030343	0	236959(5.37%)	19837397(73.39%)	80590(75.12%)	2329145	66183	558616	99.31	15541	221	20	1	2	0	13329	4647358	200	3072	380 COUNT: 3812
