All statistics are based on contigs of size >= 200 bp, unless otherwise noted (e.g., "# contigs (>= 0 bp)" and "Total length (>= 0 bp)" include all contigs).

Assembly                         VELVET_MIS_PE_mtbh37-1_mis_2x250bp_nextera_default__mtbh37-2_mis_2x250bp_nextera_default_117.final.contigs_broken  VELVET_MIS_PE_mtbh37-1_mis_2x250bp_nextera_default__mtbh37-2_mis_2x250bp_nextera_default_117.final.contigs
GAGE_Contigs #                   468                                                                                                                244                                                                                                       
GAGE_Min contig                  209                                                                                                                233                                                                                                       
GAGE_Max contig                  91507                                                                                                              151060                                                                                                    
GAGE_N50                         15978 COUNT: 86                                                                                                    36023 COUNT: 33                                                                                           
GAGE_Genome size                 4411532                                                                                                            4411532                                                                                                   
GAGE_Assembly size               4265813                                                                                                            4297183                                                                                                   
GAGE_Chaff bases                 0                                                                                                                  0                                                                                                         
GAGE_Missing reference bases     112330(2.55%)                                                                                                      112213(2.54%)                                                                                             
GAGE_Missing assembly bases      966(0.02%)                                                                                                         32219(0.75%)                                                                                              
GAGE_Missing assembly contigs    0(0.00%)                                                                                                           0(0.00%)                                                                                                  
GAGE_Duplicated reference bases  2200                                                                                                               2200                                                                                                      
GAGE_Compressed reference bases  54736                                                                                                              54736                                                                                                     
GAGE_Bad trim                    966                                                                                                                1286                                                                                                      
GAGE_Avg idy                     99.99                                                                                                              99.99                                                                                                     
GAGE_SNPs                        154                                                                                                                154                                                                                                       
GAGE_Indels < 5bp                27                                                                                                                 27                                                                                                        
GAGE_Indels >= 5                 15                                                                                                                 235                                                                                                       
GAGE_Inversions                  2                                                                                                                  2                                                                                                         
GAGE_Relocation                  5                                                                                                                  8                                                                                                         
GAGE_Translocation               0                                                                                                                  0                                                                                                         
GAGE_Corrected contig #          486                                                                                                                486                                                                                                       
GAGE_Corrected assembly size     4268167                                                                                                            4268167                                                                                                   
GAGE_Min correct contig          233                                                                                                                233                                                                                                       
GAGE_Max correct contig          59291                                                                                                              59291                                                                                                     
GAGE_Corrected N50               15046 COUNT: 90                                                                                                    15046 COUNT: 90                                                                                           
