Assembly	VELVET_PGM_sakai_pgm_mu_318_400bp_IO_TS3.4_ms_0.395percent_29.final.contigs
GAGE_Contigs #	8682
GAGE_Min contig	200
GAGE_Max contig	2020
GAGE_N50	219 COUNT: 7537
GAGE_Genome size	5594470
GAGE_Assembly size	3036810
GAGE_Chaff bases	0
GAGE_Missing reference bases	2559162(45.74%)
GAGE_Missing assembly bases	95(0.00%)
GAGE_Missing assembly contigs	0(0.00%)
GAGE_Duplicated reference bases	0
GAGE_Compressed reference bases	18483
GAGE_Bad trim	95
GAGE_Avg idy	99.97
GAGE_SNPs	137
GAGE_Indels < 5bp	871
GAGE_Indels >= 5	0
GAGE_Inversions	0
GAGE_Relocation	0
GAGE_Translocation	0
GAGE_Corrected contig #	8681
GAGE_Corrected assembly size	3036653
GAGE_Min correct contig	200
GAGE_Max correct contig	2020
GAGE_Corrected N50	219 COUNT: 7537
