All statistics are based on contigs of size >= 200 bp, unless otherwise noted (e.g., "# contigs (>= 0 bp)" and "Total length (>= 0 bp)" include all contigs).

Assembly                                                                                                           #Contigs  #Contigs (>= 0 bp)  #Contigs (>= 1000 bp)  Largest contig  Total length  Total length (>= 0 bp)  Total length (>= 1000 bp)  Reference length  N50    NG50   N75    NG75   L50  LG50  L75  LG75  #local misassemblies  #misassemblies  #misassembled contigs  Misassembled contigs length  Misassemblies inter-contig overlap  #unaligned contigs  Unaligned contigs length  #ambiguously mapped contigs  Extra bases in ambiguously mapped contigs  #N's   #N's per 100 kbp  Genome fraction (%)  Duplication ratio  #genes           #predicted genes (unique)  #predicted genes (>= 0 bp)  #predicted genes (>= 300 bp)  #predicted genes (>= 1500 bp)  #predicted genes (>= 3000 bp)  #mismatches  #indels  Indels length  #mismatches per 100 kbp  #indels per 100 kbp  GC (%)  Reference GC (%)  Average %IDY  Largest alignment  NA50   NGA50  NA75   NGA75  LA50  LGA50  LA75  LGA75  #Mis_misassemblies  #Mis_relocations  #Mis_translocations  #Mis_inversions  #Mis_misassembled contigs  Mis_Misassembled contigs length  #Mis_local misassemblies  #Mis_short indels (<= 5 bp)  #Mis_long indels (> 5 bp)  #Una_fully unaligned contigs  Una_Fully unaligned length  #Una_partially unaligned contigs  #Una_with misassembly  #Una_both parts are significant  Una_Partially unaligned length  GAGE_Contigs #  GAGE_Min contig  GAGE_Max contig  GAGE_N50         GAGE_Genome size  GAGE_Assembly size  GAGE_Chaff bases  GAGE_Missing reference bases  GAGE_Missing assembly bases  GAGE_Missing assembly contigs  GAGE_Duplicated reference bases  GAGE_Compressed reference bases  GAGE_Bad trim  GAGE_Avg idy  GAGE_SNPs  GAGE_Indels < 5bp  GAGE_Indels >= 5  GAGE_Inversions  GAGE_Relocation  GAGE_Translocation  GAGE_Corrected contig #  GAGE_Corrected assembly size  GAGE_Min correct contig  GAGE_Max correct contig  GAGE_Corrected N50
VELVET_MIS_PE_mtbh37-1_mis_2x250bp_nextera_default__mtbh37-2_mis_2x250bp_nextera_default_151.final.contigs_broken  377       377                 341                    80789           4302867       4302867                 4280080                    4411532           19767  19118  11285  10642  64   67    137  144   5                     4               4                      18880                        1182                                0 + 0 part          0                         19                           -14017                                     0      0.00              97.058               1.002              3731 + 345 part  4195                       4213                        3623                          535                            67                             241          36       56             5.63                     0.84                 65.46   65.61             99.793        80789              19767  19118  11285  10641  64    67     137   144    4                   3                 0                    1                4                          18880                            5                         35                           1                          0                             0                           0                                 0                      0                                0                               377             301              80789            19118 COUNT: 67  4411532           4302867             0                 84981(1.93%)                  1100(0.03%)                  0(0.00%)                       1475                             52027                            1100           99.99         190        30                 7                 0                2                0                   385                      4301917                       240                      77926                    18448 COUNT: 70   
VELVET_MIS_PE_mtbh37-1_mis_2x250bp_nextera_default__mtbh37-2_mis_2x250bp_nextera_default_151.final.contigs         219       219                 193                    112411          4325992       4325992                 4310721                    4411532           48054  47328  22926  21657  31   32    65   68    154                   7               7                      197846                       717                                 0 + 0 part          0                         19                           -14017                                     23125  534.56            97.070               1.007              3737 + 339 part  4170                       4188                        3627                          539                            67                             247          174      261            5.77                     4.06                 65.46   65.61             99.789        111095             47229  46951  21506  20471  31    32     67    70     7                   6                 0                    1                7                          197846                           154                       171                          3                          0                             0                           0                                 0                      0                                0                               219             301              112411           47328 COUNT: 32  4411532           4325992             0                 84942(1.93%)                  24227(0.56%)                 0(0.00%)                       1392                             52027                            1036           99.99         187        32                 160               1                5                0                   384                      4301913                       240                      77926                    18448 COUNT: 70   
