calling: java -cp /vol/ngscomparison/software/analysis/quast-2.1/libs/gage:. SizeFasta /vol/codine-tmp/juene/tmp.7xrNhZNPqC/quast/corrected_input/MRSA_COL_Plasmid.fasta |awk '{SUM+=; print SUM}'|tail -n 1
Contig Stats
Total units: 11999
Reference: 2813862
BasesInFasta: 3866924
Min: 281
Max: 1062
N10: 415 COUNT: 579
N25: 366 COUNT: 1677
N50: 330 COUNT: 3715
N75: 307 COUNT: 5931
E-size:454.47

Genome Size: 2813862
Assembly Size: 3866924
Chaff bases: 0
Missing Reference Bases: 880282(31.28%)
Missing Assembly Bases: 2068(0.05%)
Missing Assembly Contigs: 3(0.03%)
Duplicated Reference Bases: 1488974
Compressed Reference Bases: 50691
Bad Trim: 986
Avg Idy: 99.27
SNPs: 991
Indels < 5bp: 11083
Indels >= 5: 2
Inversions: 22
Relocation: 7
Translocation: 5

Corrected Contig Stats
calling: java -cp /vol/ngscomparison/software/analysis/quast-2.1/libs/gage:.:. GetFastaStats -o -min 199 -genomeSize 2813862 /vol/codine-tmp/juene/tmp.7xrNhZNPqC/quast/gage/tmp/VELVET_PGM_mrsa_pgm_400bp_es_318_IKA_ts3.2_morestringent.0.165percent_141.final.contigs.matches.lens 2> /dev/null
Total units: 7220
Reference: 2813862
BasesInFasta: 2352466
Min: 200
Max: 1060
N10: 399 COUNT: 595
N25: 344 COUNT: 1746
N50: 304 COUNT: 3930
N75: 281 COUNT: 6349
E-size:281.41

Done
