1: PREPARING DATA
2,3: RUNNING mummer AND CREATING CLUSTERS
# reading input file "/vol/codine-tmp/juene/tmp.uvnCGm3RfP/quast/contigs_reports/nucmer_output/ABYSS_PE_MIS_PE_mtbh37-1_mis_2x250bp_nextera_default__mtbh37-2_mis_2x250bp_nextera_default.0.175percent_56.final_broken.ntref" of length 4411533
# construct suffix tree for sequence of length 4411533
# (maximum reference length is 536870908)
# (maximum query length is 4294967295)
# process 44115 characters per dot
#....................................................................................................
# CONSTRUCTIONTIME /vol/ngscomparison/software/analysis/quast-2.1/libs/MUMmer3.23-linux/mummer /vol/codine-tmp/juene/tmp.uvnCGm3RfP/quast/contigs_reports/nucmer_output/ABYSS_PE_MIS_PE_mtbh37-1_mis_2x250bp_nextera_default__mtbh37-2_mis_2x250bp_nextera_default.0.175percent_56.final_broken.ntref 2.29
# reading input file "/vol/codine-tmp/juene/tmp.uvnCGm3RfP/quast/corrected_input/ABYSS_PE_MIS_PE_mtbh37-1_mis_2x250bp_nextera_default__mtbh37-2_mis_2x250bp_nextera_default.0.175percent_56.final_broken" of length 4238309
# matching query-file "/vol/codine-tmp/juene/tmp.uvnCGm3RfP/quast/corrected_input/ABYSS_PE_MIS_PE_mtbh37-1_mis_2x250bp_nextera_default__mtbh37-2_mis_2x250bp_nextera_default.0.175percent_56.final_broken"
# against subject-file "/vol/codine-tmp/juene/tmp.uvnCGm3RfP/quast/contigs_reports/nucmer_output/ABYSS_PE_MIS_PE_mtbh37-1_mis_2x250bp_nextera_default__mtbh37-2_mis_2x250bp_nextera_default.0.175percent_56.final_broken.ntref"
# COMPLETETIME /vol/ngscomparison/software/analysis/quast-2.1/libs/MUMmer3.23-linux/mummer /vol/codine-tmp/juene/tmp.uvnCGm3RfP/quast/contigs_reports/nucmer_output/ABYSS_PE_MIS_PE_mtbh37-1_mis_2x250bp_nextera_default__mtbh37-2_mis_2x250bp_nextera_default.0.175percent_56.final_broken.ntref 6.33
# SPACE /vol/ngscomparison/software/analysis/quast-2.1/libs/MUMmer3.23-linux/mummer /vol/codine-tmp/juene/tmp.uvnCGm3RfP/quast/contigs_reports/nucmer_output/ABYSS_PE_MIS_PE_mtbh37-1_mis_2x250bp_nextera_default__mtbh37-2_mis_2x250bp_nextera_default.0.175percent_56.final_broken.ntref 8.39
4: FINISHING DATA
