All statistics are based on contigs of size >= 200 bp, unless otherwise noted (e.g., "# contigs (>= 0 bp)" and "Total length (>= 0 bp)" include all contigs).

Assembly                                                                      #Mis_misassemblies  #Mis_relocations  #Mis_translocations  #Mis_inversions  #Mis_misassembled contigs  Mis_Misassembled contigs length  #Mis_local misassemblies  #mismatches  #indels  #Mis_short indels (<= 5 bp)  #Mis_long indels (> 5 bp)  Indels length
NEWBLER_PGM_sakai_pgm_mu_200bp_IO_TS3.0Disabled_stringent.21coverage.contigs  3                   3                 0                    0                3                          254962                           7                         131          1502     1501                         1                          1574         
