All statistics are based on contigs of size >= 200 bp, unless otherwise noted (e.g., "# contigs (>= 0 bp)" and "Total length (>= 0 bp)" include all contigs).

Assembly                                                           #Contigs (>= 0 bp)  #Contigs (>= 1000 bp)  Total length (>= 0 bp)  Total length (>= 1000 bp)  #Contigs  Largest contig  Total length  Reference length  GC (%)  Reference GC (%)  N50     NG50    N75    NG75   #misassemblies  #local misassemblies  #unaligned contigs  Unaligned contigs length  Genome fraction (%)  Duplication ratio  #N's per 100 kbp  #mismatches per 100 kbp  #indels per 100 kbp  #genes           #predicted genes (unique)  #predicted genes (>= 0 bp)  #predicted genes (>= 300 bp)  #predicted genes (>= 1500 bp)  #predicted genes (>= 3000 bp)  Largest alignment  NA50    NGA50   NA75   NGA75
NEWBLER_PGM_sakai_pgm_mu_318_400bp_IO_TS3.4_ms.0.6percent.contigs  651                 143                    5401618                 5278295                    305       315501          5352509       5594470           50.29   50.48             110891  105968  56735  49580  6               6                     0 + 2 part          83                        94.088               1.001              0.00              1.86                     3.38                 4969 + 155 part  5330                       5333                        4473                          662                            66                             313764             110891  105968  56735  49580
