Assembly	#Contigs	#Contigs (>= 0 bp)	#Contigs (>= 1000 bp)	Largest contig	Total length	Total length (>= 0 bp)	Total length (>= 1000 bp)	Reference length	N50	NG50	N75	NG75	L50	LG50	L75	LG75	#local misassemblies	#misassemblies	#misassembled contigs	Misassembled contigs length	Misassemblies inter-contig overlap	#unaligned contigs	Unaligned contigs length	#ambiguously mapped contigs	Extra bases in ambiguously mapped contigs	#N's	#N's per 100 kbp	Genome fraction (%)	Duplication ratio	#genes	#predicted genes (unique)	#predicted genes (>= 0 bp)	#predicted genes (>= 300 bp)	#predicted genes (>= 1500 bp)	#predicted genes (>= 3000 bp)	#mismatches	#indels	Indels length	#mismatches per 100 kbp	#indels per 100 kbp	GC (%)	Reference GC (%)	Average %IDY	Largest alignment	NA50	NGA50	NA75	NGA75	LA50	LGA50	LA75	LGA75	#Mis_misassemblies	#Mis_relocations	#Mis_translocations	#Mis_inversions	#Mis_misassembled contigs	Mis_Misassembled contigs length	#Mis_local misassemblies	#Mis_short indels (<= 5 bp)	#Mis_long indels (> 5 bp)	#Una_fully unaligned contigs	Una_Fully unaligned length	#Una_partially unaligned contigs	#Una_with misassembly	#Una_both parts are significant	Una_Partially unaligned length	GAGE_Contigs #	GAGE_Min contig	GAGE_Max contig	GAGE_N50	GAGE_Genome size	GAGE_Assembly size	GAGE_Chaff bases	GAGE_Missing reference bases	GAGE_Missing assembly bases	GAGE_Missing assembly contigs	GAGE_Duplicated reference bases	GAGE_Compressed reference bases	GAGE_Bad trim	GAGE_Avg idy	GAGE_SNPs	GAGE_Indels < 5bp	GAGE_Indels >= 5	GAGE_Inversions	GAGE_Relocation	GAGE_Translocation	GAGE_Corrected contig #	GAGE_Corrected assembly size	GAGE_Min correct contig	GAGE_Max correct contig	GAGE_Corrected N50
ABYSS_PE_MIS_PE_mrsa_mis-1_bi_2x150bp_default__mrsa_mis-2_bi_2x150bp_default.0.800percent_88.final_broken	49	127	37	545668	2795936	2806808	2791701	2813862	225802	225802	145098	145098	4	4	8	8	3	3	3	636972	1707	0 + 0 part	0	5	-4444	3	0.11	98.961	1.003	2695 + 16 part	2620	2630	2291	302	30	108	16	38	3.88	0.57	32.69	32.81	98.545	545668	180429	180429	138572	88798	5	5	9	10	3	3	0	0	3	636972	3	14	2	0	0	0	0	0	0	49	214	545668	225802 COUNT: 4	2813862	2795936	0	1108(0.04%)	2(0.00%)	0(0.00%)	1059	28680	0	99.99	51	10	5	1	2	0	54	2796294	214	545667	163085 COUNT: 5
ABYSS_PE_MIS_PE_mrsa_mis-1_bi_2x150bp_default__mrsa_mis-2_bi_2x150bp_default.0.800percent_88.final	37	115	32	771520	2796509	2807381	2794724	2813862	386797	386797	145098	145098	3	3	6	6	8	7	5	970398	1718	0 + 0 part	0	2	-625	576	20.60	99.076	1.003	2697 + 15 part	2615	2625	2291	302	30	121	74	153	4.34	2.65	32.69	32.81	98.529	771520	180429	180429	138572	138572	4	4	8	8	7	7	0	0	5	970398	8	70	4	0	0	0	0	0	0	37	214	771520	386797 COUNT: 3	2813862	2796509	0	1329(0.05%)	854(0.03%)	0(0.00%)	1007	28419	429	99.99	51	13	9	3	4	0	52	2796064	214	771516	163085 COUNT: 4
