All statistics are based on contigs of size >= 200 bp, unless otherwise noted (e.g., "# contigs (>= 0 bp)" and "Total length (>= 0 bp)" include all contigs).

Assembly                                                                     #Contigs (>= 0 bp)  #Contigs (>= 1000 bp)  Total length (>= 0 bp)  Total length (>= 1000 bp)  #Contigs  Largest contig  Total length  Reference length  GC (%)  Reference GC (%)  N50  NG50  N75  NG75  #misassemblies  #local misassemblies  #unaligned contigs  Unaligned contigs length  Genome fraction (%)  Duplication ratio  #N's per 100 kbp  #mismatches per 100 kbp  #indels per 100 kbp  #genes         #predicted genes (unique)  #predicted genes (>= 0 bp)  #predicted genes (>= 300 bp)  #predicted genes (>= 1500 bp)  #predicted genes (>= 3000 bp)  Largest alignment  NA50  NGA50  NA75  NGA75
NEWBLER_PGM_sakai_pgm_mu_200bp_IO_TS3.0Disabled_stringent.1coverage.contigs  385                 13                     165992                  21132                      348       3192            160453        5594470           52.09   50.48             446  None  359  None  18              1                     1 + 4 part          669                       2.302                1.005              0.00              243.00                   145.95               25 + 294 part  436                        436                         186                           0                              0                              3192               372   None   236   None 
