Assembly	ABYSS_PE_PGM_mrsa_pgm_200bp_es_316_IonOnev2_ts3.0_morestringent.0.950percent_112.final
#Contigs (>= 0 bp)	3129
#Contigs (>= 1000 bp)	254
Total length (>= 0 bp)	3225400
Total length (>= 1000 bp)	2721268
#Contigs	1400
Largest contig	76368
Total length	2992421
Reference length	2813862
GC (%)	32.63
Reference GC (%)	32.81
N50	16578
NG50	18558
N75	7614
NG75	9427
#misassemblies	15
#local misassemblies	3
#unaligned contigs	0 + 15 part
Unaligned contigs length	679
Genome fraction (%)	98.403
Duplication ratio	1.072
#N's per 100 kbp	0.00
#mismatches per 100 kbp	1.34
#indels per 100 kbp	11.67
#genes	2498 + 201 part
#predicted genes (unique)	3876
#predicted genes (>= 0 bp)	3904
#predicted genes (>= 300 bp)	2364
#predicted genes (>= 1500 bp)	267
#predicted genes (>= 3000 bp)	22
Largest alignment	76368
NA50	16578
NGA50	18558
NA75	7614
NGA75	9358
