All statistics are based on contigs of size >= 200 bp, unless otherwise noted (e.g., "# contigs (>= 0 bp)" and "Total length (>= 0 bp)" include all contigs).

Assembly                                                                                                         GAGE_Contigs #  GAGE_Min contig  GAGE_Max contig  GAGE_N50         GAGE_Genome size  GAGE_Assembly size  GAGE_Chaff bases  GAGE_Missing reference bases  GAGE_Missing assembly bases  GAGE_Missing assembly contigs  GAGE_Duplicated reference bases  GAGE_Compressed reference bases  GAGE_Bad trim  GAGE_Avg idy  GAGE_SNPs  GAGE_Indels < 5bp  GAGE_Indels >= 5  GAGE_Inversions  GAGE_Relocation  GAGE_Translocation  GAGE_Corrected contig #  GAGE_Corrected assembly size  GAGE_Min correct contig  GAGE_Max correct contig  GAGE_Corrected N50
VELVET_MIS_PE_mrsa_mis-1_bi_2x250bp_default__mrsa_mis-2_bi_2x250bp_default.0.460percent_83.final.contigs_broken  94              203              223381           95864 COUNT: 10  2813862           2785849             0                 2926(0.10%)                   5478(0.20%)                  1(1.06%)                       836                              37793                            10             99.99         38         13                 5                 2                2                0                   99                       2780980                       204                      202678                   75692 COUNT: 11   
VELVET_MIS_PE_mrsa_mis-1_bi_2x250bp_default__mrsa_mis-2_bi_2x250bp_default.0.460percent_83.final.contigs         74              203              539284           123732 COUNT: 6  2813862           2786487             0                 2682(0.10%)                   6069(0.22%)                  1(1.35%)                       1049                             37691                            10             99.99         38         19                 12                3                6                0                   96                       2781148                       204                      255906                   75692 COUNT: 10   
