Assembly	VELVET_MIS_PE_mrsa_mis-1_bi_2x250bp_default__mrsa_mis-2_bi_2x250bp_default.0.460percent_83.final.contigs_broken	VELVET_MIS_PE_mrsa_mis-1_bi_2x250bp_default__mrsa_mis-2_bi_2x250bp_default.0.460percent_83.final.contigs
#Contigs (>= 0 bp)	108	88
#Contigs (>= 1000 bp)	68	50
Total length (>= 0 bp)	2788331	2788969
Total length (>= 1000 bp)	2776436	2778145
#Contigs	94	74
Largest contig	223381	539284
Total length	2785849	2786487
Reference length	2813862	2813862
GC (%)	32.69	32.69
Reference GC (%)	32.81	32.81
N50	95864	123732
NG50	95864	123732
N75	44348	48758
NG75	43228	48758
#misassemblies	3	4
#local misassemblies	5	16
#unaligned contigs	1 + 0 part	1 + 0 part
Unaligned contigs length	5468	5468
Genome fraction (%)	98.443	98.481
Duplication ratio	1.001	1.001
#N's per 100 kbp	0.00	22.90
#mismatches per 100 kbp	1.91	3.46
#indels per 100 kbp	2.67	5.49
#genes	2664 + 40 part	2668 + 36 part
#predicted genes (unique)	2658	2650
#predicted genes (>= 0 bp)	2659	2651
#predicted genes (>= 300 bp)	2294	2292
#predicted genes (>= 1500 bp)	297	298
#predicted genes (>= 3000 bp)	29	30
Largest alignment	223381	539142
NA50	95864	123732
NGA50	95864	116312
NA75	43228	48758
NGA75	43228	48758
