All statistics are based on contigs of size >= 200 bp, unless otherwise noted (e.g., "# contigs (>= 0 bp)" and "Total length (>= 0 bp)" include all contigs).

Assembly                                                                       #Mis_misassemblies  #Mis_relocations  #Mis_translocations  #Mis_inversions  #Mis_misassembled contigs  Mis_Misassembled contigs length  #Mis_local misassemblies  #mismatches  #indels  #Mis_short indels (<= 5 bp)  #Mis_long indels (> 5 bp)  Indels length
SOAP2_MIS_PE_mrsa_mis-1_bi_2x150bp_default.0.527percent_123.final.scaf_broken  3                   3                 0                    0                3                          10227                            9                         45           253      104                          149                        2858         
SOAP2_MIS_PE_mrsa_mis-1_bi_2x150bp_default.0.527percent_123.final.scaf         4                   4                 0                    0                4                          34944                            96                        45           7420     6901                         519                        17152        
