Assembly	ABYSS_PE_PGM_mrsa_pgm_200bp_es_316_IonOnev2_ts3.0_morestringent.0.230percent_102-unitigs
#Contigs	1374
#Contigs (>= 0 bp)	2311
#Contigs (>= 1000 bp)	734
Largest contig	19885
Total length	2806018
Total length (>= 0 bp)	2933414
Total length (>= 1000 bp)	2553781
Reference length	2813862
N50	3995
NG50	3994
N75	2208
NG75	2195
L50	210
LG50	211
L75	444
LG75	446
#local misassemblies	1
#misassemblies	39
#misassembled contigs	39
Misassembled contigs length	71694
Misassemblies inter-contig overlap	422
#unaligned contigs	1 + 4 part
Unaligned contigs length	339
#ambiguously mapped contigs	55
Extra bases in ambiguously mapped contigs	-14559
#N's	0
#N's per 100 kbp	0.00
Genome fraction (%)	97.151
Duplication ratio	1.021
#genes	2074 + 605 part
#predicted genes (unique)	3578
#predicted genes (>= 0 bp)	3581
#predicted genes (>= 300 bp)	2555
#predicted genes (>= 1500 bp)	221
#predicted genes (>= 3000 bp)	16
#mismatches	56
#indels	621
Indels length	630
#mismatches per 100 kbp	2.05
#indels per 100 kbp	22.72
GC (%)	32.66
Reference GC (%)	32.81
Average %IDY	99.511
Largest alignment	19885
NA50	3995
NGA50	3994
NA75	2208
NGA75	2183
LA50	210
LGA50	211
LA75	444
LGA75	447
#Mis_misassemblies	39
#Mis_relocations	21
#Mis_translocations	1
#Mis_inversions	17
#Mis_misassembled contigs	39
Mis_Misassembled contigs length	71694
#Mis_local misassemblies	1
#Mis_short indels (<= 5 bp)	621
#Mis_long indels (> 5 bp)	0
#Una_fully unaligned contigs	1
Una_Fully unaligned length	200
#Una_partially unaligned contigs	4
#Una_with misassembly	0
#Una_both parts are significant	0
Una_Partially unaligned length	139
GAGE_Contigs #	1374
GAGE_Min contig	200
GAGE_Max contig	19885
GAGE_N50	3994 COUNT: 211
GAGE_Genome size	2813862
GAGE_Assembly size	2806018
GAGE_Chaff bases	0
GAGE_Missing reference bases	39112(1.39%)
GAGE_Missing assembly bases	213(0.01%)
GAGE_Missing assembly contigs	0(0.00%)
GAGE_Duplicated reference bases	38682
GAGE_Compressed reference bases	42296
GAGE_Bad trim	213
GAGE_Avg idy	99.97
GAGE_SNPs	47
GAGE_Indels < 5bp	638
GAGE_Indels >= 5	1
GAGE_Inversions	1
GAGE_Relocation	1
GAGE_Translocation	1
GAGE_Corrected contig #	1191
GAGE_Corrected assembly size	2765536
GAGE_Min correct contig	200
GAGE_Max correct contig	19885
GAGE_Corrected N50	3994 COUNT: 211
