Assembly	NEWBLER_MIS_PE_sakai_mis-1_bi_2x250bp_SI_default__sakai_mis-2_bi_2x250bp_SI_default.41coverage.contigs
#Contigs	338
#Contigs (>= 0 bp)	401
#Contigs (>= 1000 bp)	162
Largest contig	259768
Total length	5326715
Total length (>= 0 bp)	5335810
Total length (>= 1000 bp)	5250496
Reference length	5594470
N50	99583
NG50	95700
N75	46457
NG75	40988
L50	16
LG50	17
L75	33
LG75	38
#local misassemblies	3
#misassemblies	4
#misassembled contigs	4
Misassembled contigs length	236393
Misassemblies inter-contig overlap	1262
#unaligned contigs	3 + 0 part
Unaligned contigs length	5893
#ambiguously mapped contigs	107
Extra bases in ambiguously mapped contigs	-86917
#N's	0
#N's per 100 kbp	0.00
Genome fraction (%)	93.557
Duplication ratio	1.000
#genes	4914 + 173 part
#predicted genes (unique)	5272
#predicted genes (>= 0 bp)	5273
#predicted genes (>= 300 bp)	4418
#predicted genes (>= 1500 bp)	664
#predicted genes (>= 3000 bp)	68
#mismatches	119
#indels	17
Indels length	33
#mismatches per 100 kbp	2.27
#indels per 100 kbp	0.32
GC (%)	50.28
Reference GC (%)	50.48
Average %IDY	98.996
Largest alignment	259768
NA50	99583
NGA50	95700
NA75	46457
NGA75	40868
LA50	16
LGA50	17
LA75	33
LGA75	38
#Mis_misassemblies	4
#Mis_relocations	4
#Mis_translocations	0
#Mis_inversions	0
#Mis_misassembled contigs	4
Mis_Misassembled contigs length	236393
#Mis_local misassemblies	3
#Mis_short indels (<= 5 bp)	15
#Mis_long indels (> 5 bp)	2
#Una_fully unaligned contigs	3
Una_Fully unaligned length	5893
#Una_partially unaligned contigs	0
#Una_with misassembly	0
#Una_both parts are significant	0
Una_Partially unaligned length	0
GAGE_Contigs #	338
GAGE_Min contig	200
GAGE_Max contig	259768
GAGE_N50	95700 COUNT: 17
GAGE_Genome size	5594470
GAGE_Assembly size	5326715
GAGE_Chaff bases	0
GAGE_Missing reference bases	46183(0.83%)
GAGE_Missing assembly bases	5912(0.11%)
GAGE_Missing assembly contigs	3(0.89%)
GAGE_Duplicated reference bases	1367
GAGE_Compressed reference bases	238497
GAGE_Bad trim	19
GAGE_Avg idy	99.99
GAGE_SNPs	178
GAGE_Indels < 5bp	12
GAGE_Indels >= 5	3
GAGE_Inversions	0
GAGE_Relocation	5
GAGE_Translocation	0
GAGE_Corrected contig #	339
GAGE_Corrected assembly size	5321251
GAGE_Min correct contig	200
GAGE_Max correct contig	259768
GAGE_Corrected N50	95700 COUNT: 17
