All statistics are based on contigs of size >= 200 bp, unless otherwise noted (e.g., "# contigs (>= 0 bp)" and "Total length (>= 0 bp)" include all contigs).

Assembly                         ABYSS_PE_MIS_PE_mtbh37-1_mis_2x250bp_nextera_default__mtbh37-2_mis_2x250bp_nextera_default.0.450percent_72.final_broken  ABYSS_PE_MIS_PE_mtbh37-1_mis_2x250bp_nextera_default__mtbh37-2_mis_2x250bp_nextera_default.0.450percent_72.final
#Mis_misassemblies               5                                                                                                                        6                                                                                                               
#Mis_relocations                 5                                                                                                                        6                                                                                                               
#Mis_translocations              0                                                                                                                        0                                                                                                               
#Mis_inversions                  0                                                                                                                        0                                                                                                               
#Mis_misassembled contigs        5                                                                                                                        6                                                                                                               
Mis_Misassembled contigs length  85553                                                                                                                    126696                                                                                                          
#Mis_local misassemblies         14                                                                                                                       25                                                                                                              
#mismatches                      209                                                                                                                      331                                                                                                             
#indels                          76                                                                                                                       446                                                                                                             
#Mis_short indels (<= 5 bp)      59                                                                                                                       415                                                                                                             
#Mis_long indels (> 5 bp)        17                                                                                                                       31                                                                                                              
Indels length                    433                                                                                                                      1037                                                                                                            
