All statistics are based on contigs of size >= 200 bp, unless otherwise noted (e.g., "# contigs (>= 0 bp)" and "Total length (>= 0 bp)" include all contigs).

Assembly                         VELVET_MIS_PE_mrsa_mis-1_bi_2x250bp_default__mrsa_mis-2_bi_2x250bp_default.0.460percent_153.final.contigs_broken  VELVET_MIS_PE_mrsa_mis-1_bi_2x250bp_default__mrsa_mis-2_bi_2x250bp_default.0.460percent_153.final.contigs
#Mis_misassemblies               2                                                                                                                 3                                                                                                        
#Mis_relocations                 2                                                                                                                 3                                                                                                        
#Mis_translocations              0                                                                                                                 0                                                                                                        
#Mis_inversions                  0                                                                                                                 0                                                                                                        
#Mis_misassembled contigs        2                                                                                                                 3                                                                                                        
Mis_Misassembled contigs length  73644                                                                                                             135706                                                                                                   
#Mis_local misassemblies         0                                                                                                                 1                                                                                                        
#mismatches                      40                                                                                                                40                                                                                                       
#indels                          9                                                                                                                 159                                                                                                      
#Mis_short indels (<= 5 bp)      9                                                                                                                 156                                                                                                      
#Mis_long indels (> 5 bp)        0                                                                                                                 3                                                                                                        
Indels length                    9                                                                                                                 249                                                                                                      
