calling: java -cp /vol/ngscomparison/software/analysis/quast-2.1/libs/gage:. SizeFasta /vol/codine-tmp/juene/tmp.0CcgFxanjq/quast/corrected_input/Ecoli_Sakai_editedNew_plasmids.fasta |awk '{SUM+=; print SUM}'|tail -n 1
Contig Stats
Total units: 7763
Reference: 5594470
BasesInFasta: 3143583
Min: 200
Max: 8197
N10: 938 COUNT: 356
N25: 455 COUNT: 1730
N50: 233 COUNT: 6160
N75: 0 COUNT: 0
E-size:400.72

Genome Size: 5594470
Assembly Size: 3143583
Chaff bases: 0
Missing Reference Bases: 2649480(47.36%)
Missing Assembly Bases: 168104(5.35%)
Missing Assembly Contigs: 76(0.98%)
Duplicated Reference Bases: 410
Compressed Reference Bases: 3718
Bad Trim: 32460
Avg Idy: 99.98
SNPs: 189
Indels < 5bp: 68
Indels >= 5: 1488
Inversions: 0
Relocation: 4
Translocation: 0

Corrected Contig Stats
calling: java -cp /vol/ngscomparison/software/analysis/quast-2.1/libs/gage:.:. GetFastaStats -o -min 199 -genomeSize 5594470 /vol/codine-tmp/juene/tmp.0CcgFxanjq/quast/gage/tmp/SOAP2_MIS_PE_sakai_mis-1_bi_2x150bp_default.0.826percent_25.final.scaf.matches.lens 2> /dev/null
Total units: 8034
Reference: 5594470
BasesInFasta: 2806353
Min: 200
Max: 3089
N10: 570 COUNT: 711
N25: 356 COUNT: 2641
N50: 200 COUNT: 7989
N75: 0 COUNT: 0
E-size:221.45

Done
