Assembly	CLC_MIS_PE_mtbh37-1_mis_2x250bp_nextera_default__mtbh37-2_mis_2x250bp_nextera_default.0.900percent.result_broken	CLC_MIS_PE_mtbh37-1_mis_2x250bp_nextera_default__mtbh37-2_mis_2x250bp_nextera_default.0.900percent.result
#Mis_misassemblies	0	1
#Mis_relocations	0	1
#Mis_translocations	0	0
#Mis_inversions	0	0
#Mis_misassembled contigs	0	1
Mis_Misassembled contigs length	0	17297
#Mis_local misassemblies	9	32
#mismatches	335	335
#indels	114	171
#Mis_short indels (<= 5 bp)	103	151
#Mis_long indels (> 5 bp)	11	20
Indels length	341	582
