Assembly	CLC_MIS_PE_mtbh37-1_mis_2x250bp_nextera_default__mtbh37-2_mis_2x250bp_nextera_default.0.900percent.result_broken	CLC_MIS_PE_mtbh37-1_mis_2x250bp_nextera_default__mtbh37-2_mis_2x250bp_nextera_default.0.900percent.result
#Una_fully unaligned contigs	127	276
Una_Fully unaligned length	35553	76614
#Una_partially unaligned contigs	45	74
#Una_with misassembly	0	0
#Una_both parts are significant	1	5
Una_Partially unaligned length	4322	10634
#N's	427	18334
