All statistics are based on contigs of size >= 200 bp, unless otherwise noted (e.g., "# contigs (>= 0 bp)" and "Total length (>= 0 bp)" include all contigs).

Assembly                         CLC_MIS_PE_mrsa_mis-1_bi_2x250bp_default__mrsa_mis-2_bi_2x250bp_default.21coverage.result_broken  CLC_MIS_PE_mrsa_mis-1_bi_2x250bp_default__mrsa_mis-2_bi_2x250bp_default.21coverage.result
#Mis_misassemblies               6                                                                                                 6                                                                                        
#Mis_relocations                 6                                                                                                 6                                                                                        
#Mis_translocations              0                                                                                                 0                                                                                        
#Mis_inversions                  0                                                                                                 0                                                                                        
#Mis_misassembled contigs        5                                                                                                 5                                                                                        
Mis_Misassembled contigs length  152021                                                                                            152021                                                                                   
#Mis_local misassemblies         8                                                                                                 16                                                                                       
#mismatches                      224                                                                                               226                                                                                      
#indels                          33                                                                                                35                                                                                       
#Mis_short indels (<= 5 bp)      25                                                                                                25                                                                                       
#Mis_long indels (> 5 bp)        8                                                                                                 10                                                                                       
Indels length                    397                                                                                               439                                                                                      
