All statistics are based on contigs of size >= 200 bp, unless otherwise noted (e.g., "# contigs (>= 0 bp)" and "Total length (>= 0 bp)" include all contigs).

Assembly                                                                                                          #Mis_misassemblies  #Mis_relocations  #Mis_translocations  #Mis_inversions  #Mis_misassembled contigs  Mis_Misassembled contigs length  #Mis_local misassemblies  #mismatches  #indels  #Mis_short indels (<= 5 bp)  #Mis_long indels (> 5 bp)  Indels length
VELVET_MIS_PE_mrsa_mis-1_bi_2x250bp_default__mrsa_mis-2_bi_2x250bp_default.0.460percent_115.final.contigs_broken  2                   2                 0                    0                2                          148826                           1                         35           9        9                            0                          9            
VELVET_MIS_PE_mrsa_mis-1_bi_2x250bp_default__mrsa_mis-2_bi_2x250bp_default.0.460percent_115.final.contigs         4                   4                 0                    0                4                          207373                           10                        39           14       13                           1                          36           
