Assembly	SOAP2_MIS_PE_mrsa_mis-1_bi_2x250bp_default.0.460percent_21.final.scaf_broken	SOAP2_MIS_PE_mrsa_mis-1_bi_2x250bp_default.0.460percent_21.final.scaf
#Una_fully unaligned contigs	1318	1536
Una_Fully unaligned length	386635	631964
#Una_partially unaligned contigs	33	218
#Una_with misassembly	0	0
#Una_both parts are significant	5	120
Una_Partially unaligned length	5198	161885
#N's	1841	94187
