Assembly	NEWBLER_MIS_PE_mrsa_mis-1_bi_2x150bp_default__mrsa_mis-2_bi_2x150bp_default.51coverage.contigs
#Mis_misassemblies	2
#Mis_relocations	2
#Mis_translocations	0
#Mis_inversions	0
#Mis_misassembled contigs	2
Mis_Misassembled contigs length	148651
#Mis_local misassemblies	5
#mismatches	68
#indels	10
#Mis_short indels (<= 5 bp)	10
#Mis_long indels (> 5 bp)	0
Indels length	12
