Assembly	NEWBLER_MIS_PE_mrsa_mis-1_bi_2x150bp_default__mrsa_mis-2_bi_2x150bp_default.51coverage.contigs
#Una_fully unaligned contigs	1
Una_Fully unaligned length	5386
#Una_partially unaligned contigs	0
#Una_with misassembly	0
#Una_both parts are significant	0
Una_Partially unaligned length	0
#N's	0
