All statistics are based on contigs of size >= 200 bp, unless otherwise noted (e.g., "# contigs (>= 0 bp)" and "Total length (>= 0 bp)" include all contigs).

Assembly                                                                                                       #Contigs (>= 0 bp)  #Contigs (>= 1000 bp)  Total length (>= 0 bp)  Total length (>= 1000 bp)  #Contigs  Largest contig  Total length  Reference length  GC (%)  Reference GC (%)  N50     NG50    N75    NG75   #misassemblies  #local misassemblies  #unaligned contigs  Unaligned contigs length  Genome fraction (%)  Duplication ratio  #N's per 100 kbp  #mismatches per 100 kbp  #indels per 100 kbp  #genes          #predicted genes (unique)  #predicted genes (>= 0 bp)  #predicted genes (>= 300 bp)  #predicted genes (>= 1500 bp)  #predicted genes (>= 3000 bp)  Largest alignment  NA50    NGA50   NA75   NGA75
ABYSS_PE_MIS_PE_mrsa_mis-1_bi_2x150bp_default__mrsa_mis-2_bi_2x150bp_default.0.527percent_94-scaffolds_broken  124                 52                     2806758                 2792620                    64        239315          2798023       2813862           32.71   32.81             110650  110650  65397  65092  2               2                     0 + 0 part          0                         98.977               1.002              0.29              2.05                     0.50                 2686 + 24 part  2632                       2641                        2289                          301                            30                             239315             110650  110650  65092  61505
ABYSS_PE_MIS_PE_mrsa_mis-1_bi_2x150bp_default__mrsa_mis-2_bi_2x150bp_default.0.527percent_94-scaffolds         108                 42                     2807679                 2796245                    48        371094          2798944       2813862           32.71   32.81             163280  163280  80384  69770  4               13                    0 + 0 part          0                         99.010               1.003              33.19             2.12                     0.57                 2688 + 24 part  2629                       2637                        2289                          301                            30                             371044             162458  162458  69770  69770
