Assembly	ABYSS_PE_MIS_PE_mtbh37-1_mis_2x250bp_nextera_default__mtbh37-2_mis_2x250bp_nextera_default.0.200percent_58.final_broken	ABYSS_PE_MIS_PE_mtbh37-1_mis_2x250bp_nextera_default__mtbh37-2_mis_2x250bp_nextera_default.0.200percent_58.final
#Mis_misassemblies	0	0
#Mis_relocations	0	0
#Mis_translocations	0	0
#Mis_inversions	0	0
#Mis_misassembled contigs	0	0
Mis_Misassembled contigs length	0	0
#Mis_local misassemblies	3	4
#mismatches	204	204
#indels	31	122
#Mis_short indels (<= 5 bp)	25	110
#Mis_long indels (> 5 bp)	6	12
Indels length	202	404
