Assembly	SOAP2_PGM_mrsa_pgm_200bp_es_316_IonOnev2_ts3.0_morestringent.0.230percent_29.final.contig
#Una_fully unaligned contigs	44
Una_Fully unaligned length	9527
#Una_partially unaligned contigs	2
#Una_with misassembly	0
#Una_both parts are significant	0
Una_Partially unaligned length	102
#N's	0
