calling: java -cp /vol/ngscomparison/software/analysis/quast-2.1/libs/gage:. SizeFasta /vol/codine-tmp/juene/tmp.DnujhvC3YH/quast/corrected_input/Ecoli_Sakai_editedNew_plasmids.fasta |awk '{SUM+=; print SUM}'|tail -n 1
Contig Stats
Total units: 404
Reference: 5594470
BasesInFasta: 5389771
Min: 200
Max: 321759
N10: 215807 COUNT: 3
N25: 126224 COUNT: 8
N50: 87053 COUNT: 21
N75: 35355 COUNT: 46
E-size:99825.25

Genome Size: 5594470
Assembly Size: 5389771
Chaff bases: 0
Missing Reference Bases: 24619(0.44%)
Missing Assembly Bases: 18310(0.34%)
Missing Assembly Contigs: 1(0.25%)
Duplicated Reference Bases: 11116
Compressed Reference Bases: 256732
Bad Trim: 75
Avg Idy: 99.98
SNPs: 274
Indels < 5bp: 72
Indels >= 5: 147
Inversions: 6
Relocation: 16
Translocation: 0

Corrected Contig Stats
calling: java -cp /vol/ngscomparison/software/analysis/quast-2.1/libs/gage:.:. GetFastaStats -o -min 199 -genomeSize 5594470 /vol/codine-tmp/juene/tmp.DnujhvC3YH/quast/gage/tmp/VELVET_MIS_PE_sakai_mis-both_bi_2x250bp_SI_default.0.64percent_71.final.contigs.matches.lens 2> /dev/null
Total units: 546
Reference: 5594470
BasesInFasta: 5363892
Min: 200
Max: 106653
N10: 80087 COUNT: 6
N25: 46546 COUNT: 21
N50: 29584 COUNT: 59
N75: 15408 COUNT: 123
E-size:34861.18

Done
