1: PREPARING DATA
2,3: RUNNING mummer AND CREATING CLUSTERS
# reading input file "/vol/codine-tmp/juene/tmp.si91B3M1xj/quast/gage/tmp/NEWBLER_PGM_sakai_pgm_mu_318_400bp_IO_TS3.4_ms.0.99percent.contigs.ntref" of length 5594473
# construct suffix tree for sequence of length 5594473
# (maximum reference length is 536870908)
# (maximum query length is 4294967295)
# process 55944 characters per dot
#....................................................................................................
# CONSTRUCTIONTIME /vol/ngscomparison/software/analysis/quast-2.1/libs/MUMmer3.23-linux/mummer /vol/codine-tmp/juene/tmp.si91B3M1xj/quast/gage/tmp/NEWBLER_PGM_sakai_pgm_mu_318_400bp_IO_TS3.4_ms.0.99percent.contigs.ntref 2.72
# reading input file "/vol/codine-tmp/juene/tmp.si91B3M1xj/quast/corrected_input/NEWBLER_PGM_sakai_pgm_mu_318_400bp_IO_TS3.4_ms.0.99percent.contigs" of length 5354600
# matching query-file "/vol/codine-tmp/juene/tmp.si91B3M1xj/quast/corrected_input/NEWBLER_PGM_sakai_pgm_mu_318_400bp_IO_TS3.4_ms.0.99percent.contigs"
# against subject-file "/vol/codine-tmp/juene/tmp.si91B3M1xj/quast/gage/tmp/NEWBLER_PGM_sakai_pgm_mu_318_400bp_IO_TS3.4_ms.0.99percent.contigs.ntref"
# COMPLETETIME /vol/ngscomparison/software/analysis/quast-2.1/libs/MUMmer3.23-linux/mummer /vol/codine-tmp/juene/tmp.si91B3M1xj/quast/gage/tmp/NEWBLER_PGM_sakai_pgm_mu_318_400bp_IO_TS3.4_ms.0.99percent.contigs.ntref 8.36
# SPACE /vol/ngscomparison/software/analysis/quast-2.1/libs/MUMmer3.23-linux/mummer /vol/codine-tmp/juene/tmp.si91B3M1xj/quast/gage/tmp/NEWBLER_PGM_sakai_pgm_mu_318_400bp_IO_TS3.4_ms.0.99percent.contigs.ntref 10.63
4: FINISHING DATA
Filtering alignments
Extracting alignment coordinates
Analyzing SNPs
Extracting alignment breakpoints
Generating report file
Found genome size at position 4 with value 5594470 aka 5594470
Calculating point at 0 and the sum is 1118996 and i is293 and lens is 299 and length is 156168
Calculating point at 1 and the sum is 2106918 and i is286 and lens is 299 and length is 127384
Calculating point at 2 and the sum is 3060713 and i is277 and lens is 299 and length is 94446
Calculating point at 3 and the sum is 4011065 and i is262 and lens is 299 and length is 49549
Calculating point at 4 and the sum is 5009989 and i is225 and lens is 299 and length is 11424
