calling: java -cp /vol/ngscomparison/software/analysis/quast-2.1/libs/gage:. SizeFasta /vol/codine-tmp/juene/tmp.rGLuBm2SO0/quast/corrected_input/Ecoli_Sakai_editedNew_plasmids.fasta |awk '{SUM+=; print SUM}'|tail -n 1
Contig Stats
Total units: 255
Reference: 5594470
BasesInFasta: 5361533
Min: 200
Max: 374724
N10: 313894 COUNT: 2
N25: 241704 COUNT: 5
N50: 148157 COUNT: 13
N75: 75268 COUNT: 26
E-size:154610.28

Genome Size: 5594470
Assembly Size: 5361533
Chaff bases: 0
Missing Reference Bases: 23826(0.43%)
Missing Assembly Bases: 8440(0.16%)
Missing Assembly Contigs: 1(0.39%)
Duplicated Reference Bases: 7719
Compressed Reference Bases: 254075
Bad Trim: 273
Avg Idy: 99.99
SNPs: 113
Indels < 5bp: 17
Indels >= 5: 19
Inversions: 0
Relocation: 5
Translocation: 0

Corrected Contig Stats
calling: java -cp /vol/ngscomparison/software/analysis/quast-2.1/libs/gage:.:. GetFastaStats -o -min 199 -genomeSize 5594470 /vol/codine-tmp/juene/tmp.rGLuBm2SO0/quast/gage/tmp/CLC_MIS_PE_sakai_mis-2_bi_2x150bp_default__sakai_mis-1_bi_2x150bp_default.0.650percent.result.matches.lens 2> /dev/null
Total units: 266
Reference: 5594470
BasesInFasta: 5344163
Min: 201
Max: 313894
N10: 220127 COUNT: 3
N25: 183527 COUNT: 7
N50: 141984 COUNT: 16
N75: 45027 COUNT: 33
E-size:124804

Done
