calling: java -cp /vol/ngscomparison/software/analysis/quast-2.1/libs/gage:. SizeFasta /vol/codine-tmp/juene/tmp.hhiYOD6Tnn/quast/corrected_input/Ecoli_Sakai_editedNew_plasmids.fasta |awk '{SUM+=; print SUM}'|tail -n 1
Contig Stats
Total units: 11431
Reference: 5594470
BasesInFasta: 4583389
Min: 200
Max: 2249
N10: 883 COUNT: 506
N25: 607 COUNT: 1670
N50: 371 COUNT: 4654
N75: 227 COUNT: 9630
E-size:431.92

Genome Size: 5594470
Assembly Size: 4583389
Chaff bases: 0
Missing Reference Bases: 1225063(21.90%)
Missing Assembly Bases: 26111(0.57%)
Missing Assembly Contigs: 56(0.49%)
Duplicated Reference Bases: 179190
Compressed Reference Bases: 106249
Bad Trim: 12766
Avg Idy: 99.89
SNPs: 260
Indels < 5bp: 2840
Indels >= 5: 5
Inversions: 34
Relocation: 1
Translocation: 0

Corrected Contig Stats
calling: java -cp /vol/ngscomparison/software/analysis/quast-2.1/libs/gage:.:. GetFastaStats -o -min 199 -genomeSize 5594470 /vol/codine-tmp/juene/tmp.hhiYOD6Tnn/quast/gage/tmp/SOAP2_PGM_sakai_pgm_mu_200bp_IO_TS3.0Disabled_stringent.0.34percent_73.final.contig.matches.lens 2> /dev/null
Total units: 10449
Reference: 5594470
BasesInFasta: 4354987
Min: 200
Max: 2249
N10: 883 COUNT: 506
N25: 607 COUNT: 1670
N50: 371 COUNT: 4654
N75: 215 COUNT: 9681
E-size:422.42

Done
