Assembly	VELVET_PGM_mrsa_pgm_400bp_es_318_IKA_ts3.2_morestringent.0.165percent_69.final.contigs
#Contigs	12864
#Contigs (>= 0 bp)	51801
#Contigs (>= 1000 bp)	0
Largest contig	449
Total length	2950213
Total length (>= 0 bp)	9535018
Total length (>= 1000 bp)	0
Reference length	2813862
N50	224
NG50	226
N75	210
NG75	211
L50	5838
LG50	5535
L75	9249
LG75	8763
#local misassemblies	0
#misassemblies	110
#misassembled contigs	110
Misassembled contigs length	25100
Misassemblies inter-contig overlap	191
#unaligned contigs	1769 + 89 part
Unaligned contigs length	425333
#ambiguously mapped contigs	48
Extra bases in ambiguously mapped contigs	-10521
#N's	0
#N's per 100 kbp	0.00
Genome fraction (%)	58.202
Duplication ratio	1.535
#genes	77 + 2281 part
#predicted genes (unique)	9296
#predicted genes (>= 0 bp)	9304
#predicted genes (>= 300 bp)	2
#predicted genes (>= 1500 bp)	0
#predicted genes (>= 3000 bp)	0
#mismatches	2387
#indels	35450
Indels length	36517
#mismatches per 100 kbp	145.75
#indels per 100 kbp	2164.58
GC (%)	32.00
Reference GC (%)	32.81
Average %IDY	97.654
Largest alignment	448
NA50	217
NGA50	219
NA75	203
NGA75	204
LA50	6005
LGA50	5693
LA75	9528
LGA75	9025
#Mis_misassemblies	110
#Mis_relocations	101
#Mis_translocations	5
#Mis_inversions	4
#Mis_misassembled contigs	110
Mis_Misassembled contigs length	25100
#Mis_local misassemblies	0
#Mis_short indels (<= 5 bp)	35450
#Mis_long indels (> 5 bp)	0
#Una_fully unaligned contigs	1769
Una_Fully unaligned length	414587
#Una_partially unaligned contigs	89
#Una_with misassembly	0
#Una_both parts are significant	0
Una_Partially unaligned length	10746
GAGE_Contigs #	12864
GAGE_Min contig	200
GAGE_Max contig	449
GAGE_N50	226 COUNT: 5535
GAGE_Genome size	2813862
GAGE_Assembly size	2950213
GAGE_Chaff bases	0
GAGE_Missing reference bases	1034939(36.78%)
GAGE_Missing assembly bases	125955(4.27%)
GAGE_Missing assembly contigs	409(3.18%)
GAGE_Duplicated reference bases	670025
GAGE_Compressed reference bases	44557
GAGE_Bad trim	28475
GAGE_Avg idy	97.59
GAGE_SNPs	2153
GAGE_Indels < 5bp	32666
GAGE_Indels >= 5	14
GAGE_Inversions	27
GAGE_Relocation	14
GAGE_Translocation	1
GAGE_Corrected contig #	8769
GAGE_Corrected assembly size	2019748
GAGE_Min correct contig	200
GAGE_Max correct contig	427
GAGE_Corrected N50	214 COUNT: 5797
