calling: java -cp /vol/ngscomparison/software/analysis/quast-2.1/libs/gage:. SizeFasta /vol/codine-tmp/juene/tmp.CITUKc4wEn/quast/corrected_input/Ecoli_Sakai_editedNew_plasmids.fasta |awk '{SUM+=; print SUM}'|tail -n 1
Contig Stats
Total units: 2690
Reference: 5594470
BasesInFasta: 5145166
Min: 200
Max: 18106
N10: 7901 COUNT: 57
N25: 5228 COUNT: 188
N50: 3092 COUNT: 543
N75: 1414 COUNT: 1199
E-size:3716.4

Genome Size: 5594470
Assembly Size: 5145166
Chaff bases: 0
Missing Reference Bases: 334541(5.98%)
Missing Assembly Bases: 4351(0.08%)
Missing Assembly Contigs: 1(0.04%)
Duplicated Reference Bases: 421
Compressed Reference Bases: 144298
Bad Trim: 1292
Avg Idy: 99.89
SNPs: 1066
Indels < 5bp: 4150
Indels >= 5: 54
Inversions: 22
Relocation: 51
Translocation: 0

Corrected Contig Stats
calling: java -cp /vol/ngscomparison/software/analysis/quast-2.1/libs/gage:.:. GetFastaStats -o -min 199 -genomeSize 5594470 /vol/codine-tmp/juene/tmp.CITUKc4wEn/quast/gage/tmp/VELVET_PGM_sakai_pgm_mu_200bp_IO_TS3.0Disabled_stringent.0.34percent_19.final.contigs.matches.lens 2> /dev/null
Total units: 2809
Reference: 5594470
BasesInFasta: 5142314
Min: 200
Max: 16625
N10: 7271 COUNT: 63
N25: 4905 COUNT: 206
N50: 2951 COUNT: 581
N75: 1347 COUNT: 1270
E-size:3431.9

Done
