All statistics are based on contigs of size >= 200 bp, unless otherwise noted (e.g., "# contigs (>= 0 bp)" and "Total length (>= 0 bp)" include all contigs).

Assembly                         VELVET_MIS_PE_mrsa_mis-1_bi_2x150bp_default__mrsa_mis-2_bi_2x150bp_default.0.527percent_97.final.contigs_broken  VELVET_MIS_PE_mrsa_mis-1_bi_2x150bp_default__mrsa_mis-2_bi_2x150bp_default.0.527percent_97.final.contigs
GAGE_Contigs #                   100                                                                                                              52                                                                                                      
GAGE_Min contig                  201                                                                                                              201                                                                                                     
GAGE_Max contig                  200379                                                                                                           385994                                                                                                  
GAGE_N50                         64963 COUNT: 14                                                                                                  251591 COUNT: 5                                                                                         
GAGE_Genome size                 2813862                                                                                                          2813862                                                                                                 
GAGE_Assembly size               2789636                                                                                                          2791957                                                                                                 
GAGE_Chaff bases                 0                                                                                                                0                                                                                                       
GAGE_Missing reference bases     2116(0.08%)                                                                                                      2092(0.07%)                                                                                             
GAGE_Missing assembly bases      5394(0.19%)                                                                                                      7673(0.27%)                                                                                             
GAGE_Missing assembly contigs    1(1.00%)                                                                                                         1(1.92%)                                                                                                
GAGE_Duplicated reference bases  1370                                                                                                             1824                                                                                                    
GAGE_Compressed reference bases  35856                                                                                                            35500                                                                                                   
GAGE_Bad trim                    9                                                                                                                10                                                                                                      
GAGE_Avg idy                     99.99                                                                                                            99.99                                                                                                   
GAGE_SNPs                        44                                                                                                               44                                                                                                      
GAGE_Indels < 5bp                9                                                                                                                24                                                                                                      
GAGE_Indels >= 5                 2                                                                                                                38                                                                                                      
GAGE_Inversions                  1                                                                                                                6                                                                                                       
GAGE_Relocation                  2                                                                                                                2                                                                                                       
GAGE_Translocation               0                                                                                                                0                                                                                                       
GAGE_Corrected contig #          100                                                                                                              95                                                                                                      
GAGE_Corrected assembly size     2783686                                                                                                          2783717                                                                                                 
GAGE_Min correct contig          201                                                                                                              201                                                                                                     
GAGE_Max correct contig          147565                                                                                                           173642                                                                                                  
GAGE_Corrected N50               62081 COUNT: 15                                                                                                  64963 COUNT: 14                                                                                         
