All statistics are based on contigs of size >= 200 bp, unless otherwise noted (e.g., "# contigs (>= 0 bp)" and "Total length (>= 0 bp)" include all contigs).

Assembly                                                                                                         #Contigs  #Contigs (>= 0 bp)  #Contigs (>= 1000 bp)  Largest contig  Total length  Total length (>= 0 bp)  Total length (>= 1000 bp)  Reference length  N50    NG50   N75    NG75   L50  LG50  L75  LG75  #local misassemblies  #misassemblies  #misassembled contigs  Misassembled contigs length  Misassemblies inter-contig overlap  #unaligned contigs  Unaligned contigs length  #ambiguously mapped contigs  Extra bases in ambiguously mapped contigs  #N's  #N's per 100 kbp  Genome fraction (%)  Duplication ratio  #genes          #predicted genes (unique)  #predicted genes (>= 0 bp)  #predicted genes (>= 300 bp)  #predicted genes (>= 1500 bp)  #predicted genes (>= 3000 bp)  #mismatches  #indels  Indels length  #mismatches per 100 kbp  #indels per 100 kbp  GC (%)  Reference GC (%)  Average %IDY  Largest alignment  NA50   NGA50  NA75   NGA75  LA50  LGA50  LA75  LGA75  #Mis_misassemblies  #Mis_relocations  #Mis_translocations  #Mis_inversions  #Mis_misassembled contigs  Mis_Misassembled contigs length  #Mis_local misassemblies  #Mis_short indels (<= 5 bp)  #Mis_long indels (> 5 bp)  #Una_fully unaligned contigs  Una_Fully unaligned length  #Una_partially unaligned contigs  #Una_with misassembly  #Una_both parts are significant  Una_Partially unaligned length  GAGE_Contigs #  GAGE_Min contig  GAGE_Max contig  GAGE_N50         GAGE_Genome size  GAGE_Assembly size  GAGE_Chaff bases  GAGE_Missing reference bases  GAGE_Missing assembly bases  GAGE_Missing assembly contigs  GAGE_Duplicated reference bases  GAGE_Compressed reference bases  GAGE_Bad trim  GAGE_Avg idy  GAGE_SNPs  GAGE_Indels < 5bp  GAGE_Indels >= 5  GAGE_Inversions  GAGE_Relocation  GAGE_Translocation  GAGE_Corrected contig #  GAGE_Corrected assembly size  GAGE_Min correct contig  GAGE_Max correct contig  GAGE_Corrected N50
VELVET_MIS_PE_mrsa_mis-1_bi_2x250bp_default__mrsa_mis-2_bi_2x250bp_default.0.460percent_55.final.contigs_broken  148       203                 102                    122860          2775765       2783419                 2759941                    2813862           53530  48990  26815  26192  19   20    38   39    8                     3               3                      99432                        1009                                2 + 0 part          5195                      16                           -10897                                     0     0.00              98.016               1.001              2607 + 72 part  2673                       2673                        2295                          296                            28                             200          26       57             7.25                     0.94                 32.69   32.81             98.887        122860             48990  48990  26192  25861  20    20     38    40     3                   3                 0                    0                3                          99432                            8                         25                           1                          2                             5195                        0                                 0                      0                                0                               148             203              122860           48990 COUNT: 20  2813862           2775765             0                 10882(0.39%)                  5198(0.19%)                  2(1.35%)                       3418                             42499                            3              99.99         135        24                 7                 0                4                0                   147                      2768468                       205                      122861                   45104 COUNT: 21   
VELVET_MIS_PE_mrsa_mis-1_bi_2x250bp_default__mrsa_mis-2_bi_2x250bp_default.0.460percent_55.final.contigs         120       172                 82                     122860          2777131       2784443                 2763800                    2813862           66098  66098  34628  32326  16   16    30   31    26                    3               3                      183774                       1750                                1 + 0 part          5220                      15                           -10487                                     1024  36.87             98.045               1.002              2617 + 62 part  2661                       2661                        2293                          296                            28                             198          55       338            7.18                     1.99                 32.69   32.81             98.889        122860             61452  61452  34628  32326  17    17     31    32     3                   3                 0                    0                3                          183774                           26                        43                           12                         1                             5220                        0                                 0                      0                                0                               120             203              122860           66098 COUNT: 16  2813862           2777131             0                 10868(0.39%)                  6202(0.22%)                  1(0.83%)                       3639                             42168                            42             99.99         114        29                 22                0                8                0                   146                      2768611                       205                      122861                   47151 COUNT: 20   
