calling: java -cp /vol/ngscomparison/software/analysis/quast-2.1/libs/gage:. SizeFasta /vol/codine-tmp/juene/tmp.F6vo51pc91/quast/corrected_input/MRSA_COL_Plasmid.fasta |awk '{SUM+=; print SUM}'|tail -n 1
Contig Stats
Total units: 835
Reference: 2813862
BasesInFasta: 2737882
Min: 200
Max: 34452
N10: 23539 COUNT: 10
N25: 15637 COUNT: 33
N50: 8019 COUNT: 97
N75: 4457 COUNT: 211
E-size:10716.23

Genome Size: 2813862
Assembly Size: 2737882
Chaff bases: 0
Missing Reference Bases: 76345(2.71%)
Missing Assembly Bases: 3020(0.11%)
Missing Assembly Contigs: 1(0.12%)
Duplicated Reference Bases: 15845
Compressed Reference Bases: 38992
Bad Trim: 2343
Avg Idy: 99.94
SNPs: 114
Indels < 5bp: 1072
Indels >= 5: 2
Inversions: 2
Relocation: 2
Translocation: 0

Corrected Contig Stats
calling: java -cp /vol/ngscomparison/software/analysis/quast-2.1/libs/gage:.:. GetFastaStats -o -min 199 -genomeSize 2813862 /vol/codine-tmp/juene/tmp.F6vo51pc91/quast/gage/tmp/CLC_PGM_mrsa_pgm_200bp_es_316_IonOnev2_ts3.0_morestringent.0.075percent.result.matches.lens 2> /dev/null
Total units: 780
Reference: 2813862
BasesInFasta: 2719835
Min: 200
Max: 34451
N10: 23544 COUNT: 10
N25: 15638 COUNT: 33
N50: 7958 COUNT: 98
N75: 4448 COUNT: 213
E-size:10661.64

Done
