All statistics are based on contigs of size >= 200 bp, unless otherwise noted (e.g., "# contigs (>= 0 bp)" and "Total length (>= 0 bp)" include all contigs).

Assembly                                                                                                         GAGE_Contigs #  GAGE_Min contig  GAGE_Max contig  GAGE_N50          GAGE_Genome size  GAGE_Assembly size  GAGE_Chaff bases  GAGE_Missing reference bases  GAGE_Missing assembly bases  GAGE_Missing assembly contigs  GAGE_Duplicated reference bases  GAGE_Compressed reference bases  GAGE_Bad trim  GAGE_Avg idy  GAGE_SNPs  GAGE_Indels < 5bp  GAGE_Indels >= 5  GAGE_Inversions  GAGE_Relocation  GAGE_Translocation  GAGE_Corrected contig #  GAGE_Corrected assembly size  GAGE_Min correct contig  GAGE_Max correct contig  GAGE_Corrected N50
ABYSS_PE_MIS_PE_sakai_mis-1_bi_2x150bp_default__sakai_mis-2_bi_2x150bp_default.0.826percent_74-scaffolds_broken  271             200              292288           100154 COUNT: 18  5594470           5529100             0                 24730(0.44%)                  82(0.00%)                    0(0.00%)                       25889                            230195                           67             99.97         541        38                 9                 0                3                0                   261                      5505788                       200                      228653                   85852 COUNT: 21   
ABYSS_PE_MIS_PE_sakai_mis-1_bi_2x150bp_default__sakai_mis-2_bi_2x150bp_default.0.826percent_74-scaffolds         206             200              376760           127542 COUNT: 13  5594470           5532661             0                 26248(0.47%)                  3773(0.07%)                  0(0.00%)                       26069                            228483                           563            99.97         560        38                 31                7                12               2                   256                      5505439                       200                      245373                   94374 COUNT: 19   
