1: PREPARING DATA
2,3: RUNNING mummer AND CREATING CLUSTERS
# reading input file "/vol/codine-tmp/juene/tmp.8XuCGaskuI/quast/gage/tmp/ABYSS_PE_PGM_sakai_pgm_mu_318_400bp_IO_TS3.4_ms_0.395percent_100-unitigs.ntref" of length 5594473
# construct suffix tree for sequence of length 5594473
# (maximum reference length is 536870908)
# (maximum query length is 4294967295)
# process 55944 characters per dot
#....................................................................................................
# CONSTRUCTIONTIME /vol/ngscomparison/software/analysis/quast-2.1/libs/MUMmer3.23-linux/mummer /vol/codine-tmp/juene/tmp.8XuCGaskuI/quast/gage/tmp/ABYSS_PE_PGM_sakai_pgm_mu_318_400bp_IO_TS3.4_ms_0.395percent_100-unitigs.ntref 2.82
# reading input file "/vol/codine-tmp/juene/tmp.8XuCGaskuI/quast/corrected_input/ABYSS_PE_PGM_sakai_pgm_mu_318_400bp_IO_TS3.4_ms_0.395percent_100-unitigs" of length 5336571
# matching query-file "/vol/codine-tmp/juene/tmp.8XuCGaskuI/quast/corrected_input/ABYSS_PE_PGM_sakai_pgm_mu_318_400bp_IO_TS3.4_ms_0.395percent_100-unitigs"
# against subject-file "/vol/codine-tmp/juene/tmp.8XuCGaskuI/quast/gage/tmp/ABYSS_PE_PGM_sakai_pgm_mu_318_400bp_IO_TS3.4_ms_0.395percent_100-unitigs.ntref"
# COMPLETETIME /vol/ngscomparison/software/analysis/quast-2.1/libs/MUMmer3.23-linux/mummer /vol/codine-tmp/juene/tmp.8XuCGaskuI/quast/gage/tmp/ABYSS_PE_PGM_sakai_pgm_mu_318_400bp_IO_TS3.4_ms_0.395percent_100-unitigs.ntref 10.04
# SPACE /vol/ngscomparison/software/analysis/quast-2.1/libs/MUMmer3.23-linux/mummer /vol/codine-tmp/juene/tmp.8XuCGaskuI/quast/gage/tmp/ABYSS_PE_PGM_sakai_pgm_mu_318_400bp_IO_TS3.4_ms_0.395percent_100-unitigs.ntref 10.63
4: FINISHING DATA
Filtering alignments
Extracting alignment coordinates
Analyzing SNPs
Extracting alignment breakpoints
Generating report file
Found genome size at position 4 with value 5594470 aka 5594470
Calculating point at 0 and the sum is 1000278 and i is1171 and lens is 1202 and length is 23936
Calculating point at 1 and the sum is 2012456 and i is1119 and lens is 1202 and length is 15775
Calculating point at 2 and the sum is 3004727 and i is1041 and lens is 1202 and length is 10183
Calculating point at 3 and the sum is 4004087 and i is912 and lens is 1202 and length is 5855
Calculating point at 4 and the sum is 5001074 and i is594 and lens is 1202 and length is 1454
