1: PREPARING DATA
2,3: RUNNING mummer AND CREATING CLUSTERS
# reading input file "/vol/codine-tmp/juene/tmp.jatsicltCe/quast/contigs_reports/nucmer_output/SOAP2_MIS_PE_mrsa_mis-1_bi_2x250bp_default.0.460percent_59.final.scaf.ntref" of length 2813864
# construct suffix tree for sequence of length 2813864
# (maximum reference length is 536870908)
# (maximum query length is 4294967295)
# process 28138 characters per dot
#....................................................................................................
# CONSTRUCTIONTIME /vol/ngscomparison/software/analysis/quast-2.1/libs/MUMmer3.23-linux/mummer /vol/codine-tmp/juene/tmp.jatsicltCe/quast/contigs_reports/nucmer_output/SOAP2_MIS_PE_mrsa_mis-1_bi_2x250bp_default.0.460percent_59.final.scaf.ntref 1.17
# reading input file "/vol/codine-tmp/juene/tmp.jatsicltCe/quast/corrected_input/SOAP2_MIS_PE_mrsa_mis-1_bi_2x250bp_default.0.460percent_59.final.scaf" of length 4374789
# matching query-file "/vol/codine-tmp/juene/tmp.jatsicltCe/quast/corrected_input/SOAP2_MIS_PE_mrsa_mis-1_bi_2x250bp_default.0.460percent_59.final.scaf"
# against subject-file "/vol/codine-tmp/juene/tmp.jatsicltCe/quast/contigs_reports/nucmer_output/SOAP2_MIS_PE_mrsa_mis-1_bi_2x250bp_default.0.460percent_59.final.scaf.ntref"
# COMPLETETIME /vol/ngscomparison/software/analysis/quast-2.1/libs/MUMmer3.23-linux/mummer /vol/codine-tmp/juene/tmp.jatsicltCe/quast/contigs_reports/nucmer_output/SOAP2_MIS_PE_mrsa_mis-1_bi_2x250bp_default.0.460percent_59.final.scaf.ntref 5.31
# SPACE /vol/ngscomparison/software/analysis/quast-2.1/libs/MUMmer3.23-linux/mummer /vol/codine-tmp/juene/tmp.jatsicltCe/quast/contigs_reports/nucmer_output/SOAP2_MIS_PE_mrsa_mis-1_bi_2x250bp_default.0.460percent_59.final.scaf.ntref 7.09
4: FINISHING DATA
