Assembly	#Mis_misassemblies	#Mis_relocations	#Mis_translocations	#Mis_inversions	#Mis_misassembled contigs	Mis_Misassembled contigs length	#Mis_local misassemblies	#mismatches	#indels	#Mis_short indels (<= 5 bp)	#Mis_long indels (> 5 bp)	Indels length
SOAP2_MIS_PE_mrsa_mis-1_bi_2x250bp_default.0.460percent_59.final.scaf_broken	1	1	0	0	1	1692	10	32	385	298	87	4038
SOAP2_MIS_PE_mrsa_mis-1_bi_2x250bp_default.0.460percent_59.final.scaf	1	1	0	0	1	3185	107	30	2420	2094	326	13144
