calling: java -cp /vol/ngscomparison/software/analysis/quast-2.1/libs/gage:. SizeFasta /vol/codine-tmp/juene/tmp.dh4aLo9Hyz/quast/corrected_input/MRSA_COL_Plasmid.fasta |awk '{SUM+=; print SUM}'|tail -n 1
Contig Stats
Total units: 251
Reference: 2813862
BasesInFasta: 2747025
Min: 202
Max: 91660
N10: 74429 COUNT: 4
N25: 42548 COUNT: 12
N50: 25810 COUNT: 32
N75: 13341 COUNT: 70
E-size:32320.69

Genome Size: 2813862
Assembly Size: 2747025
Chaff bases: 0
Missing Reference Bases: 57234(2.03%)
Missing Assembly Bases: 5789(0.21%)
Missing Assembly Contigs: 2(0.80%)
Duplicated Reference Bases: 273
Compressed Reference Bases: 18293
Bad Trim: 70
Avg Idy: 100.00
SNPs: 37
Indels < 5bp: 21
Indels >= 5: 20
Inversions: 0
Relocation: 1
Translocation: 0

Corrected Contig Stats
calling: java -cp /vol/ngscomparison/software/analysis/quast-2.1/libs/gage:.:. GetFastaStats -o -min 199 -genomeSize 2813862 /vol/codine-tmp/juene/tmp.dh4aLo9Hyz/quast/gage/tmp/SOAP2_MIS_PE_mrsa_mis-1_bi_2x150bp_default.0.527percent_57.final.scaf_broken.matches.lens 2> /dev/null
Total units: 259
Reference: 2813862
BasesInFasta: 2739649
Min: 200
Max: 91660
N10: 60511 COUNT: 4
N25: 42148 COUNT: 13
N50: 25362 COUNT: 34
N75: 13008 COUNT: 73
E-size:30055.63

Done
