Assembly	GAGE_Contigs #	GAGE_Min contig	GAGE_Max contig	GAGE_N50	GAGE_Genome size	GAGE_Assembly size	GAGE_Chaff bases	GAGE_Missing reference bases	GAGE_Missing assembly bases	GAGE_Missing assembly contigs	GAGE_Duplicated reference bases	GAGE_Compressed reference bases	GAGE_Bad trim	GAGE_Avg idy	GAGE_SNPs	GAGE_Indels < 5bp	GAGE_Indels >= 5	GAGE_Inversions	GAGE_Relocation	GAGE_Translocation	GAGE_Corrected contig #	GAGE_Corrected assembly size	GAGE_Min correct contig	GAGE_Max correct contig	GAGE_Corrected N50
NEWBLER_MIS_PE_sakai_mis-1_bi_2x250bp_SI_default__sakai_mis-2_bi_2x250bp_SI_default.0.95percent.contigs_broken	177	486	374773	109884 COUNT: 16	5594470	5256928	0	195764(3.50%)	5388(0.10%)	1(0.56%)	0	149762	2	100.00	58	11	2	0	2	0	180	5251853	486	287614	109885 COUNT: 17
NEWBLER_MIS_PE_sakai_mis-1_bi_2x250bp_SI_default__sakai_mis-2_bi_2x250bp_SI_default.0.95percent.contigs	92	2064	374773	146803 COUNT: 13	5594470	5305175	0	195764(3.50%)	53635(1.01%)	1(1.09%)	0	149937	0	100.00	58	11	67	6	10	0	180	5251853	486	287614	109885 COUNT: 17
