1: PREPARING DATA
2,3: RUNNING mummer AND CREATING CLUSTERS
# reading input file "/vol/codine-tmp/juene/tmp.WCBVZg1r7W/quast/gage/tmp/ABYSS_PE_MIS_PE_sakai_mis-both_bi_2x250bp_SI_default.0.64percent.NEWBLER_70-scaffolds_broken.ntref" of length 5594473
# construct suffix tree for sequence of length 5594473
# (maximum reference length is 536870908)
# (maximum query length is 4294967295)
# process 55944 characters per dot
#....................................................................................................
# CONSTRUCTIONTIME /vol/ngscomparison/software/analysis/quast-2.1/libs/MUMmer3.23-linux/mummer /vol/codine-tmp/juene/tmp.WCBVZg1r7W/quast/gage/tmp/ABYSS_PE_MIS_PE_sakai_mis-both_bi_2x250bp_SI_default.0.64percent.NEWBLER_70-scaffolds_broken.ntref 3.32
# reading input file "/vol/codine-tmp/juene/tmp.WCBVZg1r7W/quast/corrected_input/ABYSS_PE_MIS_PE_sakai_mis-both_bi_2x250bp_SI_default.0.64percent.NEWBLER_70-scaffolds_broken" of length 5462103
# matching query-file "/vol/codine-tmp/juene/tmp.WCBVZg1r7W/quast/corrected_input/ABYSS_PE_MIS_PE_sakai_mis-both_bi_2x250bp_SI_default.0.64percent.NEWBLER_70-scaffolds_broken"
# against subject-file "/vol/codine-tmp/juene/tmp.WCBVZg1r7W/quast/gage/tmp/ABYSS_PE_MIS_PE_sakai_mis-both_bi_2x250bp_SI_default.0.64percent.NEWBLER_70-scaffolds_broken.ntref"
# COMPLETETIME /vol/ngscomparison/software/analysis/quast-2.1/libs/MUMmer3.23-linux/mummer /vol/codine-tmp/juene/tmp.WCBVZg1r7W/quast/gage/tmp/ABYSS_PE_MIS_PE_sakai_mis-both_bi_2x250bp_SI_default.0.64percent.NEWBLER_70-scaffolds_broken.ntref 10.10
# SPACE /vol/ngscomparison/software/analysis/quast-2.1/libs/MUMmer3.23-linux/mummer /vol/codine-tmp/juene/tmp.WCBVZg1r7W/quast/gage/tmp/ABYSS_PE_MIS_PE_sakai_mis-both_bi_2x250bp_SI_default.0.64percent.NEWBLER_70-scaffolds_broken.ntref 10.72
4: FINISHING DATA
Filtering alignments
Extracting alignment coordinates
Analyzing SNPs
Extracting alignment breakpoints
Generating report file
Found genome size at position 4 with value 5594470 aka 5594470
Calculating point at 0 and the sum is 1134068 and i is301 and lens is 307 and length is 155083
Calculating point at 1 and the sum is 2092812 and i is294 and lens is 307 and length is 122376
Calculating point at 2 and the sum is 3001333 and i is284 and lens is 307 and length is 73233
Calculating point at 3 and the sum is 4020985 and i is265 and lens is 307 and length is 41277
Calculating point at 4 and the sum is 5006844 and i is218 and lens is 307 and length is 8307
