All statistics are based on contigs of size >= 200 bp, unless otherwise noted (e.g., "# contigs (>= 0 bp)" and "Total length (>= 0 bp)" include all contigs).

Assembly                                                                                                          GAGE_Contigs #  GAGE_Min contig  GAGE_Max contig  GAGE_N50         GAGE_Genome size  GAGE_Assembly size  GAGE_Chaff bases  GAGE_Missing reference bases  GAGE_Missing assembly bases  GAGE_Missing assembly contigs  GAGE_Duplicated reference bases  GAGE_Compressed reference bases  GAGE_Bad trim  GAGE_Avg idy  GAGE_SNPs  GAGE_Indels < 5bp  GAGE_Indels >= 5  GAGE_Inversions  GAGE_Relocation  GAGE_Translocation  GAGE_Corrected contig #  GAGE_Corrected assembly size  GAGE_Min correct contig  GAGE_Max correct contig  GAGE_Corrected N50
VELVET_MIS_PE_mrsa_mis-1_bi_2x250bp_default__mrsa_mis-2_bi_2x250bp_default.0.460percent_117.final.contigs_broken  168             233              185003           44795 COUNT: 17  2813862           2788386             0                 8416(0.30%)                   4062(0.15%)                  3(1.79%)                       1748                             40678                            2              100.00        36         9                  1                 1                2                0                   162                      2783221                       233                      185003                   44798 COUNT: 17   
VELVET_MIS_PE_mrsa_mis-1_bi_2x250bp_default__mrsa_mis-2_bi_2x250bp_default.0.460percent_117.final.contigs         157             233              185003           47495 COUNT: 17  2813862           2789043             0                 8416(0.30%)                   4719(0.17%)                  3(1.91%)                       1748                             40678                            2              100.00        36         9                  10                2                2                0                   162                      2783221                       233                      185003                   44798 COUNT: 17   
