1: PREPARING DATA
2,3: RUNNING mummer AND CREATING CLUSTERS
# reading input file "/vol/codine-tmp/juene/tmp.DAXwonWOrr/quast/gage/tmp/VELVET_PGM_sakai_pgm_mu_200bp_IO_TS3.0Disabled_stringent.0.34percent_85.final.contigs.ntref" of length 5594473
# construct suffix tree for sequence of length 5594473
# (maximum reference length is 536870908)
# (maximum query length is 4294967295)
# process 55944 characters per dot
#....................................................................................................
# CONSTRUCTIONTIME /vol/ngscomparison/software/analysis/quast-2.1/libs/MUMmer3.23-linux/mummer /vol/codine-tmp/juene/tmp.DAXwonWOrr/quast/gage/tmp/VELVET_PGM_sakai_pgm_mu_200bp_IO_TS3.0Disabled_stringent.0.34percent_85.final.contigs.ntref 3.03
# reading input file "/vol/codine-tmp/juene/tmp.DAXwonWOrr/quast/corrected_input/VELVET_PGM_sakai_pgm_mu_200bp_IO_TS3.0Disabled_stringent.0.34percent_85.final.contigs" of length 5314639
# matching query-file "/vol/codine-tmp/juene/tmp.DAXwonWOrr/quast/corrected_input/VELVET_PGM_sakai_pgm_mu_200bp_IO_TS3.0Disabled_stringent.0.34percent_85.final.contigs"
# against subject-file "/vol/codine-tmp/juene/tmp.DAXwonWOrr/quast/gage/tmp/VELVET_PGM_sakai_pgm_mu_200bp_IO_TS3.0Disabled_stringent.0.34percent_85.final.contigs.ntref"
# COMPLETETIME /vol/ngscomparison/software/analysis/quast-2.1/libs/MUMmer3.23-linux/mummer /vol/codine-tmp/juene/tmp.DAXwonWOrr/quast/gage/tmp/VELVET_PGM_sakai_pgm_mu_200bp_IO_TS3.0Disabled_stringent.0.34percent_85.final.contigs.ntref 8.64
# SPACE /vol/ngscomparison/software/analysis/quast-2.1/libs/MUMmer3.23-linux/mummer /vol/codine-tmp/juene/tmp.DAXwonWOrr/quast/gage/tmp/VELVET_PGM_sakai_pgm_mu_200bp_IO_TS3.0Disabled_stringent.0.34percent_85.final.contigs.ntref 10.64
4: FINISHING DATA
Filtering alignments
Extracting alignment coordinates
Analyzing SNPs
Extracting alignment breakpoints
Generating report file
Found genome size at position 4 with value 5594470 aka 5594470
Calculating point at 0 and the sum is 1003391 and i is1898 and lens is 1965 and length is 10746
Calculating point at 1 and the sum is 2006896 and i is1780 and lens is 1965 and length is 7011
Calculating point at 2 and the sum is 3000378 and i is1608 and lens is 1965 and length is 4731
Calculating point at 3 and the sum is 4001066 and i is1330 and lens is 1965 and length is 2701
Calculating point at 4 and the sum is 5000325 and i is707 and lens is 1965 and length is 816
