calling: java -cp /vol/ngscomparison/software/analysis/quast-2.1/libs/gage:. SizeFasta /vol/codine-tmp/juene/tmp.CbDSbGUSD4/quast/corrected_input/Ecoli_Sakai_editedNew_plasmids.fasta |awk '{SUM+=; print SUM}'|tail -n 1
Contig Stats
Total units: 378
Reference: 5594470
BasesInFasta: 5433559
Min: 200
Max: 484508
N10: 375057 COUNT: 2
N25: 313957 COUNT: 4
N50: 145827 COUNT: 11
N75: 74108 COUNT: 25
E-size:188241.53

Genome Size: 5594470
Assembly Size: 5433559
Chaff bases: 0
Missing Reference Bases: 4665(0.08%)
Missing Assembly Bases: 10716(0.20%)
Missing Assembly Contigs: 1(0.26%)
Duplicated Reference Bases: 10712
Compressed Reference Bases: 245330
Bad Trim: 443
Avg Idy: 99.99
SNPs: 108
Indels < 5bp: 30
Indels >= 5: 54
Inversions: 4
Relocation: 8
Translocation: 0

Corrected Contig Stats
calling: java -cp /vol/ngscomparison/software/analysis/quast-2.1/libs/gage:.:. GetFastaStats -o -min 199 -genomeSize 5594470 /vol/codine-tmp/juene/tmp.CbDSbGUSD4/quast/gage/tmp/VELVET_MIS_PE_sakai_mis-1_bi_2x150bp_default__sakai_mis-2_bi_2x150bp_default.0.826percent_93.final.contigs.matches.lens 2> /dev/null
Total units: 432
Reference: 5594470
BasesInFasta: 5413010
Min: 200
Max: 217602
N10: 148976 COUNT: 4
N25: 127591 COUNT: 10
N50: 67515 COUNT: 24
N75: 32356 COUNT: 51
E-size:81574.44

Done
