Assembly	VELVET_MIS_PE_mrsa_mis-1_bi_2x150bp_default__mrsa_mis-2_bi_2x150bp_default.0.527percent_129.final.contigs_broken	VELVET_MIS_PE_mrsa_mis-1_bi_2x150bp_default__mrsa_mis-2_bi_2x150bp_default.0.527percent_129.final.contigs
#Contigs	2833	1178
#Contigs (>= 0 bp)	2833	1178
#Contigs (>= 1000 bp)	738	746
Largest contig	9013	26496
Total length	2428249	2559290
Total length (>= 0 bp)	2428249	2559290
Total length (>= 1000 bp)	1246195	2292482
Reference length	2813862	2813862
N50	1028	3535
NG50	883	3117
N75	637	1765
NG75	481	1361
L50	707	211
LG50	911	250
L75	1462	469
LG75	1985	592
#local misassemblies	0	469
#misassemblies	4	9
#misassembled contigs	4	7
Misassembled contigs length	7646	35566
Misassemblies inter-contig overlap	952	227
#unaligned contigs	4 + 1 part	130 + 72 part
Unaligned contigs length	5022	421059
#ambiguously mapped contigs	31	31
Extra bases in ambiguously mapped contigs	-11540	-11540
#N's	0	131041
#N's per 100 kbp	0.00	5120.21
Genome fraction (%)	85.351	68.141
Duplication ratio	1.005	1.109
#genes	849 + 1709 part	1003 + 1125 part
#predicted genes (unique)	4087	3887
#predicted genes (>= 0 bp)	4088	3888
#predicted genes (>= 300 bp)	2714	2755
#predicted genes (>= 1500 bp)	85	88
#predicted genes (>= 3000 bp)	6	6
#mismatches	63	100
#indels	10	13216
Indels length	10	26618
#mismatches per 100 kbp	2.62	5.22
#indels per 100 kbp	0.42	689.27
GC (%)	33.27	33.27
Reference GC (%)	32.81	32.81
Average %IDY	99.827	99.136
Largest alignment	9013	26152
NA50	1019	2018
NGA50	879	1638
NA75	632	444
NGA75	477	None
LA50	711	301
LGA50	916	371
LA75	1471	939
LGA75	1998	None
#Mis_misassemblies	4	9
#Mis_relocations	4	9
#Mis_translocations	0	0
#Mis_inversions	0	0
#Mis_misassembled contigs	4	7
Mis_Misassembled contigs length	7646	35566
#Mis_local misassemblies	0	469
#Mis_short indels (<= 5 bp)	10	12958
#Mis_long indels (> 5 bp)	0	258
#Una_fully unaligned contigs	4	130
Una_Fully unaligned length	4547	261538
#Una_partially unaligned contigs	1	72
#Una_with misassembly	0	0
#Una_both parts are significant	1	69
Una_Partially unaligned length	475	159521
GAGE_Contigs #	2833	1178
GAGE_Min contig	257	257
GAGE_Max contig	9013	26496
GAGE_N50	883 COUNT: 911	3117 COUNT: 250
GAGE_Genome size	2813862	2813862
GAGE_Assembly size	2428249	2559290
GAGE_Chaff bases	0	0
GAGE_Missing reference bases	371513(13.20%)	375785(13.35%)
GAGE_Missing assembly bases	5069(0.21%)	140393(5.49%)
GAGE_Missing assembly contigs	4(0.14%)	2(0.17%)
GAGE_Duplicated reference bases	1982	1982
GAGE_Compressed reference bases	45353	45276
GAGE_Bad trim	522	2359
GAGE_Avg idy	100.00	99.98
GAGE_SNPs	47	47
GAGE_Indels < 5bp	9	29
GAGE_Indels >= 5	0	1630
GAGE_Inversions	1	2
GAGE_Relocation	2	4
GAGE_Translocation	0	0
GAGE_Corrected contig #	2826	2809
GAGE_Corrected assembly size	2421705	2417424
GAGE_Min correct contig	257	257
GAGE_Max correct contig	9013	9013
GAGE_Corrected N50	881 COUNT: 915	883 COUNT: 911
