1: PREPARING DATA
2,3: RUNNING mummer AND CREATING CLUSTERS
# reading input file "/vol/codine-tmp/juene/tmp.oVKEeqSL13/quast/gage/tmp/CLC_PGM_sakai_pgm_mu_200bp_IO_TS3.0Disabled_stringent.0.65percent.result.ntref" of length 5594473
# construct suffix tree for sequence of length 5594473
# (maximum reference length is 536870908)
# (maximum query length is 4294967295)
# process 55944 characters per dot
#....................................................................................................
# CONSTRUCTIONTIME /vol/ngscomparison/software/analysis/quast-2.1/libs/MUMmer3.23-linux/mummer /vol/codine-tmp/juene/tmp.oVKEeqSL13/quast/gage/tmp/CLC_PGM_sakai_pgm_mu_200bp_IO_TS3.0Disabled_stringent.0.65percent.result.ntref 3.43
# reading input file "/vol/codine-tmp/juene/tmp.oVKEeqSL13/quast/corrected_input/CLC_PGM_sakai_pgm_mu_200bp_IO_TS3.0Disabled_stringent.0.65percent.result" of length 5380817
# matching query-file "/vol/codine-tmp/juene/tmp.oVKEeqSL13/quast/corrected_input/CLC_PGM_sakai_pgm_mu_200bp_IO_TS3.0Disabled_stringent.0.65percent.result"
# against subject-file "/vol/codine-tmp/juene/tmp.oVKEeqSL13/quast/gage/tmp/CLC_PGM_sakai_pgm_mu_200bp_IO_TS3.0Disabled_stringent.0.65percent.result.ntref"
# COMPLETETIME /vol/ngscomparison/software/analysis/quast-2.1/libs/MUMmer3.23-linux/mummer /vol/codine-tmp/juene/tmp.oVKEeqSL13/quast/gage/tmp/CLC_PGM_sakai_pgm_mu_200bp_IO_TS3.0Disabled_stringent.0.65percent.result.ntref 10.30
# SPACE /vol/ngscomparison/software/analysis/quast-2.1/libs/MUMmer3.23-linux/mummer /vol/codine-tmp/juene/tmp.oVKEeqSL13/quast/gage/tmp/CLC_PGM_sakai_pgm_mu_200bp_IO_TS3.0Disabled_stringent.0.65percent.result.ntref 10.65
4: FINISHING DATA
Filtering alignments
Extracting alignment coordinates
Analyzing SNPs
Extracting alignment breakpoints
Generating report file
Found genome size at position 4 with value 5594470 aka 5594470
Calculating point at 0 and the sum is 1004323 and i is665 and lens is 680 and length is 56423
Calculating point at 1 and the sum is 2008093 and i is643 and lens is 680 and length is 37535
Calculating point at 2 and the sum is 3021973 and i is609 and lens is 680 and length is 24055
Calculating point at 3 and the sum is 4003373 and i is553 and lens is 680 and length is 13249
Calculating point at 4 and the sum is 5001197 and i is417 and lens is 680 and length is 3214
