calling: java -cp /vol/ngscomparison/software/analysis/quast-2.1/libs/gage:. SizeFasta /vol/codine-tmp/juene/tmp.y91oegUxSW/quast/corrected_input/MRSA_COL_Plasmid.fasta |awk '{SUM+=; print SUM}'|tail -n 1
Contig Stats
Total units: 42
Reference: 2813862
BasesInFasta: 2776610
Min: 514
Max: 643875
N10: 643875 COUNT: 1
N25: 326016 COUNT: 2
N50: 179274 COUNT: 5
N75: 87613 COUNT: 10
E-size:266892.37

Genome Size: 2813862
Assembly Size: 2776610
Chaff bases: 0
Missing Reference Bases: 9577(0.34%)
Missing Assembly Bases: 5418(0.20%)
Missing Assembly Contigs: 1(2.38%)
Duplicated Reference Bases: 0
Compressed Reference Bases: 34770
Bad Trim: 32
Avg Idy: 99.99
SNPs: 31
Indels < 5bp: 9
Indels >= 5: 0
Inversions: 0
Relocation: 1
Translocation: 0

Corrected Contig Stats
calling: java -cp /vol/ngscomparison/software/analysis/quast-2.1/libs/gage:.:. GetFastaStats -o -min 199 -genomeSize 2813862 /vol/codine-tmp/juene/tmp.y91oegUxSW/quast/gage/tmp/NEWBLER_MIS_PE_mrsa_mis-1_bi_2x250bp_default__mrsa_mis-2_bi_2x250bp_default.0.600percent.contigs_broken.matches.lens 2> /dev/null
Total units: 42
Reference: 2813862
BasesInFasta: 2771197
Min: 514
Max: 643874
N10: 643874 COUNT: 1
N25: 326017 COUNT: 2
N50: 179273 COUNT: 5
N75: 87613 COUNT: 10
E-size:262752.95

Done
