Assembly	ABYSS_PE_MIS_PE_mrsa_mis-1_bi_2x250bp_default__mrsa_mis-2_bi_2x250bp_default.0.460percent_96-scaffolds_broken	ABYSS_PE_MIS_PE_mrsa_mis-1_bi_2x250bp_default__mrsa_mis-2_bi_2x250bp_default.0.460percent_96-scaffolds
#Contigs	110	103
#Contigs (>= 0 bp)	262	255
#Contigs (>= 1000 bp)	64	62
Largest contig	207885	207885
Total length	2788645	2788956
Total length (>= 0 bp)	2811108	2811419
Total length (>= 1000 bp)	2770615	2773043
Reference length	2813862	2813862
N50	92806	92806
NG50	92806	92806
N75	50476	50514
NG75	50476	50514
L50	10	10
LG50	10	10
L75	21	21
LG75	21	21
#local misassemblies	1	2
#misassemblies	3	5
#misassembled contigs	3	4
Misassembled contigs length	222353	226156
Misassemblies inter-contig overlap	1940	2022
#unaligned contigs	0 + 0 part	0 + 0 part
Unaligned contigs length	0	0
#ambiguously mapped contigs	12	11
Extra bases in ambiguously mapped contigs	-7691	-7741
#N's	4	315
#N's per 100 kbp	0.14	11.29
Genome fraction (%)	98.787	98.750
Duplication ratio	1.001	1.002
#genes	2673 + 39 part	2674 + 38 part
#predicted genes (unique)	2665	2663
#predicted genes (>= 0 bp)	2669	2667
#predicted genes (>= 300 bp)	2283	2283
#predicted genes (>= 1500 bp)	299	299
#predicted genes (>= 3000 bp)	30	30
#mismatches	62	62
#indels	10	12
Indels length	23	73
#mismatches per 100 kbp	2.23	2.23
#indels per 100 kbp	0.36	0.43
GC (%)	32.69	32.69
Reference GC (%)	32.81	32.81
Average %IDY	98.683	98.641
Largest alignment	207885	207885
NA50	92806	92806
NGA50	92806	92806
NA75	50476	50514
NGA75	50476	50514
LA50	10	10
LGA50	10	10
LA75	21	21
LGA75	21	21
#Mis_misassemblies	3	5
#Mis_relocations	3	5
#Mis_translocations	0	0
#Mis_inversions	0	0
#Mis_misassembled contigs	3	4
Mis_Misassembled contigs length	222353	226156
#Mis_local misassemblies	1	2
#Mis_short indels (<= 5 bp)	9	9
#Mis_long indels (> 5 bp)	1	3
#Una_fully unaligned contigs	0	0
Una_Fully unaligned length	0	0
#Una_partially unaligned contigs	0	0
#Una_with misassembly	0	0
#Una_both parts are significant	0	0
Una_Partially unaligned length	0	0
GAGE_Contigs #	110	103
GAGE_Min contig	200	200
GAGE_Max contig	207885	207885
GAGE_N50	92806 COUNT: 10	92806 COUNT: 10
GAGE_Genome size	2813862	2813862
GAGE_Assembly size	2788645	2788956
GAGE_Chaff bases	0	0
GAGE_Missing reference bases	1657(0.06%)	1339(0.05%)
GAGE_Missing assembly bases	1(0.00%)	262(0.01%)
GAGE_Missing assembly contigs	0(0.00%)	0(0.00%)
GAGE_Duplicated reference bases	269	269
GAGE_Compressed reference bases	35973	36238
GAGE_Bad trim	0	0
GAGE_Avg idy	99.99	99.99
GAGE_SNPs	40	40
GAGE_Indels < 5bp	6	9
GAGE_Indels >= 5	2	7
GAGE_Inversions	1	1
GAGE_Relocation	2	2
GAGE_Translocation	0	0
GAGE_Corrected contig #	114	113
GAGE_Corrected assembly size	2790323	2790376
GAGE_Min correct contig	200	200
GAGE_Max correct contig	207885	207885
GAGE_Corrected N50	76025 COUNT: 11	76025 COUNT: 11
