Assembly	GAGE_Contigs #	GAGE_Min contig	GAGE_Max contig	GAGE_N50	GAGE_Genome size	GAGE_Assembly size	GAGE_Chaff bases	GAGE_Missing reference bases	GAGE_Missing assembly bases	GAGE_Missing assembly contigs	GAGE_Duplicated reference bases	GAGE_Compressed reference bases	GAGE_Bad trim	GAGE_Avg idy	GAGE_SNPs	GAGE_Indels < 5bp	GAGE_Indels >= 5	GAGE_Inversions	GAGE_Relocation	GAGE_Translocation	GAGE_Corrected contig #	GAGE_Corrected assembly size	GAGE_Min correct contig	GAGE_Max correct contig	GAGE_Corrected N50
ABYSS_PE_MIS_PE_sakai_mis-1_bi_2x150bp_default__sakai_mis-2_bi_2x150bp_default.31coverage_48.final_broken	315	200	218515	67228 COUNT: 26	5594470	5391997	0	85286(1.52%)	8(0.00%)	0(0.00%)	9668	232556	3	99.97	697	40	16	0	2	0	323	5385957	200	218516	59496 COUNT: 28
ABYSS_PE_MIS_PE_sakai_mis-1_bi_2x150bp_default__sakai_mis-2_bi_2x150bp_default.31coverage_48.final	264	200	376632	85386 COUNT: 21	5594470	5395382	0	88095(1.57%)	2340(0.04%)	0(0.00%)	9212	226544	153	99.96	683	50	48	6	7	0	321	5388758	200	218516	59496 COUNT: 28
