All statistics are based on contigs of size >= 200 bp, unless otherwise noted (e.g., "# contigs (>= 0 bp)" and "Total length (>= 0 bp)" include all contigs).

Assembly                                                                                                   #Contigs  #Contigs (>= 0 bp)  #Contigs (>= 1000 bp)  Largest contig  Total length  Total length (>= 0 bp)  Total length (>= 1000 bp)  Reference length  N50    NG50   N75    NG75   L50  LG50  L75  LG75  #local misassemblies  #misassemblies  #misassembled contigs  Misassembled contigs length  Misassemblies inter-contig overlap  #unaligned contigs  Unaligned contigs length  #ambiguously mapped contigs  Extra bases in ambiguously mapped contigs  #N's  #N's per 100 kbp  Genome fraction (%)  Duplication ratio  #genes           #predicted genes (unique)  #predicted genes (>= 0 bp)  #predicted genes (>= 300 bp)  #predicted genes (>= 1500 bp)  #predicted genes (>= 3000 bp)  #mismatches  #indels  Indels length  #mismatches per 100 kbp  #indels per 100 kbp  GC (%)  Reference GC (%)  Average %IDY  Largest alignment  NA50   NGA50  NA75   NGA75  LA50  LGA50  LA75  LGA75  #Mis_misassemblies  #Mis_relocations  #Mis_translocations  #Mis_inversions  #Mis_misassembled contigs  Mis_Misassembled contigs length  #Mis_local misassemblies  #Mis_short indels (<= 5 bp)  #Mis_long indels (> 5 bp)  #Una_fully unaligned contigs  Una_Fully unaligned length  #Una_partially unaligned contigs  #Una_with misassembly  #Una_both parts are significant  Una_Partially unaligned length  GAGE_Contigs #  GAGE_Min contig  GAGE_Max contig  GAGE_N50         GAGE_Genome size  GAGE_Assembly size  GAGE_Chaff bases  GAGE_Missing reference bases  GAGE_Missing assembly bases  GAGE_Missing assembly contigs  GAGE_Duplicated reference bases  GAGE_Compressed reference bases  GAGE_Bad trim  GAGE_Avg idy  GAGE_SNPs  GAGE_Indels < 5bp  GAGE_Indels >= 5  GAGE_Inversions  GAGE_Relocation  GAGE_Translocation  GAGE_Corrected contig #  GAGE_Corrected assembly size  GAGE_Min correct contig  GAGE_Max correct contig  GAGE_Corrected N50
ABYSS_PE_MIS_PE_sakai_mis-1_bi_2x150bp_default__sakai_mis-2_bi_2x150bp_default.31coverage_48.final_broken  315       1377                214                    218515          5391997       5492380                 5339666                    5594470           72600  67228  32883  30917  24   26    51   56    8                     3               3                      153058                       2626                                0 + 0 part          0                         38                           -57295                                     96    1.78              94.953               1.005              4942 + 193 part  5224                       5296                        4462                          674                            68                             904          53       213            17.02                    1.00                 50.34   50.48             99.133        218515             71531  66512  32718  30295  24    26     52    57     3                   3                 0                    0                3                          153058                           8                         45                           8                          0                             0                           0                                 0                      0                                0                               315             200              218515           67228 COUNT: 26  5594470           5391997             0                 85286(1.52%)                  8(0.00%)                     0(0.00%)                       9668                             232556                           3              99.97         697        40                 16                0                2                0                   323                      5385957                       200                      218516                   59496 COUNT: 28   
ABYSS_PE_MIS_PE_sakai_mis-1_bi_2x150bp_default__sakai_mis-2_bi_2x150bp_default.31coverage_48.final         264       1322                195                    376632          5395382       5495131                 5359463                    5594470           85794  85386  41207  33409  20   21    42   46    24                    10              10                     459622                       4159                                0 + 1 part          1133                      27                           -50251                                     2847  52.77             95.100               1.005              4963 + 180 part  5217                       5290                        4462                          675                            67                             1094         266      875            20.56                    5.00                 50.34   50.48             99.099        228647             85794  85386  40700  32922  21    22     43    47     10                  10                0                    0                10                         459622                           24                        242                          24                         0                             0                           1                                 0                      1                                1133                            264             200              376632           85386 COUNT: 21  5594470           5395382             0                 88095(1.57%)                  2340(0.04%)                  0(0.00%)                       9212                             226544                           153            99.96         683        50                 48                6                7                0                   321                      5388758                       200                      218516                   59496 COUNT: 28   
