All statistics are based on contigs of size >= 200 bp, unless otherwise noted (e.g., "# contigs (>= 0 bp)" and "Total length (>= 0 bp)" include all contigs).

Assembly                       ABYSS_PE_MIS_PE_sakai_mis-both_bi_2x250bp_SI_default.0.64percent.NEWBLER_72-scaffolds_broken  ABYSS_PE_MIS_PE_sakai_mis-both_bi_2x250bp_SI_default.0.64percent.NEWBLER_72-scaffolds
#Contigs (>= 0 bp)             899                                                                                           851                                                                                  
#Contigs (>= 1000 bp)          209                                                                                           193                                                                                  
Total length (>= 0 bp)         5537966                                                                                       5540270                                                                              
Total length (>= 1000 bp)      5411254                                                                                       5428263                                                                              
#Contigs                       325                                                                                           277                                                                                  
Largest contig                 224182                                                                                        376793                                                                               
Total length                   5466883                                                                                       5469187                                                                              
Reference length               5594470                                                                                       5594470                                                                              
GC (%)                         50.38                                                                                         50.38                                                                                
Reference GC (%)               50.48                                                                                         50.48                                                                                
N50                            92179                                                                                         127506                                                                               
NG50                           92179                                                                                         107418                                                                               
N75                            41799                                                                                         48420                                                                                
NG75                           41155                                                                                         43189                                                                                
#misassemblies                 4                                                                                             15                                                                                   
#local misassemblies           4                                                                                             16                                                                                   
#unaligned contigs             0 + 0 part                                                                                    0 + 2 part                                                                           
Unaligned contigs length       0                                                                                             1386                                                                                 
Genome fraction (%)            95.647                                                                                        95.918                                                                               
Duplication ratio              1.010                                                                                         1.012                                                                                
#N's per 100 kbp               0.64                                                                                          42.77                                                                                
#mismatches per 100 kbp        11.27                                                                                         14.93                                                                                
#indels per 100 kbp            0.69                                                                                          4.06                                                                                 
#genes                         5011 + 204 part                                                                               5036 + 191 part                                                                      
#predicted genes (unique)      5311                                                                                          5299                                                                                 
#predicted genes (>= 0 bp)     5419                                                                                          5407                                                                                 
#predicted genes (>= 300 bp)   4511                                                                                          4512                                                                                 
#predicted genes (>= 1500 bp)  694                                                                                           694                                                                                  
#predicted genes (>= 3000 bp)  74                                                                                            73                                                                                   
Largest alignment              224182                                                                                        228603                                                                               
NA50                           92179                                                                                         127506                                                                               
NGA50                          90943                                                                                         107418                                                                               
NA75                           41155                                                                                         48420                                                                                
NGA75                          37101                                                                                         41799                                                                                
