All statistics are based on contigs of size >= 200 bp, unless otherwise noted (e.g., "# contigs (>= 0 bp)" and "Total length (>= 0 bp)" include all contigs).

Assembly                                                                                      #Contigs  #Contigs (>= 0 bp)  #Contigs (>= 1000 bp)  Largest contig  Total length  Total length (>= 0 bp)  Total length (>= 1000 bp)  Reference length  N50     NG50    N75    NG75   L50  LG50  L75  LG75  #local misassemblies  #misassemblies  #misassembled contigs  Misassembled contigs length  Misassemblies inter-contig overlap  #unaligned contigs  Unaligned contigs length  #ambiguously mapped contigs  Extra bases in ambiguously mapped contigs  #N's  #N's per 100 kbp  Genome fraction (%)  Duplication ratio  #genes           #predicted genes (unique)  #predicted genes (>= 0 bp)  #predicted genes (>= 300 bp)  #predicted genes (>= 1500 bp)  #predicted genes (>= 3000 bp)  #mismatches  #indels  Indels length  #mismatches per 100 kbp  #indels per 100 kbp  GC (%)  Reference GC (%)  Average %IDY  Largest alignment  NA50    NGA50   NA75   NGA75  LA50  LGA50  LA75  LGA75  #Mis_misassemblies  #Mis_relocations  #Mis_translocations  #Mis_inversions  #Mis_misassembled contigs  Mis_Misassembled contigs length  #Mis_local misassemblies  #Mis_short indels (<= 5 bp)  #Mis_long indels (> 5 bp)  #Una_fully unaligned contigs  Una_Fully unaligned length  #Una_partially unaligned contigs  #Una_with misassembly  #Una_both parts are significant  Una_Partially unaligned length  GAGE_Contigs #  GAGE_Min contig  GAGE_Max contig  GAGE_N50          GAGE_Genome size  GAGE_Assembly size  GAGE_Chaff bases  GAGE_Missing reference bases  GAGE_Missing assembly bases  GAGE_Missing assembly contigs  GAGE_Duplicated reference bases  GAGE_Compressed reference bases  GAGE_Bad trim  GAGE_Avg idy  GAGE_SNPs  GAGE_Indels < 5bp  GAGE_Indels >= 5  GAGE_Inversions  GAGE_Relocation  GAGE_Translocation  GAGE_Corrected contig #  GAGE_Corrected assembly size  GAGE_Min correct contig  GAGE_Max correct contig  GAGE_Corrected N50
ABYSS_PE_MIS_PE_sakai_mis-both_bi_2x250bp_SI_default.0.64percent.NEWBLER_72-scaffolds_broken  325       899                 209                    224182          5466883       5537966                 5411254                    5594470           92179   92179   41799  41155  19   19    39   41    4                     4               4                      214898                       2547                                0 + 0 part          0                         51                           -63423                                     35    0.64              95.647               1.010              5011 + 204 part  5311                       5419                        4511                          694                            74                             603          37       251            11.27                    0.69                 50.38   50.48             98.838        224182             92179   90943   41155  37101  19    20     40    42     4                   4                 0                    0                4                          214898                           4                         31                           6                          0                             0                           0                                 0                      0                                0                               325             200              224182           92179 COUNT: 19   5594470           5466883             0                 31137(0.56%)                  20(0.00%)                    0(0.00%)                       24657                            232132                           0              99.98         431        29                 9                 3                2                0                   313                      5446300                       200                      224182                   73235 COUNT: 22   
ABYSS_PE_MIS_PE_sakai_mis-both_bi_2x250bp_SI_default.0.64percent.NEWBLER_72-scaffolds         277       851                 193                    376793          5469187       5540270                 5428263                    5594470           127506  107418  48420  43189  15   16    33   35    16                    15              13                     473871                       2886                                0 + 2 part          1386                      35                           -42275                                     2339  42.77             95.918               1.012              5036 + 191 part  5299                       5407                        4512                          694                            73                             801          218      658            14.93                    4.06                 50.38   50.48             98.831        228603             127506  107418  48420  41799  16    17     34    36     15                  15                0                    0                13                         473871                           16                        203                          15                         0                             0                           2                                 0                      0                                1386                            277             200              376793           107418 COUNT: 16  5594470           5469187             0                 33129(0.59%)                  2124(0.04%)                  0(0.00%)                       24657                            229838                           200            99.98         435        40                 35                10               5                0                   310                      5446576                       200                      224182                   73235 COUNT: 22   
