Assembly	ABYSS_PE_PGM_mrsa_pgm_400bp_es_318_IKA_ts3.2_morestringent.0.165percent_82.final
GAGE_Contigs #	437
GAGE_Min contig	204
GAGE_Max contig	67202
GAGE_N50	14303 COUNT: 60
GAGE_Genome size	2813862
GAGE_Assembly size	2755366
GAGE_Chaff bases	0
GAGE_Missing reference bases	51865(1.84%)
GAGE_Missing assembly bases	8(0.00%)
GAGE_Missing assembly contigs	0(0.00%)
GAGE_Duplicated reference bases	1034
GAGE_Compressed reference bases	17773
GAGE_Bad trim	8
GAGE_Avg idy	99.99
GAGE_SNPs	31
GAGE_Indels < 5bp	104
GAGE_Indels >= 5	1
GAGE_Inversions	0
GAGE_Relocation	1
GAGE_Translocation	0
GAGE_Corrected contig #	435
GAGE_Corrected assembly size	2754588
GAGE_Min correct contig	204
GAGE_Max correct contig	67203
GAGE_Corrected N50	14303 COUNT: 60
