Assembly	ABYSS_PE_PGM_sakai_pgm_mu_318_400bp_IO_TS3.4_ms_116.final
#Mis_misassemblies	8
#Mis_relocations	8
#Mis_translocations	0
#Mis_inversions	0
#Mis_misassembled contigs	8
Mis_Misassembled contigs length	7427
#Mis_local misassemblies	6
#mismatches	77
#indels	556
#Mis_short indels (<= 5 bp)	556
#Mis_long indels (> 5 bp)	0
Indels length	569
