All statistics are based on contigs of size >= 200 bp, unless otherwise noted (e.g., "# contigs (>= 0 bp)" and "Total length (>= 0 bp)" include all contigs).

Assembly                                                                   #Contigs (>= 0 bp)  #Contigs (>= 1000 bp)  Total length (>= 0 bp)  Total length (>= 1000 bp)  #Contigs  Largest contig  Total length  Reference length  GC (%)  Reference GC (%)  N50    NG50   N75    NG75   #misassemblies  #local misassemblies  #unaligned contigs  Unaligned contigs length  Genome fraction (%)  Duplication ratio  #N's per 100 kbp  #mismatches per 100 kbp  #indels per 100 kbp  #genes           #predicted genes (unique)  #predicted genes (>= 0 bp)  #predicted genes (>= 300 bp)  #predicted genes (>= 1500 bp)  #predicted genes (>= 3000 bp)  Largest alignment  NA50   NGA50  NA75   NGA75
CLC_PGM_mrsa_pgm_400bp_es_318_IKA_ts3.2_morestringent.0.400percent.result  908                 209                    2915139                 2699897                    908       76115           2915139       2813862           32.59   32.81             19166  19660  10190  11309  4               5                     13 + 17 part        4931                      97.619               1.055              52.31             3.09                     18.79                2501 + 177 part  3292                       3318                        2381                          271                            24                             76115              19166  19660  10190  11309
