Assembly	ABYSS_PE_PGM_sakai_pgm_mu_318_400bp_IO_TS3.4_ms.0.6percent_106.final
#Contigs	3167
#Contigs (>= 0 bp)	5301
#Contigs (>= 1000 bp)	705
Largest contig	38081
Total length	5731288
Total length (>= 0 bp)	6035138
Total length (>= 1000 bp)	5105921
Reference length	5594470
N50	10489
NG50	10836
N75	4607
NG75	5136
L50	163
LG50	157
L75	365
LG75	344
#local misassemblies	7
#misassemblies	5
#misassembled contigs	5
Misassembled contigs length	15024
Misassemblies inter-contig overlap	1263
#unaligned contigs	0 + 4 part
Unaligned contigs length	198
#ambiguously mapped contigs	605
Extra bases in ambiguously mapped contigs	-164068
#N's	0
#N's per 100 kbp	0.00
Genome fraction (%)	94.531
Duplication ratio	1.053
#genes	4393 + 779 part
#predicted genes (unique)	7696
#predicted genes (>= 0 bp)	7740
#predicted genes (>= 300 bp)	4673
#predicted genes (>= 1500 bp)	575
#predicted genes (>= 3000 bp)	42
#mismatches	95
#indels	389
Indels length	401
#mismatches per 100 kbp	1.80
#indels per 100 kbp	7.36
GC (%)	50.44
Reference GC (%)	50.48
Average %IDY	99.168
Largest alignment	38081
NA50	10487
NGA50	10795
NA75	4576
NGA75	5116
LA50	163
LGA50	157
LA75	366
LGA75	345
#Mis_misassemblies	5
#Mis_relocations	5
#Mis_translocations	0
#Mis_inversions	0
#Mis_misassembled contigs	5
Mis_Misassembled contigs length	15024
#Mis_local misassemblies	7
#Mis_short indels (<= 5 bp)	389
#Mis_long indels (> 5 bp)	0
#Una_fully unaligned contigs	0
Una_Fully unaligned length	0
#Una_partially unaligned contigs	4
#Una_with misassembly	0
#Una_both parts are significant	0
Una_Partially unaligned length	198
GAGE_Contigs #	3167
GAGE_Min contig	200
GAGE_Max contig	38081
GAGE_N50	10836 COUNT: 157
GAGE_Genome size	5594470
GAGE_Assembly size	5731288
GAGE_Chaff bases	0
GAGE_Missing reference bases	12947(0.23%)
GAGE_Missing assembly bases	230(0.00%)
GAGE_Missing assembly contigs	0(0.00%)
GAGE_Duplicated reference bases	244699
GAGE_Compressed reference bases	284372
GAGE_Bad trim	230
GAGE_Avg idy	99.98
GAGE_SNPs	62
GAGE_Indels < 5bp	422
GAGE_Indels >= 5	5
GAGE_Inversions	0
GAGE_Relocation	4
GAGE_Translocation	0
GAGE_Corrected contig #	1992
GAGE_Corrected assembly size	5486709
GAGE_Min correct contig	200
GAGE_Max correct contig	38084
GAGE_Corrected N50	10767 COUNT: 157
