All statistics are based on contigs of size >= 200 bp, unless otherwise noted (e.g., "# contigs (>= 0 bp)" and "Total length (>= 0 bp)" include all contigs).

Assembly                         CLC_MIS_PE_sakai_mis-1_bi_2x250bp_SI_default__sakai_mis-2_bi_2x250bp_SI_default.0.55percent.result_broken  CLC_MIS_PE_sakai_mis-1_bi_2x250bp_SI_default__sakai_mis-2_bi_2x250bp_SI_default.0.55percent.result
#Mis_misassemblies               3                                                                                                          3                                                                                                 
#Mis_relocations                 3                                                                                                          3                                                                                                 
#Mis_translocations              0                                                                                                          0                                                                                                 
#Mis_inversions                  0                                                                                                          0                                                                                                 
#Mis_misassembled contigs        3                                                                                                          3                                                                                                 
Mis_Misassembled contigs length  209450                                                                                                     420891                                                                                            
#Mis_local misassemblies         7                                                                                                          16                                                                                                
#mismatches                      81                                                                                                         80                                                                                                
#indels                          21                                                                                                         36                                                                                                
#Mis_short indels (<= 5 bp)      14                                                                                                         25                                                                                                
#Mis_long indels (> 5 bp)        7                                                                                                          11                                                                                                
Indels length                    390                                                                                                        542                                                                                               
