Assembly	VELVET_MIS_PE_mtbh37-1_mis_2x250bp_nextera_default__mtbh37-2_mis_2x250bp_nextera_default_157.final.contigs_broken	VELVET_MIS_PE_mtbh37-1_mis_2x250bp_nextera_default__mtbh37-2_mis_2x250bp_nextera_default_157.final.contigs
#Mis_misassemblies	4	4
#Mis_relocations	4	4
#Mis_translocations	0	0
#Mis_inversions	0	0
#Mis_misassembled contigs	4	4
Mis_Misassembled contigs length	24618	27142
#Mis_local misassemblies	6	171
#mismatches	265	268
#indels	38	238
#Mis_short indels (<= 5 bp)	37	228
#Mis_long indels (> 5 bp)	1	10
Indels length	55	597
