calling: java -cp /vol/ngscomparison/software/analysis/quast-2.1/libs/gage:. SizeFasta /vol/codine-tmp/juene/tmp.jrXj9CyYQl/quast/corrected_input/MRSA_COL_Plasmid.fasta |awk '{SUM+=; print SUM}'|tail -n 1
Contig Stats
Total units: 108
Reference: 2813862
BasesInFasta: 2780032
Min: 202
Max: 207857
N10: 165555 COUNT: 2
N25: 148131 COUNT: 5
N50: 107115 COUNT: 10
N75: 36004 COUNT: 22
E-size:99892.75

Genome Size: 2813862
Assembly Size: 2780032
Chaff bases: 0
Missing Reference Bases: 3243(0.12%)
Missing Assembly Bases: 1(0.00%)
Missing Assembly Contigs: 0(0.00%)
Duplicated Reference Bases: 483
Compressed Reference Bases: 37706
Bad Trim: 0
Avg Idy: 99.99
SNPs: 40
Indels < 5bp: 9
Indels >= 5: 3
Inversions: 1
Relocation: 2
Translocation: 0

Corrected Contig Stats
calling: java -cp /vol/ngscomparison/software/analysis/quast-2.1/libs/gage:.:. GetFastaStats -o -min 199 -genomeSize 2813862 /vol/codine-tmp/juene/tmp.jrXj9CyYQl/quast/gage/tmp/ABYSS_PE_MIS_PE_mrsa_mis-1_bi_2x250bp_default__mrsa_mis-2_bi_2x250bp_default.0.460percent_82-scaffolds_broken.matches.lens 2> /dev/null
Total units: 112
Reference: 2813862
BasesInFasta: 2782127
Min: 202
Max: 207857
N10: 163028 COUNT: 2
N25: 144734 COUNT: 5
N50: 107115 COUNT: 10
N75: 36004 COUNT: 23
E-size:94458.35

Done
