Assembly	ABYSS_PE_MIS_PE_sakai_mis-both_bi_2x250bp_SI_default.0.64percent.NEWBLER_100-scaffolds_broken	ABYSS_PE_MIS_PE_sakai_mis-both_bi_2x250bp_SI_default.0.64percent.NEWBLER_100-scaffolds
#Contigs (>= 0 bp)	565	515
#Contigs (>= 1000 bp)	199	185
Total length (>= 0 bp)	5549759	5552254
Total length (>= 1000 bp)	5449389	5470653
#Contigs	324	274
Largest contig	362241	362241
Total length	5512047	5514542
Reference length	5594470	5594470
GC (%)	50.39	50.39
Reference GC (%)	50.48	50.48
N50	95367	142281
NG50	95367	142281
N75	52887	57334
NG75	47032	57321
#misassemblies	7	22
#local misassemblies	5	24
#unaligned contigs	0 + 0 part	0 + 0 part
Unaligned contigs length	0	0
Genome fraction (%)	96.803	97.000
Duplication ratio	1.007	1.009
#N's per 100 kbp	0.53	45.77
#mismatches per 100 kbp	15.18	15.55
#indels per 100 kbp	0.87	3.24
#genes	5105 + 202 part	5122 + 195 part
#predicted genes (unique)	5360	5349
#predicted genes (>= 0 bp)	5478	5465
#predicted genes (>= 300 bp)	4557	4556
#predicted genes (>= 1500 bp)	690	692
#predicted genes (>= 3000 bp)	69	69
Largest alignment	362241	362241
NA50	93866	142281
NGA50	90999	142281
NA75	47952	57321
NGA75	41618	47952
