Assembly	ABYSS_PE_MIS_PE_mrsa_mis-1_bi_2x250bp_default__mrsa_mis-2_bi_2x250bp_default.0.460percent_36-scaffolds_broken	ABYSS_PE_MIS_PE_mrsa_mis-1_bi_2x250bp_default__mrsa_mis-2_bi_2x250bp_default.0.460percent_36-scaffolds
GAGE_Contigs #	203	190
GAGE_Min contig	207	207
GAGE_Max contig	99668	114448
GAGE_N50	34930 COUNT: 26	35317 COUNT: 26
GAGE_Genome size	2813862	2813862
GAGE_Assembly size	2741330	2742722
GAGE_Chaff bases	0	0
GAGE_Missing reference bases	41926(1.49%)	40867(1.45%)
GAGE_Missing assembly bases	4(0.00%)	764(0.03%)
GAGE_Missing assembly contigs	0(0.00%)	0(0.00%)
GAGE_Duplicated reference bases	0	0
GAGE_Compressed reference bases	34173	34811
GAGE_Bad trim	0	69
GAGE_Avg idy	99.99	99.98
GAGE_SNPs	99	104
GAGE_Indels < 5bp	16	22
GAGE_Indels >= 5	3	11
GAGE_Inversions	1	1
GAGE_Relocation	1	5
GAGE_Translocation	0	0
GAGE_Corrected contig #	208	205
GAGE_Corrected assembly size	2742169	2742557
GAGE_Min correct contig	207	207
GAGE_Max correct contig	99668	114447
GAGE_Corrected N50	34930 COUNT: 26	34943 COUNT: 26
