Assembly	SOAP2_MIS_PE_mtbh37-1_mis_2x250bp_nextera_default_53.final.scaf_broken	SOAP2_MIS_PE_mtbh37-1_mis_2x250bp_nextera_default_53.final.scaf
#Contigs (>= 0 bp)	160108	160104
#Contigs (>= 1000 bp)	16	16
Total length (>= 0 bp)	32565192	32565496
Total length (>= 1000 bp)	18265	18265
#Contigs	81392	81394
Largest contig	1530	1530
Total length	19711788	19713042
Reference length	4411532	4411532
GC (%)	71.15	71.15
Reference GC (%)	65.61	65.61
N50	245	245
NG50	251	251
N75	222	222
NG75	251	251
#misassemblies	0	0
#local misassemblies	1	3
#unaligned contigs	73305 + 13 part	73307 + 12 part
Unaligned contigs length	17146189	17146919
Genome fraction (%)	55.914	55.920
Duplication ratio	1.039	1.039
#N's per 100 kbp	0.00	1.54
#mismatches per 100 kbp	8.27	8.27
#indels per 100 kbp	0.73	0.73
#genes	135 + 3457 part	135 + 3457 part
#predicted genes (unique)	50545	50547
#predicted genes (>= 0 bp)	50583	50585
#predicted genes (>= 300 bp)	2402	2402
#predicted genes (>= 1500 bp)	0	0
#predicted genes (>= 3000 bp)	0	0
Largest alignment	1530	1530
NA50	None	None
NGA50	225	225
NA75	None	None
NGA75	None	None
