All statistics are based on contigs of size >= 200 bp, unless otherwise noted (e.g., "# contigs (>= 0 bp)" and "Total length (>= 0 bp)" include all contigs).

Assembly                                                                #Contigs  #Contigs (>= 0 bp)  #Contigs (>= 1000 bp)  Largest contig  Total length  Total length (>= 0 bp)  Total length (>= 1000 bp)  Reference length  N50  NG50  N75  NG75  L50    LG50  L75    LG75   #local misassemblies  #misassemblies  #misassembled contigs  Misassembled contigs length  Misassemblies inter-contig overlap  #unaligned contigs  Unaligned contigs length  #ambiguously mapped contigs  Extra bases in ambiguously mapped contigs  #N's  #N's per 100 kbp  Genome fraction (%)  Duplication ratio  #genes           #predicted genes (unique)  #predicted genes (>= 0 bp)  #predicted genes (>= 300 bp)  #predicted genes (>= 1500 bp)  #predicted genes (>= 3000 bp)  #mismatches  #indels  Indels length  #mismatches per 100 kbp  #indels per 100 kbp  GC (%)  Reference GC (%)  Average %IDY  Largest alignment  NA50  NGA50  NA75  NGA75  LA50  LGA50  LA75  LGA75  #Mis_misassemblies  #Mis_relocations  #Mis_translocations  #Mis_inversions  #Mis_misassembled contigs  Mis_Misassembled contigs length  #Mis_local misassemblies  #Mis_short indels (<= 5 bp)  #Mis_long indels (> 5 bp)  #Una_fully unaligned contigs  Una_Fully unaligned length  #Una_partially unaligned contigs  #Una_with misassembly  #Una_both parts are significant  Una_Partially unaligned length  GAGE_Contigs #  GAGE_Min contig  GAGE_Max contig  GAGE_N50         GAGE_Genome size  GAGE_Assembly size  GAGE_Chaff bases  GAGE_Missing reference bases  GAGE_Missing assembly bases  GAGE_Missing assembly contigs  GAGE_Duplicated reference bases  GAGE_Compressed reference bases  GAGE_Bad trim  GAGE_Avg idy  GAGE_SNPs  GAGE_Indels < 5bp  GAGE_Indels >= 5  GAGE_Inversions  GAGE_Relocation  GAGE_Translocation  GAGE_Corrected contig #  GAGE_Corrected assembly size  GAGE_Min correct contig  GAGE_Max correct contig  GAGE_Corrected N50
SOAP2_MIS_PE_mtbh37-1_mis_2x250bp_nextera_default_53.final.scaf_broken  81392     160108              16                     1530            19711788      32565192                18265                      4411532           245  251   222  251   36864  6265  57947  10659  1                     0               0                      0                            8                                   73305 + 13 part     17146189                  12                           -2997                                      0     0.00              55.914               1.039              135 + 3457 part  50545                      50583                       2402                          0                              0                              204          18       20             8.27                     0.73                 71.15   65.61             99.989        1530               None  225    None  None   None  6392   None  None   0                   0                 0                    0                0                          0                                1                         18                           0                          73305                         17145082                    13                                0                      0                                1107                            81392           200              1530             251 COUNT: 6265  4411532           19711788            0                 1443984(32.73%)               16185851(82.11%)             68585(84.27%)                  291709                           36994                            107969         99.18         16964      186                2                 0                1                0                   10432                    3089643                       200                      1530                     237 COUNT: 6348   
SOAP2_MIS_PE_mtbh37-1_mis_2x250bp_nextera_default_53.final.scaf         81394     160104              16                     1530            19713042      32565496                18265                      4411532           245  251   222  251   36864  6262  57948  10656  3                     0               0                      0                            8                                   73307 + 12 part     17146919                  12                           -2997                                      304   1.54              55.920               1.039              135 + 3457 part  50547                      50585                       2402                          0                              0                              204          18       20             8.27                     0.73                 71.15   65.61             99.989        1530               None  225    None  None   None  6391   None  None   0                   0                 0                    0                0                          0                                3                         18                           0                          73307                         17145920                    12                                0                      0                                999                             81394           200              1530             251 COUNT: 6262  4411532           19713042            0                 1443070(32.71%)               16186155(82.11%)             68585(84.26%)                  291709                           36994                            107861         99.18         16962      186                4                 0                1                0                   10433                    3089863                       200                      1530                     237 COUNT: 6348   
