All statistics are based on contigs of size >= 200 bp, unless otherwise noted (e.g., "# contigs (>= 0 bp)" and "Total length (>= 0 bp)" include all contigs).

Assembly                                                             #Contigs (>= 0 bp)  #Contigs (>= 1000 bp)  Total length (>= 0 bp)  Total length (>= 1000 bp)  #Contigs  Largest contig  Total length  Reference length  GC (%)  Reference GC (%)  N50     NG50   N75    NG75   #misassemblies  #local misassemblies  #unaligned contigs  Unaligned contigs length  Genome fraction (%)  Duplication ratio  #N's per 100 kbp  #mismatches per 100 kbp  #indels per 100 kbp  #genes           #predicted genes (unique)  #predicted genes (>= 0 bp)  #predicted genes (>= 300 bp)  #predicted genes (>= 1500 bp)  #predicted genes (>= 3000 bp)  Largest alignment  NA50    NGA50  NA75   NGA75
NEWBLER_PGM_sakai_pgm_mu_318_400bp_IO_TS3.4_ms_0.395percent.contigs  477                 144                    5380575                 5288640                    291       327102          5353951       5594470           50.29   50.48             103792  99569  53547  45427  4               6                     0 + 0 part          0                         94.093               1.001              0.00              1.63                     3.86                 4974 + 137 part  5353                       5353                        4490                          657                            65                             327102             103792  99569  53547  45427
