All statistics are based on contigs of size >= 200 bp, unless otherwise noted (e.g., "# contigs (>= 0 bp)" and "Total length (>= 0 bp)" include all contigs).

Assembly                                                                      #Contigs (>= 0 bp)  #Contigs (>= 1000 bp)  Total length (>= 0 bp)  Total length (>= 1000 bp)  #Contigs  Largest contig  Total length  Reference length  GC (%)  Reference GC (%)  N50     NG50    N75     NG75   #misassemblies  #local misassemblies  #unaligned contigs  Unaligned contigs length  Genome fraction (%)  Duplication ratio  #N's per 100 kbp  #mismatches per 100 kbp  #indels per 100 kbp  #genes          #predicted genes (unique)  #predicted genes (>= 0 bp)  #predicted genes (>= 300 bp)  #predicted genes (>= 1500 bp)  #predicted genes (>= 3000 bp)  Largest alignment  NA50    NGA50   NA75   NGA75
NEWBLER_PGM_mrsa_pgm_400bp_es_318_IKA_ts3.2_morestringent.66coverage.contigs  101                 38                     2782537                 2769113                    55        416036          2775945       2813862           32.65   32.81             239007  239007  109112  78454  2               5                     0 + 0 part          0                         98.334               1.000              0.00              2.28                     4.01                 2674 + 22 part  2656                       2657                        2305                          292                            27                             416036             239007  239007  78454  78454
