All statistics are based on contigs of size >= 200 bp, unless otherwise noted (e.g., "# contigs (>= 0 bp)" and "Total length (>= 0 bp)" include all contigs).

Assembly                          SOAP2_MIS_PE_sakai_mis-1_bi_2x150bp_default.0.826percent_101.final.scaf_broken  SOAP2_MIS_PE_sakai_mis-1_bi_2x150bp_default.0.826percent_101.final.scaf
#Una_fully unaligned contigs      4                                                                               9                                                                      
Una_Fully unaligned length        6357                                                                            11053                                                                  
#Una_partially unaligned contigs  0                                                                               9                                                                      
#Una_with misassembly             0                                                                               0                                                                      
#Una_both parts are significant   0                                                                               7                                                                      
Una_Partially unaligned length    0                                                                               8283                                                                   
#N's                              56                                                                              17032                                                                  
