All statistics are based on contigs of size >= 200 bp, unless otherwise noted (e.g., "# contigs (>= 0 bp)" and "Total length (>= 0 bp)" include all contigs).

Assembly                                                                       #Contigs (>= 0 bp)  #Contigs (>= 1000 bp)  Total length (>= 0 bp)  Total length (>= 1000 bp)  #Contigs  Largest contig  Total length  Reference length  GC (%)  Reference GC (%)  N50     NG50    N75    NG75   #misassemblies  #local misassemblies  #unaligned contigs  Unaligned contigs length  Genome fraction (%)  Duplication ratio  #N's per 100 kbp  #mismatches per 100 kbp  #indels per 100 kbp  #genes           #predicted genes (unique)  #predicted genes (>= 0 bp)  #predicted genes (>= 300 bp)  #predicted genes (>= 1500 bp)  #predicted genes (>= 3000 bp)  Largest alignment  NA50    NGA50   NA75   NGA75
SOAP2_MIS_PE_sakai_mis-1_bi_2x150bp_default.0.826percent_69.final.scaf_broken  2039                300                    5481023                 5155658                    684       145274          5298803       5594470           50.25   50.48             37153   36119   17711  15132  3               1                     1 + 2 part          5602                      93.200               1.000              0.87              1.09                     0.56                 4701 + 325 part  5472                       5475                        4418                          647                            61                             145274             37101   34665   17187  15132
SOAP2_MIS_PE_sakai_mis-1_bi_2x150bp_default.0.826percent_69.final.scaf         1466                124                    5512170                 5278161                    343       374695          5362189       5594470           50.27   50.48             149289  148304  77459  74098  45              130                   7 + 7 part          18453                     93.402               1.011              581.74            3.66                     53.24                4866 + 190 part  5404                       5407                        4425                          651                            60                             361726             148249  147879  77179  73993
