Assembly	ABYSS_PE_MIS_PE_sakai_mis-1_bi_2x150bp_default__sakai_mis-2_bi_2x150bp_default.0.826percent_54-scaffolds_broken	ABYSS_PE_MIS_PE_sakai_mis-1_bi_2x150bp_default__sakai_mis-2_bi_2x150bp_default.0.826percent_54-scaffolds
#Contigs	271	215
#Contigs (>= 0 bp)	1182	1124
#Contigs (>= 1000 bp)	172	152
Largest contig	292286	376912
Total length	5427237	5430696
Total length (>= 0 bp)	5521545	5524662
Total length (>= 1000 bp)	5371938	5393354
Reference length	5594470	5594470
N50	98911	148893
NG50	95724	148457
N75	44375	53342
NG75	42226	49782
L50	17	13
LG50	18	14
L75	35	28
LG75	38	30
#local misassemblies	9	30
#misassemblies	3	17
#misassembled contigs	3	13
Misassembled contigs length	357122	543912
Misassemblies inter-contig overlap	2966	3154
#unaligned contigs	0 + 0 part	0 + 3 part
Unaligned contigs length	0	4040
#ambiguously mapped contigs	48	30
Extra bases in ambiguously mapped contigs	-40756	-27970
#N's	50	3167
#N's per 100 kbp	0.92	58.32
Genome fraction (%)	95.536	95.642
Duplication ratio	1.008	1.010
#genes	5026 + 177 part	5038 + 172 part
#predicted genes (unique)	5234	5220
#predicted genes (>= 0 bp)	5330	5314
#predicted genes (>= 300 bp)	4482	4482
#predicted genes (>= 1500 bp)	672	674
#predicted genes (>= 3000 bp)	71	70
#mismatches	1014	1055
#indels	49	125
Indels length	155	444
#mismatches per 100 kbp	18.97	19.72
#indels per 100 kbp	0.92	2.34
GC (%)	50.35	50.35
Reference GC (%)	50.48	50.48
Average %IDY	99.006	98.959
Largest alignment	239155	271021
NA50	95724	148457
NGA50	94038	148263
NA75	44375	49782
NGA75	41781	46715
LA50	18	14
LGA50	19	15
LA75	36	29
LGA75	39	31
#Mis_misassemblies	3	17
#Mis_relocations	3	16
#Mis_translocations	0	1
#Mis_inversions	0	0
#Mis_misassembled contigs	3	13
Mis_Misassembled contigs length	357122	543912
#Mis_local misassemblies	9	30
#Mis_short indels (<= 5 bp)	45	111
#Mis_long indels (> 5 bp)	4	14
#Una_fully unaligned contigs	0	0
Una_Fully unaligned length	0	0
#Una_partially unaligned contigs	0	3
#Una_with misassembly	0	0
#Una_both parts are significant	0	2
Una_Partially unaligned length	0	4040
GAGE_Contigs #	271	215
GAGE_Min contig	202	202
GAGE_Max contig	292286	376912
GAGE_N50	95724 COUNT: 18	148457 COUNT: 14
GAGE_Genome size	5594470	5594470
GAGE_Assembly size	5427237	5430696
GAGE_Chaff bases	0	0
GAGE_Missing reference bases	73797(1.32%)	76278(1.36%)
GAGE_Missing assembly bases	15(0.00%)	4511(0.08%)
GAGE_Missing assembly contigs	0(0.00%)	0(0.00%)
GAGE_Duplicated reference bases	13071	12750
GAGE_Compressed reference bases	200570	200482
GAGE_Bad trim	0	1112
GAGE_Avg idy	99.97	99.96
GAGE_SNPs	671	673
GAGE_Indels < 5bp	33	39
GAGE_Indels >= 5	14	36
GAGE_Inversions	1	8
GAGE_Relocation	2	11
GAGE_Translocation	0	1
GAGE_Corrected contig #	269	265
GAGE_Corrected assembly size	5418113	5417397
GAGE_Min correct contig	202	202
GAGE_Max correct contig	228653	228653
GAGE_Corrected N50	91141 COUNT: 20	99485 COUNT: 19
