1: PREPARING DATA
2,3: RUNNING mummer AND CREATING CLUSTERS
# reading input file "/vol/codine-tmp/juene/tmp.uXBPcP7oiK/quast/contigs_reports/nucmer_output/CLC_MIS_PE_sakai_mis-1_bi_2x250bp_SI_default__sakai_mis-2_bi_2x250bp_SI_default.76coverage.result.ntref" of length 5594473
# construct suffix tree for sequence of length 5594473
# (maximum reference length is 536870908)
# (maximum query length is 4294967295)
# process 55944 characters per dot
#....................................................................................................
# CONSTRUCTIONTIME /vol/ngscomparison/software/analysis/quast-2.1/libs/MUMmer3.23-linux/mummer /vol/codine-tmp/juene/tmp.uXBPcP7oiK/quast/contigs_reports/nucmer_output/CLC_MIS_PE_sakai_mis-1_bi_2x250bp_SI_default__sakai_mis-2_bi_2x250bp_SI_default.76coverage.result.ntref 4.51
# reading input file "/vol/codine-tmp/juene/tmp.uXBPcP7oiK/quast/corrected_input/CLC_MIS_PE_sakai_mis-1_bi_2x250bp_SI_default__sakai_mis-2_bi_2x250bp_SI_default.76coverage.result" of length 5439254
# matching query-file "/vol/codine-tmp/juene/tmp.uXBPcP7oiK/quast/corrected_input/CLC_MIS_PE_sakai_mis-1_bi_2x250bp_SI_default__sakai_mis-2_bi_2x250bp_SI_default.76coverage.result"
# against subject-file "/vol/codine-tmp/juene/tmp.uXBPcP7oiK/quast/contigs_reports/nucmer_output/CLC_MIS_PE_sakai_mis-1_bi_2x250bp_SI_default__sakai_mis-2_bi_2x250bp_SI_default.76coverage.result.ntref"
# COMPLETETIME /vol/ngscomparison/software/analysis/quast-2.1/libs/MUMmer3.23-linux/mummer /vol/codine-tmp/juene/tmp.uXBPcP7oiK/quast/contigs_reports/nucmer_output/CLC_MIS_PE_sakai_mis-1_bi_2x250bp_SI_default__sakai_mis-2_bi_2x250bp_SI_default.76coverage.result.ntref 11.85
# SPACE /vol/ngscomparison/software/analysis/quast-2.1/libs/MUMmer3.23-linux/mummer /vol/codine-tmp/juene/tmp.uXBPcP7oiK/quast/contigs_reports/nucmer_output/CLC_MIS_PE_sakai_mis-1_bi_2x250bp_SI_default__sakai_mis-2_bi_2x250bp_SI_default.76coverage.result.ntref 10.70
4: FINISHING DATA
