calling: java -cp /vol/ngscomparison/software/analysis/quast-2.1/libs/gage:. SizeFasta /vol/codine-tmp/juene/tmp.PiV78KIi5a/quast/corrected_input/Ecoli_Sakai_editedNew_plasmids.fasta |awk '{SUM+=; print SUM}'|tail -n 1
Contig Stats
Total units: 10015
Reference: 5594470
BasesInFasta: 4797042
Min: 200
Max: 3943
N10: 1183 COUNT: 371
N25: 805 COUNT: 1250
N50: 488 COUNT: 3502
N75: 261 COUNT: 7409
E-size:578.9

Genome Size: 5594470
Assembly Size: 4797042
Chaff bases: 0
Missing Reference Bases: 881033(15.75%)
Missing Assembly Bases: 8535(0.18%)
Missing Assembly Contigs: 15(0.15%)
Duplicated Reference Bases: 111560
Compressed Reference Bases: 125563
Bad Trim: 4737
Avg Idy: 99.95
SNPs: 117
Indels < 5bp: 1459
Indels >= 5: 2
Inversions: 5
Relocation: 1
Translocation: 0

Corrected Contig Stats
calling: java -cp /vol/ngscomparison/software/analysis/quast-2.1/libs/gage:.:. GetFastaStats -o -min 199 -genomeSize 5594470 /vol/codine-tmp/juene/tmp.PiV78KIi5a/quast/gage/tmp/SOAP2_PGM_sakai_pgm_mu_200bp_IO_TS3.0Disabled_stringent.0.34percent_81.final.contig.matches.lens 2> /dev/null
Total units: 9507
Reference: 5594470
BasesInFasta: 4673690
Min: 200
Max: 3943
N10: 1183 COUNT: 371
N25: 805 COUNT: 1250
N50: 488 COUNT: 3502
N75: 259 COUNT: 7411
E-size:573.56

Done
