calling: java -cp /vol/ngscomparison/software/analysis/quast-2.1/libs/gage:. SizeFasta /vol/codine-tmp/juene/tmp.tzqUCBsWHm/quast/corrected_input/MRSA_COL_Plasmid.fasta |awk '{SUM+=; print SUM}'|tail -n 1
Contig Stats
Total units: 53
Reference: 2813862
BasesInFasta: 2782410
Min: 207
Max: 713087
N10: 713087 COUNT: 1
N25: 713087 COUNT: 1
N50: 237750 COUNT: 4
N75: 119112 COUNT: 8
E-size:311815.19

Genome Size: 2813862
Assembly Size: 2782410
Chaff bases: 0
Missing Reference Bases: 2230(0.08%)
Missing Assembly Bases: 6284(0.23%)
Missing Assembly Contigs: 4(7.55%)
Duplicated Reference Bases: 0
Compressed Reference Bases: 37754
Bad Trim: 2
Avg Idy: 99.99
SNPs: 31
Indels < 5bp: 10
Indels >= 5: 0
Inversions: 0
Relocation: 2
Translocation: 0

Corrected Contig Stats
calling: java -cp /vol/ngscomparison/software/analysis/quast-2.1/libs/gage:.:. GetFastaStats -o -min 199 -genomeSize 2813862 /vol/codine-tmp/juene/tmp.tzqUCBsWHm/quast/gage/tmp/NEWBLER_MIS_PE_mrsa_mis-1_bi_2x250bp_default__mrsa_mis-2_bi_2x250bp_default.96coverage.contigs.matches.lens 2> /dev/null
Total units: 51
Reference: 2813862
BasesInFasta: 2776132
Min: 207
Max: 713086
N10: 713086 COUNT: 1
N25: 713086 COUNT: 1
N50: 237753 COUNT: 4
N75: 87827 COUNT: 9
E-size:308142.38

Done
