calling: java -cp /vol/ngscomparison/software/analysis/quast-2.1/libs/gage:. SizeFasta /vol/codine-tmp/juene/tmp.jftFPC1eTs/quast/corrected_input/MRSA_COL_Plasmid.fasta |awk '{SUM+=; print SUM}'|tail -n 1
Contig Stats
Total units: 217
Reference: 2813862
BasesInFasta: 2777533
Min: 200
Max: 148123
N10: 112417 COUNT: 3
N25: 64410 COUNT: 8
N50: 38001 COUNT: 22
N75: 18879 COUNT: 47
E-size:49250.54

Genome Size: 2813862
Assembly Size: 2777533
Chaff bases: 0
Missing Reference Bases: 5232(0.19%)
Missing Assembly Bases: 70(0.00%)
Missing Assembly Contigs: 0(0.00%)
Duplicated Reference Bases: 475
Compressed Reference Bases: 42656
Bad Trim: 0
Avg Idy: 100.00
SNPs: 32
Indels < 5bp: 9
Indels >= 5: 2
Inversions: 0
Relocation: 2
Translocation: 0

Corrected Contig Stats
calling: java -cp /vol/ngscomparison/software/analysis/quast-2.1/libs/gage:.:. GetFastaStats -o -min 199 -genomeSize 2813862 /vol/codine-tmp/juene/tmp.jftFPC1eTs/quast/gage/tmp/ABYSS_PE_MIS_PE_mrsa_mis-1_bi_2x250bp_default__mrsa_mis-2_bi_2x250bp_default.36coverage_78.final.matches.lens 2> /dev/null
Total units: 219
Reference: 2813862
BasesInFasta: 2776993
Min: 200
Max: 148123
N10: 112417 COUNT: 3
N25: 64411 COUNT: 8
N50: 37333 COUNT: 22
N75: 18325 COUNT: 48
E-size:48761.86

Done
