Assembly	ABYSS_PE_MIS_PE_mrsa_mis-1_bi_2x250bp_default__mrsa_mis-2_bi_2x250bp_default.0.460percent_38-scaffolds_broken	ABYSS_PE_MIS_PE_mrsa_mis-1_bi_2x250bp_default__mrsa_mis-2_bi_2x250bp_default.0.460percent_38-scaffolds
#Mis_misassemblies	2	4
#Mis_relocations	2	4
#Mis_translocations	0	0
#Mis_inversions	0	0
#Mis_misassembled contigs	2	4
Mis_Misassembled contigs length	83420	119339
#Mis_local misassemblies	1	7
#mismatches	135	152
#indels	12	107
#Mis_short indels (<= 5 bp)	10	103
#Mis_long indels (> 5 bp)	2	4
Indels length	77	238
