Assembly	SOAP2_PGM_sakai_pgm_mu_318_400bp_IO_TS3.4_ms_0.395percent_33.final.contig
#Mis_misassemblies	0
#Mis_relocations	0
#Mis_translocations	0
#Mis_inversions	0
#Mis_misassembled contigs	0
Mis_Misassembled contigs length	0
#Mis_local misassemblies	0
#mismatches	2
#indels	57
#Mis_short indels (<= 5 bp)	57
#Mis_long indels (> 5 bp)	0
Indels length	58
