1: PREPARING DATA
2,3: RUNNING mummer AND CREATING CLUSTERS
# reading input file "/vol/codine-tmp/juene/tmp.nbpWEjVfvR/quast/contigs_reports/nucmer_output/VELVET_MIS_PE_sakai_mis-both_bi_2x250bp_SI_default.0.64percent_213.final.contigs_broken.ntref" of length 5594473
# construct suffix tree for sequence of length 5594473
# (maximum reference length is 536870908)
# (maximum query length is 4294967295)
# process 55944 characters per dot
#....................................................................................................
# CONSTRUCTIONTIME /vol/ngscomparison/software/analysis/quast-2.1/libs/MUMmer3.23-linux/mummer /vol/codine-tmp/juene/tmp.nbpWEjVfvR/quast/contigs_reports/nucmer_output/VELVET_MIS_PE_sakai_mis-both_bi_2x250bp_SI_default.0.64percent_213.final.contigs_broken.ntref 3.64
# reading input file "/vol/codine-tmp/juene/tmp.nbpWEjVfvR/quast/corrected_input/VELVET_MIS_PE_sakai_mis-both_bi_2x250bp_SI_default.0.64percent_213.final.contigs_broken" of length 5218978
# matching query-file "/vol/codine-tmp/juene/tmp.nbpWEjVfvR/quast/corrected_input/VELVET_MIS_PE_sakai_mis-both_bi_2x250bp_SI_default.0.64percent_213.final.contigs_broken"
# against subject-file "/vol/codine-tmp/juene/tmp.nbpWEjVfvR/quast/contigs_reports/nucmer_output/VELVET_MIS_PE_sakai_mis-both_bi_2x250bp_SI_default.0.64percent_213.final.contigs_broken.ntref"
# COMPLETETIME /vol/ngscomparison/software/analysis/quast-2.1/libs/MUMmer3.23-linux/mummer /vol/codine-tmp/juene/tmp.nbpWEjVfvR/quast/contigs_reports/nucmer_output/VELVET_MIS_PE_sakai_mis-both_bi_2x250bp_SI_default.0.64percent_213.final.contigs_broken.ntref 8.75
# SPACE /vol/ngscomparison/software/analysis/quast-2.1/libs/MUMmer3.23-linux/mummer /vol/codine-tmp/juene/tmp.nbpWEjVfvR/quast/contigs_reports/nucmer_output/VELVET_MIS_PE_sakai_mis-both_bi_2x250bp_SI_default.0.64percent_213.final.contigs_broken.ntref 10.61
4: FINISHING DATA
