Assembly	GAGE_Contigs #	GAGE_Min contig	GAGE_Max contig	GAGE_N50	GAGE_Genome size	GAGE_Assembly size	GAGE_Chaff bases	GAGE_Missing reference bases	GAGE_Missing assembly bases	GAGE_Missing assembly contigs	GAGE_Duplicated reference bases	GAGE_Compressed reference bases	GAGE_Bad trim	GAGE_Avg idy	GAGE_SNPs	GAGE_Indels < 5bp	GAGE_Indels >= 5	GAGE_Inversions	GAGE_Relocation	GAGE_Translocation	GAGE_Corrected contig #	GAGE_Corrected assembly size	GAGE_Min correct contig	GAGE_Max correct contig	GAGE_Corrected N50
VELVET_MIS_PE_sakai_mis-1_bi_2x150bp_default__sakai_mis-2_bi_2x150bp_default.0.826percent_131.final.contigs_broken	5679	261	6131	978 COUNT: 1723	5594470	4987213	0	434721(7.77%)	5854(0.12%)	5(0.09%)	14668	293425	285	99.99	263	23	1	2	6	0	5645	4970868	201	6131	977 COUNT: 1726
VELVET_MIS_PE_sakai_mis-1_bi_2x150bp_default__sakai_mis-2_bi_2x150bp_default.0.826percent_131.final.contigs	1464	261	38315	6546 COUNT: 254	5594470	5418980	0	437265(7.82%)	439267(8.11%)	1(0.07%)	14676	292061	1643	99.98	256	49	4129	21	23	0	5631	4969606	201	6131	979 COUNT: 1719
