Assembly	#Contigs (>= 0 bp)	#Contigs (>= 1000 bp)	Total length (>= 0 bp)	Total length (>= 1000 bp)	#Contigs	Largest contig	Total length	Reference length	GC (%)	Reference GC (%)	N50	NG50	N75	NG75	#misassemblies	#local misassemblies	#unaligned contigs	Unaligned contigs length	Genome fraction (%)	Duplication ratio	#N's per 100 kbp	#mismatches per 100 kbp	#indels per 100 kbp	#genes	#predicted genes (unique)	#predicted genes (>= 0 bp)	#predicted genes (>= 300 bp)	#predicted genes (>= 1500 bp)	#predicted genes (>= 3000 bp)	Largest alignment	NA50	NGA50	NA75	NGA75
ABYSS_PE_MIS_PE_sakai_mis-1_bi_2x150bp_default__sakai_mis-2_bi_2x150bp_default.36coverage_46.final_broken	1385	204	5529150	5382630	292	219500	5429048	5594470	50.38	50.48	77762	74933	37093	32726	4	9	0 + 0 part	0	95.022	1.015	1.66	18.64	1.03	4970 + 172 part	5211	5326	4485	681	70	219500	74933	72596	32918	31535
ABYSS_PE_MIS_PE_sakai_mis-1_bi_2x150bp_default__sakai_mis-2_bi_2x150bp_default.36coverage_46.final	1328	186	5532094	5403265	240	374885	5432729	5594470	50.38	50.48	98998	98952	41360	37195	13	28	0 + 2 part	1505	95.149	1.015	55.85	20.70	2.07	4983 + 164 part	5200	5315	4485	683	69	269122	98998	98952	41207	37093
