All statistics are based on contigs of size >= 200 bp, unless otherwise noted (e.g., "# contigs (>= 0 bp)" and "Total length (>= 0 bp)" include all contigs).

Assembly                                                                                                          GAGE_Contigs #  GAGE_Min contig  GAGE_Max contig  GAGE_N50         GAGE_Genome size  GAGE_Assembly size  GAGE_Chaff bases  GAGE_Missing reference bases  GAGE_Missing assembly bases  GAGE_Missing assembly contigs  GAGE_Duplicated reference bases  GAGE_Compressed reference bases  GAGE_Bad trim  GAGE_Avg idy  GAGE_SNPs  GAGE_Indels < 5bp  GAGE_Indels >= 5  GAGE_Inversions  GAGE_Relocation  GAGE_Translocation  GAGE_Corrected contig #  GAGE_Corrected assembly size  GAGE_Min correct contig  GAGE_Max correct contig  GAGE_Corrected N50
VELVET_MIS_PE_mrsa_mis-1_bi_2x250bp_default__mrsa_mis-2_bi_2x250bp_default.0.460percent_109.final.contigs_broken  190             217              149074           38902 COUNT: 19  2813862           2785587             0                 12326(0.44%)                  5214(0.19%)                  2(1.05%)                       2363                             42871                            4              100.00        36         9                  2                 1                2                0                   183                      2778411                       217                      149074                   38506 COUNT: 20   
VELVET_MIS_PE_mrsa_mis-1_bi_2x250bp_default__mrsa_mis-2_bi_2x250bp_default.0.460percent_109.final.contigs         172             217              149074           41565 COUNT: 18  2813862           2786473             0                 12326(0.44%)                  6100(0.22%)                  2(1.16%)                       2146                             42638                            13             100.00        37         9                  14                4                3                0                   184                      2778628                       217                      149074                   38506 COUNT: 20   
