All statistics are based on contigs of size >= 200 bp, unless otherwise noted (e.g., "# contigs (>= 0 bp)" and "Total length (>= 0 bp)" include all contigs).

Assembly                         VELVET_MIS_PE_mrsa_mis-1_bi_2x250bp_default__mrsa_mis-2_bi_2x250bp_default.0.460percent_57.final.contigs_broken  VELVET_MIS_PE_mrsa_mis-1_bi_2x250bp_default__mrsa_mis-2_bi_2x250bp_default.0.460percent_57.final.contigs
GAGE_Contigs #                   142                                                                                                              113                                                                                                     
GAGE_Min contig                  203                                                                                                              203                                                                                                     
GAGE_Max contig                  93857                                                                                                            164318                                                                                                  
GAGE_N50                         54085 COUNT: 20                                                                                                  70632 COUNT: 14                                                                                         
GAGE_Genome size                 2813862                                                                                                          2813862                                                                                                 
GAGE_Assembly size               2776994                                                                                                          2778035                                                                                                 
GAGE_Chaff bases                 0                                                                                                                0                                                                                                       
GAGE_Missing reference bases     8987(0.32%)                                                                                                      8901(0.32%)                                                                                             
GAGE_Missing assembly bases      4823(0.17%)                                                                                                      5699(0.21%)                                                                                             
GAGE_Missing assembly contigs    2(1.41%)                                                                                                         2(1.77%)                                                                                                
GAGE_Duplicated reference bases  2812                                                                                                             2812                                                                                                    
GAGE_Compressed reference bases  42287                                                                                                            42047                                                                                                   
GAGE_Bad trim                    1                                                                                                                0                                                                                                       
GAGE_Avg idy                     99.99                                                                                                            99.99                                                                                                   
GAGE_SNPs                        143                                                                                                              143                                                                                                     
GAGE_Indels < 5bp                23                                                                                                               37                                                                                                      
GAGE_Indels >= 5                 4                                                                                                                14                                                                                                      
GAGE_Inversions                  1                                                                                                                3                                                                                                       
GAGE_Relocation                  3                                                                                                                8                                                                                                       
GAGE_Translocation               0                                                                                                                0                                                                                                       
GAGE_Corrected contig #          138                                                                                                              134                                                                                                     
GAGE_Corrected assembly size     2770340                                                                                                          2770394                                                                                                 
GAGE_Min correct contig          203                                                                                                              203                                                                                                     
GAGE_Max correct contig          91016                                                                                                            91016                                                                                                   
GAGE_Corrected N50               53533 COUNT: 21                                                                                                  56062 COUNT: 20                                                                                         
