Assembly	VELVET_MIS_PE_mrsa_mis-1_bi_2x250bp_default__mrsa_mis-2_bi_2x250bp_default.0.460percent_169.final.contigs_broken	VELVET_MIS_PE_mrsa_mis-1_bi_2x250bp_default__mrsa_mis-2_bi_2x250bp_default.0.460percent_169.final.contigs
#Contigs	248	229
#Contigs (>= 0 bp)	248	229
#Contigs (>= 1000 bp)	205	189
Largest contig	74173	92743
Total length	2816698	2817846
Total length (>= 0 bp)	2816698	2817846
Total length (>= 1000 bp)	2798009	2800513
Reference length	2813862	2813862
N50	25297	27980
NG50	25297	27980
N75	13195	14708
NG75	13195	14708
L50	39	33
LG50	39	33
L75	77	67
LG75	77	67
#local misassemblies	1	6
#misassemblies	3	4
#misassembled contigs	3	4
Misassembled contigs length	87736	117516
Misassemblies inter-contig overlap	2622	2622
#unaligned contigs	1 + 0 part	1 + 0 part
Unaligned contigs length	5554	5554
#ambiguously mapped contigs	29	28
Extra bases in ambiguously mapped contigs	-12608	-12304
#N's	0	1148
#N's per 100 kbp	0.00	40.74
Genome fraction (%)	98.634	98.643
Duplication ratio	1.009	1.010
#genes	2592 + 122 part	2603 + 111 part
#predicted genes (unique)	2765	2763
#predicted genes (>= 0 bp)	2768	2767
#predicted genes (>= 300 bp)	2336	2336
#predicted genes (>= 1500 bp)	293	294
#predicted genes (>= 3000 bp)	26	26
#mismatches	81	81
#indels	12	232
Indels length	36	490
#mismatches per 100 kbp	2.92	2.92
#indels per 100 kbp	0.43	8.36
GC (%)	32.73	32.73
Reference GC (%)	32.81	32.81
Average %IDY	99.062	99.042
Largest alignment	74173	74173
NA50	25297	27880
NGA50	25297	27880
NA75	12858	14404
NGA75	12858	14404
LA50	40	34
LGA50	40	34
LA75	78	68
LGA75	78	68
#Mis_misassemblies	3	4
#Mis_relocations	3	4
#Mis_translocations	0	0
#Mis_inversions	0	0
#Mis_misassembled contigs	3	4
Mis_Misassembled contigs length	87736	117516
#Mis_local misassemblies	1	6
#Mis_short indels (<= 5 bp)	11	225
#Mis_long indels (> 5 bp)	1	7
#Una_fully unaligned contigs	1	1
Una_Fully unaligned length	5554	5554
#Una_partially unaligned contigs	0	0
#Una_with misassembly	0	0
#Una_both parts are significant	0	0
Una_Partially unaligned length	0	0
GAGE_Contigs #	248	229
GAGE_Min contig	239	337
GAGE_Max contig	74173	92743
GAGE_N50	25297 COUNT: 39	27980 COUNT: 33
GAGE_Genome size	2813862	2813862
GAGE_Assembly size	2816698	2817846
GAGE_Chaff bases	0	0
GAGE_Missing reference bases	6652(0.24%)	6636(0.24%)
GAGE_Missing assembly bases	5555(0.20%)	6685(0.24%)
GAGE_Missing assembly contigs	1(0.40%)	1(0.44%)
GAGE_Duplicated reference bases	3250	2902
GAGE_Compressed reference bases	37965	37690
GAGE_Bad trim	1	131
GAGE_Avg idy	100.00	99.99
GAGE_SNPs	32	32
GAGE_Indels < 5bp	9	11
GAGE_Indels >= 5	1	17
GAGE_Inversions	1	1
GAGE_Relocation	2	2
GAGE_Translocation	0	0
GAGE_Corrected contig #	241	241
GAGE_Corrected assembly size	2809799	2810163
GAGE_Min correct contig	337	337
GAGE_Max correct contig	74173	74173
GAGE_Corrected N50	25297 COUNT: 40	25297 COUNT: 40
