1: PREPARING DATA
2,3: RUNNING mummer AND CREATING CLUSTERS
# reading input file "/vol/codine-tmp/juene/tmp.OWUXulFcgL/quast/contigs_reports/nucmer_output/ABYSS_PE_PGM_sakai_pgm_mu_200bp_IO_TS3.0Disabled_stringent.36coverage_44.final.ntref" of length 5594473
# construct suffix tree for sequence of length 5594473
# (maximum reference length is 536870908)
# (maximum query length is 4294967295)
# process 55944 characters per dot
#....................................................................................................
# CONSTRUCTIONTIME /vol/ngscomparison/software/analysis/quast-2.1/libs/MUMmer3.23-linux/mummer /vol/codine-tmp/juene/tmp.OWUXulFcgL/quast/contigs_reports/nucmer_output/ABYSS_PE_PGM_sakai_pgm_mu_200bp_IO_TS3.0Disabled_stringent.36coverage_44.final.ntref 4.28
# reading input file "/vol/codine-tmp/juene/tmp.OWUXulFcgL/quast/corrected_input/ABYSS_PE_PGM_sakai_pgm_mu_200bp_IO_TS3.0Disabled_stringent.36coverage_44.final" of length 5216878
# matching query-file "/vol/codine-tmp/juene/tmp.OWUXulFcgL/quast/corrected_input/ABYSS_PE_PGM_sakai_pgm_mu_200bp_IO_TS3.0Disabled_stringent.36coverage_44.final"
# against subject-file "/vol/codine-tmp/juene/tmp.OWUXulFcgL/quast/contigs_reports/nucmer_output/ABYSS_PE_PGM_sakai_pgm_mu_200bp_IO_TS3.0Disabled_stringent.36coverage_44.final.ntref"
# COMPLETETIME /vol/ngscomparison/software/analysis/quast-2.1/libs/MUMmer3.23-linux/mummer /vol/codine-tmp/juene/tmp.OWUXulFcgL/quast/contigs_reports/nucmer_output/ABYSS_PE_PGM_sakai_pgm_mu_200bp_IO_TS3.0Disabled_stringent.36coverage_44.final.ntref 12.23
# SPACE /vol/ngscomparison/software/analysis/quast-2.1/libs/MUMmer3.23-linux/mummer /vol/codine-tmp/juene/tmp.OWUXulFcgL/quast/contigs_reports/nucmer_output/ABYSS_PE_PGM_sakai_pgm_mu_200bp_IO_TS3.0Disabled_stringent.36coverage_44.final.ntref 10.52
4: FINISHING DATA
