All statistics are based on contigs of size >= 200 bp, unless otherwise noted (e.g., "# contigs (>= 0 bp)" and "Total length (>= 0 bp)" include all contigs).

Assembly                                                                                                          GAGE_Contigs #  GAGE_Min contig  GAGE_Max contig  GAGE_N50         GAGE_Genome size  GAGE_Assembly size  GAGE_Chaff bases  GAGE_Missing reference bases  GAGE_Missing assembly bases  GAGE_Missing assembly contigs  GAGE_Duplicated reference bases  GAGE_Compressed reference bases  GAGE_Bad trim  GAGE_Avg idy  GAGE_SNPs  GAGE_Indels < 5bp  GAGE_Indels >= 5  GAGE_Inversions  GAGE_Relocation  GAGE_Translocation  GAGE_Corrected contig #  GAGE_Corrected assembly size  GAGE_Min correct contig  GAGE_Max correct contig  GAGE_Corrected N50
VELVET_MIS_PE_mrsa_mis-1_bi_2x250bp_default__mrsa_mis-2_bi_2x250bp_default.0.460percent_203.final.contigs_broken  1525            405              38898            2093 COUNT: 373  2813862           2694666             0                 207673(7.38%)                 5494(0.20%)                  3(0.20%)                       3051                             44845                            89             100.00        63         7                  1                 0                2                0                   1518                     2686758                       405                      38898                    2084 COUNT: 374   
VELVET_MIS_PE_mrsa_mis-1_bi_2x250bp_default__mrsa_mis-2_bi_2x250bp_default.0.460percent_203.final.contigs         1223            405              38898            2984 COUNT: 266  2813862           2721862             0                 208826(7.42%)                 34027(1.25%)                 3(0.25%)                       3051                             44950                            189            100.00        63         7                  296               0                2                0                   1516                     2685421                       405                      38898                    2084 COUNT: 374   
