All statistics are based on contigs of size >= 200 bp, unless otherwise noted (e.g., "# contigs (>= 0 bp)" and "Total length (>= 0 bp)" include all contigs).

Assembly                         ABYSS_PE_MIS_PE_mrsa_mis-1_bi_2x150bp_default__mrsa_mis-2_bi_2x150bp_default.0.250percent_62.final_broken  ABYSS_PE_MIS_PE_mrsa_mis-1_bi_2x150bp_default__mrsa_mis-2_bi_2x150bp_default.0.250percent_62.final
GAGE_Contigs #                   157                                                                                                        145                                                                                               
GAGE_Min contig                  200                                                                                                        200                                                                                               
GAGE_Max contig                  148091                                                                                                     148091                                                                                            
GAGE_N50                         44053 COUNT: 21                                                                                            46597 COUNT: 20                                                                                   
GAGE_Genome size                 2813862                                                                                                    2813862                                                                                           
GAGE_Assembly size               2775351                                                                                                    2776014                                                                                           
GAGE_Chaff bases                 0                                                                                                          0                                                                                                 
GAGE_Missing reference bases     10057(0.36%)                                                                                               9648(0.34%)                                                                                       
GAGE_Missing assembly bases      3(0.00%)                                                                                                   466(0.02%)                                                                                        
GAGE_Missing assembly contigs    0(0.00%)                                                                                                   0(0.00%)                                                                                          
GAGE_Duplicated reference bases  983                                                                                                        983                                                                                               
GAGE_Compressed reference bases  39844                                                                                                      39863                                                                                             
GAGE_Bad trim                    2                                                                                                          2                                                                                                 
GAGE_Avg idy                     99.99                                                                                                      99.98                                                                                             
GAGE_SNPs                        77                                                                                                         77                                                                                                
GAGE_Indels < 5bp                7                                                                                                          23                                                                                                
GAGE_Indels >= 5                 6                                                                                                          12                                                                                                
GAGE_Inversions                  0                                                                                                          0                                                                                                 
GAGE_Relocation                  2                                                                                                          3                                                                                                 
GAGE_Translocation               0                                                                                                          0                                                                                                 
GAGE_Corrected contig #          160                                                                                                        156                                                                                               
GAGE_Corrected assembly size     2776111                                                                                                    2776297                                                                                           
GAGE_Min correct contig          205                                                                                                        205                                                                                               
GAGE_Max correct contig          148091                                                                                                     148091                                                                                            
GAGE_Corrected N50               43289 COUNT: 22                                                                                            44069 COUNT: 21                                                                                   
