Assembly	NEWBLER_PGM_mrsa_pgm_400bp_es_318_IKA_ts3.2_morestringent.0.600percent.contigs
GAGE_Contigs #	119
GAGE_Min contig	203
GAGE_Max contig	187314
GAGE_N50	87346 COUNT: 11
GAGE_Genome size	2813862
GAGE_Assembly size	2776155
GAGE_Chaff bases	0
GAGE_Missing reference bases	10289(0.37%)
GAGE_Missing assembly bases	2(0.00%)
GAGE_Missing assembly contigs	0(0.00%)
GAGE_Duplicated reference bases	5773
GAGE_Compressed reference bases	34989
GAGE_Bad trim	2
GAGE_Avg idy	99.99
GAGE_SNPs	37
GAGE_Indels < 5bp	169
GAGE_Indels >= 5	1
GAGE_Inversions	0
GAGE_Relocation	2
GAGE_Translocation	0
GAGE_Corrected contig #	100
GAGE_Corrected assembly size	2770864
GAGE_Min correct contig	203
GAGE_Max correct contig	187332
GAGE_Corrected N50	85674 COUNT: 12
