Assembly	SOAP2_PGM_mrsa_pgm_200bp_es_316_IonOnev2_ts3.0_morestringent.0.230percent_109.final.contig
#Mis_misassemblies	18
#Mis_relocations	10
#Mis_translocations	0
#Mis_inversions	8
#Mis_misassembled contigs	18
Mis_Misassembled contigs length	14038
#Mis_local misassemblies	0
#mismatches	93
#indels	1258
#Mis_short indels (<= 5 bp)	1258
#Mis_long indels (> 5 bp)	0
Indels length	1288
