All statistics are based on contigs of size >= 200 bp, unless otherwise noted (e.g., "# contigs (>= 0 bp)" and "Total length (>= 0 bp)" include all contigs).

Assembly                                   VELVET_MIS_PE_mrsa_mis-1_bi_2x150bp_default__mrsa_mis-2_bi_2x150bp_default.0.527percent_31.final.contigs_broken  VELVET_MIS_PE_mrsa_mis-1_bi_2x150bp_default__mrsa_mis-2_bi_2x150bp_default.0.527percent_31.final.contigs
#Contigs                                   187                                                                                                              104                                                                                                     
#Contigs (>= 0 bp)                         412                                                                                                              326                                                                                                     
#Contigs (>= 1000 bp)                      141                                                                                                              77                                                                                                      
Largest contig                             126536                                                                                                           197667                                                                                                  
Total length                               2752164                                                                                                          2754893                                                                                                 
Total length (>= 0 bp)                     2772049                                                                                                          2774375                                                                                                 
Total length (>= 1000 bp)                  2731778                                                                                                          2744228                                                                                                 
Reference length                           2813862                                                                                                          2813862                                                                                                 
N50                                        34187                                                                                                            76392                                                                                                   
NG50                                       33507                                                                                                            76392                                                                                                   
N75                                        18586                                                                                                            45773                                                                                                   
NG75                                       18318                                                                                                            37804                                                                                                   
L50                                        27                                                                                                               12                                                                                                      
LG50                                       28                                                                                                               12                                                                                                      
L75                                        55                                                                                                               24                                                                                                      
LG75                                       57                                                                                                               26                                                                                                      
#local misassemblies                       12                                                                                                               34                                                                                                      
#misassemblies                             7                                                                                                                8                                                                                                       
#misassembled contigs                      6                                                                                                                7                                                                                                       
Misassembled contigs length                98758                                                                                                            241817                                                                                                  
Misassemblies inter-contig overlap         23320                                                                                                            3391                                                                                                    
#unaligned contigs                         1 + 2 part                                                                                                       1 + 0 part                                                                                              
Unaligned contigs length                   5257                                                                                                             5158                                                                                                    
#ambiguously mapped contigs                9                                                                                                                9                                                                                                       
Extra bases in ambiguously mapped contigs  -8872                                                                                                            -8872                                                                                                   
#N's                                       0                                                                                                                2326                                                                                                    
#N's per 100 kbp                           0.00                                                                                                             84.43                                                                                                   
Genome fraction (%)                        97.265                                                                                                           97.290                                                                                                  
Duplication ratio                          1.009                                                                                                            1.002                                                                                                   
#genes                                     2544 + 106 part                                                                                                  2582 + 66 part                                                                                          
#predicted genes (unique)                  2677                                                                                                             2650                                                                                                    
#predicted genes (>= 0 bp)                 2677                                                                                                             2650                                                                                                    
#predicted genes (>= 300 bp)               2284                                                                                                             2278                                                                                                    
#predicted genes (>= 1500 bp)              288                                                                                                              291                                                                                                     
#predicted genes (>= 3000 bp)              27                                                                                                               26                                                                                                      
#mismatches                                508                                                                                                              507                                                                                                     
#indels                                    79                                                                                                               259                                                                                                     
Indels length                              225                                                                                                              1278                                                                                                    
#mismatches per 100 kbp                    18.56                                                                                                            18.52                                                                                                   
#indels per 100 kbp                        2.89                                                                                                             9.46                                                                                                    
GC (%)                                     32.66                                                                                                            32.66                                                                                                   
Reference GC (%)                           32.81                                                                                                            32.81                                                                                                   
Average %IDY                               99.252                                                                                                           99.090                                                                                                  
Largest alignment                          126536                                                                                                           197581                                                                                                  
NA50                                       34187                                                                                                            76362                                                                                                   
NGA50                                      33507                                                                                                            73013                                                                                                   
NA75                                       18586                                                                                                            37804                                                                                                   
NGA75                                      18200                                                                                                            37767                                                                                                   
LA50                                       27                                                                                                               12                                                                                                      
LGA50                                      28                                                                                                               13                                                                                                      
LA75                                       55                                                                                                               25                                                                                                      
LGA75                                      58                                                                                                               26                                                                                                      
#Mis_misassemblies                         7                                                                                                                8                                                                                                       
#Mis_relocations                           7                                                                                                                8                                                                                                       
#Mis_translocations                        0                                                                                                                0                                                                                                       
#Mis_inversions                            0                                                                                                                0                                                                                                       
#Mis_misassembled contigs                  6                                                                                                                7                                                                                                       
Mis_Misassembled contigs length            98758                                                                                                            241817                                                                                                  
#Mis_local misassemblies                   12                                                                                                               34                                                                                                      
#Mis_short indels (<= 5 bp)                72                                                                                                               207                                                                                                     
#Mis_long indels (> 5 bp)                  7                                                                                                                52                                                                                                      
#Una_fully unaligned contigs               1                                                                                                                1                                                                                                       
Una_Fully unaligned length                 5158                                                                                                             5158                                                                                                    
#Una_partially unaligned contigs           2                                                                                                                0                                                                                                       
#Una_with misassembly                      0                                                                                                                0                                                                                                       
#Una_both parts are significant            0                                                                                                                0                                                                                                       
Una_Partially unaligned length             99                                                                                                               0                                                                                                       
GAGE_Contigs #                             187                                                                                                              104                                                                                                     
GAGE_Min contig                            201                                                                                                              201                                                                                                     
GAGE_Max contig                            126536                                                                                                           197667                                                                                                  
GAGE_N50                                   33507 COUNT: 28                                                                                                  76392 COUNT: 12                                                                                         
GAGE_Genome size                           2813862                                                                                                          2813862                                                                                                 
GAGE_Assembly size                         2752164                                                                                                          2754893                                                                                                 
GAGE_Chaff bases                           0                                                                                                                0                                                                                                       
GAGE_Missing reference bases               34135(1.21%)                                                                                                     33664(1.20%)                                                                                            
GAGE_Missing assembly bases                5266(0.19%)                                                                                                      7405(0.27%)                                                                                             
GAGE_Missing assembly contigs              1(0.53%)                                                                                                         1(0.96%)                                                                                                
GAGE_Duplicated reference bases            2362                                                                                                             2362                                                                                                    
GAGE_Compressed reference bases            35975                                                                                                            35769                                                                                                   
GAGE_Bad trim                              108                                                                                                              49                                                                                                      
GAGE_Avg idy                               99.97                                                                                                            99.97                                                                                                   
GAGE_SNPs                                  270                                                                                                              266                                                                                                     
GAGE_Indels < 5bp                          50                                                                                                               86                                                                                                      
GAGE_Indels >= 5                           10                                                                                                               74                                                                                                      
GAGE_Inversions                            0                                                                                                                0                                                                                                       
GAGE_Relocation                            8                                                                                                                18                                                                                                      
GAGE_Translocation                         0                                                                                                                0                                                                                                       
GAGE_Corrected contig #                    198                                                                                                              189                                                                                                     
GAGE_Corrected assembly size               2748005                                                                                                          2748329                                                                                                 
GAGE_Min correct contig                    201                                                                                                              201                                                                                                     
GAGE_Max correct contig                    97345                                                                                                            97345                                                                                                   
GAGE_Corrected N50                         29489 COUNT: 32                                                                                                  30766 COUNT: 32                                                                                         
