All statistics are based on contigs of size >= 200 bp, unless otherwise noted (e.g., "# contigs (>= 0 bp)" and "Total length (>= 0 bp)" include all contigs).

Assembly                                                                                                         #Contigs  #Contigs (>= 0 bp)  #Contigs (>= 1000 bp)  Largest contig  Total length  Total length (>= 0 bp)  Total length (>= 1000 bp)  Reference length  N50    NG50   N75    NG75   L50  LG50  L75  LG75  #local misassemblies  #misassemblies  #misassembled contigs  Misassembled contigs length  Misassemblies inter-contig overlap  #unaligned contigs  Unaligned contigs length  #ambiguously mapped contigs  Extra bases in ambiguously mapped contigs  #N's  #N's per 100 kbp  Genome fraction (%)  Duplication ratio  #genes           #predicted genes (unique)  #predicted genes (>= 0 bp)  #predicted genes (>= 300 bp)  #predicted genes (>= 1500 bp)  #predicted genes (>= 3000 bp)  #mismatches  #indels  Indels length  #mismatches per 100 kbp  #indels per 100 kbp  GC (%)  Reference GC (%)  Average %IDY  Largest alignment  NA50   NGA50  NA75   NGA75  LA50  LGA50  LA75  LGA75  #Mis_misassemblies  #Mis_relocations  #Mis_translocations  #Mis_inversions  #Mis_misassembled contigs  Mis_Misassembled contigs length  #Mis_local misassemblies  #Mis_short indels (<= 5 bp)  #Mis_long indels (> 5 bp)  #Una_fully unaligned contigs  Una_Fully unaligned length  #Una_partially unaligned contigs  #Una_with misassembly  #Una_both parts are significant  Una_Partially unaligned length  GAGE_Contigs #  GAGE_Min contig  GAGE_Max contig  GAGE_N50         GAGE_Genome size  GAGE_Assembly size  GAGE_Chaff bases  GAGE_Missing reference bases  GAGE_Missing assembly bases  GAGE_Missing assembly contigs  GAGE_Duplicated reference bases  GAGE_Compressed reference bases  GAGE_Bad trim  GAGE_Avg idy  GAGE_SNPs  GAGE_Indels < 5bp  GAGE_Indels >= 5  GAGE_Inversions  GAGE_Relocation  GAGE_Translocation  GAGE_Corrected contig #  GAGE_Corrected assembly size  GAGE_Min correct contig  GAGE_Max correct contig  GAGE_Corrected N50
VELVET_MIS_PE_mrsa_mis-1_bi_2x150bp_default__mrsa_mis-2_bi_2x150bp_default.0.527percent_31.final.contigs_broken  187       412                 141                    126536          2752164       2772049                 2731778                    2813862           34187  33507  18586  18318  27   28    55   57    12                    7               6                      98758                        23320                               1 + 2 part          5257                      9                            -8872                                      0     0.00              97.265               1.009              2544 + 106 part  2677                       2677                        2284                          288                            27                             508          79       225            18.56                    2.89                 32.66   32.81             99.252        126536             34187  33507  18586  18200  27    28     55    58     7                   7                 0                    0                6                          98758                            12                        72                           7                          1                             5158                        2                                 0                      0                                99                              187             201              126536           33507 COUNT: 28  2813862           2752164             0                 34135(1.21%)                  5266(0.19%)                  1(0.53%)                       2362                             35975                            108            99.97         270        50                 10                0                8                0                   198                      2748005                       201                      97345                    29489 COUNT: 32   
VELVET_MIS_PE_mrsa_mis-1_bi_2x150bp_default__mrsa_mis-2_bi_2x150bp_default.0.527percent_31.final.contigs         104       326                 77                     197667          2754893       2774375                 2744228                    2813862           76392  76392  45773  37804  12   12    24   26    34                    8               7                      241817                       3391                                1 + 0 part          5158                      9                            -8872                                      2326  84.43             97.290               1.002              2582 + 66 part   2650                       2650                        2278                          291                            26                             507          259      1278           18.52                    9.46                 32.66   32.81             99.090        197581             76362  73013  37804  37767  12    13     25    26     8                   8                 0                    0                7                          241817                           34                        207                          52                         1                             5158                        0                                 0                      0                                0                               104             201              197667           76392 COUNT: 12  2813862           2754893             0                 33664(1.20%)                  7405(0.27%)                  1(0.96%)                       2362                             35769                            49             99.97         266        86                 74                0                18               0                   189                      2748329                       201                      97345                    30766 COUNT: 32   
