Assembly	VELVET_PGM_sakai_pgm_mu_318_400bp_IO_TS3.4_ms_0.395percent_191.final.contigs
#Contigs (>= 0 bp)	1891
#Contigs (>= 1000 bp)	1333
Total length (>= 0 bp)	4651835
Total length (>= 1000 bp)	4274856
#Contigs	1891
Largest contig	16726
Total length	4651835
Reference length	5594470
GC (%)	51.08
Reference GC (%)	50.48
N50	3771
NG50	3033
N75	2060
NG75	1113
#misassemblies	75
#local misassemblies	34
#unaligned contigs	0 + 1 part
Unaligned contigs length	360
Genome fraction (%)	79.618
Duplication ratio	1.029
#N's per 100 kbp	18.70
#mismatches per 100 kbp	1.98
#indels per 100 kbp	19.89
#genes	3057 + 1523 part
#predicted genes (unique)	5934
#predicted genes (>= 0 bp)	5958
#predicted genes (>= 300 bp)	4462
#predicted genes (>= 1500 bp)	383
#predicted genes (>= 3000 bp)	25
Largest alignment	16708
NA50	3716
NGA50	3007
NA75	2029
NGA75	1055
