All statistics are based on contigs of size >= 200 bp, unless otherwise noted (e.g., "# contigs (>= 0 bp)" and "Total length (>= 0 bp)" include all contigs).

Assembly                                   CLC_MIS_PE_mtbh37-1_mis_2x250bp_nextera_default__mtbh37-2_mis_2x250bp_nextera_default.0.550percent.result_broken  CLC_MIS_PE_mtbh37-1_mis_2x250bp_nextera_default__mtbh37-2_mis_2x250bp_nextera_default.0.550percent.result
#Contigs                                   388                                                                                                               454                                                                                                      
#Contigs (>= 0 bp)                         770                                                                                                               454                                                                                                      
#Contigs (>= 1000 bp)                      161                                                                                                               119                                                                                                      
Largest contig                             161144                                                                                                            204846                                                                                                   
Total length                               4388180                                                                                                           4432659                                                                                                  
Total length (>= 0 bp)                     4416027                                                                                                           4432659                                                                                                  
Total length (>= 1000 bp)                  4318624                                                                                                           4334076                                                                                                  
Reference length                           4411532                                                                                                           4411532                                                                                                  
N50                                        60323                                                                                                             82292                                                                                                    
NG50                                       60323                                                                                                             82292                                                                                                    
N75                                        27842                                                                                                             38275                                                                                                    
NG75                                       27026                                                                                                             39420                                                                                                    
L50                                        25                                                                                                                18                                                                                                       
LG50                                       25                                                                                                                18                                                                                                       
L75                                        51                                                                                                                37                                                                                                       
LG75                                       52                                                                                                                36                                                                                                       
#local misassemblies                       7                                                                                                                 43                                                                                                       
#misassemblies                             2                                                                                                                 3                                                                                                        
#misassembled contigs                      2                                                                                                                 3                                                                                                        
Misassembled contigs length                105834                                                                                                            295055                                                                                                   
Misassemblies inter-contig overlap         884                                                                                                               858                                                                                                      
#unaligned contigs                         83 + 39 part                                                                                                      182 + 71 part                                                                                            
Unaligned contigs length                   28149                                                                                                             64730                                                                                                    
#ambiguously mapped contigs                22                                                                                                                17                                                                                                       
Extra bases in ambiguously mapped contigs  -16008                                                                                                            -14307                                                                                                   
#N's                                       464                                                                                                               17344                                                                                                    
#N's per 100 kbp                           10.57                                                                                                             391.28                                                                                                   
Genome fraction (%)                        97.945                                                                                                            97.960                                                                                                   
Duplication ratio                          1.006                                                                                                             1.008                                                                                                    
#genes                                     3933 + 119 part                                                                                                   3949 + 103 part                                                                                          
#predicted genes (unique)                  4186                                                                                                              4188                                                                                                     
#predicted genes (>= 0 bp)                 4186                                                                                                              4188                                                                                                     
#predicted genes (>= 300 bp)               3577                                                                                                              3574                                                                                                     
#predicted genes (>= 1500 bp)              571                                                                                                               568                                                                                                      
#predicted genes (>= 3000 bp)              72                                                                                                                72                                                                                                       
#mismatches                                323                                                                                                               332                                                                                                      
#indels                                    205                                                                                                               244                                                                                                      
Indels length                              527                                                                                                               941                                                                                                      
#mismatches per 100 kbp                    7.48                                                                                                              7.68                                                                                                     
#indels per 100 kbp                        4.74                                                                                                              5.65                                                                                                     
GC (%)                                     65.68                                                                                                             65.83                                                                                                    
Reference GC (%)                           65.61                                                                                                             65.61                                                                                                    
Average %IDY                               99.317                                                                                                            99.260                                                                                                   
Largest alignment                          161144                                                                                                            204817                                                                                                   
NA50                                       60223                                                                                                             81968                                                                                                    
NGA50                                      60223                                                                                                             81968                                                                                                    
NA75                                       27026                                                                                                             38275                                                                                                    
NGA75                                      27026                                                                                                             38275                                                                                                    
LA50                                       25                                                                                                                18                                                                                                       
LGA50                                      25                                                                                                                18                                                                                                       
LA75                                       52                                                                                                                37                                                                                                       
LGA75                                      52                                                                                                                37                                                                                                       
#Mis_misassemblies                         2                                                                                                                 3                                                                                                        
#Mis_relocations                           2                                                                                                                 3                                                                                                        
#Mis_translocations                        0                                                                                                                 0                                                                                                        
#Mis_inversions                            0                                                                                                                 0                                                                                                        
#Mis_misassembled contigs                  2                                                                                                                 3                                                                                                        
Mis_Misassembled contigs length            105834                                                                                                            295055                                                                                                   
#Mis_local misassemblies                   7                                                                                                                 43                                                                                                       
#Mis_short indels (<= 5 bp)                190                                                                                                               212                                                                                                      
#Mis_long indels (> 5 bp)                  15                                                                                                                32                                                                                                       
#Una_fully unaligned contigs               83                                                                                                                182                                                                                                      
Una_Fully unaligned length                 23357                                                                                                             53303                                                                                                    
#Una_partially unaligned contigs           39                                                                                                                71                                                                                                       
#Una_with misassembly                      0                                                                                                                 0                                                                                                        
#Una_both parts are significant            0                                                                                                                 2                                                                                                        
Una_Partially unaligned length             4792                                                                                                              11427                                                                                                    
GAGE_Contigs #                             388                                                                                                               454                                                                                                      
GAGE_Min contig                            200                                                                                                               200                                                                                                      
GAGE_Max contig                            161144                                                                                                            204846                                                                                                   
GAGE_N50                                   60323 COUNT: 25                                                                                                   82292 COUNT: 18                                                                                          
GAGE_Genome size                           4411532                                                                                                           4411532                                                                                                  
GAGE_Assembly size                         4388180                                                                                                           4432659                                                                                                  
GAGE_Chaff bases                           0                                                                                                                 0                                                                                                        
GAGE_Missing reference bases               27266(0.62%)                                                                                                      25392(0.58%)                                                                                             
GAGE_Missing assembly bases                28676(0.65%)                                                                                                      68894(1.55%)                                                                                             
GAGE_Missing assembly contigs              82(21.13%)                                                                                                        181(39.87%)                                                                                              
GAGE_Duplicated reference bases            21467                                                                                                             24246                                                                                                    
GAGE_Compressed reference bases            51295                                                                                                             51691                                                                                                    
GAGE_Bad trim                              5266                                                                                                              12049                                                                                                    
GAGE_Avg idy                               99.98                                                                                                             99.98                                                                                                    
GAGE_SNPs                                  234                                                                                                               243                                                                                                      
GAGE_Indels < 5bp                          45                                                                                                                61                                                                                                       
GAGE_Indels >= 5                           25                                                                                                                79                                                                                                       
GAGE_Inversions                            0                                                                                                                 0                                                                                                        
GAGE_Relocation                            3                                                                                                                 5                                                                                                        
GAGE_Translocation                         0                                                                                                                 0                                                                                                        
GAGE_Corrected contig #                    232                                                                                                               225                                                                                                      
GAGE_Corrected assembly size               4338388                                                                                                           4338648                                                                                                  
GAGE_Min correct contig                    201                                                                                                               201                                                                                                      
GAGE_Max correct contig                    143516                                                                                                            143516                                                                                                   
GAGE_Corrected N50                         56958 COUNT: 27                                                                                                   57424 COUNT: 27                                                                                          
