calling: java -cp /vol/ngscomparison/software/analysis/quast-2.1/libs/gage:. SizeFasta /vol/codine-tmp/juene/tmp.NOT9GDeXw5/quast/corrected_input/Mycobacterium_tuberculosis_H37Rv.fasta |awk '{SUM+=; print SUM}'|tail -n 1
Contig Stats
Total units: 81392
Reference: 4411532
BasesInFasta: 19711788
Min: 200
Max: 1530
N10: 491 COUNT: 710
N25: 343 COUNT: 2358
N50: 251 COUNT: 6265
N75: 251 COUNT: 10659
E-size:1127.11

Genome Size: 4411532
Assembly Size: 19711788
Chaff bases: 0
Missing Reference Bases: 1443984(32.73%)
Missing Assembly Bases: 16185851(82.11%)
Missing Assembly Contigs: 68585(84.27%)
Duplicated Reference Bases: 291709
Compressed Reference Bases: 36994
Bad Trim: 107969
Avg Idy: 99.18
SNPs: 16964
Indels < 5bp: 186
Indels >= 5: 2
Inversions: 0
Relocation: 1
Translocation: 0

Corrected Contig Stats
calling: java -cp /vol/ngscomparison/software/analysis/quast-2.1/libs/gage:.:. GetFastaStats -o -min 199 -genomeSize 4411532 /vol/codine-tmp/juene/tmp.NOT9GDeXw5/quast/gage/tmp/SOAP2_MIS_PE_mtbh37-1_mis_2x250bp_nextera_default_53.final.scaf_broken.matches.lens 2> /dev/null
Total units: 10432
Reference: 4411532
BasesInFasta: 3089643
Min: 200
Max: 1530
N10: 491 COUNT: 711
N25: 342 COUNT: 2362
N50: 237 COUNT: 6348
N75: 0 COUNT: 0
E-size:239.31

Done
