Assembly	#Contigs	#Contigs (>= 0 bp)	#Contigs (>= 1000 bp)	Largest contig	Total length	Total length (>= 0 bp)	Total length (>= 1000 bp)	Reference length	N50	NG50	N75	NG75	L50	LG50	L75	LG75	#local misassemblies	#misassemblies	#misassembled contigs	Misassembled contigs length	Misassemblies inter-contig overlap	#unaligned contigs	Unaligned contigs length	#ambiguously mapped contigs	Extra bases in ambiguously mapped contigs	#N's	#N's per 100 kbp	Genome fraction (%)	Duplication ratio	#genes	#predicted genes (unique)	#predicted genes (>= 0 bp)	#predicted genes (>= 300 bp)	#predicted genes (>= 1500 bp)	#predicted genes (>= 3000 bp)	#mismatches	#indels	Indels length	#mismatches per 100 kbp	#indels per 100 kbp	GC (%)	Reference GC (%)	Average %IDY	Largest alignment	NA50	NGA50	NA75	NGA75	LA50	LGA50	LA75	LGA75	#Mis_misassemblies	#Mis_relocations	#Mis_translocations	#Mis_inversions	#Mis_misassembled contigs	Mis_Misassembled contigs length	#Mis_local misassemblies	#Mis_short indels (<= 5 bp)	#Mis_long indels (> 5 bp)	#Una_fully unaligned contigs	Una_Fully unaligned length	#Una_partially unaligned contigs	#Una_with misassembly	#Una_both parts are significant	Una_Partially unaligned length	GAGE_Contigs #	GAGE_Min contig	GAGE_Max contig	GAGE_N50	GAGE_Genome size	GAGE_Assembly size	GAGE_Chaff bases	GAGE_Missing reference bases	GAGE_Missing assembly bases	GAGE_Missing assembly contigs	GAGE_Duplicated reference bases	GAGE_Compressed reference bases	GAGE_Bad trim	GAGE_Avg idy	GAGE_SNPs	GAGE_Indels < 5bp	GAGE_Indels >= 5	GAGE_Inversions	GAGE_Relocation	GAGE_Translocation	GAGE_Corrected contig #	GAGE_Corrected assembly size	GAGE_Min correct contig	GAGE_Max correct contig	GAGE_Corrected N50
NEWBLER_MIS_PE_mtbh37-1_mis_2x250bp_nextera_default__mtbh37-2_mis_2x250bp_nextera_default.0.500percent.contigs_broken	150	150	139	193078	4307539	4307539	4299412	4411532	63176	63176	33820	30626	21	21	45	47	5	1	1	852	20626	1 + 1 part	889	6	-4707	0	0.00	97.502	1.005	3920 + 108 part	4010	4010	3523	574	78	112	40	141	2.60	0.93	65.56	65.61	99.687	193078	63176	63176	33820	30626	21	21	45	47	1	0	0	1	1	852	5	37	3	1	851	1	0	0	38	150	500	193078	63176 COUNT: 21	4411532	4307539	0	98342(2.23%)	1086(0.03%)	1(0.67%)	0	7866	235	99.99	108	30	6	1	1	0	155	4307041	500	192570	57885 COUNT: 24
NEWBLER_MIS_PE_mtbh37-1_mis_2x250bp_nextera_default__mtbh37-2_mis_2x250bp_nextera_default.0.500percent.contigs	73	73	73	233381	4349726	4349726	4349726	4411532	115073	111665	64500	64195	13	14	27	28	80	2	2	177057	20626	0 + 0 part	0	0	0	42187	969.88	97.609	1.015	3921 + 109 part	4010	4010	3528	574	78	113	40	141	2.62	0.93	65.56	65.61	99.687	232229	109807	109807	63918	63853	14	14	27	28	2	1	0	1	2	177057	80	37	3	0	0	0	0	0	0	73	2091	233381	111665 COUNT: 14	4411532	4349726	0	98342(2.23%)	43273(0.99%)	0(0.00%)	0	7866	4	99.99	108	30	78	1	4	0	155	4307041	500	192570	57885 COUNT: 24
