Assembly	#Contigs (>= 0 bp)	#Contigs (>= 1000 bp)	Total length (>= 0 bp)	Total length (>= 1000 bp)	#Contigs	Largest contig	Total length	Reference length	GC (%)	Reference GC (%)	N50	NG50	N75	NG75	#misassemblies	#local misassemblies	#unaligned contigs	Unaligned contigs length	Genome fraction (%)	Duplication ratio	#N's per 100 kbp	#mismatches per 100 kbp	#indels per 100 kbp	#genes	#predicted genes (unique)	#predicted genes (>= 0 bp)	#predicted genes (>= 300 bp)	#predicted genes (>= 1500 bp)	#predicted genes (>= 3000 bp)	Largest alignment	NA50	NGA50	NA75	NGA75
CLC_MIS_PE_sakai_mis-1_bi_2x250bp_SI_default__sakai_mis-2_bi_2x250bp_SI_default.16coverage.result_broken	490	277	5383624	5295195	488	222117	5383288	5594470	50.27	50.48	40726	39635	19872	18293	10	5	39 + 1 part	15499	94.629	1.009	2.56	13.77	3.40	4898 + 242 part	5435	5435	4501	660	67	147512	39635	38651	19447	17390
CLC_MIS_PE_sakai_mis-1_bi_2x250bp_SI_default__sakai_mis-2_bi_2x250bp_SI_default.16coverage.result	476	270	5384354	5297963	476	222117	5384354	5594470	50.27	50.48	42687	41216	21054	19315	10	12	40 + 1 part	15884	94.897	1.009	16.12	14.28	3.48	4913 + 242 part	5432	5432	4500	660	67	147512	40980	39635	19872	19110
