Assembly	ABYSS_PE_PGM_mrsa_pgm_200bp_es_316_IonOnev2_ts3.0_morestringent.0.250percent_32.final
#Contigs	367
#Contigs (>= 0 bp)	5692
#Contigs (>= 1000 bp)	243
Largest contig	75386
Total length	2724772
Total length (>= 0 bp)	2980524
Total length (>= 1000 bp)	2673662
Reference length	2813862
N50	18740
NG50	17777
N75	10352
NG75	9665
L50	45
LG50	48
L75	93
LG75	100
#local misassemblies	1
#misassemblies	1
#misassembled contigs	1
Misassembled contigs length	30117
Misassemblies inter-contig overlap	195
#unaligned contigs	0 + 0 part
Unaligned contigs length	0
#ambiguously mapped contigs	12
Extra bases in ambiguously mapped contigs	-5191
#N's	0
#N's per 100 kbp	0.00
Genome fraction (%)	96.564
Duplication ratio	1.001
#genes	2472 + 148 part
#predicted genes (unique)	2784
#predicted genes (>= 0 bp)	2784
#predicted genes (>= 300 bp)	2320
#predicted genes (>= 1500 bp)	277
#predicted genes (>= 3000 bp)	22
#mismatches	48
#indels	231
Indels length	242
#mismatches per 100 kbp	1.77
#indels per 100 kbp	8.50
GC (%)	32.59
Reference GC (%)	32.81
Average %IDY	99.897
Largest alignment	75386
NA50	18740
NGA50	17777
NA75	10161
NGA75	9552
LA50	45
LGA50	48
LA75	94
LGA75	101
#Mis_misassemblies	1
#Mis_relocations	1
#Mis_translocations	0
#Mis_inversions	0
#Mis_misassembled contigs	1
Mis_Misassembled contigs length	30117
#Mis_local misassemblies	1
#Mis_short indels (<= 5 bp)	231
#Mis_long indels (> 5 bp)	0
#Una_fully unaligned contigs	0
Una_Fully unaligned length	0
#Una_partially unaligned contigs	0
#Una_with misassembly	0
#Una_both parts are significant	0
Una_Partially unaligned length	0
GAGE_Contigs #	367
GAGE_Min contig	200
GAGE_Max contig	75386
GAGE_N50	17777 COUNT: 48
GAGE_Genome size	2813862
GAGE_Assembly size	2724772
GAGE_Chaff bases	0
GAGE_Missing reference bases	75137(2.67%)
GAGE_Missing assembly bases	2(0.00%)
GAGE_Missing assembly contigs	0(0.00%)
GAGE_Duplicated reference bases	0
GAGE_Compressed reference bases	16851
GAGE_Bad trim	2
GAGE_Avg idy	99.99
GAGE_SNPs	43
GAGE_Indels < 5bp	240
GAGE_Indels >= 5	1
GAGE_Inversions	0
GAGE_Relocation	1
GAGE_Translocation	0
GAGE_Corrected contig #	369
GAGE_Corrected assembly size	2725200
GAGE_Min correct contig	200
GAGE_Max correct contig	75397
GAGE_Corrected N50	17777 COUNT: 48
