Assembly	NEWBLER_PGM_sakai_pgm_mu_200bp_IO_TS3.0Disabled_stringent.36coverage.contigs
GAGE_Contigs #	360
GAGE_Min contig	200
GAGE_Max contig	316698
GAGE_N50	93522 COUNT: 17
GAGE_Genome size	5594470
GAGE_Assembly size	5324552
GAGE_Chaff bases	0
GAGE_Missing reference bases	50216(0.90%)
GAGE_Missing assembly bases	54(0.00%)
GAGE_Missing assembly contigs	0(0.00%)
GAGE_Duplicated reference bases	1590
GAGE_Compressed reference bases	231922
GAGE_Bad trim	54
GAGE_Avg idy	99.97
GAGE_SNPs	110
GAGE_Indels < 5bp	1247
GAGE_Indels >= 5	6
GAGE_Inversions	0
GAGE_Relocation	5
GAGE_Translocation	0
GAGE_Corrected contig #	365
GAGE_Corrected assembly size	5325354
GAGE_Min correct contig	200
GAGE_Max correct contig	313770
GAGE_Corrected N50	90668 COUNT: 19
