Assembly	VELVET_MIS_PE_mtbh37-1_mis_2x250bp_nextera_default__mtbh37-2_mis_2x250bp_nextera_default_59.final.contigs_broken	VELVET_MIS_PE_mtbh37-1_mis_2x250bp_nextera_default__mtbh37-2_mis_2x250bp_nextera_default_59.final.contigs
#Contigs (>= 0 bp)	517	214
#Contigs (>= 1000 bp)	393	142
Total length (>= 0 bp)	4256838	4279934
Total length (>= 1000 bp)	4198299	4249112
#Contigs	491	193
Largest contig	66974	201583
Total length	4252955	4276843
Reference length	4411532	4411532
GC (%)	65.38	65.39
Reference GC (%)	65.61	65.61
N50	17900	60363
NG50	17477	60053
N75	9041	34407
NG75	8156	33492
#misassemblies	4	10
#local misassemblies	30	183
#unaligned contigs	1 + 2 part	2 + 3 part
Unaligned contigs length	1046	3871
Genome fraction (%)	96.027	96.120
Duplication ratio	1.003	1.008
#N's per 100 kbp	0.00	540.02
#mismatches per 100 kbp	9.02	9.29
#indels per 100 kbp	2.20	25.59
#genes	3654 + 385 part	3778 + 259 part
#predicted genes (unique)	4259	4203
#predicted genes (>= 0 bp)	4261	4205
#predicted genes (>= 300 bp)	3657	3644
#predicted genes (>= 1500 bp)	526	531
#predicted genes (>= 3000 bp)	64	66
Largest alignment	66974	201206
NA50	17848	59306
NGA50	17174	57667
NA75	8967	31876
NGA75	8136	27093
