Assembly	VELVET_MIS_PE_mrsa_mis-1_bi_2x150bp_default__mrsa_mis-2_bi_2x150bp_default.0.527percent_89.final.contigs_broken	VELVET_MIS_PE_mrsa_mis-1_bi_2x150bp_default__mrsa_mis-2_bi_2x150bp_default.0.527percent_89.final.contigs
#Contigs	81	50
#Contigs (>= 0 bp)	90	59
#Contigs (>= 1000 bp)	60	31
Largest contig	301384	767419
Total length	2789394	2790616
Total length (>= 0 bp)	2791048	2792270
Total length (>= 1000 bp)	2781043	2783744
Reference length	2813862	2813862
N50	90580	308160
NG50	88402	308160
N75	46023	106627
NG75	46023	106627
L50	8	3
LG50	9	3
L75	19	7
LG75	19	7
#local misassemblies	3	11
#misassemblies	4	8
#misassembled contigs	4	4
Misassembled contigs length	370484	903219
Misassemblies inter-contig overlap	1142	1362
#unaligned contigs	1 + 0 part	1 + 0 part
Unaligned contigs length	5385	5385
#ambiguously mapped contigs	12	12
Extra bases in ambiguously mapped contigs	-9114	-9114
#N's	0	1222
#N's per 100 kbp	0.00	43.79
Genome fraction (%)	98.556	98.574
Duplication ratio	1.001	1.001
#genes	2673 + 32 part	2687 + 18 part
#predicted genes (unique)	2643	2635
#predicted genes (>= 0 bp)	2645	2637
#predicted genes (>= 300 bp)	2294	2294
#predicted genes (>= 1500 bp)	300	300
#predicted genes (>= 3000 bp)	29	29
#mismatches	90	86
#indels	21	164
Indels length	58	478
#mismatches per 100 kbp	3.25	3.10
#indels per 100 kbp	0.76	5.91
GC (%)	32.70	32.70
Reference GC (%)	32.81	32.81
Average %IDY	98.628	98.590
Largest alignment	301384	767269
NA50	90580	224475
NGA50	88402	224475
NA75	45789	75208
NGA75	41206	75208
LA50	8	4
LGA50	9	4
LA75	19	9
LGA75	20	9
#Mis_misassemblies	4	8
#Mis_relocations	4	8
#Mis_translocations	0	0
#Mis_inversions	0	0
#Mis_misassembled contigs	4	4
Mis_Misassembled contigs length	370484	903219
#Mis_local misassemblies	3	11
#Mis_short indels (<= 5 bp)	17	149
#Mis_long indels (> 5 bp)	4	15
#Una_fully unaligned contigs	1	1
Una_Fully unaligned length	5385	5385
#Una_partially unaligned contigs	0	0
#Una_with misassembly	0	0
#Una_both parts are significant	0	0
Una_Partially unaligned length	0	0
GAGE_Contigs #	81	50
GAGE_Min contig	216	216
GAGE_Max contig	301384	767419
GAGE_N50	88402 COUNT: 9	308160 COUNT: 3
GAGE_Genome size	2813862	2813862
GAGE_Assembly size	2789394	2790616
GAGE_Chaff bases	0	0
GAGE_Missing reference bases	1679(0.06%)	1612(0.06%)
GAGE_Missing assembly bases	5394(0.19%)	6534(0.23%)
GAGE_Missing assembly contigs	1(1.23%)	1(2.00%)
GAGE_Duplicated reference bases	804	804
GAGE_Compressed reference bases	36013	35672
GAGE_Bad trim	9	0
GAGE_Avg idy	99.99	99.99
GAGE_SNPs	33	33
GAGE_Indels < 5bp	9	17
GAGE_Indels >= 5	3	22
GAGE_Inversions	1	3
GAGE_Relocation	4	9
GAGE_Translocation	0	0
GAGE_Corrected contig #	85	82
GAGE_Corrected assembly size	2784600	2784674
GAGE_Min correct contig	205	205
GAGE_Max correct contig	301384	301384
GAGE_Corrected N50	88402 COUNT: 9	90480 COUNT: 9
