All statistics are based on contigs of size >= 200 bp, unless otherwise noted (e.g., "# contigs (>= 0 bp)" and "Total length (>= 0 bp)" include all contigs).

Assembly                         SOAP2_PGM_mrsa_pgm_200bp_es_316_IonOnev2_ts3.0_morestringent.0.230percent_21.final.contig
#Mis_misassemblies               0                                                                                        
#Mis_relocations                 0                                                                                        
#Mis_translocations              0                                                                                        
#Mis_inversions                  0                                                                                        
#Mis_misassembled contigs        0                                                                                        
Mis_Misassembled contigs length  0                                                                                        
#Mis_local misassemblies         0                                                                                        
#mismatches                      12                                                                                       
#indels                          59                                                                                       
#Mis_short indels (<= 5 bp)      59                                                                                       
#Mis_long indels (> 5 bp)        0                                                                                        
Indels length                    63                                                                                       
