Assembly	ABYSS_PE_PGM_sakai_pgm_mu_318_400bp_IO_TS3.4_ms_0.395percent_60-unitigs
#Contigs (>= 0 bp)	7072
#Contigs (>= 1000 bp)	679
Total length (>= 0 bp)	5837671
Total length (>= 1000 bp)	5021336
#Contigs	1206
Largest contig	48485
Total length	5248869
Reference length	5594470
GC (%)	50.24
Reference GC (%)	50.48
N50	11761
NG50	11092
N75	5885
NG75	4745
#misassemblies	1
#local misassemblies	6
#unaligned contigs	0 + 1 part
Unaligned contigs length	53
Genome fraction (%)	92.643
Duplication ratio	1.002
#N's per 100 kbp	0.00
#mismatches per 100 kbp	1.41
#indels per 100 kbp	4.38
#genes	4310 + 700 part
#predicted genes (unique)	5808
#predicted genes (>= 0 bp)	5810
#predicted genes (>= 300 bp)	4571
#predicted genes (>= 1500 bp)	568
#predicted genes (>= 3000 bp)	51
Largest alignment	48485
NA50	11761
NGA50	11092
NA75	5885
NGA75	4745
