All statistics are based on contigs of size >= 200 bp, unless otherwise noted (e.g., "# contigs (>= 0 bp)" and "Total length (>= 0 bp)" include all contigs).

Assembly                         VELVET_MIS_PE_mtbh37-1_mis_2x250bp_nextera_default__mtbh37-2_mis_2x250bp_nextera_default_191.final.contigs_broken  VELVET_MIS_PE_mtbh37-1_mis_2x250bp_nextera_default__mtbh37-2_mis_2x250bp_nextera_default_191.final.contigs
#Mis_misassemblies               4                                                                                                                  4                                                                                                         
#Mis_relocations                 4                                                                                                                  4                                                                                                         
#Mis_translocations              0                                                                                                                  0                                                                                                         
#Mis_inversions                  0                                                                                                                  0                                                                                                         
#Mis_misassembled contigs        4                                                                                                                  4                                                                                                         
Mis_Misassembled contigs length  15944                                                                                                              20243                                                                                                     
#Mis_local misassemblies         5                                                                                                                  416                                                                                                       
#mismatches                      327                                                                                                                325                                                                                                       
#indels                          33                                                                                                                 633                                                                                                       
#Mis_short indels (<= 5 bp)      32                                                                                                                 620                                                                                                       
#Mis_long indels (> 5 bp)        1                                                                                                                  13                                                                                                        
Indels length                    59                                                                                                                 1251                                                                                                      
