1: PREPARING DATA
2,3: RUNNING mummer AND CREATING CLUSTERS
# reading input file "/vol/codine-tmp/juene/tmp.sTl9foGD1G/quast/gage/tmp/CLC_MIS_PE_sakai_mis-1_bi_2x150bp_default__sakai_mis-2_bi_2x150bp_default.11coverage.result_broken.ntref" of length 5594473
# construct suffix tree for sequence of length 5594473
# (maximum reference length is 536870908)
# (maximum query length is 4294967295)
# process 55944 characters per dot
#....................................................................................................
# CONSTRUCTIONTIME /vol/ngscomparison/software/analysis/quast-2.1/libs/MUMmer3.23-linux/mummer /vol/codine-tmp/juene/tmp.sTl9foGD1G/quast/gage/tmp/CLC_MIS_PE_sakai_mis-1_bi_2x150bp_default__sakai_mis-2_bi_2x150bp_default.11coverage.result_broken.ntref 4.87
# reading input file "/vol/codine-tmp/juene/tmp.sTl9foGD1G/quast/corrected_input/CLC_MIS_PE_sakai_mis-1_bi_2x150bp_default__sakai_mis-2_bi_2x150bp_default.11coverage.result_broken" of length 5328459
# matching query-file "/vol/codine-tmp/juene/tmp.sTl9foGD1G/quast/corrected_input/CLC_MIS_PE_sakai_mis-1_bi_2x150bp_default__sakai_mis-2_bi_2x150bp_default.11coverage.result_broken"
# against subject-file "/vol/codine-tmp/juene/tmp.sTl9foGD1G/quast/gage/tmp/CLC_MIS_PE_sakai_mis-1_bi_2x150bp_default__sakai_mis-2_bi_2x150bp_default.11coverage.result_broken.ntref"
# COMPLETETIME /vol/ngscomparison/software/analysis/quast-2.1/libs/MUMmer3.23-linux/mummer /vol/codine-tmp/juene/tmp.sTl9foGD1G/quast/gage/tmp/CLC_MIS_PE_sakai_mis-1_bi_2x150bp_default__sakai_mis-2_bi_2x150bp_default.11coverage.result_broken.ntref 13.80
# SPACE /vol/ngscomparison/software/analysis/quast-2.1/libs/MUMmer3.23-linux/mummer /vol/codine-tmp/juene/tmp.sTl9foGD1G/quast/gage/tmp/CLC_MIS_PE_sakai_mis-1_bi_2x150bp_default__sakai_mis-2_bi_2x150bp_default.11coverage.result_broken.ntref 10.60
4: FINISHING DATA
Filtering alignments
Extracting alignment coordinates
Analyzing SNPs
Extracting alignment breakpoints
Generating report file
Found genome size at position 4 with value 5594470 aka 5594470
Calculating point at 0 and the sum is 1020544 and i is710 and lens is 727 and length is 39665
Calculating point at 1 and the sum is 2005604 and i is680 and lens is 727 and length is 27672
Calculating point at 2 and the sum is 3016640 and i is632 and lens is 727 and length is 16726
Calculating point at 3 and the sum is 4008984 and i is558 and lens is 727 and length is 11037
Calculating point at 4 and the sum is 5000151 and i is389 and lens is 727 and length is 2514
