calling: java -cp /vol/ngscomparison/software/analysis/quast-2.1/libs/gage:. SizeFasta /vol/codine-tmp/juene/tmp.sTl9foGD1G/quast/corrected_input/Ecoli_Sakai_editedNew_plasmids.fasta |awk '{SUM+=; print SUM}'|tail -n 1
Contig Stats
Total units: 608
Reference: 5594470
BasesInFasta: 5332769
Min: 200
Max: 110083
N10: 78144 COUNT: 7
N25: 42839 COUNT: 22
N50: 24057 COUNT: 64
N75: 11836 COUNT: 147
E-size:32089.97

Genome Size: 5594470
Assembly Size: 5332769
Chaff bases: 0
Missing Reference Bases: 41922(0.75%)
Missing Assembly Bases: 10130(0.19%)
Missing Assembly Contigs: 1(0.16%)
Duplicated Reference Bases: 4436
Compressed Reference Bases: 266731
Bad Trim: 1706
Avg Idy: 99.97
SNPs: 623
Indels < 5bp: 89
Indels >= 5: 99
Inversions: 11
Relocation: 16
Translocation: 0

Corrected Contig Stats
calling: java -cp /vol/ngscomparison/software/analysis/quast-2.1/libs/gage:.:. GetFastaStats -o -min 199 -genomeSize 5594470 /vol/codine-tmp/juene/tmp.sTl9foGD1G/quast/gage/tmp/CLC_MIS_PE_sakai_mis-1_bi_2x150bp_default__sakai_mis-2_bi_2x150bp_default.11coverage.result.matches.lens 2> /dev/null
Total units: 718
Reference: 5594470
BasesInFasta: 5325086
Min: 200
Max: 110082
N10: 58429 COUNT: 8
N25: 34812 COUNT: 28
N50: 18362 COUNT: 83
N75: 9749 COUNT: 187
E-size:25501.87

Done
