Assembly	VELVET_MIS_PE_sakai_mis-1_bi_2x150bp_default__sakai_mis-2_bi_2x150bp_default.0.826percent_37.final.contigs_broken	VELVET_MIS_PE_sakai_mis-1_bi_2x150bp_default__sakai_mis-2_bi_2x150bp_default.0.826percent_37.final.contigs
#Contigs (>= 0 bp)	1031	823
#Contigs (>= 1000 bp)	291	134
Total length (>= 0 bp)	5361300	5370860
Total length (>= 1000 bp)	5199546	5232915
#Contigs	538	340
Largest contig	116769	374371
Total length	5306144	5316989
Reference length	5594470	5594470
GC (%)	50.29	50.29
Reference GC (%)	50.48	50.48
N50	33678	103925
NG50	32547	98684
N75	18279	46220
NG75	15683	42991
#misassemblies	5	11
#local misassemblies	12	74
#unaligned contigs	1 + 1 part	1 + 0 part
Unaligned contigs length	5663	5383
Genome fraction (%)	93.066	93.200
Duplication ratio	1.005	1.006
#N's per 100 kbp	0.00	179.80
#mismatches per 100 kbp	12.00	12.98
#indels per 100 kbp	2.23	9.99
#genes	4773 + 274 part	4900 + 157 part
#predicted genes (unique)	5392	5313
#predicted genes (>= 0 bp)	5394	5315
#predicted genes (>= 300 bp)	4448	4427
#predicted genes (>= 1500 bp)	641	647
#predicted genes (>= 3000 bp)	65	64
Largest alignment	116769	226554
NA50	33216	103786
NGA50	31406	98585
NA75	17764	43512
NGA75	15517	40442
