Assembly	ABYSS_PE_MIS_PE_mtbh37-1_mis_2x250bp_nextera_default__mtbh37-2_mis_2x250bp_nextera_default_94-scaffolds_broken	ABYSS_PE_MIS_PE_mtbh37-1_mis_2x250bp_nextera_default__mtbh37-2_mis_2x250bp_nextera_default_94-scaffolds
#Contigs	194	146
#Contigs (>= 0 bp)	248	200
#Contigs (>= 1000 bp)	170	125
Largest contig	162937	232607
Total length	4418506	4420831
Total length (>= 0 bp)	4426508	4428833
Total length (>= 1000 bp)	4406817	4410954
Reference length	4411532	4411532
N50	53500	83856
NG50	53500	83856
N75	28940	43342
NG75	28940	43602
L50	26	17
LG50	26	17
L75	53	35
LG75	53	34
#local misassemblies	21	32
#misassemblies	6	9
#misassembled contigs	5	7
Misassembled contigs length	131720	221703
Misassemblies inter-contig overlap	34436	68804
#unaligned contigs	0 + 1 part	0 + 0 part
Unaligned contigs length	18	0
#ambiguously mapped contigs	8	8
Extra bases in ambiguously mapped contigs	-6127	-6127
#N's	68	2393
#N's per 100 kbp	1.54	54.13
Genome fraction (%)	99.177	99.205
Duplication ratio	1.016	1.024
#genes	3969 + 140 part	4004 + 105 part
#predicted genes (unique)	4100	4091
#predicted genes (>= 0 bp)	4178	4169
#predicted genes (>= 300 bp)	3657	3655
#predicted genes (>= 1500 bp)	579	580
#predicted genes (>= 3000 bp)	74	74
#mismatches	386	386
#indels	84	224
Indels length	452	983
#mismatches per 100 kbp	8.82	8.82
#indels per 100 kbp	1.92	5.12
GC (%)	65.53	65.53
Reference GC (%)	65.61	65.61
Average %IDY	99.737	99.728
Largest alignment	162937	232607
NA50	53500	76093
NGA50	53500	76093
NA75	28940	43342
NGA75	28940	43342
LA50	26	18
LGA50	26	18
LA75	54	35
LGA75	54	35
#Mis_misassemblies	6	9
#Mis_relocations	6	9
#Mis_translocations	0	0
#Mis_inversions	0	0
#Mis_misassembled contigs	5	7
Mis_Misassembled contigs length	131720	221703
#Mis_local misassemblies	21	32
#Mis_short indels (<= 5 bp)	69	192
#Mis_long indels (> 5 bp)	15	32
#Una_fully unaligned contigs	0	0
Una_Fully unaligned length	0	0
#Una_partially unaligned contigs	1	0
#Una_with misassembly	0	0
#Una_both parts are significant	0	0
Una_Partially unaligned length	18	0
GAGE_Contigs #	194	146
GAGE_Min contig	219	219
GAGE_Max contig	162937	232607
GAGE_N50	53500 COUNT: 26	83856 COUNT: 17
GAGE_Genome size	4411532	4411532
GAGE_Assembly size	4418506	4420831
GAGE_Chaff bases	0	0
GAGE_Missing reference bases	28649(0.65%)	28204(0.64%)
GAGE_Missing assembly bases	947(0.02%)	2824(0.06%)
GAGE_Missing assembly contigs	0(0.00%)	0(0.00%)
GAGE_Duplicated reference bases	9037	9130
GAGE_Compressed reference bases	15646	14349
GAGE_Bad trim	906	904
GAGE_Avg idy	99.98	99.97
GAGE_SNPs	273	273
GAGE_Indels < 5bp	57	96
GAGE_Indels >= 5	33	66
GAGE_Inversions	1	0
GAGE_Relocation	2	5
GAGE_Translocation	0	0
GAGE_Corrected contig #	224	212
GAGE_Corrected assembly size	4412969	4413414
GAGE_Min correct contig	219	219
GAGE_Max correct contig	148580	232600
GAGE_Corrected N50	42476 COUNT: 32	47510 COUNT: 28
