Assembly	#Contigs (>= 0 bp)	#Contigs (>= 1000 bp)	Total length (>= 0 bp)	Total length (>= 1000 bp)	#Contigs	Largest contig	Total length	Reference length	GC (%)	Reference GC (%)	N50	NG50	N75	NG75	#misassemblies	#local misassemblies	#unaligned contigs	Unaligned contigs length	Genome fraction (%)	Duplication ratio	#N's per 100 kbp	#mismatches per 100 kbp	#indels per 100 kbp	#genes	#predicted genes (unique)	#predicted genes (>= 0 bp)	#predicted genes (>= 300 bp)	#predicted genes (>= 1500 bp)	#predicted genes (>= 3000 bp)	Largest alignment	NA50	NGA50	NA75	NGA75
VELVET_MIS_PE_mtbh37-1_mis_2x250bp_nextera_default__mtbh37-2_mis_2x250bp_nextera_default_195.final.contigs_broken	1302	1080	4270543	4107602	1302	25476	4270543	4411532	65.39	65.61	4831	4617	2701	2594	3	3	0 + 4 part	1079	95.401	1.013	0.00	10.60	1.05	2999 + 1092 part	4889	4912	3982	422	39	25476	4830	4603	2699	2578
VELVET_MIS_PE_mtbh37-1_mis_2x250bp_nextera_default__mtbh37-2_mis_2x250bp_nextera_default_195.final.contigs	789	703	4350152	4285288	789	41077	4350152	4411532	65.39	65.61	8839	8821	5027	4853	4	493	0 + 1 part	1031	95.409	1.032	1830.03	10.55	8.08	3016 + 1075 part	4849	4873	3996	422	39	40506	8602	8558	4631	4429
