Assembly	SOAP2_MIS_PE_mrsa_mis-1_bi_2x150bp_default.0.527percent_53.final.scaf_broken	SOAP2_MIS_PE_mrsa_mis-1_bi_2x150bp_default.0.527percent_53.final.scaf
#Mis_misassemblies	2	3
#Mis_relocations	2	3
#Mis_translocations	0	0
#Mis_inversions	0	0
#Mis_misassembled contigs	2	3
Mis_Misassembled contigs length	6076	151455
#Mis_local misassemblies	2	67
#mismatches	47	46
#indels	31	1800
#Mis_short indels (<= 5 bp)	15	1624
#Mis_long indels (> 5 bp)	16	176
Indels length	686	6651
