Assembly	ABYSS_PE_PGM_sakai_pgm_mu_200bp_IO_TS3.0Disabled_stringent.0.3percent_46.final
#Contigs	1171
#Contigs (>= 0 bp)	6386
#Contigs (>= 1000 bp)	729
Largest contig	48030
Total length	5224390
Total length (>= 0 bp)	5654527
Total length (>= 1000 bp)	5032908
Reference length	5594470
N50	10413
NG50	9813
N75	5684
NG75	4404
L50	150
LG50	168
L75	318
LG75	374
#local misassemblies	4
#misassemblies	2
#misassembled contigs	2
Misassembled contigs length	12471
Misassemblies inter-contig overlap	316
#unaligned contigs	0 + 1 part
Unaligned contigs length	30
#ambiguously mapped contigs	124
Extra bases in ambiguously mapped contigs	-60427
#N's	0
#N's per 100 kbp	0.00
Genome fraction (%)	92.223
Duplication ratio	1.001
#genes	4290 + 672 part
#predicted genes (unique)	6196
#predicted genes (>= 0 bp)	6197
#predicted genes (>= 300 bp)	4789
#predicted genes (>= 1500 bp)	492
#predicted genes (>= 3000 bp)	32
#mismatches	84
#indels	1232
Indels length	1282
#mismatches per 100 kbp	1.63
#indels per 100 kbp	23.88
GC (%)	50.21
Reference GC (%)	50.48
Average %IDY	99.867
Largest alignment	48030
NA50	10386
NGA50	9813
NA75	5684
NGA75	4404
LA50	150
LGA50	168
LA75	318
LGA75	374
#Mis_misassemblies	2
#Mis_relocations	2
#Mis_translocations	0
#Mis_inversions	0
#Mis_misassembled contigs	2
Mis_Misassembled contigs length	12471
#Mis_local misassemblies	4
#Mis_short indels (<= 5 bp)	1232
#Mis_long indels (> 5 bp)	0
#Una_fully unaligned contigs	0
Una_Fully unaligned length	0
#Una_partially unaligned contigs	1
#Una_with misassembly	0
#Una_both parts are significant	0
Una_Partially unaligned length	30
GAGE_Contigs #	1171
GAGE_Min contig	200
GAGE_Max contig	48030
GAGE_N50	9813 COUNT: 168
GAGE_Genome size	5594470
GAGE_Assembly size	5224390
GAGE_Chaff bases	0
GAGE_Missing reference bases	265241(4.74%)
GAGE_Missing assembly bases	39(0.00%)
GAGE_Missing assembly contigs	0(0.00%)
GAGE_Duplicated reference bases	405
GAGE_Compressed reference bases	115533
GAGE_Bad trim	39
GAGE_Avg idy	99.97
GAGE_SNPs	112
GAGE_Indels < 5bp	1285
GAGE_Indels >= 5	4
GAGE_Inversions	0
GAGE_Relocation	2
GAGE_Translocation	0
GAGE_Corrected contig #	1174
GAGE_Corrected assembly size	5225394
GAGE_Min correct contig	200
GAGE_Max correct contig	48041
GAGE_Corrected N50	9815 COUNT: 168
