Assembly	VELVET_PGM_sakai_pgm_mu_318_400bp_IO_TS3.4_ms_0.395percent_205.final.contigs
#Contigs	1803
#Contigs (>= 0 bp)	1803
#Contigs (>= 1000 bp)	1381
Largest contig	17596
Total length	4658690
Total length (>= 0 bp)	4658690
Total length (>= 1000 bp)	4350238
Reference length	5594470
N50	3786
NG50	3005
N75	2052
NG75	1199
L50	381
LG50	520
L75	796
LG75	1240
#local misassemblies	16
#misassemblies	59
#misassembled contigs	58
Misassembled contigs length	279923
Misassemblies inter-contig overlap	2399
#unaligned contigs	0 + 0 part
Unaligned contigs length	0
#ambiguously mapped contigs	86
Extra bases in ambiguously mapped contigs	-56601
#N's	670
#N's per 100 kbp	14.38
Genome fraction (%)	80.155
Duplication ratio	1.027
#genes	3125 + 1502 part
#predicted genes (unique)	5869
#predicted genes (>= 0 bp)	5884
#predicted genes (>= 300 bp)	4390
#predicted genes (>= 1500 bp)	413
#predicted genes (>= 3000 bp)	30
#mismatches	120
#indels	1013
Indels length	1049
#mismatches per 100 kbp	2.68
#indels per 100 kbp	22.59
GC (%)	51.25
Reference GC (%)	50.48
Average %IDY	99.258
Largest alignment	17497
NA50	3749
NGA50	2940
NA75	2004
NGA75	1150
LA50	385
LGA50	526
LA75	810
LGA75	1268
#Mis_misassemblies	59
#Mis_relocations	59
#Mis_translocations	0
#Mis_inversions	0
#Mis_misassembled contigs	58
Mis_Misassembled contigs length	279923
#Mis_local misassemblies	16
#Mis_short indels (<= 5 bp)	1012
#Mis_long indels (> 5 bp)	1
#Una_fully unaligned contigs	0
Una_Fully unaligned length	0
#Una_partially unaligned contigs	0
#Una_with misassembly	0
#Una_both parts are significant	0
Una_Partially unaligned length	0
GAGE_Contigs #	1803
GAGE_Min contig	409
GAGE_Max contig	17596
GAGE_N50	3005 COUNT: 520
GAGE_Genome size	5594470
GAGE_Assembly size	4658690
GAGE_Chaff bases	0
GAGE_Missing reference bases	901636(16.12%)
GAGE_Missing assembly bases	793(0.02%)
GAGE_Missing assembly contigs	0(0.00%)
GAGE_Duplicated reference bases	35618
GAGE_Compressed reference bases	230414
GAGE_Bad trim	653
GAGE_Avg idy	99.97
GAGE_SNPs	66
GAGE_Indels < 5bp	901
GAGE_Indels >= 5	8
GAGE_Inversions	2
GAGE_Relocation	12
GAGE_Translocation	0
GAGE_Corrected contig #	1797
GAGE_Corrected assembly size	4627381
GAGE_Min correct contig	409
GAGE_Max correct contig	17496
GAGE_Corrected N50	2932 COUNT: 530
