All statistics are based on contigs of size >= 200 bp, unless otherwise noted (e.g., "# contigs (>= 0 bp)" and "Total length (>= 0 bp)" include all contigs).

Assembly                                                                                          GAGE_Contigs #  GAGE_Min contig  GAGE_Max contig  GAGE_N50         GAGE_Genome size  GAGE_Assembly size  GAGE_Chaff bases  GAGE_Missing reference bases  GAGE_Missing assembly bases  GAGE_Missing assembly contigs  GAGE_Duplicated reference bases  GAGE_Compressed reference bases  GAGE_Bad trim  GAGE_Avg idy  GAGE_SNPs  GAGE_Indels < 5bp  GAGE_Indels >= 5  GAGE_Inversions  GAGE_Relocation  GAGE_Translocation  GAGE_Corrected contig #  GAGE_Corrected assembly size  GAGE_Min correct contig  GAGE_Max correct contig  GAGE_Corrected N50
CLC_MIS_PE_mrsa_mis-1_bi_2x150bp_default__mrsa_mis-2_bi_2x150bp_default.46coverage.result_broken  51              200              326301           135228 COUNT: 7  2813862           2777782             0                 8175(0.29%)                   5438(0.20%)                  1(1.96%)                       0                                35890                            29             99.99         69         10                 8                 0                5                0                   62                       2773416                       200                      326302                   97479 COUNT: 9    
CLC_MIS_PE_mrsa_mis-1_bi_2x150bp_default__mrsa_mis-2_bi_2x150bp_default.46coverage.result         46              200              553322           238868 COUNT: 4  2813862           2777957             0                 8175(0.29%)                   5613(0.20%)                  1(2.17%)                       0                                35890                            43             99.99         69         10                 11                0                6                0                   62                       2773416                       200                      326302                   97479 COUNT: 9    
