1: PREPARING DATA
2,3: RUNNING mummer AND CREATING CLUSTERS
# reading input file "/vol/codine-tmp/juene/tmp.XrgqXy6CyR/quast/contigs_reports/nucmer_output/SOAP2_MIS_PE_mtbh37-1_mis_2x250bp_nextera_default_55.final.scaf.ntref" of length 4411533
# construct suffix tree for sequence of length 4411533
# (maximum reference length is 536870908)
# (maximum query length is 4294967295)
# process 44115 characters per dot
#....................................................................................................
# CONSTRUCTIONTIME /vol/ngscomparison/software/analysis/quast-2.1/libs/MUMmer3.23-linux/mummer /vol/codine-tmp/juene/tmp.XrgqXy6CyR/quast/contigs_reports/nucmer_output/SOAP2_MIS_PE_mtbh37-1_mis_2x250bp_nextera_default_55.final.scaf.ntref 2.29
# reading input file "/vol/codine-tmp/juene/tmp.XrgqXy6CyR/quast/corrected_input/SOAP2_MIS_PE_mtbh37-1_mis_2x250bp_nextera_default_55.final.scaf" of length 20979411
# matching query-file "/vol/codine-tmp/juene/tmp.XrgqXy6CyR/quast/corrected_input/SOAP2_MIS_PE_mtbh37-1_mis_2x250bp_nextera_default_55.final.scaf"
# against subject-file "/vol/codine-tmp/juene/tmp.XrgqXy6CyR/quast/contigs_reports/nucmer_output/SOAP2_MIS_PE_mtbh37-1_mis_2x250bp_nextera_default_55.final.scaf.ntref"
# COMPLETETIME /vol/ngscomparison/software/analysis/quast-2.1/libs/MUMmer3.23-linux/mummer /vol/codine-tmp/juene/tmp.XrgqXy6CyR/quast/contigs_reports/nucmer_output/SOAP2_MIS_PE_mtbh37-1_mis_2x250bp_nextera_default_55.final.scaf.ntref 20.57
# SPACE /vol/ngscomparison/software/analysis/quast-2.1/libs/MUMmer3.23-linux/mummer /vol/codine-tmp/juene/tmp.XrgqXy6CyR/quast/contigs_reports/nucmer_output/SOAP2_MIS_PE_mtbh37-1_mis_2x250bp_nextera_default_55.final.scaf.ntref 25.73
4: FINISHING DATA
