Assembly	ABYSS_PE_MIS_PE_sakai_mis-1_bi_2x250bp_SI_default__sakai_mis-2_bi_2x250bp_SI_default.21coverage_56.final_broken	ABYSS_PE_MIS_PE_sakai_mis-1_bi_2x250bp_SI_default__sakai_mis-2_bi_2x250bp_SI_default.21coverage_56.final
GAGE_Contigs #	695	689
GAGE_Min contig	200	200
GAGE_Max contig	97919	123024
GAGE_N50	25088 COUNT: 61	25805 COUNT: 60
GAGE_Genome size	5594470	5594470
GAGE_Assembly size	5294500	5294983
GAGE_Chaff bases	0	0
GAGE_Missing reference bases	107489(1.92%)	110309(1.97%)
GAGE_Missing assembly bases	5039(0.10%)	6193(0.12%)
GAGE_Missing assembly contigs	1(0.14%)	2(0.29%)
GAGE_Duplicated reference bases	5885	2785
GAGE_Compressed reference bases	229103	223642
GAGE_Bad trim	1	1
GAGE_Avg idy	99.99	99.99
GAGE_SNPs	244	245
GAGE_Indels < 5bp	16	16
GAGE_Indels >= 5	5	8
GAGE_Inversions	0	1
GAGE_Relocation	2	3
GAGE_Translocation	0	0
GAGE_Corrected contig #	690	689
GAGE_Corrected assembly size	5283733	5286162
GAGE_Min correct contig	200	200
GAGE_Max correct contig	97919	97919
GAGE_Corrected N50	24438 COUNT: 62	24438 COUNT: 62
