Assembly	SOAP2_PGM_sakai_pgm_mu_200bp_IO_TS3.0Disabled_stringent.0.34percent_107.final.contig
GAGE_Contigs #	22791
GAGE_Min contig	200
GAGE_Max contig	6142
GAGE_N50	828 COUNT: 2083
GAGE_Genome size	5594470
GAGE_Assembly size	8439684
GAGE_Chaff bases	0
GAGE_Missing reference bases	58390(1.04%)
GAGE_Missing assembly bases	559(0.01%)
GAGE_Missing assembly contigs	0(0.00%)
GAGE_Duplicated reference bases	2559126
GAGE_Compressed reference bases	272362
GAGE_Bad trim	559
GAGE_Avg idy	99.96
GAGE_SNPs	55
GAGE_Indels < 5bp	1363
GAGE_Indels >= 5	0
GAGE_Inversions	1
GAGE_Relocation	3
GAGE_Translocation	0
GAGE_Corrected contig #	10824
GAGE_Corrected assembly size	5880067
GAGE_Min correct contig	200
GAGE_Max correct contig	6143
GAGE_Corrected N50	827 COUNT: 2084
