All statistics are based on contigs of size >= 200 bp, unless otherwise noted (e.g., "# contigs (>= 0 bp)" and "Total length (>= 0 bp)" include all contigs).

Assembly                                                                      #Una_fully unaligned contigs  Una_Fully unaligned length  #Una_partially unaligned contigs  #Una_with misassembly  #Una_both parts are significant  Una_Partially unaligned length  #N's
CLC_PGM_mrsa_pgm_200bp_es_316_IonOnev2_ts3.0_morestringent.41coverage.result  1                             281                         8                                 0                      0                                349                             17  
