Assembly	SOAP2_PGM_mrsa_pgm_400bp_es_318_IKA_ts3.2_morestringent.0.165percent_31.final.contig
GAGE_Contigs #	310
GAGE_Min contig	200
GAGE_Max contig	659
GAGE_N50	0 COUNT: 0
GAGE_Genome size	2813862
GAGE_Assembly size	75049
GAGE_Chaff bases	0
GAGE_Missing reference bases	2807019(99.76%)
GAGE_Missing assembly bases	68201(90.88%)
GAGE_Missing assembly contigs	278(89.68%)
GAGE_Duplicated reference bases	0
GAGE_Compressed reference bases	0
GAGE_Bad trim	135
GAGE_Avg idy	98.66
GAGE_SNPs	10
GAGE_Indels < 5bp	83
GAGE_Indels >= 5	0
GAGE_Inversions	0
GAGE_Relocation	0
GAGE_Translocation	0
GAGE_Corrected contig #	29
GAGE_Corrected assembly size	6370
GAGE_Min correct contig	200
GAGE_Max correct contig	300
GAGE_Corrected N50	0 COUNT: 0
