All statistics are based on contigs of size >= 200 bp, unless otherwise noted (e.g., "# contigs (>= 0 bp)" and "Total length (>= 0 bp)" include all contigs).

Assembly                                                                                                           GAGE_Contigs #  GAGE_Min contig  GAGE_Max contig  GAGE_N50          GAGE_Genome size  GAGE_Assembly size  GAGE_Chaff bases  GAGE_Missing reference bases  GAGE_Missing assembly bases  GAGE_Missing assembly contigs  GAGE_Duplicated reference bases  GAGE_Compressed reference bases  GAGE_Bad trim  GAGE_Avg idy  GAGE_SNPs  GAGE_Indels < 5bp  GAGE_Indels >= 5  GAGE_Inversions  GAGE_Relocation  GAGE_Translocation  GAGE_Corrected contig #  GAGE_Corrected assembly size  GAGE_Min correct contig  GAGE_Max correct contig  GAGE_Corrected N50
VELVET_MIS_PE_sakai_mis-1_bi_2x150bp_default__sakai_mis-2_bi_2x150bp_default.0.826percent_67.final.contigs_broken  433             201              353510           91061 COUNT: 19   5594470           5389565             0                 24178(0.43%)                  5488(0.10%)                  1(0.23%)                       15978                            242642                           36             99.99         250        34                 5                 0                6                0                   388                      5370099                       201                      224296                   81571 COUNT: 22   
VELVET_MIS_PE_sakai_mis-1_bi_2x150bp_default__sakai_mis-2_bi_2x150bp_default.0.826percent_67.final.contigs         349             201              374950           148262 COUNT: 11  5594470           5395222             0                 23765(0.42%)                  10136(0.19%)                 1(0.29%)                       15285                            239258                           195            99.98         250        63                 42                5                12               0                   379                      5371387                       201                      224296                   91059 COUNT: 20   
