1: PREPARING DATA
2,3: RUNNING mummer AND CREATING CLUSTERS
# reading input file "/vol/codine-tmp/juene/tmp.gCZzLVj7uA/quast/gage/tmp/CLC_MIS_PE_sakai_mis-1_bi_2x250bp_SI_default__sakai_mis-2_bi_2x250bp_SI_default.0.55percent.result_broken.ntref" of length 5594473
# construct suffix tree for sequence of length 5594473
# (maximum reference length is 536870908)
# (maximum query length is 4294967295)
# process 55944 characters per dot
#....................................................................................................
# CONSTRUCTIONTIME /vol/ngscomparison/software/analysis/quast-2.1/libs/MUMmer3.23-linux/mummer /vol/codine-tmp/juene/tmp.gCZzLVj7uA/quast/gage/tmp/CLC_MIS_PE_sakai_mis-1_bi_2x250bp_SI_default__sakai_mis-2_bi_2x250bp_SI_default.0.55percent.result_broken.ntref 3.76
# reading input file "/vol/codine-tmp/juene/tmp.gCZzLVj7uA/quast/corrected_input/CLC_MIS_PE_sakai_mis-1_bi_2x250bp_SI_default__sakai_mis-2_bi_2x250bp_SI_default.0.55percent.result_broken" of length 5446167
# matching query-file "/vol/codine-tmp/juene/tmp.gCZzLVj7uA/quast/corrected_input/CLC_MIS_PE_sakai_mis-1_bi_2x250bp_SI_default__sakai_mis-2_bi_2x250bp_SI_default.0.55percent.result_broken"
# against subject-file "/vol/codine-tmp/juene/tmp.gCZzLVj7uA/quast/gage/tmp/CLC_MIS_PE_sakai_mis-1_bi_2x250bp_SI_default__sakai_mis-2_bi_2x250bp_SI_default.0.55percent.result_broken.ntref"
# COMPLETETIME /vol/ngscomparison/software/analysis/quast-2.1/libs/MUMmer3.23-linux/mummer /vol/codine-tmp/juene/tmp.gCZzLVj7uA/quast/gage/tmp/CLC_MIS_PE_sakai_mis-1_bi_2x250bp_SI_default__sakai_mis-2_bi_2x250bp_SI_default.0.55percent.result_broken.ntref 11.61
# SPACE /vol/ngscomparison/software/analysis/quast-2.1/libs/MUMmer3.23-linux/mummer /vol/codine-tmp/juene/tmp.gCZzLVj7uA/quast/gage/tmp/CLC_MIS_PE_sakai_mis-1_bi_2x250bp_SI_default__sakai_mis-2_bi_2x250bp_SI_default.0.55percent.result_broken.ntref 10.71
4: FINISHING DATA
Filtering alignments
Extracting alignment coordinates
Analyzing SNPs
Extracting alignment breakpoints
Generating report file
Found genome size at position 4 with value 5594470 aka 5594470
Calculating point at 0 and the sum is 1109630 and i is243 and lens is 247 and length is 235317
Calculating point at 1 and the sum is 2125156 and i is237 and lens is 247 and length is 145600
Calculating point at 2 and the sum is 3032114 and i is230 and lens is 247 and length is 101834
Calculating point at 3 and the sum is 4041618 and i is217 and lens is 247 and length is 47259
Calculating point at 4 and the sum is 5011557 and i is181 and lens is 247 and length is 11795
