calling: java -cp /vol/ngscomparison/software/analysis/quast-2.1/libs/gage:. SizeFasta /vol/codine-tmp/juene/tmp.gCZzLVj7uA/quast/corrected_input/Ecoli_Sakai_editedNew_plasmids.fasta |awk '{SUM+=; print SUM}'|tail -n 1
Contig Stats
Total units: 484
Reference: 5594470
BasesInFasta: 5445684
Min: 200
Max: 355393
N10: 327332 COUNT: 2
N25: 238221 COUNT: 5
N50: 142815 COUNT: 14
N75: 46483 COUNT: 29
E-size:149876.21

Genome Size: 5594470
Assembly Size: 5445684
Chaff bases: 0
Missing Reference Bases: 11766(0.21%)
Missing Assembly Bases: 63373(1.16%)
Missing Assembly Contigs: 217(44.83%)
Duplicated Reference Bases: 14108
Compressed Reference Bases: 242370
Bad Trim: 47
Avg Idy: 99.99
SNPs: 81
Indels < 5bp: 16
Indels >= 5: 12
Inversions: 0
Relocation: 3
Translocation: 0

Corrected Contig Stats
calling: java -cp /vol/ngscomparison/software/analysis/quast-2.1/libs/gage:.:. GetFastaStats -o -min 199 -genomeSize 5594470 /vol/codine-tmp/juene/tmp.gCZzLVj7uA/quast/gage/tmp/CLC_MIS_PE_sakai_mis-1_bi_2x250bp_SI_default__sakai_mis-2_bi_2x250bp_SI_default.0.55percent.result_broken.matches.lens 2> /dev/null
Total units: 246
Reference: 5594470
BasesInFasta: 5369310
Min: 202
Max: 315310
N10: 313894 COUNT: 2
N25: 204953 COUNT: 6
N50: 122267 COUNT: 15
N75: 43185 COUNT: 34
E-size:129293.65

Done
