Assembly	VELVET_MIS_PE_mrsa_mis-1_bi_2x250bp_default__mrsa_mis-2_bi_2x250bp_default.0.460percent_17.final.contigs_broken	VELVET_MIS_PE_mrsa_mis-1_bi_2x250bp_default__mrsa_mis-2_bi_2x250bp_default.0.460percent_17.final.contigs
#Contigs	2841	2171
#Contigs (>= 0 bp)	5949	5200
#Contigs (>= 1000 bp)	835	637
Largest contig	9253	21944
Total length	2630566	2653877
Total length (>= 0 bp)	2866310	2880312
Total length (>= 1000 bp)	1654176	1947306
Reference length	2813862	2813862
N50	1388	2570
NG50	1279	2315
N75	719	942
NG75	609	780
L50	550	243
LG50	619	276
L75	1211	682
LG75	1420	822
#local misassemblies	21	347
#misassemblies	48	108
#misassembled contigs	48	84
Misassembled contigs length	71035	449828
Misassemblies inter-contig overlap	1766	932
#unaligned contigs	4 + 32 part	7 + 27 part
Unaligned contigs length	9793	14130
#ambiguously mapped contigs	20	20
Extra bases in ambiguously mapped contigs	-7641	-7641
#N's	0	14002
#N's per 100 kbp	0.00	527.61
Genome fraction (%)	91.477	91.705
Duplication ratio	1.016	1.020
#genes	1148 + 1433 part	1329 + 1246 part
#predicted genes (unique)	4522	4271
#predicted genes (>= 0 bp)	4522	4271
#predicted genes (>= 300 bp)	2867	2776
#predicted genes (>= 1500 bp)	71	96
#predicted genes (>= 3000 bp)	3	5
#mismatches	659	678
#indels	134	1370
Indels length	398	5775
#mismatches per 100 kbp	25.60	26.27
#indels per 100 kbp	5.21	53.09
GC (%)	32.62	32.61
Reference GC (%)	32.81	32.81
Average %IDY	99.931	99.843
Largest alignment	9253	18558
NA50	1375	2281
NGA50	1263	2051
NA75	706	871
NGA75	596	726
LA50	560	283
LGA50	630	320
LA75	1235	767
LGA75	1448	918
#Mis_misassemblies	48	108
#Mis_relocations	48	108
#Mis_translocations	0	0
#Mis_inversions	0	0
#Mis_misassembled contigs	48	84
Mis_Misassembled contigs length	71035	449828
#Mis_local misassemblies	21	347
#Mis_short indels (<= 5 bp)	119	1147
#Mis_long indels (> 5 bp)	15	223
#Una_fully unaligned contigs	4	7
Una_Fully unaligned length	7938	9432
#Una_partially unaligned contigs	32	27
#Una_with misassembly	0	0
#Una_both parts are significant	1	1
Una_Partially unaligned length	1855	4698
GAGE_Contigs #	2841	2171
GAGE_Min contig	200	200
GAGE_Max contig	9253	21944
GAGE_N50	1279 COUNT: 619	2315 COUNT: 276
GAGE_Genome size	2813862	2813862
GAGE_Assembly size	2630566	2653877
GAGE_Chaff bases	0	0
GAGE_Missing reference bases	199952(7.11%)	191857(6.82%)
GAGE_Missing assembly bases	8031(0.31%)	22861(0.86%)
GAGE_Missing assembly contigs	3(0.11%)	3(0.14%)
GAGE_Duplicated reference bases	22233	22233
GAGE_Compressed reference bases	30968	30973
GAGE_Bad trim	2124	1894
GAGE_Avg idy	99.97	99.96
GAGE_SNPs	567	548
GAGE_Indels < 5bp	95	172
GAGE_Indels >= 5	15	400
GAGE_Inversions	14	56
GAGE_Relocation	23	238
GAGE_Translocation	0	0
GAGE_Corrected contig #	2789	2763
GAGE_Corrected assembly size	2598177	2597885
GAGE_Min correct contig	200	200
GAGE_Max correct contig	9253	9253
GAGE_Corrected N50	1262 COUNT: 635	1273 COUNT: 620
