All statistics are based on contigs of size >= 200 bp, unless otherwise noted (e.g., "# contigs (>= 0 bp)" and "Total length (>= 0 bp)" include all contigs).

Assembly                                                                                                         GAGE_Contigs #  GAGE_Min contig  GAGE_Max contig  GAGE_N50         GAGE_Genome size  GAGE_Assembly size  GAGE_Chaff bases  GAGE_Missing reference bases  GAGE_Missing assembly bases  GAGE_Missing assembly contigs  GAGE_Duplicated reference bases  GAGE_Compressed reference bases  GAGE_Bad trim  GAGE_Avg idy  GAGE_SNPs  GAGE_Indels < 5bp  GAGE_Indels >= 5  GAGE_Inversions  GAGE_Relocation  GAGE_Translocation  GAGE_Corrected contig #  GAGE_Corrected assembly size  GAGE_Min correct contig  GAGE_Max correct contig  GAGE_Corrected N50
VELVET_MIS_PE_mrsa_mis-1_bi_2x250bp_default__mrsa_mis-2_bi_2x250bp_default.0.460percent_17.final.contigs_broken  2841            200              9253             1279 COUNT: 619  2813862           2630566             0                 199952(7.11%)                 8031(0.31%)                  3(0.11%)                       22233                            30968                            2124           99.97         567        95                 15                14               23               0                   2789                     2598177                       200                      9253                     1262 COUNT: 635   
VELVET_MIS_PE_mrsa_mis-1_bi_2x250bp_default__mrsa_mis-2_bi_2x250bp_default.0.460percent_17.final.contigs         2171            200              21944            2315 COUNT: 276  2813862           2653877             0                 191857(6.82%)                 22861(0.86%)                 3(0.14%)                       22233                            30973                            1894           99.96         548        172                400               56               238              0                   2763                     2597885                       200                      9253                     1273 COUNT: 620   
