Assembly	#Contigs (>= 0 bp)	#Contigs (>= 1000 bp)	Total length (>= 0 bp)	Total length (>= 1000 bp)	#Contigs	Largest contig	Total length	Reference length	GC (%)	Reference GC (%)	N50	NG50	N75	NG75	#misassemblies	#local misassemblies	#unaligned contigs	Unaligned contigs length	Genome fraction (%)	Duplication ratio	#N's per 100 kbp	#mismatches per 100 kbp	#indels per 100 kbp	#genes	#predicted genes (unique)	#predicted genes (>= 0 bp)	#predicted genes (>= 300 bp)	#predicted genes (>= 1500 bp)	#predicted genes (>= 3000 bp)	Largest alignment	NA50	NGA50	NA75	NGA75
VELVET_MIS_PE_mrsa_mis-1_bi_2x250bp_default__mrsa_mis-2_bi_2x250bp_default.0.460percent_17.final.contigs_broken	5949	835	2866310	1654176	2841	9253	2630566	2813862	32.62	32.81	1388	1279	719	609	48	21	4 + 32 part	9793	91.477	1.016	0.00	25.60	5.21	1148 + 1433 part	4522	4522	2867	71	3	9253	1375	1263	706	596
VELVET_MIS_PE_mrsa_mis-1_bi_2x250bp_default__mrsa_mis-2_bi_2x250bp_default.0.460percent_17.final.contigs	5200	637	2880312	1947306	2171	21944	2653877	2813862	32.61	32.81	2570	2315	942	780	108	347	7 + 27 part	14130	91.705	1.020	527.61	26.27	53.09	1329 + 1246 part	4271	4271	2776	96	5	18558	2281	2051	871	726
