All statistics are based on contigs of size >= 200 bp, unless otherwise noted (e.g., "# contigs (>= 0 bp)" and "Total length (>= 0 bp)" include all contigs).

Assembly                         CLC_MIS_PE_mrsa_mis-1_bi_2x150bp_default__mrsa_mis-2_bi_2x150bp_default.0.950percent.result_broken  CLC_MIS_PE_mrsa_mis-1_bi_2x150bp_default__mrsa_mis-2_bi_2x150bp_default.0.950percent.result
#Mis_misassemblies               3                                                                                                   3                                                                                          
#Mis_relocations                 3                                                                                                   3                                                                                          
#Mis_translocations              0                                                                                                   0                                                                                          
#Mis_inversions                  0                                                                                                   0                                                                                          
#Mis_misassembled contigs        3                                                                                                   3                                                                                          
Mis_Misassembled contigs length  379100                                                                                              454536                                                                                     
#Mis_local misassemblies         8                                                                                                   14                                                                                         
#mismatches                      126                                                                                                 149                                                                                        
#indels                          25                                                                                                  80                                                                                         
#Mis_short indels (<= 5 bp)      14                                                                                                  66                                                                                         
#Mis_long indels (> 5 bp)        11                                                                                                  14                                                                                         
Indels length                    297                                                                                                 398                                                                                        
