Assembly	SOAP2_MIS_PE_mrsa_mis-1_bi_2x250bp_default.0.460percent_101.final.scaf_broken	SOAP2_MIS_PE_mrsa_mis-1_bi_2x250bp_default.0.460percent_101.final.scaf
#Una_fully unaligned contigs	10	10
Una_Fully unaligned length	8258	8258
#Una_partially unaligned contigs	11	12
#Una_with misassembly	0	0
#Una_both parts are significant	1	2
Una_Partially unaligned length	1047	1445
#N's	111	1142
