1: PREPARING DATA
2,3: RUNNING mummer AND CREATING CLUSTERS
# reading input file "/vol/codine-tmp/juene/tmp.6g0fEEsN4O/quast/gage/tmp/CLC_PGM_sakai_pgm_mu_318_400bp_IO_TS3.4_ms.0.2percent.result.ntref" of length 5594473
# construct suffix tree for sequence of length 5594473
# (maximum reference length is 536870908)
# (maximum query length is 4294967295)
# process 55944 characters per dot
#....................................................................................................
# CONSTRUCTIONTIME /vol/ngscomparison/software/analysis/quast-2.1/libs/MUMmer3.23-linux/mummer /vol/codine-tmp/juene/tmp.6g0fEEsN4O/quast/gage/tmp/CLC_PGM_sakai_pgm_mu_318_400bp_IO_TS3.4_ms.0.2percent.result.ntref 2.80
# reading input file "/vol/codine-tmp/juene/tmp.6g0fEEsN4O/quast/corrected_input/CLC_PGM_sakai_pgm_mu_318_400bp_IO_TS3.4_ms.0.2percent.result" of length 5413717
# matching query-file "/vol/codine-tmp/juene/tmp.6g0fEEsN4O/quast/corrected_input/CLC_PGM_sakai_pgm_mu_318_400bp_IO_TS3.4_ms.0.2percent.result"
# against subject-file "/vol/codine-tmp/juene/tmp.6g0fEEsN4O/quast/gage/tmp/CLC_PGM_sakai_pgm_mu_318_400bp_IO_TS3.4_ms.0.2percent.result.ntref"
# COMPLETETIME /vol/ngscomparison/software/analysis/quast-2.1/libs/MUMmer3.23-linux/mummer /vol/codine-tmp/juene/tmp.6g0fEEsN4O/quast/gage/tmp/CLC_PGM_sakai_pgm_mu_318_400bp_IO_TS3.4_ms.0.2percent.result.ntref 9.88
# SPACE /vol/ngscomparison/software/analysis/quast-2.1/libs/MUMmer3.23-linux/mummer /vol/codine-tmp/juene/tmp.6g0fEEsN4O/quast/gage/tmp/CLC_PGM_sakai_pgm_mu_318_400bp_IO_TS3.4_ms.0.2percent.result.ntref 10.68
4: FINISHING DATA
Filtering alignments
Extracting alignment coordinates
Analyzing SNPs
Extracting alignment breakpoints
Generating report file
Found genome size at position 4 with value 5594470 aka 5594470
Calculating point at 0 and the sum is 1009632 and i is472 and lens is 479 and length is 90806
Calculating point at 1 and the sum is 2044838 and i is458 and lens is 479 and length is 64821
Calculating point at 2 and the sum is 3005482 and i is439 and lens is 479 and length is 45522
Calculating point at 3 and the sum is 4026857 and i is410 and lens is 479 and length is 28379
Calculating point at 4 and the sum is 5003159 and i is339 and lens is 479 and length is 4893
