Assembly	CLC_MIS_PE_mrsa_mis-1_bi_2x150bp_default__mrsa_mis-2_bi_2x150bp_default.0.850percent.result_broken	CLC_MIS_PE_mrsa_mis-1_bi_2x150bp_default__mrsa_mis-2_bi_2x150bp_default.0.850percent.result
#Mis_misassemblies	3	3
#Mis_relocations	3	3
#Mis_translocations	0	0
#Mis_inversions	0	0
#Mis_misassembled contigs	3	3
Mis_Misassembled contigs length	379569	455046
#Mis_local misassemblies	11	12
#mismatches	221	221
#indels	31	32
#Mis_short indels (<= 5 bp)	20	20
#Mis_long indels (> 5 bp)	11	12
Indels length	274	283
