Assembly	#Mis_misassemblies	#Mis_relocations	#Mis_translocations	#Mis_inversions	#Mis_misassembled contigs	Mis_Misassembled contigs length	#Mis_local misassemblies	#mismatches	#indels	#Mis_short indels (<= 5 bp)	#Mis_long indels (> 5 bp)	Indels length
CLC_MIS_PE_mrsa_mis-1_bi_2x150bp_default__mrsa_mis-2_bi_2x150bp_default.0.850percent.result_broken	3	3	0	0	3	379569	11	221	31	20	11	274
CLC_MIS_PE_mrsa_mis-1_bi_2x150bp_default__mrsa_mis-2_bi_2x150bp_default.0.850percent.result	3	3	0	0	3	455046	12	221	32	20	12	283
