Assembly	SEQMAN_PGM_mtbh37_pgm_400bp_es_318v2_OT2_tsv3.6_morestringent
#Mis_misassemblies	31
#Mis_relocations	31
#Mis_translocations	0
#Mis_inversions	0
#Mis_misassembled contigs	30
Mis_Misassembled contigs length	121593
#Mis_local misassemblies	21
#mismatches	306
#indels	993
#Mis_short indels (<= 5 bp)	990
#Mis_long indels (> 5 bp)	3
Indels length	1159
