calling: java -cp /vol/ngscomparison/software/analysis/quast-2.1/libs/gage:. SizeFasta /vol/codine-tmp/juene/tmp.QnM33tnpsk/quast/corrected_input/MRSA_COL_Plasmid.fasta |awk '{SUM+=; print SUM}'|tail -n 1
Contig Stats
Total units: 117
Reference: 2813862
BasesInFasta: 2779455
Min: 204
Max: 296307
N10: 296307 COUNT: 1
N25: 110192 COUNT: 5
N50: 66108 COUNT: 13
N75: 34638 COUNT: 28
E-size:88497.86

Genome Size: 2813862
Assembly Size: 2779455
Chaff bases: 0
Missing Reference Bases: 8283(0.29%)
Missing Assembly Bases: 5843(0.21%)
Missing Assembly Contigs: 1(0.85%)
Duplicated Reference Bases: 1696
Compressed Reference Bases: 41937
Bad Trim: 181
Avg Idy: 99.99
SNPs: 93
Indels < 5bp: 27
Indels >= 5: 11
Inversions: 1
Relocation: 6
Translocation: 0

Corrected Contig Stats
calling: java -cp /vol/ngscomparison/software/analysis/quast-2.1/libs/gage:.:. GetFastaStats -o -min 199 -genomeSize 2813862 /vol/codine-tmp/juene/tmp.QnM33tnpsk/quast/gage/tmp/VELVET_MIS_PE_mrsa_mis-1_bi_2x250bp_default__mrsa_mis-2_bi_2x250bp_default.0.460percent_65.final.contigs.matches.lens 2> /dev/null
Total units: 138
Reference: 2813862
BasesInFasta: 2773766
Min: 204
Max: 143860
N10: 110191 COUNT: 3
N25: 85320 COUNT: 7
N50: 50305 COUNT: 18
N75: 26293 COUNT: 37
E-size:56525.37

Done
