All statistics are based on contigs of size >= 200 bp, unless otherwise noted (e.g., "# contigs (>= 0 bp)" and "Total length (>= 0 bp)" include all contigs).

Assembly                       ABYSS_PE_MIS_PE_mrsa_mis-1_bi_2x150bp_default__mrsa_mis-2_bi_2x150bp_default.0.050percent_32.final_broken  ABYSS_PE_MIS_PE_mrsa_mis-1_bi_2x150bp_default__mrsa_mis-2_bi_2x150bp_default.0.050percent_32.final
#Contigs (>= 0 bp)             3046                                                                                                       3044                                                                                              
#Contigs (>= 1000 bp)          828                                                                                                        828                                                                                               
Total length (>= 0 bp)         2552292                                                                                                    2552370                                                                                           
Total length (>= 1000 bp)      1913191                                                                                                    1913515                                                                                           
#Contigs                       1883                                                                                                       1883                                                                                              
Largest contig                 19812                                                                                                      19812                                                                                             
Total length                   2456463                                                                                                    2456787                                                                                           
Reference length               2813862                                                                                                    2813862                                                                                           
GC (%)                         32.91                                                                                                      32.91                                                                                             
Reference GC (%)               32.81                                                                                                      32.81                                                                                             
N50                            2013                                                                                                       2021                                                                                              
NG50                           1706                                                                                                       1706                                                                                              
N75                            1096                                                                                                       1098                                                                                              
NG75                           736                                                                                                        736                                                                                               
#misassemblies                 2                                                                                                          2                                                                                                 
#local misassemblies           1                                                                                                          1                                                                                                 
#unaligned contigs             6 + 2 part                                                                                                 6 + 2 part                                                                                        
Unaligned contigs length       4540                                                                                                       4540                                                                                              
Genome fraction (%)            86.828                                                                                                     86.828                                                                                            
Duplication ratio              1.001                                                                                                      1.001                                                                                             
#N's per 100 kbp               0.00                                                                                                       3.17                                                                                              
#mismatches per 100 kbp        7.41                                                                                                       7.41                                                                                              
#indels per 100 kbp            0.20                                                                                                       0.20                                                                                              
#genes                         1269 + 1284 part                                                                                           1269 + 1284 part                                                                                  
#predicted genes (unique)      3499                                                                                                       3499                                                                                              
#predicted genes (>= 0 bp)     3499                                                                                                       3499                                                                                              
#predicted genes (>= 300 bp)   2415                                                                                                       2415                                                                                              
#predicted genes (>= 1500 bp)  145                                                                                                        145                                                                                               
#predicted genes (>= 3000 bp)  11                                                                                                         11                                                                                                
Largest alignment              19812                                                                                                      19812                                                                                             
NA50                           2013                                                                                                       2013                                                                                              
NGA50                          1704                                                                                                       1704                                                                                              
NA75                           1087                                                                                                       1086                                                                                              
NGA75                          721                                                                                                        721                                                                                               
