Assembly	GAGE_Contigs #	GAGE_Min contig	GAGE_Max contig	GAGE_N50	GAGE_Genome size	GAGE_Assembly size	GAGE_Chaff bases	GAGE_Missing reference bases	GAGE_Missing assembly bases	GAGE_Missing assembly contigs	GAGE_Duplicated reference bases	GAGE_Compressed reference bases	GAGE_Bad trim	GAGE_Avg idy	GAGE_SNPs	GAGE_Indels < 5bp	GAGE_Indels >= 5	GAGE_Inversions	GAGE_Relocation	GAGE_Translocation	GAGE_Corrected contig #	GAGE_Corrected assembly size	GAGE_Min correct contig	GAGE_Max correct contig	GAGE_Corrected N50
SOAP2_MIS_PE_sakai_mis-1_bi_2x250bp_SI_default.0.64percent_85.final.scaf_broken	2063	200	27190	4560 COUNT: 357	5594470	5211461	0	254724(4.55%)	8506(0.16%)	9(0.44%)	14399	198285	106	99.99	268	63	99	1	7	0	2092	5185395	200	27190	4345 COUNT: 374
SOAP2_MIS_PE_sakai_mis-1_bi_2x250bp_SI_default.0.64percent_85.final.scaf	716	200	82857	26562 COUNT: 64	5594470	5322347	0	235198(4.20%)	91844(1.73%)	12(1.68%)	26903	209212	7885	99.96	181	144	1484	4	25	0	2026	5173812	200	27190	4404 COUNT: 369
