calling: java -cp /vol/ngscomparison/software/analysis/quast-2.1/libs/gage:. SizeFasta /vol/codine-tmp/juene/tmp.4BYnB2VL5r/quast/corrected_input/MRSA_COL_Plasmid.fasta |awk '{SUM+=; print SUM}'|tail -n 1
Contig Stats
Total units: 151
Reference: 2813862
BasesInFasta: 2750138
Min: 206
Max: 144455
N10: 86825 COUNT: 3
N25: 65361 COUNT: 9
N50: 40612 COUNT: 21
N75: 21657 COUNT: 45
E-size:48072.69

Genome Size: 2813862
Assembly Size: 2750138
Chaff bases: 0
Missing Reference Bases: 34095(1.21%)
Missing Assembly Bases: 6096(0.22%)
Missing Assembly Contigs: 3(1.99%)
Duplicated Reference Bases: 1290
Compressed Reference Bases: 38453
Bad Trim: 2
Avg Idy: 99.98
SNPs: 303
Indels < 5bp: 56
Indels >= 5: 42
Inversions: 2
Relocation: 16
Translocation: 0

Corrected Contig Stats
calling: java -cp /vol/ngscomparison/software/analysis/quast-2.1/libs/gage:.:. GetFastaStats -o -min 199 -genomeSize 2813862 /vol/codine-tmp/juene/tmp.4BYnB2VL5r/quast/gage/tmp/VELVET_MIS_PE_mrsa_mis-1_bi_2x250bp_default__mrsa_mis-2_bi_2x250bp_default.0.460percent_33.final.contigs.matches.lens 2> /dev/null
Total units: 204
Reference: 2813862
BasesInFasta: 2745142
Min: 210
Max: 90780
N10: 73992 COUNT: 4
N25: 50274 COUNT: 11
N50: 26857 COUNT: 31
N75: 13631 COUNT: 64
E-size:33988.08

Done
