All statistics are based on contigs of size >= 200 bp, unless otherwise noted (e.g., "# contigs (>= 0 bp)" and "Total length (>= 0 bp)" include all contigs).

Assembly                                                                        #Mis_misassemblies  #Mis_relocations  #Mis_translocations  #Mis_inversions  #Mis_misassembled contigs  Mis_Misassembled contigs length  #Mis_local misassemblies  #mismatches  #indels  #Mis_short indels (<= 5 bp)  #Mis_long indels (> 5 bp)  Indels length
SOAP2_MIS_PE_sakai_mis-1_bi_2x150bp_default.0.826percent_125.final.scaf_broken  2                   2                 0                    0                2                          13251                            8                         118          213      114                          99                         1809         
SOAP2_MIS_PE_sakai_mis-1_bi_2x150bp_default.0.826percent_125.final.scaf         17                  17                0                    0                15                         79837                            287                       221          17235    16240                        995                        40178        
