1: PREPARING DATA
2,3: RUNNING mummer AND CREATING CLUSTERS
# reading input file "/vol/codine-tmp/juene/tmp.EiQwX2B8xt/quast/gage/tmp/NEWBLER_PGM_sakai_pgm_mu_318_400bp_IO_TS3.4_ms.51coverage.contigs.ntref" of length 5594473
# construct suffix tree for sequence of length 5594473
# (maximum reference length is 536870908)
# (maximum query length is 4294967295)
# process 55944 characters per dot
#....................................................................................................
# CONSTRUCTIONTIME /vol/ngscomparison/software/analysis/quast-2.1/libs/MUMmer3.23-linux/mummer /vol/codine-tmp/juene/tmp.EiQwX2B8xt/quast/gage/tmp/NEWBLER_PGM_sakai_pgm_mu_318_400bp_IO_TS3.4_ms.51coverage.contigs.ntref 4.42
# reading input file "/vol/codine-tmp/juene/tmp.EiQwX2B8xt/quast/corrected_input/NEWBLER_PGM_sakai_pgm_mu_318_400bp_IO_TS3.4_ms.51coverage.contigs" of length 5361821
# matching query-file "/vol/codine-tmp/juene/tmp.EiQwX2B8xt/quast/corrected_input/NEWBLER_PGM_sakai_pgm_mu_318_400bp_IO_TS3.4_ms.51coverage.contigs"
# against subject-file "/vol/codine-tmp/juene/tmp.EiQwX2B8xt/quast/gage/tmp/NEWBLER_PGM_sakai_pgm_mu_318_400bp_IO_TS3.4_ms.51coverage.contigs.ntref"
# COMPLETETIME /vol/ngscomparison/software/analysis/quast-2.1/libs/MUMmer3.23-linux/mummer /vol/codine-tmp/juene/tmp.EiQwX2B8xt/quast/gage/tmp/NEWBLER_PGM_sakai_pgm_mu_318_400bp_IO_TS3.4_ms.51coverage.contigs.ntref 12.57
# SPACE /vol/ngscomparison/software/analysis/quast-2.1/libs/MUMmer3.23-linux/mummer /vol/codine-tmp/juene/tmp.EiQwX2B8xt/quast/gage/tmp/NEWBLER_PGM_sakai_pgm_mu_318_400bp_IO_TS3.4_ms.51coverage.contigs.ntref 10.63
4: FINISHING DATA
Filtering alignments
Extracting alignment coordinates
Analyzing SNPs
Extracting alignment breakpoints
Generating report file
Found genome size at position 4 with value 5594470 aka 5594470
Calculating point at 0 and the sum is 1088060 and i is264 and lens is 269 and length is 168894
Calculating point at 1 and the sum is 2081958 and i is257 and lens is 269 and length is 127496
Calculating point at 2 and the sum is 3009864 and i is248 and lens is 269 and length is 92039
Calculating point at 3 and the sum is 4031939 and i is232 and lens is 269 and length is 50034
Calculating point at 4 and the sum is 5002891 and i is200 and lens is 269 and length is 10712
