Assembly	CLC_PGM_mtbh37_pgm_200bp_es_IonOne_tsv2.0_morestringent.0.600percent.result
#Contigs	4635
#Contigs (>= 0 bp)	4635
#Contigs (>= 1000 bp)	1135
Largest contig	8601
Total length	3747122
Total length (>= 0 bp)	3747122
Total length (>= 1000 bp)	2175858
Reference length	4411532
N50	1216
NG50	968
N75	569
NG75	370
L50	860
LG50	1166
L75	1980
LG75	3074
#local misassemblies	30
#misassemblies	663
#misassembled contigs	620
Misassembled contigs length	716365
Misassemblies inter-contig overlap	8067
#unaligned contigs	7 + 674 part
Unaligned contigs length	37381
#ambiguously mapped contigs	11
Extra bases in ambiguously mapped contigs	-5653
#N's	2750
#N's per 100 kbp	73.39
Genome fraction (%)	79.928
Duplication ratio	1.053
#genes	1264 + 2637 part
#predicted genes (unique)	7622
#predicted genes (>= 0 bp)	7629
#predicted genes (>= 300 bp)	3937
#predicted genes (>= 1500 bp)	70
#predicted genes (>= 3000 bp)	2
#mismatches	1834
#indels	4957
Indels length	5226
#mismatches per 100 kbp	52.01
#indels per 100 kbp	140.58
GC (%)	64.75
Reference GC (%)	65.61
Average %IDY	99.701
Largest alignment	8588
NA50	1116
NGA50	860
NA75	497
NGA75	314
LA50	926
LGA50	1261
LA75	2185
LGA75	3445
#Mis_misassemblies	663
#Mis_relocations	164
#Mis_translocations	0
#Mis_inversions	499
#Mis_misassembled contigs	620
Mis_Misassembled contigs length	716365
#Mis_local misassemblies	30
#Mis_short indels (<= 5 bp)	4949
#Mis_long indels (> 5 bp)	8
#Una_fully unaligned contigs	7
Una_Fully unaligned length	4477
#Una_partially unaligned contigs	674
#Una_with misassembly	0
#Una_both parts are significant	6
Una_Partially unaligned length	32904
GAGE_Contigs #	4635
GAGE_Min contig	200
GAGE_Max contig	8601
GAGE_N50	968 COUNT: 1166
GAGE_Genome size	4411532
GAGE_Assembly size	3747122
GAGE_Chaff bases	0
GAGE_Missing reference bases	834792(18.92%)
GAGE_Missing assembly bases	39511(1.05%)
GAGE_Missing assembly contigs	4(0.09%)
GAGE_Duplicated reference bases	83365
GAGE_Compressed reference bases	45857
GAGE_Bad trim	34616
GAGE_Avg idy	99.79
GAGE_SNPs	1332
GAGE_Indels < 5bp	4570
GAGE_Indels >= 5	15
GAGE_Inversions	209
GAGE_Relocation	32
GAGE_Translocation	0
GAGE_Corrected contig #	4596
GAGE_Corrected assembly size	3607758
GAGE_Min correct contig	200
GAGE_Max correct contig	8595
GAGE_Corrected N50	862 COUNT: 1262
