calling: java -cp /vol/ngscomparison/software/analysis/quast-2.1/libs/gage:. SizeFasta /vol/codine-tmp/juene/tmp.8qNJvJKEE5/quast/corrected_input/MRSA_COL_Plasmid.fasta |awk '{SUM+=; print SUM}'|tail -n 1
Contig Stats
Total units: 192
Reference: 2813862
BasesInFasta: 2789421
Min: 200
Max: 116063
N10: 107321 COUNT: 3
N25: 89723 COUNT: 7
N50: 41078 COUNT: 21
N75: 24093 COUNT: 44
E-size:50460.61

Genome Size: 2813862
Assembly Size: 2789421
Chaff bases: 0
Missing Reference Bases: 22092(0.79%)
Missing Assembly Bases: 9099(0.33%)
Missing Assembly Contigs: 8(4.17%)
Duplicated Reference Bases: 1910
Compressed Reference Bases: 25408
Bad Trim: 239
Avg Idy: 99.99
SNPs: 38
Indels < 5bp: 35
Indels >= 5: 32
Inversions: 1
Relocation: 3
Translocation: 0

Corrected Contig Stats
calling: java -cp /vol/ngscomparison/software/analysis/quast-2.1/libs/gage:.:. GetFastaStats -o -min 199 -genomeSize 2813862 /vol/codine-tmp/juene/tmp.8qNJvJKEE5/quast/gage/tmp/SOAP2_MIS_PE_mrsa_mis-1_bi_2x250bp_default.0.460percent_99.final.scaf.matches.lens 2> /dev/null
Total units: 220
Reference: 2813862
BasesInFasta: 2777833
Min: 200
Max: 116063
N10: 94222 COUNT: 3
N25: 53303 COUNT: 9
N50: 34011 COUNT: 26
N75: 17967 COUNT: 53
E-size:40929.93

Done
