1: PREPARING DATA
2,3: RUNNING mummer AND CREATING CLUSTERS
# reading input file "/vol/codine-tmp/juene/tmp.8qNJvJKEE5/quast/gage/tmp/SOAP2_MIS_PE_mrsa_mis-1_bi_2x250bp_default.0.460percent_99.final.scaf.ntref" of length 2813864
# construct suffix tree for sequence of length 2813864
# (maximum reference length is 536870908)
# (maximum query length is 4294967295)
# process 28138 characters per dot
#....................................................................................................
# CONSTRUCTIONTIME /vol/ngscomparison/software/analysis/quast-2.1/libs/MUMmer3.23-linux/mummer /vol/codine-tmp/juene/tmp.8qNJvJKEE5/quast/gage/tmp/SOAP2_MIS_PE_mrsa_mis-1_bi_2x250bp_default.0.460percent_99.final.scaf.ntref 1.41
# reading input file "/vol/codine-tmp/juene/tmp.8qNJvJKEE5/quast/corrected_input/SOAP2_MIS_PE_mrsa_mis-1_bi_2x250bp_default.0.460percent_99.final.scaf" of length 2789612
# matching query-file "/vol/codine-tmp/juene/tmp.8qNJvJKEE5/quast/corrected_input/SOAP2_MIS_PE_mrsa_mis-1_bi_2x250bp_default.0.460percent_99.final.scaf"
# against subject-file "/vol/codine-tmp/juene/tmp.8qNJvJKEE5/quast/gage/tmp/SOAP2_MIS_PE_mrsa_mis-1_bi_2x250bp_default.0.460percent_99.final.scaf.ntref"
# COMPLETETIME /vol/ngscomparison/software/analysis/quast-2.1/libs/MUMmer3.23-linux/mummer /vol/codine-tmp/juene/tmp.8qNJvJKEE5/quast/gage/tmp/SOAP2_MIS_PE_mrsa_mis-1_bi_2x250bp_default.0.460percent_99.final.scaf.ntref 4.55
# SPACE /vol/ngscomparison/software/analysis/quast-2.1/libs/MUMmer3.23-linux/mummer /vol/codine-tmp/juene/tmp.8qNJvJKEE5/quast/gage/tmp/SOAP2_MIS_PE_mrsa_mis-1_bi_2x250bp_default.0.460percent_99.final.scaf.ntref 5.44
4: FINISHING DATA
Filtering alignments
Extracting alignment coordinates
Analyzing SNPs
Extracting alignment breakpoints
Generating report file
Found genome size at position 4 with value 2813862 aka 2813862
Calculating point at 0 and the sum is 1035570 and i is208 and lens is 224 and length is 45908
Calculating point at 1 and the sum is 2017768 and i is176 and lens is 224 and length is 20563
