All statistics are based on contigs of size >= 200 bp, unless otherwise noted (e.g., "# contigs (>= 0 bp)" and "Total length (>= 0 bp)" include all contigs).

Assembly                         VELVET_MIS_PE_mrsa_mis-1_bi_2x150bp_default__mrsa_mis-2_bi_2x150bp_default.0.527percent_51.final.contigs_broken  VELVET_MIS_PE_mrsa_mis-1_bi_2x150bp_default__mrsa_mis-2_bi_2x150bp_default.0.527percent_51.final.contigs
#Mis_misassemblies               4                                                                                                                7                                                                                                       
#Mis_relocations                 4                                                                                                                7                                                                                                       
#Mis_translocations              0                                                                                                                0                                                                                                       
#Mis_inversions                  0                                                                                                                0                                                                                                       
#Mis_misassembled contigs        4                                                                                                                5                                                                                                       
Mis_Misassembled contigs length  183080                                                                                                           428263                                                                                                  
#Mis_local misassemblies         12                                                                                                               24                                                                                                      
#mismatches                      273                                                                                                              280                                                                                                     
#indels                          133                                                                                                              331                                                                                                     
#Mis_short indels (<= 5 bp)      131                                                                                                              308                                                                                                     
#Mis_long indels (> 5 bp)        2                                                                                                                23                                                                                                      
Indels length                    151                                                                                                              871                                                                                                     
