Assembly	ABYSS_PE_PGM_mrsa_pgm_400bp_es_318_IKA_ts3.2_morestringent.0.250percent_100.final
#Contigs (>= 0 bp)	8787
#Contigs (>= 1000 bp)	664
Total length (>= 0 bp)	3860518
Total length (>= 1000 bp)	2486146
#Contigs	1140
Largest contig	18094
Total length	2715037
Reference length	2813862
GC (%)	32.55
Reference GC (%)	32.81
N50	4475
NG50	4358
N75	2325
NG75	2158
#misassemblies	2
#local misassemblies	1
#unaligned contigs	0 + 0 part
Unaligned contigs length	0
Genome fraction (%)	95.688
Duplication ratio	1.007
#N's per 100 kbp	0.00
#mismatches per 100 kbp	1.34
#indels per 100 kbp	11.74
#genes	1973 + 685 part
#predicted genes (unique)	3386
#predicted genes (>= 0 bp)	3387
#predicted genes (>= 300 bp)	2545
#predicted genes (>= 1500 bp)	193
#predicted genes (>= 3000 bp)	15
Largest alignment	18094
NA50	4475
NGA50	4358
NA75	2325
NGA75	2158
