Assembly	SOAP2_PGM_sakai_pgm_mu_200bp_IO_TS3.0Disabled_stringent.0.34percent_93.final.contig
#Contigs (>= 0 bp)	37197
#Contigs (>= 1000 bp)	1318
Total length (>= 0 bp)	9886744
Total length (>= 1000 bp)	1980584
#Contigs	8177
Largest contig	6736
Total length	5132370
Reference length	5594470
GC (%)	50.17
Reference GC (%)	50.48
N50	813
NG50	756
N75	481
NG75	393
#misassemblies	10
#local misassemblies	0
#unaligned contigs	1 + 4 part
Unaligned contigs length	373
Genome fraction (%)	88.164
Duplication ratio	1.030
#N's per 100 kbp	0.00
#mismatches per 100 kbp	1.20
#indels per 100 kbp	28.81
#genes	1353 + 3711 part
#predicted genes (unique)	11046
#predicted genes (>= 0 bp)	11071
#predicted genes (>= 300 bp)	5781
#predicted genes (>= 1500 bp)	63
#predicted genes (>= 3000 bp)	0
Largest alignment	6736
NA50	812
NGA50	756
NA75	479
NGA75	392
