All statistics are based on contigs of size >= 200 bp, unless otherwise noted (e.g., "# contigs (>= 0 bp)" and "Total length (>= 0 bp)" include all contigs).

Assembly                                                                 #Contigs  #Contigs (>= 0 bp)  #Contigs (>= 1000 bp)  Largest contig  Total length  Total length (>= 0 bp)  Total length (>= 1000 bp)  Reference length  N50    NG50   N75    NG75   L50  LG50  L75  LG75  #local misassemblies  #misassemblies  #misassembled contigs  Misassembled contigs length  Misassemblies inter-contig overlap  #unaligned contigs  Unaligned contigs length  #ambiguously mapped contigs  Extra bases in ambiguously mapped contigs  #N's  #N's per 100 kbp  Genome fraction (%)  Duplication ratio  #genes           #predicted genes (unique)  #predicted genes (>= 0 bp)  #predicted genes (>= 300 bp)  #predicted genes (>= 1500 bp)  #predicted genes (>= 3000 bp)  #mismatches  #indels  Indels length  #mismatches per 100 kbp  #indels per 100 kbp  GC (%)  Reference GC (%)  Average %IDY  Largest alignment  NA50   NGA50  NA75   NGA75  LA50  LGA50  LA75  LGA75  #Mis_misassemblies  #Mis_relocations  #Mis_translocations  #Mis_inversions  #Mis_misassembled contigs  Mis_Misassembled contigs length  #Mis_local misassemblies  #Mis_short indels (<= 5 bp)  #Mis_long indels (> 5 bp)  #Una_fully unaligned contigs  Una_Fully unaligned length  #Una_partially unaligned contigs  #Una_with misassembly  #Una_both parts are significant  Una_Partially unaligned length  GAGE_Contigs #  GAGE_Min contig  GAGE_Max contig  GAGE_N50         GAGE_Genome size  GAGE_Assembly size  GAGE_Chaff bases  GAGE_Missing reference bases  GAGE_Missing assembly bases  GAGE_Missing assembly contigs  GAGE_Duplicated reference bases  GAGE_Compressed reference bases  GAGE_Bad trim  GAGE_Avg idy  GAGE_SNPs  GAGE_Indels < 5bp  GAGE_Indels >= 5  GAGE_Inversions  GAGE_Relocation  GAGE_Translocation  GAGE_Corrected contig #  GAGE_Corrected assembly size  GAGE_Min correct contig  GAGE_Max correct contig  GAGE_Corrected N50
CLC_PGM_sakai_pgm_mu_200bp_IO_TS3.0Disabled_stringent.46coverage.result  832       832                 356                    130580          5377000       5377000                 5212288                    5594470           28639  27311  14654  12305  55   59    118  130   8                     9               9                      77957                        1137                                0 + 32 part         1366                      146                          -84617                                     221   4.11              93.932               1.007              4777 + 341 part  6271                       6272                        4821                          522                            37                             159          1422     1472           3.03                     27.06                50.28   50.48             98.984        130580             28613  27311  13854  12234  55    59     119   131    9                   3                 0                    6                9                          77957                            8                         1421                         1                          0                             0                           32                                0                      1                                1366                            832             200              130580           27311 COUNT: 59  5594470           5377000             0                 46426(0.83%)                  1672(0.03%)                  1(0.12%)                       45275                            248913                           1470           99.97         118        1449               5                 1                6                0                   666                      5332980                       200                      130606                   26854 COUNT: 61   
