Assembly	CLC_PGM_sakai_pgm_mu_200bp_IO_TS3.0Disabled_stringent.0.1percent.result
#Mis_misassemblies	28
#Mis_relocations	9
#Mis_translocations	0
#Mis_inversions	19
#Mis_misassembled contigs	28
Mis_Misassembled contigs length	174215
#Mis_local misassemblies	7
#mismatches	326
#indels	2742
#Mis_short indels (<= 5 bp)	2741
#Mis_long indels (> 5 bp)	1
Indels length	2883
