Assembly	NEWBLER_PGM_mtbh37_pgm_400bp_es_318v2_OT2_tsv3.6_morestringent.0.700percent.contigs
#Mis_misassemblies	1
#Mis_relocations	1
#Mis_translocations	0
#Mis_inversions	0
#Mis_misassembled contigs	1
Mis_Misassembled contigs length	122511
#Mis_local misassemblies	15
#mismatches	157
#indels	838
#Mis_short indels (<= 5 bp)	834
#Mis_long indels (> 5 bp)	4
Indels length	1069
