Assembly	ABYSS_PE_MIS_PE_sakai_mis-2_bi_2x150bp_default__sakai_mis-1_bi_2x150bp_default.1.000percent_70.final_broken	ABYSS_PE_MIS_PE_sakai_mis-2_bi_2x150bp_default__sakai_mis-1_bi_2x150bp_default.1.000percent_70.final
GAGE_Contigs #	267	207
GAGE_Min contig	200	200
GAGE_Max contig	290590	375036
GAGE_N50	108406 COUNT: 17	147181 COUNT: 13
GAGE_Genome size	5594470	5594470
GAGE_Assembly size	5489397	5492572
GAGE_Chaff bases	0	0
GAGE_Missing reference bases	31281(0.56%)	31289(0.56%)
GAGE_Missing assembly bases	1183(0.02%)	4242(0.08%)
GAGE_Missing assembly contigs	0(0.00%)	0(0.00%)
GAGE_Duplicated reference bases	18729	17771
GAGE_Compressed reference bases	216368	214772
GAGE_Bad trim	0	600
GAGE_Avg idy	99.97	99.97
GAGE_SNPs	593	595
GAGE_Indels < 5bp	37	39
GAGE_Indels >= 5	9	32
GAGE_Inversions	0	7
GAGE_Relocation	5	17
GAGE_Translocation	0	0
GAGE_Corrected contig #	253	251
GAGE_Corrected assembly size	5472917	5473989
GAGE_Min correct contig	202	202
GAGE_Max correct contig	226945	226945
GAGE_Corrected N50	100151 COUNT: 19	100151 COUNT: 19
