All statistics are based on contigs of size >= 200 bp, unless otherwise noted (e.g., "# contigs (>= 0 bp)" and "Total length (>= 0 bp)" include all contigs).

Assembly                                                                          #Contigs (>= 0 bp)  #Contigs (>= 1000 bp)  Total length (>= 0 bp)  Total length (>= 1000 bp)  #Contigs  Largest contig  Total length  Reference length  GC (%)  Reference GC (%)  N50    NG50   N75    NG75   #misassemblies  #local misassemblies  #unaligned contigs  Unaligned contigs length  Genome fraction (%)  Duplication ratio  #N's per 100 kbp  #mismatches per 100 kbp  #indels per 100 kbp  #genes           #predicted genes (unique)  #predicted genes (>= 0 bp)  #predicted genes (>= 300 bp)  #predicted genes (>= 1500 bp)  #predicted genes (>= 3000 bp)  Largest alignment  NA50   NGA50  NA75   NGA75
SOAP2_MIS_PE_sakai_mis-1_bi_2x250bp_SI_default.0.64percent_113.final.scaf_broken  3746                713                    5841235                 5126719                    2873      43556           5712952       5594470           50.46   50.48             10399  10710  4467   4838   12              32                    10 + 0 part         8284                      94.689               1.046              3.47              8.65                     0.83                 4354 + 835 part  7509                       7580                        4693                          569                            46                             43556              10382  10674  4467   4834 
SOAP2_MIS_PE_sakai_mis-1_bi_2x250bp_SI_default.0.64percent_113.final.scaf         3041                297                    5874041                 5277204                    2217      144839          5753514       5594470           50.47   50.48             36203  38016  15952  17069  30              542                   19 + 13 part        27167                     94.819               1.053              573.63            9.88                     24.21                4407 + 779 part  7320                       7388                        4662                          586                            50                             144223             35457  36093  15230  16588
