Assembly	GAGE_Contigs #	GAGE_Min contig	GAGE_Max contig	GAGE_N50	GAGE_Genome size	GAGE_Assembly size	GAGE_Chaff bases	GAGE_Missing reference bases	GAGE_Missing assembly bases	GAGE_Missing assembly contigs	GAGE_Duplicated reference bases	GAGE_Compressed reference bases	GAGE_Bad trim	GAGE_Avg idy	GAGE_SNPs	GAGE_Indels < 5bp	GAGE_Indels >= 5	GAGE_Inversions	GAGE_Relocation	GAGE_Translocation	GAGE_Corrected contig #	GAGE_Corrected assembly size	GAGE_Min correct contig	GAGE_Max correct contig	GAGE_Corrected N50
SOAP2_MIS_PE_mrsa_mis-1_bi_2x250bp_default.0.460percent_17.final.scaf_broken	4884	200	2512	369 COUNT: 2203	2813862	2126278	0	877577(31.19%)	177300(8.34%)	650(13.31%)	0	954	2919	99.96	139	402	542	0	1	0	4385	1895160	200	2151	329 COUNT: 2487
SOAP2_MIS_PE_mrsa_mis-1_bi_2x250bp_default.0.460percent_17.final.scaf	4142	200	5081	662 COUNT: 1209	2813862	2442623	0	725509(25.78%)	338867(13.87%)	676(16.32%)	0	2513	38968	99.89	157	597	2526	0	3	0	4286	1881605	200	2151	331 COUNT: 2450
