All statistics are based on contigs of size >= 200 bp, unless otherwise noted (e.g., "# contigs (>= 0 bp)" and "Total length (>= 0 bp)" include all contigs).

Assembly                                                                       GAGE_Contigs #  GAGE_Min contig  GAGE_Max contig  GAGE_N50         GAGE_Genome size  GAGE_Assembly size  GAGE_Chaff bases  GAGE_Missing reference bases  GAGE_Missing assembly bases  GAGE_Missing assembly contigs  GAGE_Duplicated reference bases  GAGE_Compressed reference bases  GAGE_Bad trim  GAGE_Avg idy  GAGE_SNPs  GAGE_Indels < 5bp  GAGE_Indels >= 5  GAGE_Inversions  GAGE_Relocation  GAGE_Translocation  GAGE_Corrected contig #  GAGE_Corrected assembly size  GAGE_Min correct contig  GAGE_Max correct contig  GAGE_Corrected N50
SOAP2_MIS_PE_sakai_mis-1_bi_2x150bp_default.0.826percent_43.final.scaf_broken  8270            200              8454             655 COUNT: 2523  5594470           4968091             0                 744928(13.32%)                9731(0.20%)                  22(0.27%)                      1313                             48127                            697            100.00        98         59                 21                0                3                0                   8254                     4955289                       200                      8454                     652 COUNT: 2535   
SOAP2_MIS_PE_sakai_mis-1_bi_2x150bp_default.0.826percent_43.final.scaf         7318            200              21994            817 COUNT: 1869  5594470           5147581             0                 677916(12.12%)                115284(2.24%)                30(0.41%)                      1494                             50437                            17247          99.98         108        118                1446              0                6                0                   8190                     4940162                       200                      8454                     653 COUNT: 2525   
