calling: java -cp /vol/ngscomparison/software/analysis/quast-2.1/libs/gage:. SizeFasta /vol/codine-tmp/juene/tmp.n9Agx8zbaO/quast/corrected_input/Mycobacterium_tuberculosis_H37Rv.fasta |awk '{SUM+=; print SUM}'|tail -n 1
Contig Stats
Total units: 49866
Reference: 4411532
BasesInFasta: 11801820
Min: 200
Max: 852
N10: 332 COUNT: 1063
N25: 251 COUNT: 3466
N50: 251 COUNT: 7860
N75: 250 COUNT: 12260
E-size:647.1

Genome Size: 4411532
Assembly Size: 11801820
Chaff bases: 0
Missing Reference Bases: 2993202(67.85%)
Missing Assembly Bases: 10350906(87.71%)
Missing Assembly Contigs: 44575(89.39%)
Duplicated Reference Bases: 8727
Compressed Reference Bases: 4584
Bad Trim: 24259
Avg Idy: 99.75
SNPs: 3126
Indels < 5bp: 35
Indels >= 5: 3
Inversions: 0
Relocation: 1
Translocation: 0

Corrected Contig Stats
calling: java -cp /vol/ngscomparison/software/analysis/quast-2.1/libs/gage:.:. GetFastaStats -o -min 199 -genomeSize 4411532 /vol/codine-tmp/juene/tmp.n9Agx8zbaO/quast/gage/tmp/SOAP2_MIS_PE_mtbh37-1_mis_2x250bp_nextera_default_39.final.scaf.matches.lens 2> /dev/null
Total units: 5021
Reference: 4411532
BasesInFasta: 1413454
Min: 200
Max: 852
N10: 329 COUNT: 1068
N25: 227 COUNT: 3555
N50: 0 COUNT: 0
N75: 0 COUNT: 0
E-size:98.25

Done
