Assembly	#Contigs	#Contigs (>= 0 bp)	#Contigs (>= 1000 bp)	Largest contig	Total length	Total length (>= 0 bp)	Total length (>= 1000 bp)	Reference length	N50	NG50	N75	NG75	L50	LG50	L75	LG75	#local misassemblies	#misassemblies	#misassembled contigs	Misassembled contigs length	Misassemblies inter-contig overlap	#unaligned contigs	Unaligned contigs length	#ambiguously mapped contigs	Extra bases in ambiguously mapped contigs	#N's	#N's per 100 kbp	Genome fraction (%)	Duplication ratio	#genes	#predicted genes (unique)	#predicted genes (>= 0 bp)	#predicted genes (>= 300 bp)	#predicted genes (>= 1500 bp)	#predicted genes (>= 3000 bp)	#mismatches	#indels	Indels length	#mismatches per 100 kbp	#indels per 100 kbp	GC (%)	Reference GC (%)	Average %IDY	Largest alignment	NA50	NGA50	NA75	NGA75	LA50	LGA50	LA75	LGA75	#Mis_misassemblies	#Mis_relocations	#Mis_translocations	#Mis_inversions	#Mis_misassembled contigs	Mis_Misassembled contigs length	#Mis_local misassemblies	#Mis_short indels (<= 5 bp)	#Mis_long indels (> 5 bp)	#Una_fully unaligned contigs	Una_Fully unaligned length	#Una_partially unaligned contigs	#Una_with misassembly	#Una_both parts are significant	Una_Partially unaligned length	GAGE_Contigs #	GAGE_Min contig	GAGE_Max contig	GAGE_N50	GAGE_Genome size	GAGE_Assembly size	GAGE_Chaff bases	GAGE_Missing reference bases	GAGE_Missing assembly bases	GAGE_Missing assembly contigs	GAGE_Duplicated reference bases	GAGE_Compressed reference bases	GAGE_Bad trim	GAGE_Avg idy	GAGE_SNPs	GAGE_Indels < 5bp	GAGE_Indels >= 5	GAGE_Inversions	GAGE_Relocation	GAGE_Translocation	GAGE_Corrected contig #	GAGE_Corrected assembly size	GAGE_Min correct contig	GAGE_Max correct contig	GAGE_Corrected N50
SOAP2_MIS_PE_sakai_mis-1_bi_2x150bp_default.0.826percent_17.final.scaf_broken	5336	45488	29	2505	1718904	5917271	38456	5594470	315	None	249	None	1854	None	3401	None	8	2	2	1037	5	97 + 127 part	31964	4	-962	989	57.54	30.092	1.001	124 + 3107 part	5545	5545	1278	0	0	280	352	637	16.63	20.91	47.08	50.48	99.944	2505	313	None	246	None	1865	None	3425	None	2	2	0	0	2	1037	8	317	35	97	25491	127	0	0	6473	5336	200	2505	0 COUNT: 0	5594470	1718904	0	3902033(69.75%)	25471(1.48%)	67(1.26%)	202	1076	8074	99.97	259	184	55	0	7	0	5183	1672043	200	2505	0 COUNT: 0
SOAP2_MIS_PE_sakai_mis-1_bi_2x150bp_default.0.826percent_17.final.scaf	2235	20515	1148	33228	5821555	8149763	5429199	5594470	6183	6449	3156	3453	281	263	609	558	4281	18	18	256644	5	204 + 398 part	1306250	2	-478	2234722	38387.03	21.173	3.812	69 + 2458 part	8758	8758	2103	1	0	221	1907	3540	19.67	169.71	49.35	50.48	99.886	7239	None	None	None	None	None	None	None	None	18	18	0	0	18	256644	4281	1825	82	204	204184	398	147	164	1102066	2235	200	33228	6449 COUNT: 263	5594470	5821555	0	2718360(48.59%)	2948307(50.64%)	59(2.64%)	86	8563	325581	99.93	502	417	14088	1	60	0	4703	1532334	200	2505	70 COUNT: 15292
