Assembly	NEWBLER_MIS_PE_mtbh37-1_mis_2x250bp_nextera_default__mtbh37-2_mis_2x250bp_nextera_default.0.300percent.contigs_broken	NEWBLER_MIS_PE_mtbh37-1_mis_2x250bp_nextera_default__mtbh37-2_mis_2x250bp_nextera_default.0.300percent.contigs
#Mis_misassemblies	0	1
#Mis_relocations	0	1
#Mis_translocations	0	0
#Mis_inversions	0	0
#Mis_misassembled contigs	0	1
Mis_Misassembled contigs length	0	41011
#Mis_local misassemblies	4	106
#mismatches	161	165
#indels	41	40
#Mis_short indels (<= 5 bp)	37	36
#Mis_long indels (> 5 bp)	4	4
Indels length	125	124
