Assembly	SOAP2_PGM_mrsa_pgm_400bp_es_318_IKA_ts3.2_morestringent.0.165percent_113.final.contig
#Una_fully unaligned contigs	828
Una_Fully unaligned length	314470
#Una_partially unaligned contigs	363
#Una_with misassembly	0
#Una_both parts are significant	2
Una_Partially unaligned length	23904
#N's	0
