1: PREPARING DATA
2,3: RUNNING mummer AND CREATING CLUSTERS
# reading input file "/vol/codine-tmp/juene/tmp.seAFbYUH88/quast/contigs_reports/nucmer_output/SOAP2_PGM_mrsa_pgm_400bp_es_318_IKA_ts3.2_morestringent.0.165percent_75.final.contig.ntref" of length 2813864
# construct suffix tree for sequence of length 2813864
# (maximum reference length is 536870908)
# (maximum query length is 4294967295)
# process 28138 characters per dot
#....................................................................................................
# CONSTRUCTIONTIME /vol/ngscomparison/software/analysis/quast-2.1/libs/MUMmer3.23-linux/mummer /vol/codine-tmp/juene/tmp.seAFbYUH88/quast/contigs_reports/nucmer_output/SOAP2_PGM_mrsa_pgm_400bp_es_318_IKA_ts3.2_morestringent.0.165percent_75.final.contig.ntref 1.44
# reading input file "/vol/codine-tmp/juene/tmp.seAFbYUH88/quast/corrected_input/SOAP2_PGM_mrsa_pgm_400bp_es_318_IKA_ts3.2_morestringent.0.165percent_75.final.contig" of length 7082841
# matching query-file "/vol/codine-tmp/juene/tmp.seAFbYUH88/quast/corrected_input/SOAP2_PGM_mrsa_pgm_400bp_es_318_IKA_ts3.2_morestringent.0.165percent_75.final.contig"
# against subject-file "/vol/codine-tmp/juene/tmp.seAFbYUH88/quast/contigs_reports/nucmer_output/SOAP2_PGM_mrsa_pgm_400bp_es_318_IKA_ts3.2_morestringent.0.165percent_75.final.contig.ntref"
# COMPLETETIME /vol/ngscomparison/software/analysis/quast-2.1/libs/MUMmer3.23-linux/mummer /vol/codine-tmp/juene/tmp.seAFbYUH88/quast/contigs_reports/nucmer_output/SOAP2_PGM_mrsa_pgm_400bp_es_318_IKA_ts3.2_morestringent.0.165percent_75.final.contig.ntref 6.77
# SPACE /vol/ngscomparison/software/analysis/quast-2.1/libs/MUMmer3.23-linux/mummer /vol/codine-tmp/juene/tmp.seAFbYUH88/quast/contigs_reports/nucmer_output/SOAP2_PGM_mrsa_pgm_400bp_es_318_IKA_ts3.2_morestringent.0.165percent_75.final.contig.ntref 10.42
4: FINISHING DATA
