Assembly	SOAP2_PGM_sakai_pgm_mu_318_400bp_IO_TS3.4_ms_0.395percent_43.final.contig
#Contigs	1693
#Contigs (>= 0 bp)	392131
#Contigs (>= 1000 bp)	0
Largest contig	605
Total length	420896
Total length (>= 0 bp)	27857361
Total length (>= 1000 bp)	0
Reference length	5594470
N50	240
NG50	None
N75	217
NG75	None
L50	724
LG50	None
L75	1186
LG75	None
#local misassemblies	0
#misassemblies	0
#misassembled contigs	0
Misassembled contigs length	0
Misassemblies inter-contig overlap	0
#unaligned contigs	164 + 1 part
Unaligned contigs length	38372
#ambiguously mapped contigs	1
Extra bases in ambiguously mapped contigs	-204
#N's	0
#N's per 100 kbp	0.00
Genome fraction (%)	6.831
Duplication ratio	1.000
#genes	9 + 1167 part
#predicted genes (unique)	1641
#predicted genes (>= 0 bp)	1641
#predicted genes (>= 300 bp)	155
#predicted genes (>= 1500 bp)	0
#predicted genes (>= 3000 bp)	0
#mismatches	6
#indels	90
Indels length	94
#mismatches per 100 kbp	1.57
#indels per 100 kbp	23.55
GC (%)	51.32
Reference GC (%)	50.48
Average %IDY	99.974
Largest alignment	605
NA50	236
NGA50	None
NA75	212
NGA75	None
LA50	734
LGA50	None
LA75	1204
LGA75	None
#Mis_misassemblies	0
#Mis_relocations	0
#Mis_translocations	0
#Mis_inversions	0
#Mis_misassembled contigs	0
Mis_Misassembled contigs length	0
#Mis_local misassemblies	0
#Mis_short indels (<= 5 bp)	90
#Mis_long indels (> 5 bp)	0
#Una_fully unaligned contigs	164
Una_Fully unaligned length	38351
#Una_partially unaligned contigs	1
#Una_with misassembly	0
#Una_both parts are significant	0
Una_Partially unaligned length	21
GAGE_Contigs #	1693
GAGE_Min contig	200
GAGE_Max contig	605
GAGE_N50	0 COUNT: 0
GAGE_Genome size	5594470
GAGE_Assembly size	420896
GAGE_Chaff bases	0
GAGE_Missing reference bases	5196912(92.89%)
GAGE_Missing assembly bases	23922(5.68%)
GAGE_Missing assembly contigs	92(5.43%)
GAGE_Duplicated reference bases	0
GAGE_Compressed reference bases	1099
GAGE_Bad trim	1095
GAGE_Avg idy	99.84
GAGE_SNPs	25
GAGE_Indels < 5bp	603
GAGE_Indels >= 5	0
GAGE_Inversions	0
GAGE_Relocation	0
GAGE_Translocation	0
GAGE_Corrected contig #	1573
GAGE_Corrected assembly size	391914
GAGE_Min correct contig	200
GAGE_Max correct contig	605
GAGE_Corrected N50	0 COUNT: 0
