Assembly	ABYSS_PE_PGM_sakai_pgm_mu_318_400bp_IO_TS3.4_ms_0.395percent_126-unitigs
#Mis_misassemblies	9
#Mis_relocations	8
#Mis_translocations	1
#Mis_inversions	0
#Mis_misassembled contigs	9
Mis_Misassembled contigs length	16522
#Mis_local misassemblies	1
#mismatches	46
#indels	459
#Mis_short indels (<= 5 bp)	459
#Mis_long indels (> 5 bp)	0
Indels length	470
