All statistics are based on contigs of size >= 200 bp, unless otherwise noted (e.g., "# contigs (>= 0 bp)" and "Total length (>= 0 bp)" include all contigs).

Assembly                                                                                                    #Contigs  #Contigs (>= 0 bp)  #Contigs (>= 1000 bp)  Largest contig  Total length  Total length (>= 0 bp)  Total length (>= 1000 bp)  Reference length  N50     NG50    N75     NG75    L50  LG50  L75  LG75  #local misassemblies  #misassemblies  #misassembled contigs  Misassembled contigs length  Misassemblies inter-contig overlap  #unaligned contigs  Unaligned contigs length  #ambiguously mapped contigs  Extra bases in ambiguously mapped contigs  #N's  #N's per 100 kbp  Genome fraction (%)  Duplication ratio  #genes          #predicted genes (unique)  #predicted genes (>= 0 bp)  #predicted genes (>= 300 bp)  #predicted genes (>= 1500 bp)  #predicted genes (>= 3000 bp)  #mismatches  #indels  Indels length  #mismatches per 100 kbp  #indels per 100 kbp  GC (%)  Reference GC (%)  Average %IDY  Largest alignment  NA50    NGA50   NA75    NGA75   LA50  LGA50  LA75  LGA75  #Mis_misassemblies  #Mis_relocations  #Mis_translocations  #Mis_inversions  #Mis_misassembled contigs  Mis_Misassembled contigs length  #Mis_local misassemblies  #Mis_short indels (<= 5 bp)  #Mis_long indels (> 5 bp)  #Una_fully unaligned contigs  Una_Fully unaligned length  #Una_partially unaligned contigs  #Una_with misassembly  #Una_both parts are significant  Una_Partially unaligned length  GAGE_Contigs #  GAGE_Min contig  GAGE_Max contig  GAGE_N50         GAGE_Genome size  GAGE_Assembly size  GAGE_Chaff bases  GAGE_Missing reference bases  GAGE_Missing assembly bases  GAGE_Missing assembly contigs  GAGE_Duplicated reference bases  GAGE_Compressed reference bases  GAGE_Bad trim  GAGE_Avg idy  GAGE_SNPs  GAGE_Indels < 5bp  GAGE_Indels >= 5  GAGE_Inversions  GAGE_Relocation  GAGE_Translocation  GAGE_Corrected contig #  GAGE_Corrected assembly size  GAGE_Min correct contig  GAGE_Max correct contig  GAGE_Corrected N50
ABYSS_PE_MIS_PE_mrsa_mis-1_bi_2x150bp_default__mrsa_mis-2_bi_2x150bp_default.1.000percent_104.final_broken  53        93                  41                     441547          2816917       2822903                 2811524                    2813862           225834  225834  149051  149051  5    5     9    9     2                     3               3                      152645                       767                                 0 + 0 part          0                         9                            -11216                                     8     0.28              99.216               1.005              2698 + 19 part  2635                       2645                        2295                          301                            30                             52           15       73             1.86                     0.54                 32.78   32.81             98.598        441547             225834  225834  138475  138475  5     5      9     9      3                   3                 0                    0                3                          152645                           2                         12                           3                          0                             0                           0                                 0                      0                                0                               53              204              441547           225834 COUNT: 5  2813862           2816917             0                 501(0.02%)                    3(0.00%)                     0(0.00%)                       9762                             18041                            0              99.99         49         12                 5                 0                2                0                   50                       2807826                       204                      345380                   180444 COUNT: 6   
ABYSS_PE_MIS_PE_mrsa_mis-1_bi_2x150bp_default__mrsa_mis-2_bi_2x150bp_default.1.000percent_104.final         39        79                  31                     872373          2817915       2823901                 2814736                    2813862           727291  727291  305081  305081  2    2     4    4     7                     4               4                      1167223                      767                                 0 + 0 part          0                         7                            -10135                                     1006  35.70             99.230               1.006              2700 + 17 part  2633                       2643                        2296                          301                            30                             56           85       337            2.01                     3.04                 32.78   32.81             98.620        872373             326072  326072  248568  248568  3     3      5     5      4                   4                 0                    0                4                          1167223                          7                         76                           9                          0                             0                           0                                 0                      0                                0                               39              204              872373           727291 COUNT: 2  2813862           2817915             0                 501(0.02%)                    1001(0.04%)                  0(0.00%)                       9762                             18041                            0              99.99         49         12                 14                1                3                0                   50                       2807826                       204                      345380                   180444 COUNT: 6   
