Assembly	SOAP2_PGM_sakai_pgm_mu_318_400bp_IO_TS3.4_ms_0.395percent_45.final.contig
#Contigs (>= 0 bp)	374894
#Contigs (>= 1000 bp)	0
Total length (>= 0 bp)	27889386
Total length (>= 1000 bp)	0
#Contigs	1984
Largest contig	642
Total length	493433
Reference length	5594470
GC (%)	50.96
Reference GC (%)	50.48
N50	239
NG50	None
N75	216
NG75	None
#misassemblies	0
#local misassemblies	0
#unaligned contigs	256 + 3 part
Unaligned contigs length	58710
Genome fraction (%)	7.760
Duplication ratio	1.000
#N's per 100 kbp	0.00
#mismatches per 100 kbp	1.15
#indels per 100 kbp	26.03
#genes	12 + 1308 part
#predicted genes (unique)	1874
#predicted genes (>= 0 bp)	1874
#predicted genes (>= 300 bp)	182
#predicted genes (>= 1500 bp)	0
#predicted genes (>= 3000 bp)	0
Largest alignment	642
NA50	235
NGA50	None
NA75	210
NGA75	None
