Assembly	ABYSS_PE_MIS_PE_mrsa_mis-1_bi_2x250bp_default__mrsa_mis-2_bi_2x250bp_default.0.950percent_114.final_broken	ABYSS_PE_MIS_PE_mrsa_mis-1_bi_2x250bp_default__mrsa_mis-2_bi_2x250bp_default.0.950percent_114.final
#Contigs	178	178
#Contigs (>= 0 bp)	275	275
#Contigs (>= 1000 bp)	58	58
Largest contig	457329	457329
Total length	2804263	2804263
Total length (>= 0 bp)	2818275	2818275
Total length (>= 1000 bp)	2768306	2768306
Reference length	2813862	2813862
N50	107610	107610
NG50	107610	107610
N75	47030	47030
NG75	47030	47030
L50	8	8
LG50	8	8
L75	18	18
LG75	18	18
#local misassemblies	0	0
#misassemblies	4	4
#misassembled contigs	4	4
Misassembled contigs length	69033	69033
Misassemblies inter-contig overlap	19	19
#unaligned contigs	0 + 2 part	0 + 2 part
Unaligned contigs length	26	26
#ambiguously mapped contigs	28	28
Extra bases in ambiguously mapped contigs	-12718	-12718
#N's	0	0
#N's per 100 kbp	0.00	0.00
Genome fraction (%)	98.682	98.682
Duplication ratio	1.005	1.005
#genes	2665 + 46 part	2665 + 46 part
#predicted genes (unique)	2716	2716
#predicted genes (>= 0 bp)	2721	2721
#predicted genes (>= 300 bp)	2292	2292
#predicted genes (>= 1500 bp)	298	298
#predicted genes (>= 3000 bp)	30	30
#mismatches	40	40
#indels	9	9
Indels length	9	9
#mismatches per 100 kbp	1.44	1.44
#indels per 100 kbp	0.32	0.32
GC (%)	32.68	32.68
Reference GC (%)	32.81	32.81
Average %IDY	98.819	98.819
Largest alignment	457329	457329
NA50	107610	107610
NGA50	107610	107610
NA75	47030	47030
NGA75	47030	47030
LA50	8	8
LGA50	8	8
LA75	18	18
LGA75	18	18
#Mis_misassemblies	4	4
#Mis_relocations	4	4
#Mis_translocations	0	0
#Mis_inversions	0	0
#Mis_misassembled contigs	4	4
Mis_Misassembled contigs length	69033	69033
#Mis_local misassemblies	0	0
#Mis_short indels (<= 5 bp)	9	9
#Mis_long indels (> 5 bp)	0	0
#Una_fully unaligned contigs	0	0
Una_Fully unaligned length	0	0
#Una_partially unaligned contigs	2	2
#Una_with misassembly	0	0
#Una_both parts are significant	0	0
Una_Partially unaligned length	26	26
GAGE_Contigs #	178	178
GAGE_Min contig	200	200
GAGE_Max contig	457329	457329
GAGE_N50	107610 COUNT: 8	107610 COUNT: 8
GAGE_Genome size	2813862	2813862
GAGE_Assembly size	2804263	2804263
GAGE_Chaff bases	0	0
GAGE_Missing reference bases	128(0.00%)	128(0.00%)
GAGE_Missing assembly bases	26(0.00%)	26(0.00%)
GAGE_Missing assembly contigs	0(0.00%)	0(0.00%)
GAGE_Duplicated reference bases	9448	9448
GAGE_Compressed reference bases	32710	32710
GAGE_Bad trim	26	26
GAGE_Avg idy	99.99	99.99
GAGE_SNPs	38	38
GAGE_Indels < 5bp	6	6
GAGE_Indels >= 5	0	0
GAGE_Inversions	0	0
GAGE_Relocation	2	2
GAGE_Translocation	0	0
GAGE_Corrected contig #	136	136
GAGE_Corrected assembly size	2794616	2794616
GAGE_Min correct contig	200	200
GAGE_Max correct contig	457328	457328
GAGE_Corrected N50	107611 COUNT: 8	107611 COUNT: 8
