All statistics are based on contigs of size >= 200 bp, unless otherwise noted (e.g., "# contigs (>= 0 bp)" and "Total length (>= 0 bp)" include all contigs).

Assembly                          VELVET_MIS_PE_mrsa_mis-1_bi_2x250bp_default__mrsa_mis-2_bi_2x250bp_default.0.460percent_15.final.contigs_broken  VELVET_MIS_PE_mrsa_mis-1_bi_2x250bp_default__mrsa_mis-2_bi_2x250bp_default.0.460percent_15.final.contigs
#Una_fully unaligned contigs      9                                                                                                                22                                                                                                      
Una_Fully unaligned length        5065                                                                                                             19186                                                                                                   
#Una_partially unaligned contigs  4                                                                                                                18                                                                                                      
#Una_with misassembly             0                                                                                                                0                                                                                                       
#Una_both parts are significant   1                                                                                                                11                                                                                                      
Una_Partially unaligned length    592                                                                                                              10189                                                                                                   
#N's                              0                                                                                                                20446                                                                                                   
