1: PREPARING DATA
2,3: RUNNING mummer AND CREATING CLUSTERS
# reading input file "/vol/codine-tmp/juene/tmp.5N2O8172vy/quast/gage/tmp/NEWBLER_MIS_PE_sakai_mis-1_bi_2x250bp_SI_default__sakai_mis-2_bi_2x250bp_SI_default.0.35percent.contigs.ntref" of length 5594473
# construct suffix tree for sequence of length 5594473
# (maximum reference length is 536870908)
# (maximum query length is 4294967295)
# process 55944 characters per dot
#....................................................................................................
# CONSTRUCTIONTIME /vol/ngscomparison/software/analysis/quast-2.1/libs/MUMmer3.23-linux/mummer /vol/codine-tmp/juene/tmp.5N2O8172vy/quast/gage/tmp/NEWBLER_MIS_PE_sakai_mis-1_bi_2x250bp_SI_default__sakai_mis-2_bi_2x250bp_SI_default.0.35percent.contigs.ntref 3.41
# reading input file "/vol/codine-tmp/juene/tmp.5N2O8172vy/quast/corrected_input/NEWBLER_MIS_PE_sakai_mis-1_bi_2x250bp_SI_default__sakai_mis-2_bi_2x250bp_SI_default.0.35percent.contigs" of length 5289634
# matching query-file "/vol/codine-tmp/juene/tmp.5N2O8172vy/quast/corrected_input/NEWBLER_MIS_PE_sakai_mis-1_bi_2x250bp_SI_default__sakai_mis-2_bi_2x250bp_SI_default.0.35percent.contigs"
# against subject-file "/vol/codine-tmp/juene/tmp.5N2O8172vy/quast/gage/tmp/NEWBLER_MIS_PE_sakai_mis-1_bi_2x250bp_SI_default__sakai_mis-2_bi_2x250bp_SI_default.0.35percent.contigs.ntref"
# COMPLETETIME /vol/ngscomparison/software/analysis/quast-2.1/libs/MUMmer3.23-linux/mummer /vol/codine-tmp/juene/tmp.5N2O8172vy/quast/gage/tmp/NEWBLER_MIS_PE_sakai_mis-1_bi_2x250bp_SI_default__sakai_mis-2_bi_2x250bp_SI_default.0.35percent.contigs.ntref 10.81
# SPACE /vol/ngscomparison/software/analysis/quast-2.1/libs/MUMmer3.23-linux/mummer /vol/codine-tmp/juene/tmp.5N2O8172vy/quast/gage/tmp/NEWBLER_MIS_PE_sakai_mis-1_bi_2x250bp_SI_default__sakai_mis-2_bi_2x250bp_SI_default.0.35percent.contigs.ntref 10.56
4: FINISHING DATA
Filtering alignments
Extracting alignment coordinates
Analyzing SNPs
Extracting alignment breakpoints
Generating report file
Found genome size at position 4 with value 5594470 aka 5594470
Calculating point at 0 and the sum is 1130459 and i is153 and lens is 158 and length is 202391
Calculating point at 1 and the sum is 2146686 and i is147 and lens is 158 and length is 148251
Calculating point at 2 and the sum is 3082518 and i is140 and lens is 158 and length is 99571
Calculating point at 3 and the sum is 4025335 and i is127 and lens is 158 and length is 45219
Calculating point at 4 and the sum is 5008448 and i is87 and lens is 158 and length is 8793
