1: PREPARING DATA
2,3: RUNNING mummer AND CREATING CLUSTERS
# reading input file "/vol/codine-tmp/juene/tmp.UxguvBdIKp/quast/gage/tmp/SOAP2_PGM_mtbh37_pgm_400bp_es_318v2_OT2_tsv3.6_morestringent_95.final.contig.ntref" of length 4411533
# construct suffix tree for sequence of length 4411533
# (maximum reference length is 536870908)
# (maximum query length is 4294967295)
# process 44115 characters per dot
#....................................................................................................
# CONSTRUCTIONTIME /vol/ngscomparison/software/analysis/quast-2.1/libs/MUMmer3.23-linux/mummer /vol/codine-tmp/juene/tmp.UxguvBdIKp/quast/gage/tmp/SOAP2_PGM_mtbh37_pgm_400bp_es_318v2_OT2_tsv3.6_morestringent_95.final.contig.ntref 2.22
# reading input file "/vol/codine-tmp/juene/tmp.UxguvBdIKp/quast/corrected_input/SOAP2_PGM_mtbh37_pgm_400bp_es_318v2_OT2_tsv3.6_morestringent_95.final.contig" of length 2899009
# matching query-file "/vol/codine-tmp/juene/tmp.UxguvBdIKp/quast/corrected_input/SOAP2_PGM_mtbh37_pgm_400bp_es_318v2_OT2_tsv3.6_morestringent_95.final.contig"
# against subject-file "/vol/codine-tmp/juene/tmp.UxguvBdIKp/quast/gage/tmp/SOAP2_PGM_mtbh37_pgm_400bp_es_318v2_OT2_tsv3.6_morestringent_95.final.contig.ntref"
# COMPLETETIME /vol/ngscomparison/software/analysis/quast-2.1/libs/MUMmer3.23-linux/mummer /vol/codine-tmp/juene/tmp.UxguvBdIKp/quast/gage/tmp/SOAP2_PGM_mtbh37_pgm_400bp_es_318v2_OT2_tsv3.6_morestringent_95.final.contig.ntref 5.03
# SPACE /vol/ngscomparison/software/analysis/quast-2.1/libs/MUMmer3.23-linux/mummer /vol/codine-tmp/juene/tmp.UxguvBdIKp/quast/gage/tmp/SOAP2_PGM_mtbh37_pgm_400bp_es_318v2_OT2_tsv3.6_morestringent_95.final.contig.ntref 7.37
4: FINISHING DATA
Filtering alignments
Extracting alignment coordinates
Analyzing SNPs
Extracting alignment breakpoints
Generating report file
Found genome size at position 4 with value 4411532 aka 4411532
Calculating point at 0 and the sum is 1000146 and i is6103 and lens is 8202 and length is 344
Calculating point at 1 and the sum is 2000258 and i is2789 and lens is 8202 and length is 262
