Assembly	SOAP2_PGM_sakai_pgm_mu_318_400bp_IO_TS3.4_ms_0.395percent_113.final.contig
#Contigs (>= 0 bp)	104841
#Contigs (>= 1000 bp)	114
Total length (>= 0 bp)	21410622
Total length (>= 1000 bp)	137631
#Contigs	55362
Largest contig	2388
Total length	14101767
Reference length	5594470
GC (%)	50.41
Reference GC (%)	50.48
N50	224
NG50	349
N75	222
NG75	247
#misassemblies	151
#local misassemblies	2
#unaligned contigs	56 + 32 part
Unaligned contigs length	23619
Genome fraction (%)	93.750
Duplication ratio	2.614
#N's per 100 kbp	0.00
#mismatches per 100 kbp	6.98
#indels per 100 kbp	256.23
#genes	462 + 4695 part
#predicted genes (unique)	53181
#predicted genes (>= 0 bp)	54123
#predicted genes (>= 300 bp)	4013
#predicted genes (>= 1500 bp)	1
#predicted genes (>= 3000 bp)	0
Largest alignment	2388
NA50	224
NGA50	347
NA75	222
NGA75	241
