All statistics are based on contigs of size >= 200 bp, unless otherwise noted (e.g., "# contigs (>= 0 bp)" and "Total length (>= 0 bp)" include all contigs).

Assembly                       CLC_MIS_PE_sakai_mis-1_bi_2x150bp_default__sakai_mis-2_bi_2x150bp_default.36coverage.result_broken  CLC_MIS_PE_sakai_mis-1_bi_2x150bp_default__sakai_mis-2_bi_2x150bp_default.36coverage.result
#Contigs (>= 0 bp)             287                                                                                                 263                                                                                        
#Contigs (>= 1000 bp)          150                                                                                                 148                                                                                        
Total length (>= 0 bp)         5355303                                                                                             5357332                                                                                    
Total length (>= 1000 bp)      5295760                                                                                             5304941                                                                                    
#Contigs                       275                                                                                                 263                                                                                        
Largest contig                 313894                                                                                              374698                                                                                     
Total length                   5353431                                                                                             5357332                                                                                    
Reference length               5594470                                                                                             5594470                                                                                    
GC (%)                         50.29                                                                                               50.29                                                                                      
Reference GC (%)               50.48                                                                                               50.48                                                                                      
N50                            141495                                                                                              146396                                                                                     
NG50                           124190                                                                                              145589                                                                                     
N75                            56889                                                                                               69519                                                                                      
NG75                           51990                                                                                               55248                                                                                      
#misassemblies                 5                                                                                                   7                                                                                          
#local misassemblies           4                                                                                                   21                                                                                         
#unaligned contigs             1 + 0 part                                                                                          1 + 1 part                                                                                 
Unaligned contigs length       5386                                                                                                6302                                                                                       
Genome fraction (%)            94.235                                                                                              94.360                                                                                     
Duplication ratio              1.008                                                                                               1.008                                                                                      
#N's per 100 kbp               0.32                                                                                                38.19                                                                                      
#mismatches per 100 kbp        3.00                                                                                                3.52                                                                                       
#indels per 100 kbp            0.51                                                                                                0.61                                                                                       
#genes                         4976 + 146 part                                                                                     4978 + 152 part                                                                            
#predicted genes (unique)      5253                                                                                                5258                                                                                       
#predicted genes (>= 0 bp)     5253                                                                                                5258                                                                                       
#predicted genes (>= 300 bp)   4435                                                                                                4435                                                                                       
#predicted genes (>= 1500 bp)  673                                                                                                 674                                                                                        
#predicted genes (>= 3000 bp)  67                                                                                                  66                                                                                         
Largest alignment              313894                                                                                              313894                                                                                     
NA50                           141495                                                                                              145502                                                                                     
NGA50                          124190                                                                                              145472                                                                                     
NA75                           56889                                                                                               69519                                                                                      
NGA75                          46320                                                                                               55248                                                                                      
