Assembly	#Contigs (>= 0 bp)	#Contigs (>= 1000 bp)	Total length (>= 0 bp)	Total length (>= 1000 bp)	#Contigs	Largest contig	Total length	Reference length	GC (%)	Reference GC (%)	N50	NG50	N75	NG75	#misassemblies	#local misassemblies	#unaligned contigs	Unaligned contigs length	Genome fraction (%)	Duplication ratio	#N's per 100 kbp	#mismatches per 100 kbp	#indels per 100 kbp	#genes	#predicted genes (unique)	#predicted genes (>= 0 bp)	#predicted genes (>= 300 bp)	#predicted genes (>= 1500 bp)	#predicted genes (>= 3000 bp)	Largest alignment	NA50	NGA50	NA75	NGA75
CLC_MIS_PE_sakai_mis-1_bi_2x150bp_default__sakai_mis-2_bi_2x150bp_default.36coverage.result_broken	287	150	5355303	5295760	275	313894	5353431	5594470	50.29	50.48	141495	124190	56889	51990	5	4	1 + 0 part	5386	94.235	1.008	0.32	3.00	0.51	4976 + 146 part	5253	5253	4435	673	67	313894	141495	124190	56889	46320
CLC_MIS_PE_sakai_mis-1_bi_2x150bp_default__sakai_mis-2_bi_2x150bp_default.36coverage.result	263	148	5357332	5304941	263	374698	5357332	5594470	50.29	50.48	146396	145589	69519	55248	7	21	1 + 1 part	6302	94.360	1.008	38.19	3.52	0.61	4978 + 152 part	5258	5258	4435	674	66	313894	145502	145472	69519	55248
