Assembly	ABYSS_PE_PGM_sakai_pgm_mu_200bp_IO_TS3.0Disabled_stringent.0.85percent_148.final
#Mis_misassemblies	5
#Mis_relocations	5
#Mis_translocations	0
#Mis_inversions	0
#Mis_misassembled contigs	5
Mis_Misassembled contigs length	3919
#Mis_local misassemblies	0
#mismatches	49
#indels	1672
#Mis_short indels (<= 5 bp)	1671
#Mis_long indels (> 5 bp)	1
Indels length	1759
