Assembly	VELVET_PGM_sakai_pgm_mu_318_400bp_IO_TS3.4_ms_0.395percent_137.final.contigs
#Contigs (>= 0 bp)	15617
#Contigs (>= 1000 bp)	7
Total length (>= 0 bp)	4858428
Total length (>= 1000 bp)	8357
#Contigs	15617
Largest contig	1642
Total length	4858428
Reference length	5594470
GC (%)	50.15
Reference GC (%)	50.48
N50	299
NG50	291
N75	277
NG75	273
#misassemblies	536
#local misassemblies	1
#unaligned contigs	2 + 4 part
Unaligned contigs length	1028
Genome fraction (%)	56.302
Duplication ratio	1.493
#N's per 100 kbp	0.00
#mismatches per 100 kbp	57.53
#indels per 100 kbp	593.05
#genes	193 + 4288 part
#predicted genes (unique)	17390
#predicted genes (>= 0 bp)	17468
#predicted genes (>= 300 bp)	1259
#predicted genes (>= 1500 bp)	0
#predicted genes (>= 3000 bp)	0
Largest alignment	1508
NA50	295
NGA50	287
NA75	274
NGA75	273
