All statistics are based on contigs of size >= 200 bp, unless otherwise noted (e.g., "# contigs (>= 0 bp)" and "Total length (>= 0 bp)" include all contigs).

Assembly                                   VELVET_MIS_PE_sakai_mis-both_bi_2x250bp_SI_default.0.64percent_147.final.contigs_broken  VELVET_MIS_PE_sakai_mis-both_bi_2x250bp_SI_default.0.64percent_147.final.contigs
#Contigs                                   507                                                                                      410                                                                             
#Contigs (>= 0 bp)                         508                                                                                      410                                                                             
#Contigs (>= 1000 bp)                      271                                                                                      197                                                                             
Largest contig                             130502                                                                                   206661                                                                          
Total length                               5453775                                                                                  5464996                                                                         
Total length (>= 0 bp)                     5453864                                                                                  5464996                                                                         
Total length (>= 1000 bp)                  5344133                                                                                  5368482                                                                         
Reference length                           5594470                                                                                  5594470                                                                         
N50                                        39935                                                                                    65781                                                                           
NG50                                       38875                                                                                    65285                                                                           
N75                                        21643                                                                                    33202                                                                           
NG75                                       19788                                                                                    32341                                                                           
L50                                        40                                                                                       26                                                                              
LG50                                       42                                                                                       27                                                                              
L75                                        85                                                                                       56                                                                              
LG75                                       90                                                                                       59                                                                              
#local misassemblies                       2                                                                                        78                                                                              
#misassemblies                             7                                                                                        14                                                                              
#misassembled contigs                      6                                                                                        11                                                                              
Misassembled contigs length                144997                                                                                   451624                                                                          
Misassemblies inter-contig overlap         3431                                                                                     2134                                                                            
#unaligned contigs                         1 + 0 part                                                                               1 + 0 part                                                                      
Unaligned contigs length                   5532                                                                                     5532                                                                            
#ambiguously mapped contigs                193                                                                                      184                                                                             
Extra bases in ambiguously mapped contigs  -111743                                                                                  -106716                                                                         
#N's                                       0                                                                                        11132                                                                           
#N's per 100 kbp                           0.00                                                                                     203.70                                                                          
Genome fraction (%)                        95.333                                                                                   95.426                                                                          
Duplication ratio                          1.001                                                                                    1.003                                                                           
#genes                                     4969 + 292 part                                                                          4978 + 287 part                                                                 
#predicted genes (unique)                  5558                                                                                     5537                                                                            
#predicted genes (>= 0 bp)                 5572                                                                                     5551                                                                            
#predicted genes (>= 300 bp)               4605                                                                                     4596                                                                            
#predicted genes (>= 1500 bp)              651                                                                                      651                                                                             
#predicted genes (>= 3000 bp)              63                                                                                       63                                                                              
#mismatches                                155                                                                                      160                                                                             
#indels                                    34                                                                                       276                                                                             
Indels length                              34                                                                                       566                                                                             
#mismatches per 100 kbp                    2.91                                                                                     3.00                                                                            
#indels per 100 kbp                        0.64                                                                                     5.17                                                                            
GC (%)                                     50.35                                                                                    50.35                                                                           
Reference GC (%)                           50.48                                                                                    50.48                                                                           
Average %IDY                               98.815                                                                                   98.817                                                                          
Largest alignment                          130502                                                                                   148269                                                                          
NA50                                       38875                                                                                    65285                                                                           
NGA50                                      38158                                                                                    63676                                                                           
NA75                                       21552                                                                                    32758                                                                           
NGA75                                      18829                                                                                    31593                                                                           
LA50                                       41                                                                                       27                                                                              
LGA50                                      42                                                                                       28                                                                              
LA75                                       86                                                                                       58                                                                              
LGA75                                      92                                                                                       61                                                                              
#Mis_misassemblies                         7                                                                                        14                                                                              
#Mis_relocations                           7                                                                                        14                                                                              
#Mis_translocations                        0                                                                                        0                                                                               
#Mis_inversions                            0                                                                                        0                                                                               
#Mis_misassembled contigs                  6                                                                                        11                                                                              
Mis_Misassembled contigs length            144997                                                                                   451624                                                                          
#Mis_local misassemblies                   2                                                                                        78                                                                              
#Mis_short indels (<= 5 bp)                34                                                                                       268                                                                             
#Mis_long indels (> 5 bp)                  0                                                                                        8                                                                               
#Una_fully unaligned contigs               1                                                                                        1                                                                               
Una_Fully unaligned length                 5532                                                                                     5532                                                                            
#Una_partially unaligned contigs           0                                                                                        0                                                                               
#Una_with misassembly                      0                                                                                        0                                                                               
#Una_both parts are significant            0                                                                                        0                                                                               
Una_Partially unaligned length             0                                                                                        0                                                                               
GAGE_Contigs #                             507                                                                                      410                                                                             
GAGE_Min contig                            203                                                                                      293                                                                             
GAGE_Max contig                            130502                                                                                   206661                                                                          
GAGE_N50                                   38875 COUNT: 42                                                                          65285 COUNT: 27                                                                 
GAGE_Genome size                           5594470                                                                                  5594470                                                                         
GAGE_Assembly size                         5453775                                                                                  5464996                                                                         
GAGE_Chaff bases                           0                                                                                        0                                                                               
GAGE_Missing reference bases               11597(0.21%)                                                                             11627(0.21%)                                                                    
GAGE_Missing assembly bases                5622(0.10%)                                                                              16734(0.31%)                                                                    
GAGE_Missing assembly contigs              1(0.20%)                                                                                 1(0.24%)                                                                        
GAGE_Duplicated reference bases            7896                                                                                     7148                                                                            
GAGE_Compressed reference bases            241412                                                                                   239661                                                                          
GAGE_Bad trim                              90                                                                                       84                                                                              
GAGE_Avg idy                               99.99                                                                                    99.99                                                                           
GAGE_SNPs                                  104                                                                                      104                                                                             
GAGE_Indels < 5bp                          17                                                                                       24                                                                              
GAGE_Indels >= 5                           1                                                                                        77                                                                              
GAGE_Inversions                            2                                                                                        8                                                                               
GAGE_Relocation                            4                                                                                        10                                                                              
GAGE_Translocation                         0                                                                                        0                                                                               
GAGE_Corrected contig #                    494                                                                                      494                                                                             
GAGE_Corrected assembly size               5442292                                                                                  5443936                                                                         
GAGE_Min correct contig                    293                                                                                      293                                                                             
GAGE_Max correct contig                    130502                                                                                   130502                                                                          
GAGE_Corrected N50                         37654 COUNT: 43                                                                          37654 COUNT: 43                                                                 
