calling: java -cp /vol/ngscomparison/software/analysis/quast-2.1/libs/gage:. SizeFasta /vol/codine-tmp/juene/tmp.I9AIGixeQd/quast/corrected_input/MRSA_COL_Plasmid.fasta |awk '{SUM+=; print SUM}'|tail -n 1
Contig Stats
Total units: 19510
Reference: 2813862
BasesInFasta: 5812729
Min: 257
Max: 905
N10: 401 COUNT: 638
N25: 364 COUNT: 1744
N50: 330 COUNT: 3786
N75: 309 COUNT: 5994
E-size:629.45

Genome Size: 2813862
Assembly Size: 5812729
Chaff bases: 0
Missing Reference Bases: 534115(18.98%)
Missing Assembly Bases: 5058(0.09%)
Missing Assembly Contigs: 8(0.04%)
Duplicated Reference Bases: 2911134
Compressed Reference Bases: 47408
Bad Trim: 2440
Avg Idy: 99.13
SNPs: 1340
Indels < 5bp: 15817
Indels >= 5: 2
Inversions: 25
Relocation: 8
Translocation: 2

Corrected Contig Stats
calling: java -cp /vol/ngscomparison/software/analysis/quast-2.1/libs/gage:.:. GetFastaStats -o -min 199 -genomeSize 2813862 /vol/codine-tmp/juene/tmp.I9AIGixeQd/quast/gage/tmp/VELVET_PGM_mrsa_pgm_400bp_es_318_IKA_ts3.2_morestringent.0.165percent_129.final.contigs.matches.lens 2> /dev/null
Total units: 9563
Reference: 2813862
BasesInFasta: 2865484
Min: 200
Max: 905
N10: 378 COUNT: 668
N25: 333 COUNT: 1866
N50: 294 COUNT: 4126
N75: 267 COUNT: 6646
E-size:313.02

Done
