All statistics are based on contigs of size >= 200 bp, unless otherwise noted (e.g., "# contigs (>= 0 bp)" and "Total length (>= 0 bp)" include all contigs).

Assembly                                   VELVET_MIS_PE_mrsa_mis-1_bi_2x250bp_default__mrsa_mis-2_bi_2x250bp_default.0.460percent_151.final.contigs_broken  VELVET_MIS_PE_mrsa_mis-1_bi_2x250bp_default__mrsa_mis-2_bi_2x250bp_default.0.460percent_151.final.contigs
#Contigs                                   138                                                                                                               128                                                                                                      
#Contigs (>= 0 bp)                         138                                                                                                               128                                                                                                      
#Contigs (>= 1000 bp)                      91                                                                                                                87                                                                                                       
Largest contig                             196522                                                                                                            196522                                                                                                   
Total length                               2808403                                                                                                           2808817                                                                                                  
Total length (>= 0 bp)                     2808403                                                                                                           2808817                                                                                                  
Total length (>= 1000 bp)                  2790129                                                                                                           2793517                                                                                                  
Reference length                           2813862                                                                                                           2813862                                                                                                  
N50                                        60430                                                                                                             60430                                                                                                    
NG50                                       60430                                                                                                             60430                                                                                                    
N75                                        31803                                                                                                             38003                                                                                                    
NG75                                       30541                                                                                                             38003                                                                                                    
L50                                        15                                                                                                                14                                                                                                       
LG50                                       15                                                                                                                14                                                                                                       
L75                                        30                                                                                                                28                                                                                                       
LG75                                       31                                                                                                                28                                                                                                       
#local misassemblies                       0                                                                                                                 1                                                                                                        
#misassemblies                             2                                                                                                                 3                                                                                                        
#misassembled contigs                      2                                                                                                                 3                                                                                                        
Misassembled contigs length                72219                                                                                                             134273                                                                                                   
Misassemblies inter-contig overlap         0                                                                                                                 0                                                                                                        
#unaligned contigs                         1 + 0 part                                                                                                        1 + 0 part                                                                                               
Unaligned contigs length                   5536                                                                                                              5536                                                                                                     
#ambiguously mapped contigs                33                                                                                                                32                                                                                                       
Extra bases in ambiguously mapped contigs  -13362                                                                                                            -12980                                                                                                   
#N's                                       0                                                                                                                 414                                                                                                      
#N's per 100 kbp                           0.00                                                                                                              14.74                                                                                                    
Genome fraction (%)                        98.818                                                                                                            98.810                                                                                                   
Duplication ratio                          1.003                                                                                                             1.004                                                                                                    
#genes                                     2663 + 50 part                                                                                                    2666 + 47 part                                                                                           
#predicted genes (unique)                  2685                                                                                                              2685                                                                                                     
#predicted genes (>= 0 bp)                 2687                                                                                                              2687                                                                                                     
#predicted genes (>= 300 bp)               2312                                                                                                              2313                                                                                                     
#predicted genes (>= 1500 bp)              301                                                                                                               301                                                                                                      
#predicted genes (>= 3000 bp)              27                                                                                                                27                                                                                                       
#mismatches                                36                                                                                                                34                                                                                                       
#indels                                    9                                                                                                                 226                                                                                                      
Indels length                              9                                                                                                                 260                                                                                                      
#mismatches per 100 kbp                    1.29                                                                                                              1.22                                                                                                     
#indels per 100 kbp                        0.32                                                                                                              8.13                                                                                                     
GC (%)                                     32.73                                                                                                             32.73                                                                                                    
Reference GC (%)                           32.81                                                                                                             32.81                                                                                                    
Average %IDY                               98.918                                                                                                            98.910                                                                                                   
Largest alignment                          196522                                                                                                            196522                                                                                                   
NA50                                       54013                                                                                                             60430                                                                                                    
NGA50                                      54013                                                                                                             60430                                                                                                    
NA75                                       30538                                                                                                             38003                                                                                                    
NGA75                                      30538                                                                                                             34459                                                                                                    
LA50                                       15                                                                                                                14                                                                                                       
LGA50                                      15                                                                                                                14                                                                                                       
LA75                                       31                                                                                                                29                                                                                                       
LGA75                                      31                                                                                                                30                                                                                                       
#Mis_misassemblies                         2                                                                                                                 3                                                                                                        
#Mis_relocations                           2                                                                                                                 3                                                                                                        
#Mis_translocations                        0                                                                                                                 0                                                                                                        
#Mis_inversions                            0                                                                                                                 0                                                                                                        
#Mis_misassembled contigs                  2                                                                                                                 3                                                                                                        
Mis_Misassembled contigs length            72219                                                                                                             134273                                                                                                   
#Mis_local misassemblies                   0                                                                                                                 1                                                                                                        
#Mis_short indels (<= 5 bp)                9                                                                                                                 225                                                                                                      
#Mis_long indels (> 5 bp)                  0                                                                                                                 1                                                                                                        
#Una_fully unaligned contigs               1                                                                                                                 1                                                                                                        
Una_Fully unaligned length                 5536                                                                                                              5536                                                                                                     
#Una_partially unaligned contigs           0                                                                                                                 0                                                                                                        
#Una_with misassembly                      0                                                                                                                 0                                                                                                        
#Una_both parts are significant            0                                                                                                                 0                                                                                                        
Una_Partially unaligned length             0                                                                                                                 0                                                                                                        
GAGE_Contigs #                             138                                                                                                               128                                                                                                      
GAGE_Min contig                            221                                                                                                               301                                                                                                      
GAGE_Max contig                            196522                                                                                                            196522                                                                                                   
GAGE_N50                                   60430 COUNT: 15                                                                                                   60430 COUNT: 14                                                                                          
GAGE_Genome size                           2813862                                                                                                           2813862                                                                                                  
GAGE_Assembly size                         2808403                                                                                                           2808817                                                                                                  
GAGE_Chaff bases                           0                                                                                                                 0                                                                                                        
GAGE_Missing reference bases               701(0.02%)                                                                                                        701(0.02%)                                                                                               
GAGE_Missing assembly bases                5540(0.20%)                                                                                                       5954(0.21%)                                                                                              
GAGE_Missing assembly contigs              1(0.72%)                                                                                                          1(0.78%)                                                                                                 
GAGE_Duplicated reference bases            2926                                                                                                              3338                                                                                                     
GAGE_Compressed reference bases            37041                                                                                                             37155                                                                                                    
GAGE_Bad trim                              4                                                                                                                 144                                                                                                      
GAGE_Avg idy                               99.99                                                                                                             99.99                                                                                                    
GAGE_SNPs                                  33                                                                                                                33                                                                                                       
GAGE_Indels < 5bp                          9                                                                                                                 9                                                                                                        
GAGE_Indels >= 5                           0                                                                                                                 6                                                                                                        
GAGE_Inversions                            0                                                                                                                 0                                                                                                        
GAGE_Relocation                            2                                                                                                                 3                                                                                                        
GAGE_Translocation                         0                                                                                                                 0                                                                                                        
GAGE_Corrected contig #                    129                                                                                                               129                                                                                                      
GAGE_Corrected assembly size               2799942                                                                                                           2799881                                                                                                  
GAGE_Min correct contig                    301                                                                                                               301                                                                                                      
GAGE_Max correct contig                    196525                                                                                                            196525                                                                                                   
GAGE_Corrected N50                         54014 COUNT: 15                                                                                                   54014 COUNT: 15                                                                                          
