All statistics are based on contigs of size >= 200 bp, unless otherwise noted (e.g., "# contigs (>= 0 bp)" and "Total length (>= 0 bp)" include all contigs).

Assembly                         VELVET_MIS_PE_mrsa_mis-1_bi_2x250bp_default__mrsa_mis-2_bi_2x250bp_default.0.460percent_151.final.contigs_broken  VELVET_MIS_PE_mrsa_mis-1_bi_2x250bp_default__mrsa_mis-2_bi_2x250bp_default.0.460percent_151.final.contigs
GAGE_Contigs #                   138                                                                                                               128                                                                                                      
GAGE_Min contig                  221                                                                                                               301                                                                                                      
GAGE_Max contig                  196522                                                                                                            196522                                                                                                   
GAGE_N50                         60430 COUNT: 15                                                                                                   60430 COUNT: 14                                                                                          
GAGE_Genome size                 2813862                                                                                                           2813862                                                                                                  
GAGE_Assembly size               2808403                                                                                                           2808817                                                                                                  
GAGE_Chaff bases                 0                                                                                                                 0                                                                                                        
GAGE_Missing reference bases     701(0.02%)                                                                                                        701(0.02%)                                                                                               
GAGE_Missing assembly bases      5540(0.20%)                                                                                                       5954(0.21%)                                                                                              
GAGE_Missing assembly contigs    1(0.72%)                                                                                                          1(0.78%)                                                                                                 
GAGE_Duplicated reference bases  2926                                                                                                              3338                                                                                                     
GAGE_Compressed reference bases  37041                                                                                                             37155                                                                                                    
GAGE_Bad trim                    4                                                                                                                 144                                                                                                      
GAGE_Avg idy                     99.99                                                                                                             99.99                                                                                                    
GAGE_SNPs                        33                                                                                                                33                                                                                                       
GAGE_Indels < 5bp                9                                                                                                                 9                                                                                                        
GAGE_Indels >= 5                 0                                                                                                                 6                                                                                                        
GAGE_Inversions                  0                                                                                                                 0                                                                                                        
GAGE_Relocation                  2                                                                                                                 3                                                                                                        
GAGE_Translocation               0                                                                                                                 0                                                                                                        
GAGE_Corrected contig #          129                                                                                                               129                                                                                                      
GAGE_Corrected assembly size     2799942                                                                                                           2799881                                                                                                  
GAGE_Min correct contig          301                                                                                                               301                                                                                                      
GAGE_Max correct contig          196525                                                                                                            196525                                                                                                   
GAGE_Corrected N50               54014 COUNT: 15                                                                                                   54014 COUNT: 15                                                                                          
