All statistics are based on contigs of size >= 200 bp, unless otherwise noted (e.g., "# contigs (>= 0 bp)" and "Total length (>= 0 bp)" include all contigs).

Assembly                                                                          #Contigs  #Contigs (>= 0 bp)  #Contigs (>= 1000 bp)  Largest contig  Total length  Total length (>= 0 bp)  Total length (>= 1000 bp)  Reference length  N50    NG50   N75    NG75   L50  LG50  L75  LG75  #local misassemblies  #misassemblies  #misassembled contigs  Misassembled contigs length  Misassemblies inter-contig overlap  #unaligned contigs  Unaligned contigs length  #ambiguously mapped contigs  Extra bases in ambiguously mapped contigs  #N's   #N's per 100 kbp  Genome fraction (%)  Duplication ratio  #genes           #predicted genes (unique)  #predicted genes (>= 0 bp)  #predicted genes (>= 300 bp)  #predicted genes (>= 1500 bp)  #predicted genes (>= 3000 bp)  #mismatches  #indels  Indels length  #mismatches per 100 kbp  #indels per 100 kbp  GC (%)  Reference GC (%)  Average %IDY  Largest alignment  NA50   NGA50  NA75   NGA75  LA50  LGA50  LA75  LGA75  #Mis_misassemblies  #Mis_relocations  #Mis_translocations  #Mis_inversions  #Mis_misassembled contigs  Mis_Misassembled contigs length  #Mis_local misassemblies  #Mis_short indels (<= 5 bp)  #Mis_long indels (> 5 bp)  #Una_fully unaligned contigs  Una_Fully unaligned length  #Una_partially unaligned contigs  #Una_with misassembly  #Una_both parts are significant  Una_Partially unaligned length  GAGE_Contigs #  GAGE_Min contig  GAGE_Max contig  GAGE_N50          GAGE_Genome size  GAGE_Assembly size  GAGE_Chaff bases  GAGE_Missing reference bases  GAGE_Missing assembly bases  GAGE_Missing assembly contigs  GAGE_Duplicated reference bases  GAGE_Compressed reference bases  GAGE_Bad trim  GAGE_Avg idy  GAGE_SNPs  GAGE_Indels < 5bp  GAGE_Indels >= 5  GAGE_Inversions  GAGE_Relocation  GAGE_Translocation  GAGE_Corrected contig #  GAGE_Corrected assembly size  GAGE_Min correct contig  GAGE_Max correct contig  GAGE_Corrected N50
SOAP2_MIS_PE_sakai_mis-1_bi_2x250bp_SI_default.0.64percent_119.final.scaf_broken  2262      2941                574                    59068           5657638       5759883                 5181360                    5594470           13893  14158  6569   6862   120  118   266  259   19                    12              11                     37658                        130                                 9 + 0 part          7740                      527                          -169956                                    188    3.32              94.779               1.034              4532 + 661 part  7002                       7084                        4645                          602                            48                             330          40       382            6.22                     0.75                 50.46   50.48             99.209        59068              13890  14158  6568   6821   120   118    267   260    12                  12                0                    0                11                         37658                            19                        27                           13                         9                             7740                        0                                 0                      0                                0                               2262            200              59068            14158 COUNT: 118  5594470           5657638             0                 7946(0.14%)                   6885(0.12%)                  7(0.31%)                       146735                           274361                           93             100.00        110        35                 12                1                4                0                   1691                     5502792                       200                      59068                    13535 COUNT: 122  
SOAP2_MIS_PE_sakai_mis-1_bi_2x250bp_SI_default.0.64percent_119.final.scaf         1746      2384                255                    173733          5690382       5786031                 5294760                    5594470           45963  48245  21425  23593  35   34    79   76    393                   29              22                     180117                       109                                 19 + 9 part         27102                     464                          -141576                                    26336  462.82            94.863               1.040              4574 + 613 part  6837                       6915                        4632                          616                            53                             412          735      2442           7.76                     13.85                50.46   50.48             99.198        173195             43681  44617  21054  23296  36    35     81    77     29                  29                0                    0                22                         180117                           393                       655                          80                         19                            18190                       9                                 0                      8                                8912                            1746            200              173733           48245 COUNT: 34   5594470           5690382             0                 7779(0.14%)                   35833(0.63%)                 8(0.46%)                       142497                           260881                           3650           99.99         99         75                 122               3                5                0                   1675                     5506427                       200                      59068                    13535 COUNT: 122  
