All statistics are based on contigs of size >= 200 bp, unless otherwise noted (e.g., "# contigs (>= 0 bp)" and "Total length (>= 0 bp)" include all contigs).

Assembly                                                                                 #Mis_misassemblies  #Mis_relocations  #Mis_translocations  #Mis_inversions  #Mis_misassembled contigs  Mis_Misassembled contigs length  #Mis_local misassemblies  #mismatches  #indels  #Mis_short indels (<= 5 bp)  #Mis_long indels (> 5 bp)  Indels length
VELVET_MIS_PE_sakai_mis-both_bi_2x250bp_SI_default.0.64percent_151.final.contigs_broken  7                   7                 0                    0                6                          158650                           2                         164          35       35                           0                          35           
VELVET_MIS_PE_sakai_mis-both_bi_2x250bp_SI_default.0.64percent_151.final.contigs         15                  15                0                    0                12                         518787                           87                        168          236      231                          5                          496          
