All statistics are based on contigs of size >= 200 bp, unless otherwise noted (e.g., "# contigs (>= 0 bp)" and "Total length (>= 0 bp)" include all contigs).

Assembly                                   ABYSS_PE_MIS_PE_sakai_mis-1_bi_2x150bp_default__sakai_mis-2_bi_2x150bp_default.0.826percent_88-scaffolds_broken  ABYSS_PE_MIS_PE_sakai_mis-1_bi_2x150bp_default__sakai_mis-2_bi_2x150bp_default.0.826percent_88-scaffolds
#Contigs                                   276                                                                                                              223                                                                                                     
#Contigs (>= 0 bp)                         590                                                                                                              537                                                                                                     
#Contigs (>= 1000 bp)                      193                                                                                                              172                                                                                                     
Largest contig                             353707                                                                                                           376859                                                                                                  
Total length                               5563863                                                                                                          5566741                                                                                                 
Total length (>= 0 bp)                     5608511                                                                                                          5611389                                                                                                 
Total length (>= 1000 bp)                  5520085                                                                                                          5539670                                                                                                 
Reference length                           5594470                                                                                                          5594470                                                                                                 
N50                                        100122                                                                                                           146586                                                                                                  
NG50                                       98911                                                                                                            146586                                                                                                  
N75                                        48006                                                                                                            74094                                                                                                   
NG75                                       48006                                                                                                            74094                                                                                                   
L50                                        17                                                                                                               13                                                                                                      
LG50                                       18                                                                                                               13                                                                                                      
L75                                        36                                                                                                               27                                                                                                      
LG75                                       36                                                                                                               27                                                                                                      
#local misassemblies                       5                                                                                                                23                                                                                                      
#misassemblies                             2                                                                                                                15                                                                                                      
#misassembled contigs                      2                                                                                                                12                                                                                                      
Misassembled contigs length                335667                                                                                                           732976                                                                                                  
Misassemblies inter-contig overlap         770                                                                                                              1008                                                                                                    
#unaligned contigs                         0 + 0 part                                                                                                       1 + 0 part                                                                                              
Unaligned contigs length                   0                                                                                                                1963                                                                                                    
#ambiguously mapped contigs                63                                                                                                               42                                                                                                      
Extra bases in ambiguously mapped contigs  -76122                                                                                                           -47211                                                                                                  
#N's                                       13                                                                                                               2891                                                                                                    
#N's per 100 kbp                           0.23                                                                                                             51.93                                                                                                   
Genome fraction (%)                        96.760                                                                                                           97.180                                                                                                  
Duplication ratio                          1.014                                                                                                            1.015                                                                                                   
#genes                                     5122 + 165 part                                                                                                  5156 + 159 part                                                                                         
#predicted genes (unique)                  5330                                                                                                             5317                                                                                                    
#predicted genes (>= 0 bp)                 5477                                                                                                             5462                                                                                                    
#predicted genes (>= 300 bp)               4590                                                                                                             4590                                                                                                    
#predicted genes (>= 1500 bp)              702                                                                                                              701                                                                                                     
#predicted genes (>= 3000 bp)              77                                                                                                               76                                                                                                      
#mismatches                                732                                                                                                              774                                                                                                     
#indels                                    43                                                                                                               319                                                                                                     
Indels length                              330                                                                                                              888                                                                                                     
#mismatches per 100 kbp                    13.52                                                                                                            14.24                                                                                                   
#indels per 100 kbp                        0.79                                                                                                             5.87                                                                                                    
GC (%)                                     50.44                                                                                                            50.44                                                                                                   
Reference GC (%)                           50.48                                                                                                            50.48                                                                                                   
Average %IDY                               98.653                                                                                                           98.654                                                                                                  
Largest alignment                          353707                                                                                                           353707                                                                                                  
NA50                                       98911                                                                                                            146586                                                                                                  
NGA50                                      98911                                                                                                            146586                                                                                                  
NA75                                       48006                                                                                                            74094                                                                                                   
NGA75                                      48006                                                                                                            72045                                                                                                   
LA50                                       18                                                                                                               14                                                                                                      
LGA50                                      18                                                                                                               14                                                                                                      
LA75                                       37                                                                                                               28                                                                                                      
LGA75                                      37                                                                                                               29                                                                                                      
#Mis_misassemblies                         2                                                                                                                15                                                                                                      
#Mis_relocations                           2                                                                                                                14                                                                                                      
#Mis_translocations                        0                                                                                                                1                                                                                                       
#Mis_inversions                            0                                                                                                                0                                                                                                       
#Mis_misassembled contigs                  2                                                                                                                12                                                                                                      
Mis_Misassembled contigs length            335667                                                                                                           732976                                                                                                  
#Mis_local misassemblies                   5                                                                                                                23                                                                                                      
#Mis_short indels (<= 5 bp)                36                                                                                                               302                                                                                                     
#Mis_long indels (> 5 bp)                  7                                                                                                                17                                                                                                      
#Una_fully unaligned contigs               0                                                                                                                1                                                                                                       
Una_Fully unaligned length                 0                                                                                                                1963                                                                                                    
#Una_partially unaligned contigs           0                                                                                                                0                                                                                                       
#Una_with misassembly                      0                                                                                                                0                                                                                                       
#Una_both parts are significant            0                                                                                                                0                                                                                                       
Una_Partially unaligned length             0                                                                                                                0                                                                                                       
GAGE_Contigs #                             276                                                                                                              223                                                                                                     
GAGE_Min contig                            200                                                                                                              200                                                                                                     
GAGE_Max contig                            353707                                                                                                           376859                                                                                                  
GAGE_N50                                   98911 COUNT: 18                                                                                                  146586 COUNT: 13                                                                                        
GAGE_Genome size                           5594470                                                                                                          5594470                                                                                                 
GAGE_Assembly size                         5563863                                                                                                          5566741                                                                                                 
GAGE_Chaff bases                           0                                                                                                                0                                                                                                       
GAGE_Missing reference bases               11785(0.21%)                                                                                                     11673(0.21%)                                                                                            
GAGE_Missing assembly bases                9(0.00%)                                                                                                         2774(0.05%)                                                                                             
GAGE_Missing assembly contigs              0(0.00%)                                                                                                         0(0.00%)                                                                                                
GAGE_Duplicated reference bases            23808                                                                                                            26133                                                                                                   
GAGE_Compressed reference bases            210257                                                                                                           211323                                                                                                  
GAGE_Bad trim                              0                                                                                                                308                                                                                                     
GAGE_Avg idy                               99.98                                                                                                            99.97                                                                                                   
GAGE_SNPs                                  557                                                                                                              731                                                                                                     
GAGE_Indels < 5bp                          42                                                                                                               53                                                                                                      
GAGE_Indels >= 5                           9                                                                                                                32                                                                                                      
GAGE_Inversions                            0                                                                                                                9                                                                                                       
GAGE_Relocation                            2                                                                                                                8                                                                                                       
GAGE_Translocation                         0                                                                                                                1                                                                                                       
GAGE_Corrected contig #                    264                                                                                                              260                                                                                                     
GAGE_Corrected assembly size               5541756                                                                                                          5539665                                                                                                 
GAGE_Min correct contig                    200                                                                                                              200                                                                                                     
GAGE_Max correct contig                    245298                                                                                                           245298                                                                                                  
GAGE_Corrected N50                         94689 COUNT: 20                                                                                                  94689 COUNT: 20                                                                                         
