All statistics are based on contigs of size >= 200 bp, unless otherwise noted (e.g., "# contigs (>= 0 bp)" and "Total length (>= 0 bp)" include all contigs).

Assembly                                                                                                         #Contigs (>= 0 bp)  #Contigs (>= 1000 bp)  Total length (>= 0 bp)  Total length (>= 1000 bp)  #Contigs  Largest contig  Total length  Reference length  GC (%)  Reference GC (%)  N50     NG50    N75    NG75   #misassemblies  #local misassemblies  #unaligned contigs  Unaligned contigs length  Genome fraction (%)  Duplication ratio  #N's per 100 kbp  #mismatches per 100 kbp  #indels per 100 kbp  #genes           #predicted genes (unique)  #predicted genes (>= 0 bp)  #predicted genes (>= 300 bp)  #predicted genes (>= 1500 bp)  #predicted genes (>= 3000 bp)  Largest alignment  NA50    NGA50   NA75   NGA75
ABYSS_PE_MIS_PE_sakai_mis-1_bi_2x150bp_default__sakai_mis-2_bi_2x150bp_default.0.826percent_88-scaffolds_broken  590                 193                    5608511                 5520085                    276       353707          5563863       5594470           50.44   50.48             100122  98911   48006  48006  2               5                     0 + 0 part          0                         96.760               1.014              0.23              13.52                    0.79                 5122 + 165 part  5330                       5477                        4590                          702                            77                             353707             98911   98911   48006  48006
ABYSS_PE_MIS_PE_sakai_mis-1_bi_2x150bp_default__sakai_mis-2_bi_2x150bp_default.0.826percent_88-scaffolds         537                 172                    5611389                 5539670                    223       376859          5566741       5594470           50.44   50.48             146586  146586  74094  74094  15              23                    1 + 0 part          1963                      97.180               1.015              51.93             14.24                    5.87                 5156 + 159 part  5317                       5462                        4590                          701                            76                             353707             146586  146586  74094  72045
