Assembly	#Contigs	#Contigs (>= 0 bp)	#Contigs (>= 1000 bp)	Largest contig	Total length	Total length (>= 0 bp)	Total length (>= 1000 bp)	Reference length	N50	NG50	N75	NG75	L50	LG50	L75	LG75	#local misassemblies	#misassemblies	#misassembled contigs	Misassembled contigs length	Misassemblies inter-contig overlap	#unaligned contigs	Unaligned contigs length	#ambiguously mapped contigs	Extra bases in ambiguously mapped contigs	#N's	#N's per 100 kbp	Genome fraction (%)	Duplication ratio	#genes	#predicted genes (unique)	#predicted genes (>= 0 bp)	#predicted genes (>= 300 bp)	#predicted genes (>= 1500 bp)	#predicted genes (>= 3000 bp)	#mismatches	#indels	Indels length	#mismatches per 100 kbp	#indels per 100 kbp	GC (%)	Reference GC (%)	Average %IDY	Largest alignment	NA50	NGA50	NA75	NGA75	LA50	LGA50	LA75	LGA75	#Mis_misassemblies	#Mis_relocations	#Mis_translocations	#Mis_inversions	#Mis_misassembled contigs	Mis_Misassembled contigs length	#Mis_local misassemblies	#Mis_short indels (<= 5 bp)	#Mis_long indels (> 5 bp)	#Una_fully unaligned contigs	Una_Fully unaligned length	#Una_partially unaligned contigs	#Una_with misassembly	#Una_both parts are significant	Una_Partially unaligned length	GAGE_Contigs #	GAGE_Min contig	GAGE_Max contig	GAGE_N50	GAGE_Genome size	GAGE_Assembly size	GAGE_Chaff bases	GAGE_Missing reference bases	GAGE_Missing assembly bases	GAGE_Missing assembly contigs	GAGE_Duplicated reference bases	GAGE_Compressed reference bases	GAGE_Bad trim	GAGE_Avg idy	GAGE_SNPs	GAGE_Indels < 5bp	GAGE_Indels >= 5	GAGE_Inversions	GAGE_Relocation	GAGE_Translocation	GAGE_Corrected contig #	GAGE_Corrected assembly size	GAGE_Min correct contig	GAGE_Max correct contig	GAGE_Corrected N50
SOAP2_MIS_PE_mrsa_mis-1_bi_2x250bp_default.0.460percent_61.final.scaf_broken	10281	17303	929	7967	4433617	5440219	1727412	2813862	603	1291	249	682	1557	645	5297	1391	8	1	1	1694	0	7312 + 0 part	1726925	7	-2292	876	19.76	93.080	1.033	1109 + 1510 part	11439	11454	2984	63	3	32	367	3943	1.22	14.01	34.40	32.81	99.927	7967	589	1288	None	674	1567	645	None	1398	1	1	0	0	1	1694	8	271	96	7312	1726925	0	0	0	0	10281	200	7967	1291 COUNT: 645	2813862	4433617	0	92687(3.29%)	1278267(28.83%)	5265(51.21%)	321991	40016	22654	99.87	1858	254	108	0	2	0	3509	2811183	200	6354	1219 COUNT: 685
SOAP2_MIS_PE_mrsa_mis-1_bi_2x250bp_default.0.460percent_61.final.scaf	9815	16670	931	10099	4482136	5462769	2002344	2813862	738	1806	249	882	1207	477	4791	1046	104	1	1	3195	0	7422 + 19 part	1863961	7	-2292	23426	522.65	89.979	1.033	1249 + 1303 part	11345	11360	2984	77	3	31	2322	13538	1.22	91.71	34.40	32.81	99.660	10099	594	1677	None	732	1325	493	None	1127	1	1	0	0	1	3195	104	1975	347	7422	1844841	19	0	16	19120	9815	200	10099	1806 COUNT: 477	2813862	4482136	0	82345(2.93%)	1304902(29.11%)	5269(53.68%)	331648	41353	26228	99.85	1759	304	576	0	2	0	3471	2805321	200	6354	1235 COUNT: 679
