All statistics are based on contigs of size >= 200 bp, unless otherwise noted (e.g., "# contigs (>= 0 bp)" and "Total length (>= 0 bp)" include all contigs).

Assembly                         CLC_MIS_PE_sakai_mis-2_bi_2x150bp_default__sakai_mis-1_bi_2x150bp_default.0.550percent.result_broken  CLC_MIS_PE_sakai_mis-2_bi_2x150bp_default__sakai_mis-1_bi_2x150bp_default.0.550percent.result
GAGE_Contigs #                   281                                                                                                   265                                                                                          
GAGE_Min contig                  201                                                                                                   201                                                                                          
GAGE_Max contig                  313894                                                                                                374729                                                                                       
GAGE_N50                         144444 COUNT: 15                                                                                      148157 COUNT: 13                                                                             
GAGE_Genome size                 5594470                                                                                               5594470                                                                                      
GAGE_Assembly size               5358472                                                                                               5362524                                                                                      
GAGE_Chaff bases                 0                                                                                                     0                                                                                            
GAGE_Missing reference bases     31435(0.56%)                                                                                          28957(0.52%)                                                                                 
GAGE_Missing assembly bases      5413(0.10%)                                                                                           7957(0.15%)                                                                                  
GAGE_Missing assembly contigs    1(0.36%)                                                                                              1(0.38%)                                                                                     
GAGE_Duplicated reference bases  8068                                                                                                  8583                                                                                         
GAGE_Compressed reference bases  234322                                                                                                236603                                                                                       
GAGE_Bad trim                    4                                                                                                     502                                                                                          
GAGE_Avg idy                     99.99                                                                                                 99.99                                                                                        
GAGE_SNPs                        121                                                                                                   121                                                                                          
GAGE_Indels < 5bp                18                                                                                                    18                                                                                           
GAGE_Indels >= 5                 7                                                                                                     17                                                                                           
GAGE_Inversions                  2                                                                                                     2                                                                                            
GAGE_Relocation                  4                                                                                                     5                                                                                            
GAGE_Translocation               0                                                                                                     0                                                                                            
GAGE_Corrected contig #          277                                                                                                   276                                                                                          
GAGE_Corrected assembly size     5347573                                                                                               5347365                                                                                      
GAGE_Min correct contig          201                                                                                                   201                                                                                          
GAGE_Max correct contig          313894                                                                                                313894                                                                                       
GAGE_Corrected N50               142747 COUNT: 15                                                                                      142747 COUNT: 15                                                                             
