Assembly	#Contigs	#Contigs (>= 0 bp)	#Contigs (>= 1000 bp)	Largest contig	Total length	Total length (>= 0 bp)	Total length (>= 1000 bp)	Reference length	N50	NG50	N75	NG75	L50	LG50	L75	LG75	#local misassemblies	#misassemblies	#misassembled contigs	Misassembled contigs length	Misassemblies inter-contig overlap	#unaligned contigs	Unaligned contigs length	#ambiguously mapped contigs	Extra bases in ambiguously mapped contigs	#N's	#N's per 100 kbp	Genome fraction (%)	Duplication ratio	#genes	#predicted genes (unique)	#predicted genes (>= 0 bp)	#predicted genes (>= 300 bp)	#predicted genes (>= 1500 bp)	#predicted genes (>= 3000 bp)	#mismatches	#indels	Indels length	#mismatches per 100 kbp	#indels per 100 kbp	GC (%)	Reference GC (%)	Average %IDY	Largest alignment	NA50	NGA50	NA75	NGA75	LA50	LGA50	LA75	LGA75	#Mis_misassemblies	#Mis_relocations	#Mis_translocations	#Mis_inversions	#Mis_misassembled contigs	Mis_Misassembled contigs length	#Mis_local misassemblies	#Mis_short indels (<= 5 bp)	#Mis_long indels (> 5 bp)	#Una_fully unaligned contigs	Una_Fully unaligned length	#Una_partially unaligned contigs	#Una_with misassembly	#Una_both parts are significant	Una_Partially unaligned length	GAGE_Contigs #	GAGE_Min contig	GAGE_Max contig	GAGE_N50	GAGE_Genome size	GAGE_Assembly size	GAGE_Chaff bases	GAGE_Missing reference bases	GAGE_Missing assembly bases	GAGE_Missing assembly contigs	GAGE_Duplicated reference bases	GAGE_Compressed reference bases	GAGE_Bad trim	GAGE_Avg idy	GAGE_SNPs	GAGE_Indels < 5bp	GAGE_Indels >= 5	GAGE_Inversions	GAGE_Relocation	GAGE_Translocation	GAGE_Corrected contig #	GAGE_Corrected assembly size	GAGE_Min correct contig	GAGE_Max correct contig	GAGE_Corrected N50
CLC_MIS_PE_sakai_mis-2_bi_2x150bp_default__sakai_mis-1_bi_2x150bp_default.0.550percent.result_broken	281	291	146	313894	5358472	5359980	5299316	5594470	145600	144444	73992	54635	14	15	27	30	6	6	6	259046	4594	1 + 0 part	5386	91	-83754	15	0.28	94.209	1.001	4986 + 134 part	5267	5267	4433	672	68	381	34	51	7.23	0.65	50.29	50.48	98.700	313894	145472	144444	73992	54635	14	15	27	30	6	6	0	0	6	259046	6	32	2	1	5386	0	0	0	0	281	201	313894	144444 COUNT: 15	5594470	5358472	0	31435(0.56%)	5413(0.10%)	1(0.36%)	8068	234322	4	99.99	121	18	7	2	4	0	277	5347573	201	313894	142747 COUNT: 15
CLC_MIS_PE_sakai_mis-2_bi_2x150bp_default__sakai_mis-1_bi_2x150bp_default.0.550percent.result	265	265	144	374729	5362524	5362524	5307400	5594470	148157	148157	76405	73278	13	13	24	27	27	7	7	471355	4934	2 + 0 part	5816	82	-76920	2559	47.72	94.348	1.001	4991 + 140 part	5264	5264	4432	672	67	400	39	215	7.58	0.74	50.29	50.48	98.706	313894	147892	147892	75268	73278	14	14	26	28	7	7	0	0	7	471355	27	33	6	2	5816	0	0	0	0	265	201	374729	148157 COUNT: 13	5594470	5362524	0	28957(0.52%)	7957(0.15%)	1(0.38%)	8583	236603	502	99.99	121	18	17	2	5	0	276	5347365	201	313894	142747 COUNT: 15
