1: PREPARING DATA
2,3: RUNNING mummer AND CREATING CLUSTERS
# reading input file "/vol/codine-tmp/juene/tmp.wcptLOUg5P/quast/gage/tmp/SOAP2_MIS_PE_sakai_mis-1_bi_2x250bp_SI_default.0.64percent_97.final.scaf.ntref" of length 5594473
# construct suffix tree for sequence of length 5594473
# (maximum reference length is 536870908)
# (maximum query length is 4294967295)
# process 55944 characters per dot
#....................................................................................................
# CONSTRUCTIONTIME /vol/ngscomparison/software/analysis/quast-2.1/libs/MUMmer3.23-linux/mummer /vol/codine-tmp/juene/tmp.wcptLOUg5P/quast/gage/tmp/SOAP2_MIS_PE_sakai_mis-1_bi_2x250bp_SI_default.0.64percent_97.final.scaf.ntref 3.70
# reading input file "/vol/codine-tmp/juene/tmp.wcptLOUg5P/quast/corrected_input/SOAP2_MIS_PE_sakai_mis-1_bi_2x250bp_SI_default.0.64percent_97.final.scaf" of length 5374750
# matching query-file "/vol/codine-tmp/juene/tmp.wcptLOUg5P/quast/corrected_input/SOAP2_MIS_PE_sakai_mis-1_bi_2x250bp_SI_default.0.64percent_97.final.scaf"
# against subject-file "/vol/codine-tmp/juene/tmp.wcptLOUg5P/quast/gage/tmp/SOAP2_MIS_PE_sakai_mis-1_bi_2x250bp_SI_default.0.64percent_97.final.scaf.ntref"
# COMPLETETIME /vol/ngscomparison/software/analysis/quast-2.1/libs/MUMmer3.23-linux/mummer /vol/codine-tmp/juene/tmp.wcptLOUg5P/quast/gage/tmp/SOAP2_MIS_PE_sakai_mis-1_bi_2x250bp_SI_default.0.64percent_97.final.scaf.ntref 10.20
# SPACE /vol/ngscomparison/software/analysis/quast-2.1/libs/MUMmer3.23-linux/mummer /vol/codine-tmp/juene/tmp.wcptLOUg5P/quast/gage/tmp/SOAP2_MIS_PE_sakai_mis-1_bi_2x250bp_SI_default.0.64percent_97.final.scaf.ntref 10.64
4: FINISHING DATA
Filtering alignments
Extracting alignment coordinates
Analyzing SNPs
Extracting alignment breakpoints
Generating report file
Found genome size at position 4 with value 5594470 aka 5594470
Calculating point at 0 and the sum is 1002556 and i is1274 and lens is 1308 and length is 21184
Calculating point at 1 and the sum is 2011123 and i is1213 and lens is 1308 and length is 13373
Calculating point at 2 and the sum is 3006087 and i is1120 and lens is 1308 and length is 8849
Calculating point at 3 and the sum is 4003975 and i is980 and lens is 1308 and length is 5346
Calculating point at 4 and the sum is 5000483 and i is664 and lens is 1308 and length is 1480
