Assembly	VELVET_PGM_mrsa_pgm_400bp_es_318_IKA_ts3.2_morestringent.0.165percent_55.final.contigs
#Contigs (>= 0 bp)	43161
#Contigs (>= 1000 bp)	0
Total length (>= 0 bp)	6560568
Total length (>= 1000 bp)	0
#Contigs	3211
Largest contig	418
Total length	723175
Reference length	2813862
GC (%)	31.44
Reference GC (%)	32.81
N50	220
NG50	None
N75	208
NG75	None
#misassemblies	0
#local misassemblies	0
#unaligned contigs	3183 + 1 part
Unaligned contigs length	716892
Genome fraction (%)	0.222
Duplication ratio	1.006
#N's per 100 kbp	0.00
#mismatches per 100 kbp	144.09
#indels per 100 kbp	224.14
#genes	2 + 21 part
#predicted genes (unique)	1935
#predicted genes (>= 0 bp)	1935
#predicted genes (>= 300 bp)	0
#predicted genes (>= 1500 bp)	0
#predicted genes (>= 3000 bp)	0
Largest alignment	271
NA50	None
NGA50	None
NA75	None
NGA75	None
