Assembly	#Contigs (>= 0 bp)	#Contigs (>= 1000 bp)	Total length (>= 0 bp)	Total length (>= 1000 bp)	#Contigs	Largest contig	Total length	Reference length	GC (%)	Reference GC (%)	N50	NG50	N75	NG75	#misassemblies	#local misassemblies	#unaligned contigs	Unaligned contigs length	Genome fraction (%)	Duplication ratio	#N's per 100 kbp	#mismatches per 100 kbp	#indels per 100 kbp	#genes	#predicted genes (unique)	#predicted genes (>= 0 bp)	#predicted genes (>= 300 bp)	#predicted genes (>= 1500 bp)	#predicted genes (>= 3000 bp)	Largest alignment	NA50	NGA50	NA75	NGA75
VELVET_MIS_PE_mrsa_mis-1_bi_2x150bp_default__mrsa_mis-2_bi_2x150bp_default.0.527percent_105.final.contigs_broken	200	148	2791413	2773974	200	130932	2791413	2813862	32.74	32.81	36393	36393	17363	17076	2	1	1 + 0 part	5385	98.527	1.000	0.00	1.23	0.32	2595 + 111 part	2697	2700	2312	292	27	130932	36393	36393	17076	16759
VELVET_MIS_PE_mrsa_mis-1_bi_2x150bp_default__mrsa_mis-2_bi_2x150bp_default.0.527percent_105.final.contigs	84	39	2797387	2784158	84	466201	2797387	2813862	32.74	32.81	163065	163065	80546	80546	6	11	1 + 0 part	5385	98.563	1.002	213.56	1.23	94.54	2676 + 32 part	2671	2674	2309	294	27	466201	159422	159422	72899	72899
