All statistics are based on contigs of size >= 200 bp, unless otherwise noted (e.g., "# contigs (>= 0 bp)" and "Total length (>= 0 bp)" include all contigs).

Assembly                         NEWBLER_MIS_PE_sakai_mis-2_bi_2x150bp_default__sakai_mis-1_bi_2x150bp_default.0.850percent.contigs_broken  NEWBLER_MIS_PE_sakai_mis-2_bi_2x150bp_default__sakai_mis-1_bi_2x150bp_default.0.850percent.contigs
#Mis_misassemblies               4                                                                                                          12                                                                                                
#Mis_relocations                 4                                                                                                          12                                                                                                
#Mis_translocations              0                                                                                                          0                                                                                                 
#Mis_inversions                  0                                                                                                          0                                                                                                 
#Mis_misassembled contigs        4                                                                                                          10                                                                                                
Mis_Misassembled contigs length  214169                                                                                                     783195                                                                                            
#Mis_local misassemblies         3                                                                                                          67                                                                                                
#mismatches                      107                                                                                                        186                                                                                               
#indels                          12                                                                                                         17                                                                                                
#Mis_short indels (<= 5 bp)      11                                                                                                         15                                                                                                
#Mis_long indels (> 5 bp)        1                                                                                                          2                                                                                                 
Indels length                    17                                                                                                         27                                                                                                
