Assembly	GAGE_Contigs #	GAGE_Min contig	GAGE_Max contig	GAGE_N50	GAGE_Genome size	GAGE_Assembly size	GAGE_Chaff bases	GAGE_Missing reference bases	GAGE_Missing assembly bases	GAGE_Missing assembly contigs	GAGE_Duplicated reference bases	GAGE_Compressed reference bases	GAGE_Bad trim	GAGE_Avg idy	GAGE_SNPs	GAGE_Indels < 5bp	GAGE_Indels >= 5	GAGE_Inversions	GAGE_Relocation	GAGE_Translocation	GAGE_Corrected contig #	GAGE_Corrected assembly size	GAGE_Min correct contig	GAGE_Max correct contig	GAGE_Corrected N50
ABYSS_PE_MIS_PE_mrsa_mis-1_bi_2x150bp_default__mrsa_mis-2_bi_2x150bp_default.6coverage_126.final_broken	56	252	4565	0 COUNT: 0	2813862	24965	0	2763172(98.20%)	0(0.00%)	0(0.00%)	0	26017	0	100.00	1	0	0	0	1	0	57	24965	252	2921	0 COUNT: 0
ABYSS_PE_MIS_PE_mrsa_mis-1_bi_2x150bp_default__mrsa_mis-2_bi_2x150bp_default.6coverage_126.final	56	252	4565	0 COUNT: 0	2813862	24965	0	2763172(98.20%)	0(0.00%)	0(0.00%)	0	26017	0	100.00	1	0	0	0	1	0	57	24965	252	2921	0 COUNT: 0
