calling: java -cp /vol/ngscomparison/software/analysis/quast-2.1/libs/gage:. SizeFasta /vol/codine-tmp/juene/tmp.9yddrL5hIa/quast/corrected_input/Mycobacterium_tuberculosis_H37Rv.fasta |awk '{SUM+=; print SUM}'|tail -n 1
Contig Stats
Total units: 214
Reference: 4411532
BasesInFasta: 4371874
Min: 204
Max: 144082
N10: 112150 COUNT: 4
N25: 79249 COUNT: 11
N50: 58215 COUNT: 27
N75: 26541 COUNT: 56
E-size:58009.87

Genome Size: 4411532
Assembly Size: 4371874
Chaff bases: 0
Missing Reference Bases: 46964(1.06%)
Missing Assembly Bases: 2770(0.06%)
Missing Assembly Contigs: 0(0.00%)
Duplicated Reference Bases: 5302
Compressed Reference Bases: 39019
Bad Trim: 882
Avg Idy: 99.98
SNPs: 198
Indels < 5bp: 81
Indels >= 5: 70
Inversions: 2
Relocation: 5
Translocation: 0

Corrected Contig Stats
calling: java -cp /vol/ngscomparison/software/analysis/quast-2.1/libs/gage:.:. GetFastaStats -o -min 199 -genomeSize 4411532 /vol/codine-tmp/juene/tmp.9yddrL5hIa/quast/gage/tmp/ABYSS_PE_MIS_PE_mtbh37-1_mis_2x250bp_nextera_default__mtbh37-2_mis_2x250bp_nextera_default.0.550percent_90.final.matches.lens 2> /dev/null
Total units: 286
Reference: 4411532
BasesInFasta: 4368539
Min: 204
Max: 100320
N10: 75687 COUNT: 6
N25: 58246 COUNT: 15
N50: 32070 COUNT: 41
N75: 17143 COUNT: 88
E-size:38425.29

Done
