Assembly	GAGE_Contigs #	GAGE_Min contig	GAGE_Max contig	GAGE_N50	GAGE_Genome size	GAGE_Assembly size	GAGE_Chaff bases	GAGE_Missing reference bases	GAGE_Missing assembly bases	GAGE_Missing assembly contigs	GAGE_Duplicated reference bases	GAGE_Compressed reference bases	GAGE_Bad trim	GAGE_Avg idy	GAGE_SNPs	GAGE_Indels < 5bp	GAGE_Indels >= 5	GAGE_Inversions	GAGE_Relocation	GAGE_Translocation	GAGE_Corrected contig #	GAGE_Corrected assembly size	GAGE_Min correct contig	GAGE_Max correct contig	GAGE_Corrected N50
SOAP2_MIS_PE_mtbh37-1_mis_2x250bp_nextera_default_57.final.scaf_broken	90692	200	1500	266 COUNT: 5581	4411532	22126153	0	997034(22.60%)	17689359(79.95%)	74617(82.28%)	623500	49042	140812	99.14	19422	223	3	0	2	0	11994	3641180	200	1500	259 COUNT: 5613
SOAP2_MIS_PE_mtbh37-1_mis_2x250bp_nextera_default_57.final.scaf	90693	200	1500	266 COUNT: 5575	4411532	22128339	0	995859(22.57%)	17690114(79.94%)	74617(82.27%)	623692	49042	141035	99.14	19422	223	8	0	2	0	11994	3641180	200	1500	259 COUNT: 5613
