Assembly	VELVET_MIS_PE_sakai_mis-1_bi_2x150bp_default__sakai_mis-2_bi_2x150bp_default.0.826percent_121.final.contigs_broken	VELVET_MIS_PE_sakai_mis-1_bi_2x150bp_default__sakai_mis-2_bi_2x150bp_default.0.826percent_121.final.contigs
GAGE_Contigs #	1552	457
GAGE_Min contig	200	241
GAGE_Max contig	32904	213668
GAGE_N50	6491 COUNT: 264	59298 COUNT: 28
GAGE_Genome size	5594470	5594470
GAGE_Assembly size	5416422	5506307
GAGE_Chaff bases	0	0
GAGE_Missing reference bases	38444(0.69%)	39618(0.71%)
GAGE_Missing assembly bases	5500(0.10%)	96374(1.75%)
GAGE_Missing assembly contigs	2(0.13%)	1(0.22%)
GAGE_Duplicated reference bases	13921	14600
GAGE_Compressed reference bases	256560	254146
GAGE_Bad trim	119	631
GAGE_Avg idy	99.99	99.99
GAGE_SNPs	191	191
GAGE_Indels < 5bp	13	23
GAGE_Indels >= 5	1	1037
GAGE_Inversions	1	18
GAGE_Relocation	3	19
GAGE_Translocation	0	2
GAGE_Corrected contig #	1517	1512
GAGE_Corrected assembly size	5399436	5399294
GAGE_Min correct contig	212	212
GAGE_Max correct contig	32904	32904
GAGE_Corrected N50	6434 COUNT: 265	6456 COUNT: 265
