Assembly	NEWBLER_MIS_PE_sakai_mis-1_bi_2x250bp_SI_default__sakai_mis-2_bi_2x250bp_SI_default.0.35percent.contigs_broken	NEWBLER_MIS_PE_sakai_mis-1_bi_2x250bp_SI_default__sakai_mis-2_bi_2x250bp_SI_default.0.35percent.contigs
#Contigs (>= 0 bp)	152	90
#Contigs (>= 1000 bp)	135	90
Total length (>= 0 bp)	5250449	5289545
Total length (>= 1000 bp)	5238183	5289545
#Contigs	152	90
Largest contig	260902	380053
Total length	5250449	5289545
Reference length	5594470	5594470
GC (%)	50.25	50.25
Reference GC (%)	50.48	50.48
N50	139131	149160
NG50	138731	148251
N75	60630	78242
NG75	43685	76207
#misassemblies	4	13
#local misassemblies	3	55
#unaligned contigs	1 + 0 part	1 + 0 part
Unaligned contigs length	5386	5386
Genome fraction (%)	92.934	93.557
Duplication ratio	1.000	1.008
#N's per 100 kbp	0.00	739.12
#mismatches per 100 kbp	1.92	2.67
#indels per 100 kbp	0.33	0.42
#genes	4912 + 107 part	4936 + 115 part
#predicted genes (unique)	5064	5050
#predicted genes (>= 0 bp)	5064	5050
#predicted genes (>= 300 bp)	4344	4346
#predicted genes (>= 1500 bp)	665	664
#predicted genes (>= 3000 bp)	68	67
Largest alignment	260902	368840
NA50	139131	148251
NGA50	138731	147875
NA75	60630	78242
NGA75	43685	75389
