Assembly	GAGE_Contigs #	GAGE_Min contig	GAGE_Max contig	GAGE_N50	GAGE_Genome size	GAGE_Assembly size	GAGE_Chaff bases	GAGE_Missing reference bases	GAGE_Missing assembly bases	GAGE_Missing assembly contigs	GAGE_Duplicated reference bases	GAGE_Compressed reference bases	GAGE_Bad trim	GAGE_Avg idy	GAGE_SNPs	GAGE_Indels < 5bp	GAGE_Indels >= 5	GAGE_Inversions	GAGE_Relocation	GAGE_Translocation	GAGE_Corrected contig #	GAGE_Corrected assembly size	GAGE_Min correct contig	GAGE_Max correct contig	GAGE_Corrected N50
CLC_MIS_PE_sakai_mis-1_bi_2x150bp_default__sakai_mis-2_bi_2x150bp_default.76coverage.result_broken	276	201	313894	144810 COUNT: 15	5594470	5359539	0	29810(0.53%)	6203(0.12%)	3(1.09%)	8722	244971	225	99.99	112	17	8	2	2	0	269	5346623	201	313894	124190 COUNT: 16
CLC_MIS_PE_sakai_mis-1_bi_2x150bp_default__sakai_mis-2_bi_2x150bp_default.76coverage.result	253	201	374738	148157 COUNT: 13	5594470	5366016	0	26052(0.47%)	10430(0.19%)	4(1.58%)	9064	247738	803	99.99	112	17	18	2	5	0	268	5346422	201	313894	124190 COUNT: 16
