All statistics are based on contigs of size >= 200 bp, unless otherwise noted (e.g., "# contigs (>= 0 bp)" and "Total length (>= 0 bp)" include all contigs).

Assembly                                                                                            #Contigs  #Contigs (>= 0 bp)  #Contigs (>= 1000 bp)  Largest contig  Total length  Total length (>= 0 bp)  Total length (>= 1000 bp)  Reference length  N50     NG50    N75    NG75   L50  LG50  L75  LG75  #local misassemblies  #misassemblies  #misassembled contigs  Misassembled contigs length  Misassemblies inter-contig overlap  #unaligned contigs  Unaligned contigs length  #ambiguously mapped contigs  Extra bases in ambiguously mapped contigs  #N's  #N's per 100 kbp  Genome fraction (%)  Duplication ratio  #genes           #predicted genes (unique)  #predicted genes (>= 0 bp)  #predicted genes (>= 300 bp)  #predicted genes (>= 1500 bp)  #predicted genes (>= 3000 bp)  #mismatches  #indels  Indels length  #mismatches per 100 kbp  #indels per 100 kbp  GC (%)  Reference GC (%)  Average %IDY  Largest alignment  NA50    NGA50   NA75   NGA75  LA50  LGA50  LA75  LGA75  #Mis_misassemblies  #Mis_relocations  #Mis_translocations  #Mis_inversions  #Mis_misassembled contigs  Mis_Misassembled contigs length  #Mis_local misassemblies  #Mis_short indels (<= 5 bp)  #Mis_long indels (> 5 bp)  #Una_fully unaligned contigs  Una_Fully unaligned length  #Una_partially unaligned contigs  #Una_with misassembly  #Una_both parts are significant  Una_Partially unaligned length  GAGE_Contigs #  GAGE_Min contig  GAGE_Max contig  GAGE_N50          GAGE_Genome size  GAGE_Assembly size  GAGE_Chaff bases  GAGE_Missing reference bases  GAGE_Missing assembly bases  GAGE_Missing assembly contigs  GAGE_Duplicated reference bases  GAGE_Compressed reference bases  GAGE_Bad trim  GAGE_Avg idy  GAGE_SNPs  GAGE_Indels < 5bp  GAGE_Indels >= 5  GAGE_Inversions  GAGE_Relocation  GAGE_Translocation  GAGE_Corrected contig #  GAGE_Corrected assembly size  GAGE_Min correct contig  GAGE_Max correct contig  GAGE_Corrected N50
CLC_MIS_PE_sakai_mis-1_bi_2x150bp_default__sakai_mis-2_bi_2x150bp_default.76coverage.result_broken  276       292                 136                    313894          5359539       5362139                 5295438                    5594470           145459  144810  73278  66151  14   15    28   30    7                     3               3                      214491                       40494                               3 + 2 part          6126                      87                           -76278                                     17    0.32              94.239               1.009              4991 + 133 part  5267                       5267                        4444                          672                            67                             135          19       88             2.56                     0.36                 50.29   50.48             98.761        313894             145459  144810  73278  66151  14    15     28    30     3                   3                 0                    0                3                          214491                           7                         16                           3                          3                             5958                        2                                 0                      0                                168                             276             201              313894           144810 COUNT: 15  5594470           5359539             0                 29810(0.53%)                  6203(0.12%)                  3(1.09%)                       8722                             244971                           225            99.99         112        17                 8                 2                2                0                   269                      5346623                       201                      313894                   124190 COUNT: 16  
CLC_MIS_PE_sakai_mis-1_bi_2x150bp_default__sakai_mis-2_bi_2x150bp_default.76coverage.result         253       253                 131                    374738          5366016       5366016                 5307630                    5594470           151483  148157  77657  73278  12   13    24   27    38                    4               4                      426754                       40713                               4 + 2 part          6543                      69                           -57636                                     3894  72.57             94.603               1.009              5004 + 138 part  5267                       5267                        4444                          672                            66                             156          85       221            2.95                     1.61                 50.29   50.48             98.778        313894             148157  147892  77657  73278  13    14     25    28     4                   4                 0                    0                4                          426754                           38                        78                           7                          4                             6375                        2                                 0                      0                                168                             253             201              374738           148157 COUNT: 13  5594470           5366016             0                 26052(0.47%)                  10430(0.19%)                 4(1.58%)                       9064                             247738                           803            99.99         112        17                 18                2                5                0                   268                      5346422                       201                      313894                   124190 COUNT: 16  
