All statistics are based on contigs of size >= 200 bp, unless otherwise noted (e.g., "# contigs (>= 0 bp)" and "Total length (>= 0 bp)" include all contigs).

Assembly                                                                                                         #Contigs  #Contigs (>= 0 bp)  #Contigs (>= 1000 bp)  Largest contig  Total length  Total length (>= 0 bp)  Total length (>= 1000 bp)  Reference length  N50    NG50   N75    NG75   L50  LG50  L75  LG75  #local misassemblies  #misassemblies  #misassembled contigs  Misassembled contigs length  Misassemblies inter-contig overlap  #unaligned contigs  Unaligned contigs length  #ambiguously mapped contigs  Extra bases in ambiguously mapped contigs  #N's  #N's per 100 kbp  Genome fraction (%)  Duplication ratio  #genes           #predicted genes (unique)  #predicted genes (>= 0 bp)  #predicted genes (>= 300 bp)  #predicted genes (>= 1500 bp)  #predicted genes (>= 3000 bp)  #mismatches  #indels  Indels length  #mismatches per 100 kbp  #indels per 100 kbp  GC (%)  Reference GC (%)  Average %IDY  Largest alignment  NA50   NGA50  NA75   NGA75  LA50  LGA50  LA75  LGA75  #Mis_misassemblies  #Mis_relocations  #Mis_translocations  #Mis_inversions  #Mis_misassembled contigs  Mis_Misassembled contigs length  #Mis_local misassemblies  #Mis_short indels (<= 5 bp)  #Mis_long indels (> 5 bp)  #Una_fully unaligned contigs  Una_Fully unaligned length  #Una_partially unaligned contigs  #Una_with misassembly  #Una_both parts are significant  Una_Partially unaligned length  GAGE_Contigs #  GAGE_Min contig  GAGE_Max contig  GAGE_N50         GAGE_Genome size  GAGE_Assembly size  GAGE_Chaff bases  GAGE_Missing reference bases  GAGE_Missing assembly bases  GAGE_Missing assembly contigs  GAGE_Duplicated reference bases  GAGE_Compressed reference bases  GAGE_Bad trim  GAGE_Avg idy  GAGE_SNPs  GAGE_Indels < 5bp  GAGE_Indels >= 5  GAGE_Inversions  GAGE_Relocation  GAGE_Translocation  GAGE_Corrected contig #  GAGE_Corrected assembly size  GAGE_Min correct contig  GAGE_Max correct contig  GAGE_Corrected N50
ABYSS_PE_MIS_PE_sakai_mis-1_bi_2x250bp_SI_default__sakai_mis-2_bi_2x250bp_SI_default.0.6percent_94.final_broken  606       1122                222                    200573          5384806       5458036                 5238721                    5594470           72531  71932  30784  28912  25   26    52   57    1                     2               2                      110343                       5                                   0 + 0 part          0                         182                          -108457                                    0     0.00              94.137               1.002              4879 + 269 part  5510                       5525                        4473                          660                            65                             76           13       13             1.44                     0.25                 50.31   50.48             98.833        200573             71932  70567  30411  28230  25    26     53    58     2                   2                 0                    0                2                          110343                           1                         13                           0                          0                             0                           0                                 0                      0                                0                               606             200              200573           71932 COUNT: 26  5594470           5384806             0                 14401(0.26%)                  0(0.00%)                     0(0.00%)                       5450                             273561                           0              99.99         171        12                 1                 0                2                0                   589                      5379359                       200                      200573                   70566 COUNT: 26   
ABYSS_PE_MIS_PE_sakai_mis-1_bi_2x250bp_SI_default__sakai_mis-2_bi_2x250bp_SI_default.0.6percent_94.final         606       1122                222                    200573          5384806       5458036                 5238721                    5594470           72531  71932  30784  28912  25   26    52   57    1                     2               2                      110343                       5                                   0 + 0 part          0                         182                          -108457                                    0     0.00              94.137               1.002              4879 + 269 part  5510                       5525                        4473                          660                            65                             76           13       13             1.44                     0.25                 50.31   50.48             98.833        200573             71932  70567  30411  28230  25    26     53    58     2                   2                 0                    0                2                          110343                           1                         13                           0                          0                             0                           0                                 0                      0                                0                               606             200              200573           71932 COUNT: 26  5594470           5384806             0                 14401(0.26%)                  0(0.00%)                     0(0.00%)                       5450                             273561                           0              99.99         171        12                 1                 0                2                0                   589                      5379359                       200                      200573                   70566 COUNT: 26   
