Assembly	VELVET_MIS_PE_mrsa_mis-1_bi_2x250bp_default__mrsa_mis-2_bi_2x250bp_default.0.460percent_207.final.contigs_broken	VELVET_MIS_PE_mrsa_mis-1_bi_2x250bp_default__mrsa_mis-2_bi_2x250bp_default.0.460percent_207.final.contigs
GAGE_Contigs #	1786	1417
GAGE_Min contig	413	413
GAGE_Max contig	25920	29301
GAGE_N50	1572 COUNT: 517	2217 COUNT: 347
GAGE_Genome size	2813862	2813862
GAGE_Assembly size	2604326	2639788
GAGE_Chaff bases	0	0
GAGE_Missing reference bases	296031(10.52%)	295939(10.52%)
GAGE_Missing assembly bases	5428(0.21%)	40804(1.55%)
GAGE_Missing assembly contigs	4(0.22%)	2(0.14%)
GAGE_Duplicated reference bases	4379	4379
GAGE_Compressed reference bases	45414	45384
GAGE_Bad trim	50	52
GAGE_Avg idy	100.00	99.99
GAGE_SNPs	69	69
GAGE_Indels < 5bp	5	11
GAGE_Indels >= 5	0	361
GAGE_Inversions	0	0
GAGE_Relocation	2	2
GAGE_Translocation	0	0
GAGE_Corrected contig #	1775	1773
GAGE_Corrected assembly size	2594523	2594615
GAGE_Min correct contig	413	413
GAGE_Max correct contig	25920	25920
GAGE_Corrected N50	1560 COUNT: 517	1570 COUNT: 516
