All statistics are based on contigs of size >= 200 bp, unless otherwise noted (e.g., "# contigs (>= 0 bp)" and "Total length (>= 0 bp)" include all contigs).

Assembly                                   VELVET_MIS_PE_sakai_mis-1_bi_2x150bp_default__sakai_mis-2_bi_2x150bp_default.0.826percent_73.final.contigs_broken  VELVET_MIS_PE_sakai_mis-1_bi_2x150bp_default__sakai_mis-2_bi_2x150bp_default.0.826percent_73.final.contigs
#Contigs                                   449                                                                                                                366                                                                                                       
#Contigs (>= 0 bp)                         550                                                                                                                464                                                                                                       
#Contigs (>= 1000 bp)                      184                                                                                                                130                                                                                                       
Largest contig                             244918                                                                                                             374960                                                                                                    
Total length                               5404156                                                                                                            5409879                                                                                                   
Total length (>= 0 bp)                     5421340                                                                                                            5426562                                                                                                   
Total length (>= 1000 bp)                  5301345                                                                                                            5321548                                                                                                   
Reference length                           5594470                                                                                                            5594470                                                                                                   
N50                                        84221                                                                                                              149733                                                                                                    
NG50                                       79015                                                                                                              148262                                                                                                    
N75                                        44263                                                                                                              84606                                                                                                     
NG75                                       41424                                                                                                              80863                                                                                                     
L50                                        21                                                                                                                 10                                                                                                        
LG50                                       23                                                                                                                 11                                                                                                        
L75                                        42                                                                                                                 22                                                                                                        
LG75                                       45                                                                                                                 23                                                                                                        
#local misassemblies                       6                                                                                                                  42                                                                                                        
#misassemblies                             4                                                                                                                  11                                                                                                        
#misassembled contigs                      4                                                                                                                  10                                                                                                        
Misassembled contigs length                150173                                                                                                             743439                                                                                                    
Misassemblies inter-contig overlap         1490                                                                                                               2410                                                                                                      
#unaligned contigs                         1 + 0 part                                                                                                         1 + 0 part                                                                                                
Unaligned contigs length                   5458                                                                                                               5458                                                                                                      
#ambiguously mapped contigs                195                                                                                                                193                                                                                                       
Extra bases in ambiguously mapped contigs  -106310                                                                                                            -98811                                                                                                    
#N's                                       0                                                                                                                  5222                                                                                                      
#N's per 100 kbp                           0.00                                                                                                               96.53                                                                                                     
Genome fraction (%)                        94.550                                                                                                             94.718                                                                                                    
Duplication ratio                          1.001                                                                                                              1.002                                                                                                     
#genes                                     4979 + 174 part                                                                                                    5026 + 143 part                                                                                           
#predicted genes (unique)                  5444                                                                                                               5413                                                                                                      
#predicted genes (>= 0 bp)                 5448                                                                                                               5418                                                                                                      
#predicted genes (>= 300 bp)               4487                                                                                                               4482                                                                                                      
#predicted genes (>= 1500 bp)              667                                                                                                                668                                                                                                       
#predicted genes (>= 3000 bp)              68                                                                                                                 67                                                                                                        
#mismatches                                155                                                                                                                359                                                                                                       
#indels                                    37                                                                                                                 413                                                                                                       
Indels length                              42                                                                                                                 990                                                                                                       
#mismatches per 100 kbp                    2.93                                                                                                               6.77                                                                                                      
#indels per 100 kbp                        0.70                                                                                                               7.79                                                                                                      
GC (%)                                     50.31                                                                                                              50.31                                                                                                     
Reference GC (%)                           50.48                                                                                                              50.48                                                                                                     
Average %IDY                               98.887                                                                                                             98.882                                                                                                    
Largest alignment                          244918                                                                                                             362201                                                                                                    
NA50                                       84221                                                                                                              148262                                                                                                    
NGA50                                      78764                                                                                                              147896                                                                                                    
NA75                                       44263                                                                                                              77647                                                                                                     
NGA75                                      41407                                                                                                              74237                                                                                                     
LA50                                       21                                                                                                                 11                                                                                                        
LGA50                                      23                                                                                                                 12                                                                                                        
LA75                                       42                                                                                                                 23                                                                                                        
LGA75                                      46                                                                                                                 25                                                                                                        
#Mis_misassemblies                         4                                                                                                                  11                                                                                                        
#Mis_relocations                           4                                                                                                                  11                                                                                                        
#Mis_translocations                        0                                                                                                                  0                                                                                                         
#Mis_inversions                            0                                                                                                                  0                                                                                                         
#Mis_misassembled contigs                  4                                                                                                                  10                                                                                                        
Mis_Misassembled contigs length            150173                                                                                                             743439                                                                                                    
#Mis_local misassemblies                   6                                                                                                                  42                                                                                                        
#Mis_short indels (<= 5 bp)                36                                                                                                                 387                                                                                                       
#Mis_long indels (> 5 bp)                  1                                                                                                                  26                                                                                                        
#Una_fully unaligned contigs               1                                                                                                                  1                                                                                                         
Una_Fully unaligned length                 5458                                                                                                               5458                                                                                                      
#Una_partially unaligned contigs           0                                                                                                                  0                                                                                                         
#Una_with misassembly                      0                                                                                                                  0                                                                                                         
#Una_both parts are significant            0                                                                                                                  0                                                                                                         
Una_Partially unaligned length             0                                                                                                                  0                                                                                                         
GAGE_Contigs #                             449                                                                                                                366                                                                                                       
GAGE_Min contig                            200                                                                                                                200                                                                                                       
GAGE_Max contig                            244918                                                                                                             374960                                                                                                    
GAGE_N50                                   79015 COUNT: 23                                                                                                    148262 COUNT: 11                                                                                          
GAGE_Genome size                           5594470                                                                                                            5594470                                                                                                   
GAGE_Assembly size                         5404156                                                                                                            5409879                                                                                                   
GAGE_Chaff bases                           0                                                                                                                  0                                                                                                         
GAGE_Missing reference bases               10046(0.18%)                                                                                                       9820(0.18%)                                                                                               
GAGE_Missing assembly bases                5475(0.10%)                                                                                                        10457(0.19%)                                                                                              
GAGE_Missing assembly contigs              1(0.22%)                                                                                                           1(0.27%)                                                                                                  
GAGE_Duplicated reference bases            16529                                                                                                              16906                                                                                                     
GAGE_Compressed reference bases            256627                                                                                                             255348                                                                                                    
GAGE_Bad trim                              17                                                                                                                 562                                                                                                       
GAGE_Avg idy                               99.99                                                                                                              99.99                                                                                                     
GAGE_SNPs                                  141                                                                                                                141                                                                                                       
GAGE_Indels < 5bp                          18                                                                                                                 43                                                                                                        
GAGE_Indels >= 5                           3                                                                                                                  40                                                                                                        
GAGE_Inversions                            1                                                                                                                  7                                                                                                         
GAGE_Relocation                            4                                                                                                                  9                                                                                                         
GAGE_Translocation                         0                                                                                                                  0                                                                                                         
GAGE_Corrected contig #                    400                                                                                                                393                                                                                                       
GAGE_Corrected assembly size               5383681                                                                                                            5384684                                                                                                   
GAGE_Min correct contig                    200                                                                                                                200                                                                                                       
GAGE_Max correct contig                    217654                                                                                                             217654                                                                                                    
GAGE_Corrected N50                         72353 COUNT: 24                                                                                                    84221 COUNT: 22                                                                                           
