calling: java -cp /vol/ngscomparison/software/analysis/quast-2.1/libs/gage:. SizeFasta /vol/codine-tmp/juene/tmp.b43wC0dMg9/quast/corrected_input/Mycobacterium_tuberculosis_H37Rv.fasta |awk '{SUM+=; print SUM}'|tail -n 1
Contig Stats
Total units: 231
Reference: 4411532
BasesInFasta: 4283725
Min: 200
Max: 156644
N10: 139455 COUNT: 3
N25: 98547 COUNT: 9
N50: 49800 COUNT: 25
N75: 25288 COUNT: 54
E-size:63726.12

Genome Size: 4411532
Assembly Size: 4283725
Chaff bases: 0
Missing Reference Bases: 78232(1.77%)
Missing Assembly Bases: 1158(0.03%)
Missing Assembly Contigs: 2(0.87%)
Duplicated Reference Bases: 0
Compressed Reference Bases: 48979
Bad Trim: 58
Avg Idy: 99.97
SNPs: 108
Indels < 5bp: 1004
Indels >= 5: 11
Inversions: 2
Relocation: 7
Translocation: 0

Corrected Contig Stats
calling: java -cp /vol/ngscomparison/software/analysis/quast-2.1/libs/gage:.:. GetFastaStats -o -min 199 -genomeSize 4411532 /vol/codine-tmp/juene/tmp.b43wC0dMg9/quast/gage/tmp/NEWBLER_PGM_mtbh37_pgm_400bp_es_318v2_OT2_tsv3.6_morestringent.0.500percent.contigs.matches.lens 2> /dev/null
Total units: 248
Reference: 4411532
BasesInFasta: 4286528
Min: 200
Max: 156404
N10: 113784 COUNT: 4
N25: 80425 COUNT: 11
N50: 44860 COUNT: 30
N75: 22825 COUNT: 63
E-size:53909.67

Done
