Assembly	VELVET_PGM_mtbh37_pgm_400bp_es_318v2_OT2_tsv3.6_morestringent_101.final.contigs
#Contigs	28138
#Contigs (>= 0 bp)	28138
#Contigs (>= 1000 bp)	1
Largest contig	1129
Total length	6445627
Total length (>= 0 bp)	6445627
Total length (>= 1000 bp)	1129
Reference length	4411532
N50	216
NG50	236
N75	201
NG75	215
L50	12297
LG50	7777
L75	20122
LG75	12696
#local misassemblies	8
#misassemblies	319
#misassembled contigs	319
Misassembled contigs length	80501
Misassemblies inter-contig overlap	1113
#unaligned contigs	154 + 38 part
Unaligned contigs length	39255
#ambiguously mapped contigs	253
Extra bases in ambiguously mapped contigs	-53765
#N's	0
#N's per 100 kbp	0.00
Genome fraction (%)	74.232
Duplication ratio	1.940
#genes	81 + 3626 part
#predicted genes (unique)	24194
#predicted genes (>= 0 bp)	24283
#predicted genes (>= 300 bp)	614
#predicted genes (>= 1500 bp)	0
#predicted genes (>= 3000 bp)	0
#mismatches	4565
#indels	23072
Indels length	23604
#mismatches per 100 kbp	139.40
#indels per 100 kbp	704.53
GC (%)	64.66
Reference GC (%)	65.61
Average %IDY	99.068
Largest alignment	1129
NA50	214
NGA50	235
NA75	201
NGA75	213
LA50	12377
LGA50	7823
LA75	20240
LGA75	12779
#Mis_misassemblies	319
#Mis_relocations	319
#Mis_translocations	0
#Mis_inversions	0
#Mis_misassembled contigs	319
Mis_Misassembled contigs length	80501
#Mis_local misassemblies	8
#Mis_short indels (<= 5 bp)	23067
#Mis_long indels (> 5 bp)	5
#Una_fully unaligned contigs	154
Una_Fully unaligned length	35100
#Una_partially unaligned contigs	38
#Una_with misassembly	0
#Una_both parts are significant	0
Una_Partially unaligned length	4155
GAGE_Contigs #	28138
GAGE_Min contig	201
GAGE_Max contig	1129
GAGE_N50	236 COUNT: 7777
GAGE_Genome size	4411532
GAGE_Assembly size	6445627
GAGE_Chaff bases	0
GAGE_Missing reference bases	1081214(24.51%)
GAGE_Missing assembly bases	2847(0.04%)
GAGE_Missing assembly contigs	4(0.01%)
GAGE_Duplicated reference bases	2274036
GAGE_Compressed reference bases	57857
GAGE_Bad trim	1586
GAGE_Avg idy	99.20
GAGE_SNPs	4188
GAGE_Indels < 5bp	19003
GAGE_Indels >= 5	19
GAGE_Inversions	52
GAGE_Relocation	23
GAGE_Translocation	0
GAGE_Corrected contig #	17515
GAGE_Corrected assembly size	4068813
GAGE_Min correct contig	200
GAGE_Max correct contig	1130
GAGE_Corrected N50	213 COUNT: 8314
