Assembly	SOAP2_PGM_mtbh37_pgm_400bp_es_318v2_OT2_tsv3.6_morestringent_31.final.contig
GAGE_Contigs #	1162
GAGE_Min contig	200
GAGE_Max contig	1053
GAGE_N50	0 COUNT: 0
GAGE_Genome size	4411532
GAGE_Assembly size	316400
GAGE_Chaff bases	0
GAGE_Missing reference bases	4098477(92.90%)
GAGE_Missing assembly bases	4076(1.29%)
GAGE_Missing assembly contigs	16(1.38%)
GAGE_Duplicated reference bases	0
GAGE_Compressed reference bases	847
GAGE_Bad trim	35
GAGE_Avg idy	99.94
GAGE_SNPs	20
GAGE_Indels < 5bp	172
GAGE_Indels >= 5	2
GAGE_Inversions	0
GAGE_Relocation	0
GAGE_Translocation	0
GAGE_Corrected contig #	1144
GAGE_Corrected assembly size	311849
GAGE_Min correct contig	200
GAGE_Max correct contig	1053
GAGE_Corrected N50	0 COUNT: 0
