Assembly	SOAP2_PGM_mtbh37_pgm_400bp_es_318v2_OT2_tsv3.6_morestringent_31.final.contig
#Contigs (>= 0 bp)	397789
#Contigs (>= 1000 bp)	1
Total length (>= 0 bp)	20710744
Total length (>= 1000 bp)	1053
#Contigs	1162
Largest contig	1053
Total length	316400
Reference length	4411532
GC (%)	70.14
Reference GC (%)	65.61
N50	261
NG50	None
N75	224
NG75	None
#misassemblies	0
#local misassemblies	1
#unaligned contigs	16 + 1 part
Unaligned contigs length	4135
Genome fraction (%)	7.060
Duplication ratio	1.001
#N's per 100 kbp	0.00
#mismatches per 100 kbp	6.42
#indels per 100 kbp	52.98
#genes	5 + 874 part
#predicted genes (unique)	1083
#predicted genes (>= 0 bp)	1083
#predicted genes (>= 300 bp)	175
#predicted genes (>= 1500 bp)	0
#predicted genes (>= 3000 bp)	0
Largest alignment	1053
NA50	260
NGA50	None
NA75	222
NGA75	None
