Assembly	NEWBLER_PGM_sakai_pgm_mu_200bp_IO_TS3.0Disabled_stringent.0.15percent.contigs
#Contigs (>= 0 bp)	505
#Contigs (>= 1000 bp)	194
Total length (>= 0 bp)	5315301
Total length (>= 1000 bp)	5201106
#Contigs	422
Largest contig	309328
Total length	5302765
Reference length	5594470
GC (%)	50.26
Reference GC (%)	50.48
N50	72269
NG50	67093
N75	32692
NG75	30595
#misassemblies	3
#local misassemblies	7
#unaligned contigs	0 + 1 part
Unaligned contigs length	29
Genome fraction (%)	93.100
Duplication ratio	1.000
#N's per 100 kbp	0.00
#mismatches per 100 kbp	2.00
#indels per 100 kbp	30.26
#genes	4850 + 203 part
#predicted genes (unique)	6021
#predicted genes (>= 0 bp)	6023
#predicted genes (>= 300 bp)	4823
#predicted genes (>= 1500 bp)	505
#predicted genes (>= 3000 bp)	44
Largest alignment	215728
NA50	72269
NGA50	67093
NA75	32504
NGA75	29868
