Assembly	GAGE_Contigs #	GAGE_Min contig	GAGE_Max contig	GAGE_N50	GAGE_Genome size	GAGE_Assembly size	GAGE_Chaff bases	GAGE_Missing reference bases	GAGE_Missing assembly bases	GAGE_Missing assembly contigs	GAGE_Duplicated reference bases	GAGE_Compressed reference bases	GAGE_Bad trim	GAGE_Avg idy	GAGE_SNPs	GAGE_Indels < 5bp	GAGE_Indels >= 5	GAGE_Inversions	GAGE_Relocation	GAGE_Translocation	GAGE_Corrected contig #	GAGE_Corrected assembly size	GAGE_Min correct contig	GAGE_Max correct contig	GAGE_Corrected N50
NEWBLER_MIS_PE_mtbh37-1_mis_2x250bp_nextera_default__mtbh37-2_mis_2x250bp_nextera_default.0.990percent.contigs_broken	133	536	195867	65298 COUNT: 20	4411532	4325059	0	78596(1.78%)	396(0.01%)	0(0.00%)	0	9788	396	99.99	132	30	6	0	1	0	140	4325156	536	187140	64008 COUNT: 22
NEWBLER_MIS_PE_mtbh37-1_mis_2x250bp_nextera_default__mtbh37-2_mis_2x250bp_nextera_default.0.990percent.contigs	57	2603	272108	150497 COUNT: 11	4411532	4365863	0	78596(1.78%)	41216(0.94%)	0(0.00%)	0	9788	146	99.99	133	29	75	0	8	0	140	4325139	536	187140	64008 COUNT: 22
