calling: java -cp /vol/ngscomparison/software/analysis/quast-2.1/libs/gage:. SizeFasta /vol/codine-tmp/juene/tmp.ttw1C1bJB2/quast/corrected_input/MRSA_COL_Plasmid.fasta |awk '{SUM+=; print SUM}'|tail -n 1
Contig Stats
Total units: 95
Reference: 2813862
BasesInFasta: 2790537
Min: 206
Max: 208534
N10: 207893 COUNT: 2
N25: 148167 COUNT: 4
N50: 107406 COUNT: 10
N75: 50581 COUNT: 20
E-size:104594.11

Genome Size: 2813862
Assembly Size: 2790537
Chaff bases: 0
Missing Reference Bases: 1201(0.04%)
Missing Assembly Bases: 212(0.01%)
Missing Assembly Contigs: 0(0.00%)
Duplicated Reference Bases: 273
Compressed Reference Bases: 36019
Bad Trim: 0
Avg Idy: 99.99
SNPs: 37
Indels < 5bp: 9
Indels >= 5: 5
Inversions: 1
Relocation: 2
Translocation: 0

Corrected Contig Stats
calling: java -cp /vol/ngscomparison/software/analysis/quast-2.1/libs/gage:.:. GetFastaStats -o -min 199 -genomeSize 2813862 /vol/codine-tmp/juene/tmp.ttw1C1bJB2/quast/gage/tmp/ABYSS_PE_MIS_PE_mrsa_mis-1_bi_2x250bp_default__mrsa_mis-2_bi_2x250bp_default.0.460percent_100-scaffolds.matches.lens 2> /dev/null
Total units: 103
Reference: 2813862
BasesInFasta: 2791811
Min: 206
Max: 208533
N10: 207893 COUNT: 2
N25: 146510 COUNT: 4
N50: 107406 COUNT: 10
N75: 50480 COUNT: 20
E-size:102823.64

Done
