Assembly	VELVET_PGM_mtbh37_pgm_400bp_es_318v2_OT2_tsv3.6_morestringent_83.final.contigs
#Contigs (>= 0 bp)	9907
#Contigs (>= 1000 bp)	171
Total length (>= 0 bp)	3325043
Total length (>= 1000 bp)	221153
#Contigs	7387
Largest contig	3994
Total length	2869956
Reference length	4411532
GC (%)	66.41
Reference GC (%)	65.61
N50	415
NG50	275
N75	283
NG75	None
#misassemblies	51
#local misassemblies	7
#unaligned contigs	6 + 5 part
Unaligned contigs length	2129
Genome fraction (%)	63.101
Duplication ratio	1.029
#N's per 100 kbp	0.00
#mismatches per 100 kbp	4.60
#indels per 100 kbp	83.67
#genes	237 + 3327 part
#predicted genes (unique)	8016
#predicted genes (>= 0 bp)	8016
#predicted genes (>= 300 bp)	2968
#predicted genes (>= 1500 bp)	3
#predicted genes (>= 3000 bp)	0
Largest alignment	3994
NA50	415
NGA50	274
NA75	281
NGA75	None
