All statistics are based on contigs of size >= 200 bp, unless otherwise noted (e.g., "# contigs (>= 0 bp)" and "Total length (>= 0 bp)" include all contigs).

Assembly                                                                                                           GAGE_Contigs #  GAGE_Min contig  GAGE_Max contig  GAGE_N50         GAGE_Genome size  GAGE_Assembly size  GAGE_Chaff bases  GAGE_Missing reference bases  GAGE_Missing assembly bases  GAGE_Missing assembly contigs  GAGE_Duplicated reference bases  GAGE_Compressed reference bases  GAGE_Bad trim  GAGE_Avg idy  GAGE_SNPs  GAGE_Indels < 5bp  GAGE_Indels >= 5  GAGE_Inversions  GAGE_Relocation  GAGE_Translocation  GAGE_Corrected contig #  GAGE_Corrected assembly size  GAGE_Min correct contig  GAGE_Max correct contig  GAGE_Corrected N50
VELVET_MIS_PE_sakai_mis-1_bi_2x150bp_default__sakai_mis-2_bi_2x150bp_default.0.826percent_39.final.contigs_broken  516             200              148193           37371 COUNT: 47  5594470           5313682             0                 91131(1.63%)                  5412(0.10%)                  1(0.19%)                       12461                            226876                           25             99.98         569        37                 15                4                7                0                   501                      5301651                       201                      148193                   33334 COUNT: 51   
VELVET_MIS_PE_sakai_mis-1_bi_2x150bp_default__sakai_mis-2_bi_2x150bp_default.0.826percent_39.final.contigs         344             200              298954           97984 COUNT: 17  5594470           5321789             0                 90530(1.62%)                  12476(0.23%)                 1(0.29%)                       13312                            226771                           1247           99.96         576        128                128               6                23               0                   472                      5301398                       201                      148193                   39336 COUNT: 45   
