calling: java -cp /vol/ngscomparison/software/analysis/quast-2.1/libs/gage:. SizeFasta /vol/codine-tmp/juene/tmp.Rfm2nQ2rk4/quast/corrected_input/Ecoli_Sakai_editedNew_plasmids.fasta |awk '{SUM+=; print SUM}'|tail -n 1
Contig Stats
Total units: 1529
Reference: 5594470
BasesInFasta: 5218853
Min: 200
Max: 31455
N10: 16429 COUNT: 27
N25: 10621 COUNT: 93
N50: 6737 COUNT: 260
N75: 3156 COUNT: 557
E-size:7822.12

Genome Size: 5594470
Assembly Size: 5218853
Chaff bases: 0
Missing Reference Bases: 239180(4.28%)
Missing Assembly Bases: 128(0.00%)
Missing Assembly Contigs: 0(0.00%)
Duplicated Reference Bases: 0
Compressed Reference Bases: 155550
Bad Trim: 98
Avg Idy: 99.93
SNPs: 420
Indels < 5bp: 3098
Indels >= 5: 10
Inversions: 1
Relocation: 5
Translocation: 0

Corrected Contig Stats
calling: java -cp /vol/ngscomparison/software/analysis/quast-2.1/libs/gage:.:. GetFastaStats -o -min 199 -genomeSize 5594470 /vol/codine-tmp/juene/tmp.Rfm2nQ2rk4/quast/gage/tmp/VELVET_PGM_sakai_pgm_mu_200bp_IO_TS3.0Disabled_stringent.0.34percent_31.final.contigs.matches.lens 2> /dev/null
Total units: 1542
Reference: 5594470
BasesInFasta: 5221481
Min: 200
Max: 31466
N10: 16207 COUNT: 27
N25: 10472 COUNT: 94
N50: 6695 COUNT: 261
N75: 3140 COUNT: 560
E-size:7803.28

Done
