calling: java -cp /vol/ngscomparison/software/analysis/quast-2.1/libs/gage:. SizeFasta /vol/codine-tmp/juene/tmp.5N8mjbgdb5/quast/corrected_input/MRSA_COL_Plasmid.fasta |awk '{SUM+=; print SUM}'|tail -n 1
Contig Stats
Total units: 45
Reference: 2813862
BasesInFasta: 2777771
Min: 216
Max: 326058
N10: 326058 COUNT: 1
N25: 282600 COUNT: 3
N50: 155175 COUNT: 6
N75: 87679 COUNT: 12
E-size:173933.38

Genome Size: 2813862
Assembly Size: 2777771
Chaff bases: 0
Missing Reference Bases: 5536(0.20%)
Missing Assembly Bases: 5855(0.21%)
Missing Assembly Contigs: 1(2.22%)
Duplicated Reference Bases: 227
Compressed Reference Bases: 39180
Bad Trim: 138
Avg Idy: 99.99
SNPs: 43
Indels < 5bp: 9
Indels >= 5: 17
Inversions: 0
Relocation: 5
Translocation: 0

Corrected Contig Stats
calling: java -cp /vol/ngscomparison/software/analysis/quast-2.1/libs/gage:.:. GetFastaStats -o -min 199 -genomeSize 2813862 /vol/codine-tmp/juene/tmp.5N8mjbgdb5/quast/gage/tmp/CLC_MIS_PE_mrsa_mis-1_bi_2x150bp_default__mrsa_mis-2_bi_2x150bp_default.100coverage.result.matches.lens 2> /dev/null
Total units: 66
Reference: 2813862
BasesInFasta: 2773543
Min: 216
Max: 326059
N10: 326059 COUNT: 1
N25: 145252 COUNT: 4
N50: 86219 COUNT: 10
N75: 46126 COUNT: 20
E-size:115753.01

Done
