All statistics are based on contigs of size >= 200 bp, unless otherwise noted (e.g., "# contigs (>= 0 bp)" and "Total length (>= 0 bp)" include all contigs).

Assembly                                                                                                 #Contigs  #Contigs (>= 0 bp)  #Contigs (>= 1000 bp)  Largest contig  Total length  Total length (>= 0 bp)  Total length (>= 1000 bp)  Reference length  N50     NG50    N75    NG75   L50  LG50  L75  LG75  #local misassemblies  #misassemblies  #misassembled contigs  Misassembled contigs length  Misassemblies inter-contig overlap  #unaligned contigs  Unaligned contigs length  #ambiguously mapped contigs  Extra bases in ambiguously mapped contigs  #N's  #N's per 100 kbp  Genome fraction (%)  Duplication ratio  #genes          #predicted genes (unique)  #predicted genes (>= 0 bp)  #predicted genes (>= 300 bp)  #predicted genes (>= 1500 bp)  #predicted genes (>= 3000 bp)  #mismatches  #indels  Indels length  #mismatches per 100 kbp  #indels per 100 kbp  GC (%)  Reference GC (%)  Average %IDY  Largest alignment  NA50    NGA50   NA75   NGA75  LA50  LGA50  LA75  LGA75  #Mis_misassemblies  #Mis_relocations  #Mis_translocations  #Mis_inversions  #Mis_misassembled contigs  Mis_Misassembled contigs length  #Mis_local misassemblies  #Mis_short indels (<= 5 bp)  #Mis_long indels (> 5 bp)  #Una_fully unaligned contigs  Una_Fully unaligned length  #Una_partially unaligned contigs  #Una_with misassembly  #Una_both parts are significant  Una_Partially unaligned length  GAGE_Contigs #  GAGE_Min contig  GAGE_Max contig  GAGE_N50         GAGE_Genome size  GAGE_Assembly size  GAGE_Chaff bases  GAGE_Missing reference bases  GAGE_Missing assembly bases  GAGE_Missing assembly contigs  GAGE_Duplicated reference bases  GAGE_Compressed reference bases  GAGE_Bad trim  GAGE_Avg idy  GAGE_SNPs  GAGE_Indels < 5bp  GAGE_Indels >= 5  GAGE_Inversions  GAGE_Relocation  GAGE_Translocation  GAGE_Corrected contig #  GAGE_Corrected assembly size  GAGE_Min correct contig  GAGE_Max correct contig  GAGE_Corrected N50
ABYSS_PE_MIS_PE_mrsa_mis-1_bi_2x150bp_default__mrsa_mis-2_bi_2x150bp_default.96coverage_80.final_broken  54        153                 41                     406427          2791253       2804136                 2785860                    2813862           159494  159494  73645  68566  6    6     11   12    2                     3               3                      226965                       1476                                0 + 0 part          0                         5                            -4219                                      7     0.25              98.808               1.003              2687 + 17 part  2622                       2636                        2291                          301                            30                             96           13       26             3.45                     0.47                 32.68   32.81             98.583        406427             148863  148863  68566  68566  6     6      12    12     3                   3                 0                    0                3                          226965                           2                         12                           1                          0                             0                           0                                 0                      0                                0                               54              212              406427           159494 COUNT: 6  2813862           2791253             0                 1441(0.05%)                   1(0.00%)                     0(0.00%)                       0                                30948                            0              99.99         76         13                 3                 1                2                0                   59                       2792636                       212                      406426                   148861 COUNT: 6   
ABYSS_PE_MIS_PE_mrsa_mis-1_bi_2x150bp_default__mrsa_mis-2_bi_2x150bp_default.96coverage_80.final         36        135                 31                     771366          2792226       2805109                 2790055                    2813862           304795  304795  80930  80930  3    3     8    8     9                     7               6                      639282                       1476                                0 + 0 part          0                         1                            -249                                       980   35.10             98.946               1.003              2690 + 16 part  2619                       2632                        2291                          301                            30                             100          167      214            3.59                     6.00                 32.68   32.81             98.535        771316             304745  239058  80930  73645  3     4      8     9      7                   7                 0                    0                6                          639282                           9                         164                          3                          0                             0                           0                                 0                      0                                0                               36              249              771366           304795 COUNT: 3  2813862           2792226             0                 1326(0.05%)                   924(0.03%)                   0(0.00%)                       0                                26375                            0              99.98         74         13                 13                6                2                0                   60                       2797300                       249                      406426                   148861 COUNT: 6   
