Assembly	ABYSS_PE_MIS_PE_mrsa_mis-1_bi_2x250bp_default__mrsa_mis-2_bi_2x250bp_default.96coverage_128.final_broken	ABYSS_PE_MIS_PE_mrsa_mis-1_bi_2x250bp_default__mrsa_mis-2_bi_2x250bp_default.96coverage_128.final
#Contigs (>= 0 bp)	149	146
#Contigs (>= 1000 bp)	48	48
Total length (>= 0 bp)	2819289	2819439
Total length (>= 1000 bp)	2792209	2793556
#Contigs	107	104
Largest contig	350685	350685
Total length	2812576	2812726
Reference length	2813862	2813862
GC (%)	32.78	32.78
Reference GC (%)	32.81	32.81
N50	154996	154996
NG50	154996	154996
N75	61572	61572
NG75	61572	61572
#misassemblies	4	5
#local misassemblies	0	2
#unaligned contigs	0 + 0 part	0 + 0 part
Unaligned contigs length	0	0
Genome fraction (%)	99.209	99.233
Duplication ratio	1.004	1.004
#N's per 100 kbp	0.07	5.40
#mismatches per 100 kbp	2.26	2.33
#indels per 100 kbp	0.39	0.39
#genes	2692 + 28 part	2692 + 29 part
#predicted genes (unique)	2676	2675
#predicted genes (>= 0 bp)	2678	2677
#predicted genes (>= 300 bp)	2294	2294
#predicted genes (>= 1500 bp)	296	296
#predicted genes (>= 3000 bp)	30	30
Largest alignment	350685	350685
NA50	146539	146539
NGA50	146539	146539
NA75	60565	60565
NGA75	60565	60565
