Assembly	CLC_PGM_mrsa_pgm_200bp_es_316_IonOnev2_ts3.0_morestringent.0.050percent.result
#Mis_misassemblies	93
#Mis_relocations	43
#Mis_translocations	0
#Mis_inversions	50
#Mis_misassembled contigs	89
Mis_Misassembled contigs length	328767
#Mis_local misassemblies	5
#mismatches	957
#indels	3137
#Mis_short indels (<= 5 bp)	3135
#Mis_long indels (> 5 bp)	2
Indels length	3385
