calling: java -cp /vol/ngscomparison/software/analysis/quast-2.1/libs/gage:. SizeFasta /vol/codine-tmp/juene/tmp.r4N4MRF19A/quast/corrected_input/Ecoli_Sakai_editedNew_plasmids.fasta |awk '{SUM+=; print SUM}'|tail -n 1
Contig Stats
Total units: 424
Reference: 5594470
BasesInFasta: 5418380
Min: 200
Max: 211471
N10: 163483 COUNT: 3
N25: 138825 COUNT: 9
N50: 86427 COUNT: 21
N75: 35893 COUNT: 46
E-size:89160.52

Genome Size: 5594470
Assembly Size: 5418380
Chaff bases: 0
Missing Reference Bases: 17114(0.31%)
Missing Assembly Bases: 23(0.00%)
Missing Assembly Contigs: 0(0.00%)
Duplicated Reference Bases: 20553
Compressed Reference Bases: 281878
Bad Trim: 0
Avg Idy: 99.99
SNPs: 319
Indels < 5bp: 33
Indels >= 5: 13
Inversions: 2
Relocation: 3
Translocation: 0

Corrected Contig Stats
calling: java -cp /vol/ngscomparison/software/analysis/quast-2.1/libs/gage:.:. GetFastaStats -o -min 199 -genomeSize 5594470 /vol/codine-tmp/juene/tmp.r4N4MRF19A/quast/gage/tmp/ABYSS_PE_MIS_PE_sakai_mis-1_bi_2x250bp_SI_default__sakai_mis-2_bi_2x250bp_SI_default.51coverage_84.final_broken.matches.lens 2> /dev/null
Total units: 414
Reference: 5594470
BasesInFasta: 5399090
Min: 200
Max: 211473
N10: 156192 COUNT: 3
N25: 117714 COUNT: 10
N50: 72593 COUNT: 24
N75: 30774 COUNT: 52
E-size:80100.23

Done
