Assembly	CLC_PGM_sakai_pgm_mu_200bp_IO_TS3.0Disabled_stringent.86coverage.result
#Contigs (>= 0 bp)	935
#Contigs (>= 1000 bp)	395
Total length (>= 0 bp)	5385278
Total length (>= 1000 bp)	5210752
#Contigs	935
Largest contig	80758
Total length	5385278
Reference length	5594470
GC (%)	50.29
Reference GC (%)	50.48
N50	25746
NG50	24219
N75	11712
NG75	10893
#misassemblies	16
#local misassemblies	5
#unaligned contigs	0 + 25 part
Unaligned contigs length	927
Genome fraction (%)	93.835
Duplication ratio	1.010
#N's per 100 kbp	0.61
#mismatches per 100 kbp	2.91
#indels per 100 kbp	23.56
#genes	4731 + 396 part
#predicted genes (unique)	6249
#predicted genes (>= 0 bp)	6254
#predicted genes (>= 300 bp)	4761
#predicted genes (>= 1500 bp)	549
#predicted genes (>= 3000 bp)	36
Largest alignment	80758
NA50	25541
NGA50	22785
NA75	11578
NGA75	10745
