All statistics are based on contigs of size >= 200 bp, unless otherwise noted (e.g., "# contigs (>= 0 bp)" and "Total length (>= 0 bp)" include all contigs).

Assembly                         VELVET_MIS_PE_sakai_mis-1_bi_2x150bp_default__sakai_mis-2_bi_2x150bp_default.0.826percent_83.final.contigs_broken  VELVET_MIS_PE_sakai_mis-1_bi_2x150bp_default__sakai_mis-2_bi_2x150bp_default.0.826percent_83.final.contigs
GAGE_Contigs #                   436                                                                                                                362                                                                                                       
GAGE_Min contig                  200                                                                                                                200                                                                                                       
GAGE_Max contig                  311992                                                                                                             374987                                                                                                    
GAGE_N50                         87026 COUNT: 20                                                                                                    145380 COUNT: 11                                                                                          
GAGE_Genome size                 5594470                                                                                                            5594470                                                                                                   
GAGE_Assembly size               5411653                                                                                                            5416846                                                                                                   
GAGE_Chaff bases                 0                                                                                                                  0                                                                                                         
GAGE_Missing reference bases     5979(0.11%)                                                                                                        5798(0.10%)                                                                                               
GAGE_Missing assembly bases      5420(0.10%)                                                                                                        10938(0.20%)                                                                                              
GAGE_Missing assembly contigs    1(0.23%)                                                                                                           2(0.55%)                                                                                                  
GAGE_Duplicated reference bases  14183                                                                                                              13575                                                                                                     
GAGE_Compressed reference bases  255475                                                                                                             253723                                                                                                    
GAGE_Bad trim                    35                                                                                                                 903                                                                                                       
GAGE_Avg idy                     99.99                                                                                                              99.99                                                                                                     
GAGE_SNPs                        110                                                                                                                117                                                                                                       
GAGE_Indels < 5bp                16                                                                                                                 41                                                                                                        
GAGE_Indels >= 5                 4                                                                                                                  38                                                                                                        
GAGE_Inversions                  0                                                                                                                  4                                                                                                         
GAGE_Relocation                  4                                                                                                                  9                                                                                                         
GAGE_Translocation               0                                                                                                                  0                                                                                                         
GAGE_Corrected contig #          395                                                                                                                390                                                                                                       
GAGE_Corrected assembly size     5393397                                                                                                            5393513                                                                                                   
GAGE_Min correct contig          200                                                                                                                200                                                                                                       
GAGE_Max correct contig          311992                                                                                                             313859                                                                                                    
GAGE_Corrected N50               79790 COUNT: 22                                                                                                    85068 COUNT: 21                                                                                           
