Assembly	GAGE_Contigs #	GAGE_Min contig	GAGE_Max contig	GAGE_N50	GAGE_Genome size	GAGE_Assembly size	GAGE_Chaff bases	GAGE_Missing reference bases	GAGE_Missing assembly bases	GAGE_Missing assembly contigs	GAGE_Duplicated reference bases	GAGE_Compressed reference bases	GAGE_Bad trim	GAGE_Avg idy	GAGE_SNPs	GAGE_Indels < 5bp	GAGE_Indels >= 5	GAGE_Inversions	GAGE_Relocation	GAGE_Translocation	GAGE_Corrected contig #	GAGE_Corrected assembly size	GAGE_Min correct contig	GAGE_Max correct contig	GAGE_Corrected N50
ABYSS_PE_MIS_PE_mtbh37-1_mis_2x250bp_nextera_default__mtbh37-2_mis_2x250bp_nextera_default.0.175percent_56.final_broken	946	201	31173	7994 COUNT: 172	4411532	4237364	0	132943(3.01%)	1216(0.03%)	0(0.00%)	0	54712	1209	99.99	239	27	11	1	1	0	958	4236440	201	31174	7826 COUNT: 175
ABYSS_PE_MIS_PE_mtbh37-1_mis_2x250bp_nextera_default__mtbh37-2_mis_2x250bp_nextera_default.0.175percent_56.final	941	201	31173	7998 COUNT: 168	4411532	4237887	0	132803(3.01%)	1599(0.04%)	0(0.00%)	0	54712	1209	99.99	239	27	17	1	1	0	958	4236440	201	31174	7826 COUNT: 175
