All statistics are based on contigs of size >= 200 bp, unless otherwise noted (e.g., "# contigs (>= 0 bp)" and "Total length (>= 0 bp)" include all contigs).

Assembly                         ABYSS_PE_MIS_PE_sakai_mis-1_bi_2x150bp_default__sakai_mis-2_bi_2x150bp_default.6coverage_34.final_broken  ABYSS_PE_MIS_PE_sakai_mis-1_bi_2x150bp_default__sakai_mis-2_bi_2x150bp_default.6coverage_34.final
#Mis_misassemblies               1                                                                                                         1                                                                                                
#Mis_relocations                 1                                                                                                         1                                                                                                
#Mis_translocations              0                                                                                                         0                                                                                                
#Mis_inversions                  0                                                                                                         0                                                                                                
#Mis_misassembled contigs        1                                                                                                         1                                                                                                
Mis_Misassembled contigs length  3313                                                                                                      3313                                                                                             
#Mis_local misassemblies         3                                                                                                         3                                                                                                
#mismatches                      652                                                                                                       652                                                                                              
#indels                          25                                                                                                        25                                                                                               
#Mis_short indels (<= 5 bp)      24                                                                                                        24                                                                                               
#Mis_long indels (> 5 bp)        1                                                                                                         1                                                                                                
Indels length                    53                                                                                                        53                                                                                               
