All statistics are based on contigs of size >= 200 bp, unless otherwise noted (e.g., "# contigs (>= 0 bp)" and "Total length (>= 0 bp)" include all contigs).

Assembly                       ABYSS_PE_MIS_PE_sakai_mis-1_bi_2x150bp_default__sakai_mis-2_bi_2x150bp_default.41coverage_48.final_broken  ABYSS_PE_MIS_PE_sakai_mis-1_bi_2x150bp_default__sakai_mis-2_bi_2x150bp_default.41coverage_48.final
#Contigs (>= 0 bp)             1280                                                                                                       1235                                                                                              
#Contigs (>= 1000 bp)          191                                                                                                        173                                                                                               
Total length (>= 0 bp)         5516701                                                                                                    5519150                                                                                           
Total length (>= 1000 bp)      5379159                                                                                                    5392607                                                                                           
#Contigs                       268                                                                                                        226                                                                                               
Largest contig                 219503                                                                                                     376690                                                                                            
Total length                   5421023                                                                                                    5423923                                                                                           
Reference length               5594470                                                                                                    5594470                                                                                           
GC (%)                         50.37                                                                                                      50.37                                                                                             
Reference GC (%)               50.48                                                                                                      50.48                                                                                             
N50                            87777                                                                                                      121856                                                                                            
NG50                           86297                                                                                                      116586                                                                                            
N75                            41775                                                                                                      43705                                                                                             
NG75                           40952                                                                                                      41362                                                                                             
#misassemblies                 4                                                                                                          15                                                                                                
#local misassemblies           8                                                                                                          24                                                                                                
#unaligned contigs             0 + 0 part                                                                                                 0 + 1 part                                                                                        
Unaligned contigs length       0                                                                                                          1133                                                                                              
Genome fraction (%)            95.250                                                                                                     95.439                                                                                            
Duplication ratio              1.007                                                                                                      1.008                                                                                             
#N's per 100 kbp               1.64                                                                                                       46.79                                                                                             
#mismatches per 100 kbp        20.38                                                                                                      19.91                                                                                             
#indels per 100 kbp            1.14                                                                                                       2.14                                                                                              
#genes                         4984 + 183 part                                                                                            5006 + 174 part                                                                                   
#predicted genes (unique)      5218                                                                                                       5208                                                                                              
#predicted genes (>= 0 bp)     5304                                                                                                       5292                                                                                              
#predicted genes (>= 300 bp)   4474                                                                                                       4474                                                                                              
#predicted genes (>= 1500 bp)  678                                                                                                        678                                                                                               
#predicted genes (>= 3000 bp)  71                                                                                                         70                                                                                                
Largest alignment              219503                                                                                                     228618                                                                                            
NA50                           86297                                                                                                      121856                                                                                            
NGA50                          85386                                                                                                      116586                                                                                            
NA75                           41320                                                                                                      43705                                                                                             
NGA75                          36902                                                                                                      41207                                                                                             
