Assembly	#Contigs (>= 0 bp)	#Contigs (>= 1000 bp)	Total length (>= 0 bp)	Total length (>= 1000 bp)	#Contigs	Largest contig	Total length	Reference length	GC (%)	Reference GC (%)	N50	NG50	N75	NG75	#misassemblies	#local misassemblies	#unaligned contigs	Unaligned contigs length	Genome fraction (%)	Duplication ratio	#N's per 100 kbp	#mismatches per 100 kbp	#indels per 100 kbp	#genes	#predicted genes (unique)	#predicted genes (>= 0 bp)	#predicted genes (>= 300 bp)	#predicted genes (>= 1500 bp)	#predicted genes (>= 3000 bp)	Largest alignment	NA50	NGA50	NA75	NGA75
ABYSS_PE_MIS_PE_sakai_mis-1_bi_2x150bp_default__sakai_mis-2_bi_2x150bp_default.41coverage_48.final_broken	1280	191	5516701	5379159	268	219503	5421023	5594470	50.37	50.48	87777	86297	41775	40952	4	8	0 + 0 part	0	95.250	1.007	1.64	20.38	1.14	4984 + 183 part	5218	5304	4474	678	71	219503	86297	85386	41320	36902
ABYSS_PE_MIS_PE_sakai_mis-1_bi_2x150bp_default__sakai_mis-2_bi_2x150bp_default.41coverage_48.final	1235	173	5519150	5392607	226	376690	5423923	5594470	50.37	50.48	121856	116586	43705	41362	15	24	0 + 1 part	1133	95.439	1.008	46.79	19.91	2.14	5006 + 174 part	5208	5292	4474	678	70	228618	121856	116586	43705	41207
