Assembly	CLC_PGM_sakai_pgm_mu_200bp_IO_TS3.0Disabled_stringent.21coverage.result
#Contigs	880
#Contigs (>= 0 bp)	880
#Contigs (>= 1000 bp)	409
Largest contig	81260
Total length	5348666
Total length (>= 0 bp)	5348666
Total length (>= 1000 bp)	5173388
Reference length	5594470
N50	24211
NG50	22972
N75	11637
NG75	9705
L50	70
LG50	76
L75	151
LG75	168
#local misassemblies	4
#misassemblies	24
#misassembled contigs	24
Misassembled contigs length	93422
Misassemblies inter-contig overlap	723
#unaligned contigs	1 + 38 part
Unaligned contigs length	1672
#ambiguously mapped contigs	125
Extra bases in ambiguously mapped contigs	-83371
#N's	137
#N's per 100 kbp	2.56
Genome fraction (%)	93.437
Duplication ratio	1.007
#genes	4704 + 400 part
#predicted genes (unique)	6465
#predicted genes (>= 0 bp)	6468
#predicted genes (>= 300 bp)	4920
#predicted genes (>= 1500 bp)	477
#predicted genes (>= 3000 bp)	29
#mismatches	168
#indels	1953
Indels length	2026
#mismatches per 100 kbp	3.21
#indels per 100 kbp	37.36
GC (%)	50.26
Reference GC (%)	50.48
Average %IDY	99.083
Largest alignment	81260
NA50	23679
NGA50	22444
NA75	11637
NGA75	9705
LA50	72
LGA50	77
LA75	153
LGA75	170
#Mis_misassemblies	24
#Mis_relocations	5
#Mis_translocations	0
#Mis_inversions	19
#Mis_misassembled contigs	24
Mis_Misassembled contigs length	93422
#Mis_local misassemblies	4
#Mis_short indels (<= 5 bp)	1952
#Mis_long indels (> 5 bp)	1
#Una_fully unaligned contigs	1
Una_Fully unaligned length	298
#Una_partially unaligned contigs	38
#Una_with misassembly	0
#Una_both parts are significant	0
Una_Partially unaligned length	1374
GAGE_Contigs #	880
GAGE_Min contig	200
GAGE_Max contig	81260
GAGE_N50	22972 COUNT: 76
GAGE_Genome size	5594470
GAGE_Assembly size	5348666
GAGE_Chaff bases	0
GAGE_Missing reference bases	68013(1.22%)
GAGE_Missing assembly bases	1968(0.04%)
GAGE_Missing assembly contigs	0(0.00%)
GAGE_Duplicated reference bases	38293
GAGE_Compressed reference bases	248824
GAGE_Bad trim	1968
GAGE_Avg idy	99.96
GAGE_SNPs	167
GAGE_Indels < 5bp	2022
GAGE_Indels >= 5	5
GAGE_Inversions	0
GAGE_Relocation	3
GAGE_Translocation	0
GAGE_Corrected contig #	741
GAGE_Corrected assembly size	5311124
GAGE_Min correct contig	200
GAGE_Max correct contig	81287
GAGE_Corrected N50	22449 COUNT: 78
