Assembly	CLC_PGM_mtbh37_pgm_200bp_es_IonOne_tsv2.0_morestringent.0.025percent.result
#Contigs (>= 0 bp)	300
#Contigs (>= 1000 bp)	1
Total length (>= 0 bp)	122153
Total length (>= 1000 bp)	1400
#Contigs	300
Largest contig	1400
Total length	122153
Reference length	4411532
GC (%)	62.81
Reference GC (%)	65.61
N50	427
NG50	None
N75	353
NG75	None
#misassemblies	106
#local misassemblies	9
#unaligned contigs	1 + 47 part
Unaligned contigs length	3299
Genome fraction (%)	2.528
Duplication ratio	1.071
#N's per 100 kbp	52.39
#mismatches per 100 kbp	234.93
#indels per 100 kbp	459.09
#genes	10 + 325 part
#predicted genes (unique)	352
#predicted genes (>= 0 bp)	353
#predicted genes (>= 300 bp)	96
#predicted genes (>= 1500 bp)	0
#predicted genes (>= 3000 bp)	0
Largest alignment	1349
NA50	331
NGA50	None
NA75	246
NGA75	None
