Assembly	#Contigs (>= 0 bp)	#Contigs (>= 1000 bp)	Total length (>= 0 bp)	Total length (>= 1000 bp)	#Contigs	Largest contig	Total length	Reference length	GC (%)	Reference GC (%)	N50	NG50	N75	NG75	#misassemblies	#local misassemblies	#unaligned contigs	Unaligned contigs length	Genome fraction (%)	Duplication ratio	#N's per 100 kbp	#mismatches per 100 kbp	#indels per 100 kbp	#genes	#predicted genes (unique)	#predicted genes (>= 0 bp)	#predicted genes (>= 300 bp)	#predicted genes (>= 1500 bp)	#predicted genes (>= 3000 bp)	Largest alignment	NA50	NGA50	NA75	NGA75
ABYSS_PE_MIS_PE_sakai_mis-1_bi_2x150bp_default__sakai_mis-2_bi_2x150bp_default.6coverage_34.final_broken	6746	1811	5174839	3752853	4061	11435	4934848	5594470	50.38	50.48	1796	1557	1033	731	1	3	7 + 5 part	5463	86.580	1.002	0.16	13.46	0.52	2289 + 2583 part	7464	7464	5122	286	10	11435	1777	1524	1005	698
ABYSS_PE_MIS_PE_sakai_mis-1_bi_2x150bp_default__sakai_mis-2_bi_2x150bp_default.6coverage_34.final	6738	1812	5175140	3755094	4057	11435	4935756	5594470	50.38	50.48	1796	1557	1034	734	1	3	10 + 5 part	8288	86.580	1.002	6.26	13.46	0.52	2289 + 2583 part	7463	7463	5123	287	10	11435	1777	1524	1005	698
