calling: java -cp /vol/ngscomparison/software/analysis/quast-2.1/libs/gage:. SizeFasta /vol/codine-tmp/juene/tmp.tEOyPpMMX8/quast/corrected_input/MRSA_COL_Plasmid.fasta |awk '{SUM+=; print SUM}'|tail -n 1
Contig Stats
Total units: 319
Reference: 2813862
BasesInFasta: 2788954
Min: 200
Max: 175048
N10: 109133 COUNT: 2
N25: 62949 COUNT: 8
N50: 35117 COUNT: 22
N75: 20702 COUNT: 47
E-size:50172.31

Genome Size: 2813862
Assembly Size: 2788954
Chaff bases: 0
Missing Reference Bases: 23072(0.82%)
Missing Assembly Bases: 1172(0.04%)
Missing Assembly Contigs: 4(1.25%)
Duplicated Reference Bases: 31747
Compressed Reference Bases: 41093
Bad Trim: 263
Avg Idy: 99.99
SNPs: 40
Indels < 5bp: 265
Indels >= 5: 2
Inversions: 0
Relocation: 2
Translocation: 0

Corrected Contig Stats
calling: java -cp /vol/ngscomparison/software/analysis/quast-2.1/libs/gage:.:. GetFastaStats -o -min 199 -genomeSize 2813862 /vol/codine-tmp/juene/tmp.tEOyPpMMX8/quast/gage/tmp/CLC_PGM_mrsa_pgm_200bp_es_316_IonOnev2_ts3.0_morestringent.0.850percent.result.matches.lens 2> /dev/null
Total units: 191
Reference: 2813862
BasesInFasta: 2756846
Min: 200
Max: 175062
N10: 109139 COUNT: 2
N25: 62952 COUNT: 8
N50: 35119 COUNT: 23
N75: 19985 COUNT: 48
E-size:49897.88

Done
