Assembly	GAGE_Contigs #	GAGE_Min contig	GAGE_Max contig	GAGE_N50	GAGE_Genome size	GAGE_Assembly size	GAGE_Chaff bases	GAGE_Missing reference bases	GAGE_Missing assembly bases	GAGE_Missing assembly contigs	GAGE_Duplicated reference bases	GAGE_Compressed reference bases	GAGE_Bad trim	GAGE_Avg idy	GAGE_SNPs	GAGE_Indels < 5bp	GAGE_Indels >= 5	GAGE_Inversions	GAGE_Relocation	GAGE_Translocation	GAGE_Corrected contig #	GAGE_Corrected assembly size	GAGE_Min correct contig	GAGE_Max correct contig	GAGE_Corrected N50
ABYSS_PE_MIS_PE_sakai_mis-1_bi_2x250bp_SI_default__sakai_mis-2_bi_2x250bp_SI_default.31coverage_84.final_broken	565	200	146417	49405 COUNT: 34	5594470	5366056	0	22022(0.39%)	3(0.00%)	0(0.00%)	8254	277800	0	99.99	175	22	4	0	5	0	548	5359554	200	139183	45748 COUNT: 36
ABYSS_PE_MIS_PE_sakai_mis-1_bi_2x250bp_SI_default__sakai_mis-2_bi_2x250bp_SI_default.31coverage_84.final	555	200	146417	49405 COUNT: 34	5594470	5366509	0	21946(0.39%)	385(0.01%)	0(0.00%)	8455	277943	50	99.99	175	27	9	0	6	0	545	5359429	200	139183	45748 COUNT: 36
