All statistics are based on contigs of size >= 200 bp, unless otherwise noted (e.g., "# contigs (>= 0 bp)" and "Total length (>= 0 bp)" include all contigs).

Assembly                         ABYSS_PE_MIS_PE_mrsa_mis-1_bi_2x250bp_default__mrsa_mis-2_bi_2x250bp_default.0.650percent_126.final_broken  ABYSS_PE_MIS_PE_mrsa_mis-1_bi_2x250bp_default__mrsa_mis-2_bi_2x250bp_default.0.650percent_126.final
GAGE_Contigs #                   160                                                                                                         160                                                                                                
GAGE_Min contig                  206                                                                                                         206                                                                                                
GAGE_Max contig                  457328                                                                                                      457328                                                                                             
GAGE_N50                         145432 COUNT: 6                                                                                             145432 COUNT: 6                                                                                    
GAGE_Genome size                 2813862                                                                                                     2813862                                                                                            
GAGE_Assembly size               2804834                                                                                                     2804834                                                                                            
GAGE_Chaff bases                 0                                                                                                           0                                                                                                  
GAGE_Missing reference bases     218(0.01%)                                                                                                  218(0.01%)                                                                                         
GAGE_Missing assembly bases      0(0.00%)                                                                                                    0(0.00%)                                                                                           
GAGE_Missing assembly contigs    0(0.00%)                                                                                                    0(0.00%)                                                                                           
GAGE_Duplicated reference bases  9335                                                                                                        9335                                                                                               
GAGE_Compressed reference bases  31866                                                                                                       31866                                                                                              
GAGE_Bad trim                    0                                                                                                           0                                                                                                  
GAGE_Avg idy                     99.99                                                                                                       99.99                                                                                              
GAGE_SNPs                        36                                                                                                          36                                                                                                 
GAGE_Indels < 5bp                9                                                                                                           9                                                                                                  
GAGE_Indels >= 5                 0                                                                                                           0                                                                                                  
GAGE_Inversions                  0                                                                                                           0                                                                                                  
GAGE_Relocation                  2                                                                                                           2                                                                                                  
GAGE_Translocation               0                                                                                                           0                                                                                                  
GAGE_Corrected contig #          124                                                                                                         124                                                                                                
GAGE_Corrected assembly size     2795505                                                                                                     2795505                                                                                            
GAGE_Min correct contig          207                                                                                                         207                                                                                                
GAGE_Max correct contig          457327                                                                                                      457327                                                                                             
GAGE_Corrected N50               145431 COUNT: 6                                                                                             145431 COUNT: 6                                                                                    
