Assembly	VELVET_PGM_mrsa_pgm_400bp_es_318_IKA_ts3.2_morestringent.0.165percent_23.final.contigs
GAGE_Contigs #	498
GAGE_Min contig	200
GAGE_Max contig	730
GAGE_N50	0 COUNT: 0
GAGE_Genome size	2813862
GAGE_Assembly size	119700
GAGE_Chaff bases	0
GAGE_Missing reference bases	2694194(95.75%)
GAGE_Missing assembly bases	10(0.01%)
GAGE_Missing assembly contigs	0(0.00%)
GAGE_Duplicated reference bases	0
GAGE_Compressed reference bases	0
GAGE_Bad trim	10
GAGE_Avg idy	99.94
GAGE_SNPs	10
GAGE_Indels < 5bp	61
GAGE_Indels >= 5	0
GAGE_Inversions	0
GAGE_Relocation	0
GAGE_Translocation	0
GAGE_Corrected contig #	498
GAGE_Corrected assembly size	119723
GAGE_Min correct contig	200
GAGE_Max correct contig	729
GAGE_Corrected N50	0 COUNT: 0
