Assembly	#Contigs (>= 0 bp)	#Contigs (>= 1000 bp)	Total length (>= 0 bp)	Total length (>= 1000 bp)	#Contigs	Largest contig	Total length	Reference length	GC (%)	Reference GC (%)	N50	NG50	N75	NG75	#misassemblies	#local misassemblies	#unaligned contigs	Unaligned contigs length	Genome fraction (%)	Duplication ratio	#N's per 100 kbp	#mismatches per 100 kbp	#indels per 100 kbp	#genes	#predicted genes (unique)	#predicted genes (>= 0 bp)	#predicted genes (>= 300 bp)	#predicted genes (>= 1500 bp)	#predicted genes (>= 3000 bp)	Largest alignment	NA50	NGA50	NA75	NGA75
SOAP2_MIS_PE_sakai_mis-1_bi_2x250bp_SI_default.0.64percent_83.final.scaf_broken	51908	1554	17058793	4754460	45508	24611	16066995	5594470	53.26	50.48	251	3252	251	1620	4	3	35386 + 1300 part	9020271	94.334	1.310	0.26	85.04	1.76	3371 + 1801 part	44620	44656	5185	422	22	24611	None	3233	None	1607
SOAP2_MIS_PE_sakai_mis-1_bi_2x250bp_SI_default.0.64percent_83.final.scaf	51851	1549	17061828	4772126	45474	24611	16073666	5594470	53.26	50.48	251	3288	251	1640	4	14	35396 + 1303 part	9032279	94.216	1.310	19.14	84.20	9.22	3379 + 1788 part	44626	44663	5189	422	22	24611	None	3279	None	1637
