Assembly	ABYSS_PE_PGM_sakai_pgm_mu_318_400bp_IO_TS3.4_ms.0.65percent_122.final
#Contigs	3589
#Contigs (>= 0 bp)	5298
#Contigs (>= 1000 bp)	782
Largest contig	36223
Total length	5878927
Total length (>= 0 bp)	6140840
Total length (>= 1000 bp)	5102677
Reference length	5594470
N50	8572
NG50	9462
N75	3773
NG75	4587
L50	194
LG50	178
L75	442
LG75	391
#local misassemblies	6
#misassemblies	6
#misassembled contigs	6
Misassembled contigs length	10074
Misassemblies inter-contig overlap	1121
#unaligned contigs	0 + 6 part
Unaligned contigs length	161
#ambiguously mapped contigs	657
Extra bases in ambiguously mapped contigs	-191848
#N's	0
#N's per 100 kbp	0.00
Genome fraction (%)	94.772
Duplication ratio	1.073
#genes	4350 + 833 part
#predicted genes (unique)	8219
#predicted genes (>= 0 bp)	8304
#predicted genes (>= 300 bp)	4737
#predicted genes (>= 1500 bp)	562
#predicted genes (>= 3000 bp)	44
#mismatches	84
#indels	402
Indels length	415
#mismatches per 100 kbp	1.58
#indels per 100 kbp	7.58
GC (%)	50.52
Reference GC (%)	50.48
Average %IDY	99.143
Largest alignment	36223
NA50	8572
NGA50	9462
NA75	3752
NGA75	4587
LA50	194
LGA50	178
LA75	442
LGA75	391
#Mis_misassemblies	6
#Mis_relocations	6
#Mis_translocations	0
#Mis_inversions	0
#Mis_misassembled contigs	6
Mis_Misassembled contigs length	10074
#Mis_local misassemblies	6
#Mis_short indels (<= 5 bp)	402
#Mis_long indels (> 5 bp)	0
#Una_fully unaligned contigs	0
Una_Fully unaligned length	0
#Una_partially unaligned contigs	6
#Una_with misassembly	0
#Una_both parts are significant	0
Una_Partially unaligned length	161
GAGE_Contigs #	3589
GAGE_Min contig	200
GAGE_Max contig	36223
GAGE_N50	9462 COUNT: 178
GAGE_Genome size	5594470
GAGE_Assembly size	5878927
GAGE_Chaff bases	0
GAGE_Missing reference bases	12490(0.22%)
GAGE_Missing assembly bases	169(0.00%)
GAGE_Missing assembly contigs	0(0.00%)
GAGE_Duplicated reference bases	351831
GAGE_Compressed reference bases	257847
GAGE_Bad trim	169
GAGE_Avg idy	99.99
GAGE_SNPs	57
GAGE_Indels < 5bp	379
GAGE_Indels >= 5	3
GAGE_Inversions	0
GAGE_Relocation	5
GAGE_Translocation	0
GAGE_Corrected contig #	2105
GAGE_Corrected assembly size	5525496
GAGE_Min correct contig	200
GAGE_Max correct contig	36224
GAGE_Corrected N50	9419 COUNT: 178
