Assembly	ABYSS_PE_PGM_sakai_pgm_mu_318_400bp_IO_TS3.4_ms.0.65percent_122.final
GAGE_Contigs #	3589
GAGE_Min contig	200
GAGE_Max contig	36223
GAGE_N50	9462 COUNT: 178
GAGE_Genome size	5594470
GAGE_Assembly size	5878927
GAGE_Chaff bases	0
GAGE_Missing reference bases	12490(0.22%)
GAGE_Missing assembly bases	169(0.00%)
GAGE_Missing assembly contigs	0(0.00%)
GAGE_Duplicated reference bases	351831
GAGE_Compressed reference bases	257847
GAGE_Bad trim	169
GAGE_Avg idy	99.99
GAGE_SNPs	57
GAGE_Indels < 5bp	379
GAGE_Indels >= 5	3
GAGE_Inversions	0
GAGE_Relocation	5
GAGE_Translocation	0
GAGE_Corrected contig #	2105
GAGE_Corrected assembly size	5525496
GAGE_Min correct contig	200
GAGE_Max correct contig	36224
GAGE_Corrected N50	9419 COUNT: 178
