All statistics are based on contigs of size >= 200 bp, unless otherwise noted (e.g., "# contigs (>= 0 bp)" and "Total length (>= 0 bp)" include all contigs).

Assembly                                                                                                          GAGE_Contigs #  GAGE_Min contig  GAGE_Max contig  GAGE_N50         GAGE_Genome size  GAGE_Assembly size  GAGE_Chaff bases  GAGE_Missing reference bases  GAGE_Missing assembly bases  GAGE_Missing assembly contigs  GAGE_Duplicated reference bases  GAGE_Compressed reference bases  GAGE_Bad trim  GAGE_Avg idy  GAGE_SNPs  GAGE_Indels < 5bp  GAGE_Indels >= 5  GAGE_Inversions  GAGE_Relocation  GAGE_Translocation  GAGE_Corrected contig #  GAGE_Corrected assembly size  GAGE_Min correct contig  GAGE_Max correct contig  GAGE_Corrected N50
VELVET_MIS_PE_mrsa_mis-1_bi_2x250bp_default__mrsa_mis-2_bi_2x250bp_default.0.460percent_107.final.contigs_broken  194             213              145370           38349 COUNT: 20  2813862           2788000             0                 10676(0.38%)                  5204(0.19%)                  3(1.55%)                       2973                             43481                            3              100.00        49         15                 1                 1                2                0                   184                      2780313                       213                      145371                   38349 COUNT: 20   
VELVET_MIS_PE_mrsa_mis-1_bi_2x250bp_default__mrsa_mis-2_bi_2x250bp_default.0.460percent_107.final.contigs         177             213              145370           38900 COUNT: 19  2813862           2788796             0                 10676(0.38%)                  6000(0.22%)                  3(1.69%)                       3186                             43694                            12             100.00        48         15                 13                3                3                0                   183                      2780100                       213                      145371                   38349 COUNT: 20   
