All statistics are based on contigs of size >= 200 bp, unless otherwise noted (e.g., "# contigs (>= 0 bp)" and "Total length (>= 0 bp)" include all contigs).

Assembly                                                                                                          #Contigs  #Contigs (>= 0 bp)  #Contigs (>= 1000 bp)  Largest contig  Total length  Total length (>= 0 bp)  Total length (>= 1000 bp)  Reference length  N50    NG50   N75    NG75   L50  LG50  L75  LG75  #local misassemblies  #misassemblies  #misassembled contigs  Misassembled contigs length  Misassemblies inter-contig overlap  #unaligned contigs  Unaligned contigs length  #ambiguously mapped contigs  Extra bases in ambiguously mapped contigs  #N's  #N's per 100 kbp  Genome fraction (%)  Duplication ratio  #genes          #predicted genes (unique)  #predicted genes (>= 0 bp)  #predicted genes (>= 300 bp)  #predicted genes (>= 1500 bp)  #predicted genes (>= 3000 bp)  #mismatches  #indels  Indels length  #mismatches per 100 kbp  #indels per 100 kbp  GC (%)  Reference GC (%)  Average %IDY  Largest alignment  NA50   NGA50  NA75   NGA75  LA50  LGA50  LA75  LGA75  #Mis_misassemblies  #Mis_relocations  #Mis_translocations  #Mis_inversions  #Mis_misassembled contigs  Mis_Misassembled contigs length  #Mis_local misassemblies  #Mis_short indels (<= 5 bp)  #Mis_long indels (> 5 bp)  #Una_fully unaligned contigs  Una_Fully unaligned length  #Una_partially unaligned contigs  #Una_with misassembly  #Una_both parts are significant  Una_Partially unaligned length  GAGE_Contigs #  GAGE_Min contig  GAGE_Max contig  GAGE_N50         GAGE_Genome size  GAGE_Assembly size  GAGE_Chaff bases  GAGE_Missing reference bases  GAGE_Missing assembly bases  GAGE_Missing assembly contigs  GAGE_Duplicated reference bases  GAGE_Compressed reference bases  GAGE_Bad trim  GAGE_Avg idy  GAGE_SNPs  GAGE_Indels < 5bp  GAGE_Indels >= 5  GAGE_Inversions  GAGE_Relocation  GAGE_Translocation  GAGE_Corrected contig #  GAGE_Corrected assembly size  GAGE_Min correct contig  GAGE_Max correct contig  GAGE_Corrected N50
VELVET_MIS_PE_mrsa_mis-1_bi_2x250bp_default__mrsa_mis-2_bi_2x250bp_default.0.460percent_107.final.contigs_broken  194       194                 127                    145370          2788000       2788000                 2764644                    2813862           38349  38349  19720  19685  20   20    44   45    1                     4               4                      103802                       478                                 3 + 0 part          5201                      46                           -14079                                     0     0.00              98.321               1.001              2612 + 94 part  2696                       2699                        2306                          291                            27                             46           11       15             1.66                     0.40                 32.75   32.81             99.031        145370             38349  38349  19718  19685  20    20     44    45     4                   4                 0                    0                4                          103802                           1                         11                           0                          3                             5201                        0                                 0                      0                                0                               194             213              145370           38349 COUNT: 20  2813862           2788000             0                 10676(0.38%)                  5204(0.19%)                  3(1.55%)                       2973                             43481                            3              100.00        49         15                 1                 1                2                0                   184                      2780313                       213                      145371                   38349 COUNT: 20   
VELVET_MIS_PE_mrsa_mis-1_bi_2x250bp_default__mrsa_mis-2_bi_2x250bp_default.0.460percent_107.final.contigs         177       177                 111                    145370          2788796       2788796                 2765670                    2813862           43403  38900  24466  23691  18   19    40   41    10                    7               7                      178543                       478                                 3 + 0 part          5201                      45                           -13849                                     796   28.54             98.360               1.001              2618 + 88 part  2693                       2696                        2305                          291                            27                             56           109      238            2.02                     3.94                 32.75   32.81             99.026        145370             38900  38900  24466  23691  19    19     40    41     7                   7                 0                    0                7                          178543                           10                        105                          4                          3                             5201                        0                                 0                      0                                0                               177             213              145370           38900 COUNT: 19  2813862           2788796             0                 10676(0.38%)                  6000(0.22%)                  3(1.69%)                       3186                             43694                            12             100.00        48         15                 13                3                3                0                   183                      2780100                       213                      145371                   38349 COUNT: 20   
