Assembly	ABYSS_PE_PGM_mrsa_pgm_400bp_es_318_IKA_ts3.2_morestringent.0.075percent_38.final
#Contigs (>= 0 bp)	4811
#Contigs (>= 1000 bp)	364
Total length (>= 0 bp)	2978433
Total length (>= 1000 bp)	2650381
#Contigs	527
Largest contig	40359
Total length	2727205
Reference length	2813862
GC (%)	32.58
Reference GC (%)	32.81
N50	11347
NG50	10611
N75	6104
NG75	5605
#misassemblies	1
#local misassemblies	3
#unaligned contigs	0 + 0 part
Unaligned contigs length	0
Genome fraction (%)	96.665
Duplication ratio	1.002
#N's per 100 kbp	0.00
#mismatches per 100 kbp	2.32
#indels per 100 kbp	7.02
#genes	2365 + 254 part
#predicted genes (unique)	2872
#predicted genes (>= 0 bp)	2872
#predicted genes (>= 300 bp)	2353
#predicted genes (>= 1500 bp)	254
#predicted genes (>= 3000 bp)	22
Largest alignment	40359
NA50	11347
NGA50	10611
NA75	6104
NGA75	5605
