1: PREPARING DATA
2,3: RUNNING mummer AND CREATING CLUSTERS
# reading input file "/vol/codine-tmp/juene/tmp.URKUGsfjvB/quast/contigs_reports/nucmer_output/ABYSS_PE_MIS_PE_mrsa_mis-1_bi_2x150bp_default__mrsa_mis-2_bi_2x150bp_default.0.600percent_78.final.ntref" of length 2813864
# construct suffix tree for sequence of length 2813864
# (maximum reference length is 536870908)
# (maximum query length is 4294967295)
# process 28138 characters per dot
#....................................................................................................
# CONSTRUCTIONTIME /vol/ngscomparison/software/analysis/quast-2.1/libs/MUMmer3.23-linux/mummer /vol/codine-tmp/juene/tmp.URKUGsfjvB/quast/contigs_reports/nucmer_output/ABYSS_PE_MIS_PE_mrsa_mis-1_bi_2x150bp_default__mrsa_mis-2_bi_2x150bp_default.0.600percent_78.final.ntref 1.47
# reading input file "/vol/codine-tmp/juene/tmp.URKUGsfjvB/quast/corrected_input/ABYSS_PE_MIS_PE_mrsa_mis-1_bi_2x150bp_default__mrsa_mis-2_bi_2x150bp_default.0.600percent_78.final" of length 2792065
# matching query-file "/vol/codine-tmp/juene/tmp.URKUGsfjvB/quast/corrected_input/ABYSS_PE_MIS_PE_mrsa_mis-1_bi_2x150bp_default__mrsa_mis-2_bi_2x150bp_default.0.600percent_78.final"
# against subject-file "/vol/codine-tmp/juene/tmp.URKUGsfjvB/quast/contigs_reports/nucmer_output/ABYSS_PE_MIS_PE_mrsa_mis-1_bi_2x150bp_default__mrsa_mis-2_bi_2x150bp_default.0.600percent_78.final.ntref"
# COMPLETETIME /vol/ngscomparison/software/analysis/quast-2.1/libs/MUMmer3.23-linux/mummer /vol/codine-tmp/juene/tmp.URKUGsfjvB/quast/contigs_reports/nucmer_output/ABYSS_PE_MIS_PE_mrsa_mis-1_bi_2x150bp_default__mrsa_mis-2_bi_2x150bp_default.0.600percent_78.final.ntref 4.02
# SPACE /vol/ngscomparison/software/analysis/quast-2.1/libs/MUMmer3.23-linux/mummer /vol/codine-tmp/juene/tmp.URKUGsfjvB/quast/contigs_reports/nucmer_output/ABYSS_PE_MIS_PE_mrsa_mis-1_bi_2x150bp_default__mrsa_mis-2_bi_2x150bp_default.0.600percent_78.final.ntref 5.44
4: FINISHING DATA
