Assembly	ABYSS_PE_MIS_PE_mrsa_mis-1_bi_2x150bp_default__mrsa_mis-2_bi_2x150bp_default.0.600percent_78.final_broken	ABYSS_PE_MIS_PE_mrsa_mis-1_bi_2x150bp_default__mrsa_mis-2_bi_2x150bp_default.0.600percent_78.final
#Mis_misassemblies	2	6
#Mis_relocations	2	6
#Mis_translocations	0	0
#Mis_inversions	0	0
#Mis_misassembled contigs	2	4
Mis_Misassembled contigs length	148306	630903
#Mis_local misassemblies	4	10
#mismatches	112	124
#indels	18	147
#Mis_short indels (<= 5 bp)	16	139
#Mis_long indels (> 5 bp)	2	8
Indels length	39	314
