Assembly	ABYSS_PE_PGM_mtbh37_pgm_400bp_es_318v2_OT2_tsv3.6_morestringent_70-unitigs
#Mis_misassemblies	0
#Mis_relocations	0
#Mis_translocations	0
#Mis_inversions	0
#Mis_misassembled contigs	0
Mis_Misassembled contigs length	0
#Mis_local misassemblies	14
#mismatches	122
#indels	721
#Mis_short indels (<= 5 bp)	719
#Mis_long indels (> 5 bp)	2
Indels length	813
