Assembly	VELVET_PGM_sakai_pgm_mu_318_400bp_IO_TS3.4_ms_0.395percent_57.final.contigs
GAGE_Contigs #	6483
GAGE_Min contig	200
GAGE_Max contig	1122
GAGE_N50	0 COUNT: 0
GAGE_Genome size	5594470
GAGE_Assembly size	1894156
GAGE_Chaff bases	0
GAGE_Missing reference bases	3697983(66.10%)
GAGE_Missing assembly bases	482(0.03%)
GAGE_Missing assembly contigs	1(0.02%)
GAGE_Duplicated reference bases	409
GAGE_Compressed reference bases	13787
GAGE_Bad trim	275
GAGE_Avg idy	99.97
GAGE_SNPs	55
GAGE_Indels < 5bp	491
GAGE_Indels >= 5	1
GAGE_Inversions	0
GAGE_Relocation	2
GAGE_Translocation	0
GAGE_Corrected contig #	6474
GAGE_Corrected assembly size	1892117
GAGE_Min correct contig	200
GAGE_Max correct contig	1123
GAGE_Corrected N50	0 COUNT: 0
