All statistics are based on contigs of size >= 200 bp, unless otherwise noted (e.g., "# contigs (>= 0 bp)" and "Total length (>= 0 bp)" include all contigs).

Assembly                         VELVET_MIS_PE_sakai_mis-1_bi_2x150bp_default__sakai_mis-2_bi_2x150bp_default.0.826percent_25.final.contigs_broken  VELVET_MIS_PE_sakai_mis-1_bi_2x150bp_default__sakai_mis-2_bi_2x150bp_default.0.826percent_25.final.contigs
#Mis_misassemblies               5                                                                                                                  12                                                                                                        
#Mis_relocations                 5                                                                                                                  12                                                                                                        
#Mis_translocations              0                                                                                                                  0                                                                                                         
#Mis_inversions                  0                                                                                                                  0                                                                                                         
#Mis_misassembled contigs        5                                                                                                                  9                                                                                                         
Mis_Misassembled contigs length  79457                                                                                                              530844                                                                                                    
#Mis_local misassemblies         18                                                                                                                 78                                                                                                        
#mismatches                      1128                                                                                                               1132                                                                                                      
#indels                          168                                                                                                                1010                                                                                                      
#Mis_short indels (<= 5 bp)      154                                                                                                                878                                                                                                       
#Mis_long indels (> 5 bp)        14                                                                                                                 132                                                                                                       
Indels length                    483                                                                                                                3976                                                                                                      
