Assembly	ABYSS_PE_PGM_mrsa_pgm_200bp_es_316_IonOnev2_ts3.0_morestringent.36coverage_32.final
#Mis_misassemblies	1
#Mis_relocations	1
#Mis_translocations	0
#Mis_inversions	0
#Mis_misassembled contigs	1
Mis_Misassembled contigs length	30224
#Mis_local misassemblies	1
#mismatches	48
#indels	244
#Mis_short indels (<= 5 bp)	244
#Mis_long indels (> 5 bp)	0
Indels length	249
