Assembly	CLC_PGM_sakai_pgm_mu_200bp_IO_TS3.0Disabled_stringent.31coverage.result
#Contigs (>= 0 bp)	803
#Contigs (>= 1000 bp)	366
Total length (>= 0 bp)	5365867
Total length (>= 1000 bp)	5213799
#Contigs	803
Largest contig	106236
Total length	5365867
Reference length	5594470
GC (%)	50.27
Reference GC (%)	50.48
N50	25925
NG50	25228
N75	14685
NG75	13396
#misassemblies	14
#local misassemblies	7
#unaligned contigs	0 + 27 part
Unaligned contigs length	1102
Genome fraction (%)	93.711
Duplication ratio	1.007
#N's per 100 kbp	4.38
#mismatches per 100 kbp	2.42
#indels per 100 kbp	31.32
#genes	4763 + 338 part
#predicted genes (unique)	6284
#predicted genes (>= 0 bp)	6286
#predicted genes (>= 300 bp)	4858
#predicted genes (>= 1500 bp)	508
#predicted genes (>= 3000 bp)	34
Largest alignment	106236
NA50	25925
NGA50	25228
NA75	14627
NGA75	13008
