Assembly	ABYSS_PE_PGM_mrsa_pgm_200bp_es_316_IonOnev2_ts3.0_morestringent.0.230percent_110-unitigs
#Contigs (>= 0 bp)	4117
#Contigs (>= 1000 bp)	957
Total length (>= 0 bp)	3204848
Total length (>= 1000 bp)	2439434
#Contigs	2238
Largest contig	18045
Total length	2960858
Reference length	2813862
GC (%)	32.60
Reference GC (%)	32.81
N50	2453
NG50	2549
N75	1319
NG75	1474
#misassemblies	35
#local misassemblies	2
#unaligned contigs	0 + 15 part
Unaligned contigs length	508
Genome fraction (%)	97.614
Duplication ratio	1.071
#N's per 100 kbp	0.00
#mismatches per 100 kbp	3.24
#indels per 100 kbp	44.42
#genes	1831 + 864 part
#predicted genes (unique)	4275
#predicted genes (>= 0 bp)	4293
#predicted genes (>= 300 bp)	2674
#predicted genes (>= 1500 bp)	180
#predicted genes (>= 3000 bp)	12
Largest alignment	18045
NA50	2451
NGA50	2549
NA75	1310
NGA75	1473
