calling: java -cp /vol/ngscomparison/software/analysis/quast-2.1/libs/gage:. SizeFasta /vol/codine-tmp/juene/tmp.k5iLXzhpVc/quast/corrected_input/MRSA_COL_Plasmid.fasta |awk '{SUM+=; print SUM}'|tail -n 1
Contig Stats
Total units: 4205
Reference: 2813862
BasesInFasta: 2783197
Min: 200
Max: 10253
N10: 3046 COUNT: 70
N25: 2126 COUNT: 238
N50: 1095 COUNT: 705
N75: 454 COUNT: 1679
E-size:1466.92

Genome Size: 2813862
Assembly Size: 2783197
Chaff bases: 0
Missing Reference Bases: 546780(19.43%)
Missing Assembly Bases: 503932(18.11%)
Missing Assembly Contigs: 1651(39.26%)
Duplicated Reference Bases: 0
Compressed Reference Bases: 2436
Bad Trim: 17283
Avg Idy: 99.89
SNPs: 62
Indels < 5bp: 434
Indels >= 5: 1964
Inversions: 0
Relocation: 3
Translocation: 0

Corrected Contig Stats
calling: java -cp /vol/ngscomparison/software/analysis/quast-2.1/libs/gage:.:. GetFastaStats -o -min 199 -genomeSize 2813862 /vol/codine-tmp/juene/tmp.k5iLXzhpVc/quast/gage/tmp/SOAP2_MIS_PE_mrsa_mis-1_bi_2x250bp_default.0.460percent_25.final.scaf.matches.lens 2> /dev/null
Total units: 3650
Reference: 2813862
BasesInFasta: 2156231
Min: 200
Max: 4001
N10: 1588 COUNT: 140
N25: 1022 COUNT: 480
N50: 550 COUNT: 1436
N75: 216 COUNT: 3430
E-size:689.13

Done
