All statistics are based on contigs of size >= 200 bp, unless otherwise noted (e.g., "# contigs (>= 0 bp)" and "Total length (>= 0 bp)" include all contigs).

Assembly                                                                            #Contigs (>= 0 bp)  #Contigs (>= 1000 bp)  Total length (>= 0 bp)  Total length (>= 1000 bp)  #Contigs  Largest contig  Total length  Reference length  GC (%)  Reference GC (%)  N50    NG50   N75   NG75  #misassemblies  #local misassemblies  #unaligned contigs  Unaligned contigs length  Genome fraction (%)  Duplication ratio  #N's per 100 kbp  #mismatches per 100 kbp  #indels per 100 kbp  #genes           #predicted genes (unique)  #predicted genes (>= 0 bp)  #predicted genes (>= 300 bp)  #predicted genes (>= 1500 bp)  #predicted genes (>= 3000 bp)  Largest alignment  NA50   NGA50  NA75  NGA75
ABYSS_PE_PGM_mrsa_pgm_400bp_es_318_IKA_ts3.2_morestringent.0.165percent_98-unitigs  3297                315                    3166745                 2693972                    458       51541           2760804       2813862           32.60   32.81             13155  13064  7367  7023  1               2                     0 + 0 part          0                         97.719               1.003              0.00              1.20                     4.95                 2449 + 238 part  2880                       2881                        2376                          259                            25                             51541              13064  12951  7367  7011 
