All statistics are based on contigs of size >= 200 bp, unless otherwise noted (e.g., "# contigs (>= 0 bp)" and "Total length (>= 0 bp)" include all contigs).

Assembly                                                                                                         GAGE_Contigs #  GAGE_Min contig  GAGE_Max contig  GAGE_N50          GAGE_Genome size  GAGE_Assembly size  GAGE_Chaff bases  GAGE_Missing reference bases  GAGE_Missing assembly bases  GAGE_Missing assembly contigs  GAGE_Duplicated reference bases  GAGE_Compressed reference bases  GAGE_Bad trim  GAGE_Avg idy  GAGE_SNPs  GAGE_Indels < 5bp  GAGE_Indels >= 5  GAGE_Inversions  GAGE_Relocation  GAGE_Translocation  GAGE_Corrected contig #  GAGE_Corrected assembly size  GAGE_Min correct contig  GAGE_Max correct contig  GAGE_Corrected N50
ABYSS_PE_MIS_PE_sakai_mis-1_bi_2x150bp_default__sakai_mis-2_bi_2x150bp_default.0.826percent_80-scaffolds_broken  265             200              292286           112156 COUNT: 18  5594470           5535841             0                 19976(0.36%)                  738(0.01%)                   0(0.00%)                       21905                            215381                           716            99.97         563        38                 11                0                3                0                   256                      5515488                       200                      228653                   94689 COUNT: 20   
ABYSS_PE_MIS_PE_sakai_mis-1_bi_2x150bp_default__sakai_mis-2_bi_2x150bp_default.0.826percent_80-scaffolds         200             200              376774           146586 COUNT: 13  5594470           5539761             0                 19976(0.36%)                  4608(0.08%)                  0(0.00%)                       22360                            215764                           1369           99.97         561        38                 37                12               12               0                   255                      5515153                       200                      228653                   94689 COUNT: 20   
