1: PREPARING DATA
2,3: RUNNING mummer AND CREATING CLUSTERS
# reading input file "/vol/codine-tmp/juene/tmp.cCBEM9DhFl/quast/gage/tmp/ABYSS_PE_PGM_mrsa_pgm_400bp_es_318_IKA_ts3.2_morestringent.91coverage_58.final.ntref" of length 2813864
# construct suffix tree for sequence of length 2813864
# (maximum reference length is 536870908)
# (maximum query length is 4294967295)
# process 28138 characters per dot
#....................................................................................................
# CONSTRUCTIONTIME /vol/ngscomparison/software/analysis/quast-2.1/libs/MUMmer3.23-linux/mummer /vol/codine-tmp/juene/tmp.cCBEM9DhFl/quast/gage/tmp/ABYSS_PE_PGM_mrsa_pgm_400bp_es_318_IKA_ts3.2_morestringent.91coverage_58.final.ntref 1.42
# reading input file "/vol/codine-tmp/juene/tmp.cCBEM9DhFl/quast/corrected_input/ABYSS_PE_PGM_mrsa_pgm_400bp_es_318_IKA_ts3.2_morestringent.91coverage_58.final" of length 2738235
# matching query-file "/vol/codine-tmp/juene/tmp.cCBEM9DhFl/quast/corrected_input/ABYSS_PE_PGM_mrsa_pgm_400bp_es_318_IKA_ts3.2_morestringent.91coverage_58.final"
# against subject-file "/vol/codine-tmp/juene/tmp.cCBEM9DhFl/quast/gage/tmp/ABYSS_PE_PGM_mrsa_pgm_400bp_es_318_IKA_ts3.2_morestringent.91coverage_58.final.ntref"
# COMPLETETIME /vol/ngscomparison/software/analysis/quast-2.1/libs/MUMmer3.23-linux/mummer /vol/codine-tmp/juene/tmp.cCBEM9DhFl/quast/gage/tmp/ABYSS_PE_PGM_mrsa_pgm_400bp_es_318_IKA_ts3.2_morestringent.91coverage_58.final.ntref 4.62
# SPACE /vol/ngscomparison/software/analysis/quast-2.1/libs/MUMmer3.23-linux/mummer /vol/codine-tmp/juene/tmp.cCBEM9DhFl/quast/gage/tmp/ABYSS_PE_PGM_mrsa_pgm_400bp_es_318_IKA_ts3.2_morestringent.91coverage_58.final.ntref 5.40
4: FINISHING DATA
Filtering alignments
Extracting alignment coordinates
Analyzing SNPs
Extracting alignment breakpoints
Generating report file
Found genome size at position 4 with value 2813862 aka 2813862
Calculating point at 0 and the sum is 1016745 and i is442 and lens is 480 and length is 18364
Calculating point at 1 and the sum is 2005157 and i is353 and lens is 480 and length is 6989
