Assembly	CLC_PGM_mtbh37_pgm_400bp_es_318v2_OT2_tsv3.6_morestringent.0.990percent.result
#Mis_misassemblies	19
#Mis_relocations	19
#Mis_translocations	0
#Mis_inversions	0
#Mis_misassembled contigs	16
Mis_Misassembled contigs length	107481
#Mis_local misassemblies	8
#mismatches	181
#indels	1196
#Mis_short indels (<= 5 bp)	1193
#Mis_long indels (> 5 bp)	3
Indels length	1405
