Assembly	VELVET_PGM_mtbh37_pgm_400bp_es_318v2_OT2_tsv3.6_morestringent_191.final.contigs
#Mis_misassemblies	28
#Mis_relocations	28
#Mis_translocations	0
#Mis_inversions	0
#Mis_misassembled contigs	28
Mis_Misassembled contigs length	91690
#Mis_local misassemblies	29
#mismatches	66
#indels	1669
#Mis_short indels (<= 5 bp)	1668
#Mis_long indels (> 5 bp)	1
Indels length	1747
