Assembly	CLC_PGM_sakai_pgm_mu_318_400bp_IO_TS3.4_ms.61coverage.result
#Una_fully unaligned contigs	4
Una_Fully unaligned length	1409
#Una_partially unaligned contigs	5
#Una_with misassembly	0
#Una_both parts are significant	0
Una_Partially unaligned length	488
#N's	407
