All statistics are based on contigs of size >= 200 bp, unless otherwise noted (e.g., "# contigs (>= 0 bp)" and "Total length (>= 0 bp)" include all contigs).

Assembly                       CLC_MIS_PE_sakai_mis-1_bi_2x150bp_default__sakai_mis-2_bi_2x150bp_default.11coverage.result_broken  CLC_MIS_PE_sakai_mis-1_bi_2x150bp_default__sakai_mis-2_bi_2x150bp_default.11coverage.result
#Contigs (>= 0 bp)             654                                                                                                 608                                                                                        
#Contigs (>= 1000 bp)          392                                                                                                 383                                                                                        
Total length (>= 0 bp)         5329806                                                                                             5332769                                                                                    
Total length (>= 1000 bp)      5206680                                                                                             5222340                                                                                    
#Contigs                       640                                                                                                 608                                                                                        
Largest contig                 110083                                                                                              110083                                                                                     
Total length                   5327820                                                                                             5332769                                                                                    
Reference length               5594470                                                                                             5594470                                                                                    
GC (%)                         50.29                                                                                               50.29                                                                                      
Reference GC (%)               50.48                                                                                               50.48                                                                                      
N50                            26231                                                                                               26256                                                                                      
NG50                           23123                                                                                               24057                                                                                      
N75                            12756                                                                                               12951                                                                                      
NG75                           11477                                                                                               11836                                                                                      
#misassemblies                 18                                                                                                  21                                                                                         
#local misassemblies           15                                                                                                  42                                                                                         
#unaligned contigs             2 + 1 part                                                                                          3 + 1 part                                                                                 
Unaligned contigs length       7770                                                                                                7189                                                                                       
Genome fraction (%)            93.846                                                                                              94.055                                                                                     
Duplication ratio              1.007                                                                                               1.007                                                                                      
#N's per 100 kbp               7.32                                                                                                62.88                                                                                      
#mismatches per 100 kbp        20.38                                                                                               20.54                                                                                      
#indels per 100 kbp            5.70                                                                                                6.77                                                                                       
#genes                         4710 + 389 part                                                                                     4721 + 398 part                                                                            
#predicted genes (unique)      5488                                                                                                5480                                                                                       
#predicted genes (>= 0 bp)     5488                                                                                                5480                                                                                       
#predicted genes (>= 300 bp)   4532                                                                                                4529                                                                                       
#predicted genes (>= 1500 bp)  630                                                                                                 632                                                                                        
#predicted genes (>= 3000 bp)  58                                                                                                  58                                                                                         
Largest alignment              110082                                                                                              110082                                                                                     
NA50                           22322                                                                                               22999                                                                                      
NGA50                          21211                                                                                               21883                                                                                      
NA75                           12239                                                                                               12564                                                                                      
NGA75                          11461                                                                                               11691                                                                                      
