Assembly	SOAP2_PGM_mtbh37_pgm_400bp_es_318v2_OT2_tsv3.6_morestringent_87.final.contig
#Contigs	8603
#Contigs (>= 0 bp)	155990
#Contigs (>= 1000 bp)	15
Largest contig	1468
Total length	2602473
Total length (>= 0 bp)	22551018
Total length (>= 1000 bp)	17574
Reference length	4411532
N50	293
NG50	233
N75	262
NG75	None
L50	3372
LG50	6760
L75	5732
LG75	None
#local misassemblies	5
#misassemblies	37
#misassembled contigs	37
Misassembled contigs length	10590
Misassemblies inter-contig overlap	615
#unaligned contigs	272 + 31 part
Unaligned contigs length	84815
#ambiguously mapped contigs	25
Extra bases in ambiguously mapped contigs	-6489
#N's	0
#N's per 100 kbp	0.00
Genome fraction (%)	48.958
Duplication ratio	1.163
#genes	98 + 3277 part
#predicted genes (unique)	7663
#predicted genes (>= 0 bp)	7673
#predicted genes (>= 300 bp)	1437
#predicted genes (>= 1500 bp)	0
#predicted genes (>= 3000 bp)	0
#mismatches	617
#indels	14205
Indels length	14686
#mismatches per 100 kbp	28.57
#indels per 100 kbp	657.70
GC (%)	66.04
Reference GC (%)	65.61
Average %IDY	99.184
Largest alignment	1468
NA50	289
NGA50	223
NA75	250
NGA75	None
LA50	3393
LGA50	6869
LA75	5792
LGA75	None
#Mis_misassemblies	37
#Mis_relocations	37
#Mis_translocations	0
#Mis_inversions	0
#Mis_misassembled contigs	37
Mis_Misassembled contigs length	10590
#Mis_local misassemblies	5
#Mis_short indels (<= 5 bp)	14203
#Mis_long indels (> 5 bp)	2
#Una_fully unaligned contigs	272
Una_Fully unaligned length	81589
#Una_partially unaligned contigs	31
#Una_with misassembly	0
#Una_both parts are significant	0
Una_Partially unaligned length	3226
GAGE_Contigs #	8603
GAGE_Min contig	200
GAGE_Max contig	1468
GAGE_N50	233 COUNT: 6760
GAGE_Genome size	4411532
GAGE_Assembly size	2602473
GAGE_Chaff bases	0
GAGE_Missing reference bases	2190409(49.65%)
GAGE_Missing assembly bases	21851(0.84%)
GAGE_Missing assembly contigs	38(0.44%)
GAGE_Duplicated reference bases	196360
GAGE_Compressed reference bases	23924
GAGE_Bad trim	10377
GAGE_Avg idy	99.23
GAGE_SNPs	560
GAGE_Indels < 5bp	13654
GAGE_Indels >= 5	22
GAGE_Inversions	16
GAGE_Relocation	8
GAGE_Translocation	0
GAGE_Corrected contig #	7737
GAGE_Corrected assembly size	2361906
GAGE_Min correct contig	200
GAGE_Max correct contig	1469
GAGE_Corrected N50	214 COUNT: 6982
