Assembly	SOAP2_PGM_mtbh37_pgm_400bp_es_318v2_OT2_tsv3.6_morestringent_87.final.contig
#Contigs (>= 0 bp)	155990
#Contigs (>= 1000 bp)	15
Total length (>= 0 bp)	22551018
Total length (>= 1000 bp)	17574
#Contigs	8603
Largest contig	1468
Total length	2602473
Reference length	4411532
GC (%)	66.04
Reference GC (%)	65.61
N50	293
NG50	233
N75	262
NG75	None
#misassemblies	37
#local misassemblies	5
#unaligned contigs	272 + 31 part
Unaligned contigs length	84815
Genome fraction (%)	48.958
Duplication ratio	1.163
#N's per 100 kbp	0.00
#mismatches per 100 kbp	28.57
#indels per 100 kbp	657.70
#genes	98 + 3277 part
#predicted genes (unique)	7663
#predicted genes (>= 0 bp)	7673
#predicted genes (>= 300 bp)	1437
#predicted genes (>= 1500 bp)	0
#predicted genes (>= 3000 bp)	0
Largest alignment	1468
NA50	289
NGA50	223
NA75	250
NGA75	None
