All statistics are based on contigs of size >= 200 bp, unless otherwise noted (e.g., "# contigs (>= 0 bp)" and "Total length (>= 0 bp)" include all contigs).

Assembly                                                                                                         #Contigs (>= 0 bp)  #Contigs (>= 1000 bp)  Total length (>= 0 bp)  Total length (>= 1000 bp)  #Contigs  Largest contig  Total length  Reference length  GC (%)  Reference GC (%)  N50     NG50    N75    NG75   #misassemblies  #local misassemblies  #unaligned contigs  Unaligned contigs length  Genome fraction (%)  Duplication ratio  #N's per 100 kbp  #mismatches per 100 kbp  #indels per 100 kbp  #genes          #predicted genes (unique)  #predicted genes (>= 0 bp)  #predicted genes (>= 300 bp)  #predicted genes (>= 1500 bp)  #predicted genes (>= 3000 bp)  Largest alignment  NA50    NGA50   NA75   NGA75
VELVET_MIS_PE_mrsa_mis-1_bi_2x150bp_default__mrsa_mis-2_bi_2x150bp_default.0.527percent_55.final.contigs_broken  166                 78                     2786140                 2767549                    112       357077          2778746       2813862           32.69   32.81             68380   68380   38665  37883  5               10                    1 + 0 part          5440                      98.191               1.005              0.00              10.24                    1.63                 2636 + 50 part  2659                       2660                        2288                          298                            30                             357077             68380   68380   37883  37883
VELVET_MIS_PE_mrsa_mis-1_bi_2x150bp_default__mrsa_mis-2_bi_2x150bp_default.0.527percent_55.final.contigs         122                 41                     2788003                 2771441                    68        586054          2780609       2813862           32.69   32.81             146194  146194  68380  68380  8               19                    1 + 0 part          5440                      98.261               1.005              67.00             10.67                    5.82                 2658 + 33 part  2645                       2646                        2283                          298                            29                             585861             146147  146147  68380  68380
