Assembly	GAGE_Contigs #	GAGE_Min contig	GAGE_Max contig	GAGE_N50	GAGE_Genome size	GAGE_Assembly size	GAGE_Chaff bases	GAGE_Missing reference bases	GAGE_Missing assembly bases	GAGE_Missing assembly contigs	GAGE_Duplicated reference bases	GAGE_Compressed reference bases	GAGE_Bad trim	GAGE_Avg idy	GAGE_SNPs	GAGE_Indels < 5bp	GAGE_Indels >= 5	GAGE_Inversions	GAGE_Relocation	GAGE_Translocation	GAGE_Corrected contig #	GAGE_Corrected assembly size	GAGE_Min correct contig	GAGE_Max correct contig	GAGE_Corrected N50
SOAP2_MIS_PE_mrsa_mis-1_bi_2x250bp_default.0.460percent_67.final.scaf_broken	10621	200	8648	1721 COUNT: 490	2813862	4699250	0	43532(1.55%)	1316149(28.01%)	5262(49.54%)	503640	49893	49963	99.88	1638	249	80	0	2	0	2975	2859964	200	8249	1609 COUNT: 522
SOAP2_MIS_PE_mrsa_mis-1_bi_2x250bp_default.0.460percent_67.final.scaf	10229	200	11944	2261 COUNT: 378	2813862	4732180	0	39726(1.41%)	1335882(28.23%)	5260(51.42%)	512781	49563	53597	99.88	1514	278	397	0	2	0	2946	2854215	200	8249	1611 COUNT: 520
