All statistics are based on contigs of size >= 200 bp, unless otherwise noted (e.g., "# contigs (>= 0 bp)" and "Total length (>= 0 bp)" include all contigs).

Assembly                                                                          GAGE_Contigs #  GAGE_Min contig  GAGE_Max contig  GAGE_N50         GAGE_Genome size  GAGE_Assembly size  GAGE_Chaff bases  GAGE_Missing reference bases  GAGE_Missing assembly bases  GAGE_Missing assembly contigs  GAGE_Duplicated reference bases  GAGE_Compressed reference bases  GAGE_Bad trim  GAGE_Avg idy  GAGE_SNPs  GAGE_Indels < 5bp  GAGE_Indels >= 5  GAGE_Inversions  GAGE_Relocation  GAGE_Translocation  GAGE_Corrected contig #  GAGE_Corrected assembly size  GAGE_Min correct contig  GAGE_Max correct contig  GAGE_Corrected N50
SOAP2_MIS_PE_sakai_mis-1_bi_2x250bp_SI_default.0.64percent_123.final.scaf_broken  1984            200              93718            17249 COUNT: 98  5594470           5633950             0                 6246(0.11%)                   6507(0.12%)                  4(0.20%)                       130093                           270637                           81             100.00        107        41                 7                 1                4                0                   1498                     5496315                       200                      93718                    16556 COUNT: 100  
SOAP2_MIS_PE_sakai_mis-1_bi_2x250bp_SI_default.0.64percent_123.final.scaf         1545            200              174622           51762 COUNT: 33  5594470           5660888             0                 6404(0.11%)                   31030(0.55%)                 6(0.39%)                       126429                           259483                           3586           99.99         109        82                 112               4                6                0                   1478                     5498704                       200                      93718                    16753 COUNT: 100  
