calling: java -cp /vol/ngscomparison/software/analysis/quast-2.1/libs/gage:. SizeFasta /vol/codine-tmp/juene/tmp.8wkCyhB6D3/quast/corrected_input/Ecoli_Sakai_editedNew_plasmids.fasta |awk '{SUM+=; print SUM}'|tail -n 1
Contig Stats
Total units: 341
Reference: 5594470
BasesInFasta: 5335781
Min: 202
Max: 158181
N10: 147314 COUNT: 4
N25: 99696 COUNT: 11
N50: 55032 COUNT: 30
N75: 24056 COUNT: 70
E-size:65147.57

Genome Size: 5594470
Assembly Size: 5335781
Chaff bases: 0
Missing Reference Bases: 145359(2.60%)
Missing Assembly Bases: 40(0.00%)
Missing Assembly Contigs: 0(0.00%)
Duplicated Reference Bases: 4728
Compressed Reference Bases: 190464
Bad Trim: 39
Avg Idy: 99.98
SNPs: 654
Indels < 5bp: 32
Indels >= 5: 14
Inversions: 0
Relocation: 2
Translocation: 0

Corrected Contig Stats
calling: java -cp /vol/ngscomparison/software/analysis/quast-2.1/libs/gage:.:. GetFastaStats -o -min 199 -genomeSize 5594470 /vol/codine-tmp/juene/tmp.8wkCyhB6D3/quast/gage/tmp/ABYSS_PE_MIS_PE_sakai_mis-both_bi_2x250bp_SI_default.0.64percent.NEWBLER_36-scaffolds_broken.matches.lens 2> /dev/null
Total units: 349
Reference: 5594470
BasesInFasta: 5332306
Min: 202
Max: 155238
N10: 138560 COUNT: 4
N25: 90738 COUNT: 12
N50: 52899 COUNT: 32
N75: 22107 COUNT: 75
E-size:60249.67

Done
