All statistics are based on contigs of size >= 200 bp, unless otherwise noted (e.g., "# contigs (>= 0 bp)" and "Total length (>= 0 bp)" include all contigs).

Assembly                                                                                                         #Contigs (>= 0 bp)  #Contigs (>= 1000 bp)  Total length (>= 0 bp)  Total length (>= 1000 bp)  #Contigs  Largest contig  Total length  Reference length  GC (%)  Reference GC (%)  N50    NG50   N75    NG75   #misassemblies  #local misassemblies  #unaligned contigs  Unaligned contigs length  Genome fraction (%)  Duplication ratio  #N's per 100 kbp  #mismatches per 100 kbp  #indels per 100 kbp  #genes           #predicted genes (unique)  #predicted genes (>= 0 bp)  #predicted genes (>= 300 bp)  #predicted genes (>= 1500 bp)  #predicted genes (>= 3000 bp)  Largest alignment  NA50   NGA50  NA75   NGA75
ABYSS_PE_MIS_PE_mtbh37-1_mis_2x250bp_nextera_default__mtbh37-2_mis_2x250bp_nextera_default_108-scaffolds_broken  253                 182                    4422056                 4397848                    223       148590          4417800       4411532           65.53   65.61             49134  49134  25407  25697  7               14                    2 + 1 part          1247                      99.084               1.014              1.29              6.75                     2.22                 3962 + 148 part  4114                       4195                        3666                          574                            73                             148590             49134  49134  25407  25697
ABYSS_PE_MIS_PE_mtbh37-1_mis_2x250bp_nextera_default__mtbh37-2_mis_2x250bp_nextera_default_108-scaffolds         197                 130                    4424649                 4403345                    167       163019          4420393       4411532           65.53   65.61             68181  68181  38709  38709  8               25                    2 + 1 part          1247                      99.131               1.015              59.95             6.84                     9.17                 4002 + 108 part  4099                       4180                        3661                          573                            74                             162969             68181  68181  38709  38709
