Assembly	#Contigs	#Contigs (>= 0 bp)	#Contigs (>= 1000 bp)	Largest contig	Total length	Total length (>= 0 bp)	Total length (>= 1000 bp)	Reference length	N50	NG50	N75	NG75	L50	LG50	L75	LG75	#local misassemblies	#misassemblies	#misassembled contigs	Misassembled contigs length	Misassemblies inter-contig overlap	#unaligned contigs	Unaligned contigs length	#ambiguously mapped contigs	Extra bases in ambiguously mapped contigs	#N's	#N's per 100 kbp	Genome fraction (%)	Duplication ratio	#genes	#predicted genes (unique)	#predicted genes (>= 0 bp)	#predicted genes (>= 300 bp)	#predicted genes (>= 1500 bp)	#predicted genes (>= 3000 bp)	#mismatches	#indels	Indels length	#mismatches per 100 kbp	#indels per 100 kbp	GC (%)	Reference GC (%)	Average %IDY	Largest alignment	NA50	NGA50	NA75	NGA75	LA50	LGA50	LA75	LGA75	#Mis_misassemblies	#Mis_relocations	#Mis_translocations	#Mis_inversions	#Mis_misassembled contigs	Mis_Misassembled contigs length	#Mis_local misassemblies	#Mis_short indels (<= 5 bp)	#Mis_long indels (> 5 bp)	#Una_fully unaligned contigs	Una_Fully unaligned length	#Una_partially unaligned contigs	#Una_with misassembly	#Una_both parts are significant	Una_Partially unaligned length	GAGE_Contigs #	GAGE_Min contig	GAGE_Max contig	GAGE_N50	GAGE_Genome size	GAGE_Assembly size	GAGE_Chaff bases	GAGE_Missing reference bases	GAGE_Missing assembly bases	GAGE_Missing assembly contigs	GAGE_Duplicated reference bases	GAGE_Compressed reference bases	GAGE_Bad trim	GAGE_Avg idy	GAGE_SNPs	GAGE_Indels < 5bp	GAGE_Indels >= 5	GAGE_Inversions	GAGE_Relocation	GAGE_Translocation	GAGE_Corrected contig #	GAGE_Corrected assembly size	GAGE_Min correct contig	GAGE_Max correct contig	GAGE_Corrected N50
ABYSS_PE_MIS_PE_mtbh37-1_mis_2x250bp_nextera_default__mtbh37-2_mis_2x250bp_nextera_default_108-scaffolds_broken	223	253	182	148590	4417800	4422056	4397848	4411532	49134	49134	25407	25697	28	28	60	59	14	7	7	13223	24205	2 + 1 part	1247	13	-8455	57	1.29	99.084	1.014	3962 + 148 part	4114	4195	3666	574	73	295	97	364	6.75	2.22	65.53	65.61	99.750	148590	49134	49134	25407	25697	28	28	60	59	7	6	0	1	7	13223	14	86	11	2	430	1	0	0	817	223	205	148590	49134 COUNT: 28	4411532	4417800	0	32009(0.73%)	1161(0.03%)	1(0.45%)	12467	21621	921	99.99	208	71	22	0	2	0	236	4408181	205	145399	41238 COUNT: 34
ABYSS_PE_MIS_PE_mtbh37-1_mis_2x250bp_nextera_default__mtbh37-2_mis_2x250bp_nextera_default_108-scaffolds	167	197	130	163019	4420393	4424649	4403345	4411532	68181	68181	38709	38709	21	21	41	41	25	8	8	37148	24775	2 + 1 part	1247	11	-6868	2650	59.95	99.131	1.015	4002 + 108 part	4099	4180	3661	573	74	299	401	1089	6.84	9.17	65.53	65.61	99.732	162969	68181	68181	38709	38709	21	21	41	41	8	7	0	1	8	37148	25	362	39	2	430	1	0	0	817	167	205	163019	68181 COUNT: 21	4411532	4420393	0	31753(0.72%)	3450(0.08%)	1(0.60%)	13032	22058	969	99.98	207	91	68	0	3	0	227	4408097	205	145399	42050 COUNT: 31
