calling: java -cp /vol/ngscomparison/software/analysis/quast-2.1/libs/gage:. SizeFasta /vol/codine-tmp/juene/tmp.mC7rP0KHoU/quast/corrected_input/MRSA_COL_Plasmid.fasta |awk '{SUM+=; print SUM}'|tail -n 1
Contig Stats
Total units: 66
Reference: 2813862
BasesInFasta: 2789254
Min: 220
Max: 341120
N10: 341120 COUNT: 1
N25: 208058 COUNT: 3
N50: 117468 COUNT: 8
N75: 61469 COUNT: 15
E-size:142062.57

Genome Size: 2813862
Assembly Size: 2789254
Chaff bases: 0
Missing Reference Bases: 3012(0.11%)
Missing Assembly Bases: 3(0.00%)
Missing Assembly Contigs: 0(0.00%)
Duplicated Reference Bases: 249
Compressed Reference Bases: 32969
Bad Trim: 0
Avg Idy: 99.99
SNPs: 110
Indels < 5bp: 11
Indels >= 5: 7
Inversions: 0
Relocation: 2
Translocation: 0

Corrected Contig Stats
calling: java -cp /vol/ngscomparison/software/analysis/quast-2.1/libs/gage:.:. GetFastaStats -o -min 199 -genomeSize 2813862 /vol/codine-tmp/juene/tmp.mC7rP0KHoU/quast/gage/tmp/ABYSS_PE_MIS_PE_mrsa_mis-1_bi_2x150bp_default__mrsa_mis-2_bi_2x150bp_default.0.527percent_76-scaffolds_broken.matches.lens 2> /dev/null
Total units: 73
Reference: 2813862
BasesInFasta: 2789986
Min: 220
Max: 341119
N10: 341119 COUNT: 1
N25: 163771 COUNT: 3
N50: 117468 COUNT: 8
N75: 56021 COUNT: 17
E-size:130637.2

Done
