Assembly	GAGE_Contigs #	GAGE_Min contig	GAGE_Max contig	GAGE_N50	GAGE_Genome size	GAGE_Assembly size	GAGE_Chaff bases	GAGE_Missing reference bases	GAGE_Missing assembly bases	GAGE_Missing assembly contigs	GAGE_Duplicated reference bases	GAGE_Compressed reference bases	GAGE_Bad trim	GAGE_Avg idy	GAGE_SNPs	GAGE_Indels < 5bp	GAGE_Indels >= 5	GAGE_Inversions	GAGE_Relocation	GAGE_Translocation	GAGE_Corrected contig #	GAGE_Corrected assembly size	GAGE_Min correct contig	GAGE_Max correct contig	GAGE_Corrected N50
ABYSS_PE_MIS_PE_mrsa_mis-1_bi_2x250bp_default__mrsa_mis-2_bi_2x250bp_default.0.460percent_112-scaffolds_broken	125	201	548006	109547 COUNT: 7	2813862	2808428	0	261(0.01%)	0(0.00%)	0(0.00%)	8600	24146	0	99.99	45	6	0	1	2	0	106	2800076	201	548005	109547 COUNT: 7
ABYSS_PE_MIS_PE_mrsa_mis-1_bi_2x250bp_default__mrsa_mis-2_bi_2x250bp_default.0.460percent_112-scaffolds	117	201	548006	111106 COUNT: 7	2813862	2808828	0	261(0.01%)	350(0.01%)	0(0.00%)	8890	24037	50	99.99	46	11	1	1	6	0	105	2801191	201	548005	109547 COUNT: 7
