Assembly	VELVET_PGM_sakai_pgm_mu_200bp_IO_TS3.0Disabled_stringent.0.34percent_129.final.contigs
#Contigs (>= 0 bp)	3031
#Contigs (>= 1000 bp)	1746
Total length (>= 0 bp)	5168995
Total length (>= 1000 bp)	4394975
#Contigs	3031
Largest contig	13731
Total length	5168995
Reference length	5594470
GC (%)	50.64
Reference GC (%)	50.48
N50	2492
NG50	2336
N75	1430
NG75	1183
#misassemblies	92
#local misassemblies	92
#unaligned contigs	0 + 19 part
Unaligned contigs length	572
Genome fraction (%)	87.523
Duplication ratio	1.039
#N's per 100 kbp	33.86
#mismatches per 100 kbp	5.33
#indels per 100 kbp	48.81
#genes	2938 + 2057 part
#predicted genes (unique)	7701
#predicted genes (>= 0 bp)	7711
#predicted genes (>= 300 bp)	5280
#predicted genes (>= 1500 bp)	298
#predicted genes (>= 3000 bp)	13
Largest alignment	13731
NA50	2458
NGA50	2305
NA75	1401
NGA75	1144
