1: PREPARING DATA
2,3: RUNNING mummer AND CREATING CLUSTERS
# reading input file "/vol/codine-tmp/juene/tmp.sInNNqvm08/quast/gage/tmp/ABYSS_PE_MIS_PE_sakai_mis-2_bi_2x150bp_default__sakai_mis-1_bi_2x150bp_default.0.950percent_70.final.ntref" of length 5594473
# construct suffix tree for sequence of length 5594473
# (maximum reference length is 536870908)
# (maximum query length is 4294967295)
# process 55944 characters per dot
#....................................................................................................
# CONSTRUCTIONTIME /vol/ngscomparison/software/analysis/quast-2.1/libs/MUMmer3.23-linux/mummer /vol/codine-tmp/juene/tmp.sInNNqvm08/quast/gage/tmp/ABYSS_PE_MIS_PE_sakai_mis-2_bi_2x150bp_default__sakai_mis-1_bi_2x150bp_default.0.950percent_70.final.ntref 3.24
# reading input file "/vol/codine-tmp/juene/tmp.sInNNqvm08/quast/corrected_input/ABYSS_PE_MIS_PE_sakai_mis-2_bi_2x150bp_default__sakai_mis-1_bi_2x150bp_default.0.950percent_70.final" of length 5506505
# matching query-file "/vol/codine-tmp/juene/tmp.sInNNqvm08/quast/corrected_input/ABYSS_PE_MIS_PE_sakai_mis-2_bi_2x150bp_default__sakai_mis-1_bi_2x150bp_default.0.950percent_70.final"
# against subject-file "/vol/codine-tmp/juene/tmp.sInNNqvm08/quast/gage/tmp/ABYSS_PE_MIS_PE_sakai_mis-2_bi_2x150bp_default__sakai_mis-1_bi_2x150bp_default.0.950percent_70.final.ntref"
# COMPLETETIME /vol/ngscomparison/software/analysis/quast-2.1/libs/MUMmer3.23-linux/mummer /vol/codine-tmp/juene/tmp.sInNNqvm08/quast/gage/tmp/ABYSS_PE_MIS_PE_sakai_mis-2_bi_2x150bp_default__sakai_mis-1_bi_2x150bp_default.0.950percent_70.final.ntref 9.03
# SPACE /vol/ngscomparison/software/analysis/quast-2.1/libs/MUMmer3.23-linux/mummer /vol/codine-tmp/juene/tmp.sInNNqvm08/quast/gage/tmp/ABYSS_PE_MIS_PE_sakai_mis-2_bi_2x150bp_default__sakai_mis-1_bi_2x150bp_default.0.950percent_70.final.ntref 10.77
4: FINISHING DATA
Filtering alignments
Extracting alignment coordinates
Analyzing SNPs
Extracting alignment breakpoints
Generating report file
Found genome size at position 4 with value 5594470 aka 5594470
Calculating point at 0 and the sum is 1119186 and i is243 and lens is 249 and length is 154968
Calculating point at 1 and the sum is 2093031 and i is236 and lens is 249 and length is 122384
Calculating point at 2 and the sum is 3024963 and i is227 and lens is 249 and length is 87846
Calculating point at 3 and the sum is 4032810 and i is211 and lens is 249 and length is 45958
Calculating point at 4 and the sum is 5001195 and i is178 and lens is 249 and length is 15393
