Assembly	#Contigs	#Contigs (>= 0 bp)	#Contigs (>= 1000 bp)	Largest contig	Total length	Total length (>= 0 bp)	Total length (>= 1000 bp)	Reference length	N50	NG50	N75	NG75	L50	LG50	L75	LG75	#local misassemblies	#misassemblies	#misassembled contigs	Misassembled contigs length	Misassemblies inter-contig overlap	#unaligned contigs	Unaligned contigs length	#ambiguously mapped contigs	Extra bases in ambiguously mapped contigs	#N's	#N's per 100 kbp	Genome fraction (%)	Duplication ratio	#genes	#predicted genes (unique)	#predicted genes (>= 0 bp)	#predicted genes (>= 300 bp)	#predicted genes (>= 1500 bp)	#predicted genes (>= 3000 bp)	#mismatches	#indels	Indels length	#mismatches per 100 kbp	#indels per 100 kbp	GC (%)	Reference GC (%)	Average %IDY	Largest alignment	NA50	NGA50	NA75	NGA75	LA50	LGA50	LA75	LGA75	#Mis_misassemblies	#Mis_relocations	#Mis_translocations	#Mis_inversions	#Mis_misassembled contigs	Mis_Misassembled contigs length	#Mis_local misassemblies	#Mis_short indels (<= 5 bp)	#Mis_long indels (> 5 bp)	#Una_fully unaligned contigs	Una_Fully unaligned length	#Una_partially unaligned contigs	#Una_with misassembly	#Una_both parts are significant	Una_Partially unaligned length	GAGE_Contigs #	GAGE_Min contig	GAGE_Max contig	GAGE_N50	GAGE_Genome size	GAGE_Assembly size	GAGE_Chaff bases	GAGE_Missing reference bases	GAGE_Missing assembly bases	GAGE_Missing assembly contigs	GAGE_Duplicated reference bases	GAGE_Compressed reference bases	GAGE_Bad trim	GAGE_Avg idy	GAGE_SNPs	GAGE_Indels < 5bp	GAGE_Indels >= 5	GAGE_Inversions	GAGE_Relocation	GAGE_Translocation	GAGE_Corrected contig #	GAGE_Corrected assembly size	GAGE_Min correct contig	GAGE_Max correct contig	GAGE_Corrected N50
CLC_MIS_PE_mrsa_mis-1_bi_2x150bp_default__mrsa_mis-2_bi_2x150bp_default.1.000percent.result_broken	48	48	40	507277	2779187	2779187	2774799	2813862	179154	179154	87433	87433	5	5	11	11	11	3	3	379424	3251	1 + 0 part	5386	6	-8251	25	0.90	98.354	1.000	2677 + 23 part	2629	2629	2295	297	29	199	55	194	7.19	1.99	32.67	32.81	98.659	507271	142609	142609	74070	74070	6	6	13	13	3	3	0	0	3	379424	11	47	8	1	5386	0	0	0	0	48	221	507277	179154 COUNT: 5	2813862	2779187	0	4679(0.17%)	5412(0.19%)	1(2.08%)	0	37520	15	99.99	68	9	12	2	4	0	62	2775407	221	297854	112299 COUNT: 8
CLC_MIS_PE_mrsa_mis-1_bi_2x150bp_default__mrsa_mis-2_bi_2x150bp_default.1.000percent.result	44	44	36	507277	2779468	2779468	2775080	2813862	179154	179154	88472	88472	5	5	10	10	15	3	3	454933	3672	1 + 0 part	5386	4	-3378	306	11.01	98.536	1.001	2680 + 23 part	2629	2629	2295	297	29	228	77	297	8.22	2.78	32.67	32.81	98.660	507271	149533	145634	88472	87433	5	6	11	12	3	3	0	0	3	454933	15	66	11	1	5386	0	0	0	0	44	221	507277	179154 COUNT: 5	2813862	2779468	0	4679(0.17%)	5693(0.20%)	1(2.27%)	0	37520	96	99.99	68	9	14	2	5	0	62	2775407	221	297854	112299 COUNT: 8
