Assembly	ABYSS_PE_PGM_mrsa_pgm_200bp_es_316_IonOnev2_ts3.0_morestringent.0.230percent_106-unitigs
#Contigs (>= 0 bp)	2505
#Contigs (>= 1000 bp)	767
Total length (>= 0 bp)	2960837
Total length (>= 1000 bp)	2519199
#Contigs	1619
Largest contig	24483
Total length	2844126
Reference length	2813862
GC (%)	32.66
Reference GC (%)	32.81
N50	3641
NG50	3679
N75	1903
NG75	1941
#misassemblies	38
#local misassemblies	0
#unaligned contigs	0 + 6 part
Unaligned contigs length	159
Genome fraction (%)	97.092
Duplication ratio	1.035
#N's per 100 kbp	0.00
#mismatches per 100 kbp	2.05
#indels per 100 kbp	24.01
#genes	2027 + 656 part
#predicted genes (unique)	3768
#predicted genes (>= 0 bp)	3780
#predicted genes (>= 300 bp)	2563
#predicted genes (>= 1500 bp)	214
#predicted genes (>= 3000 bp)	19
Largest alignment	24483
NA50	3604
NGA50	3641
NA75	1901
NGA75	1934
