All statistics are based on contigs of size >= 200 bp, unless otherwise noted (e.g., "# contigs (>= 0 bp)" and "Total length (>= 0 bp)" include all contigs).

Assembly                       VELVET_MIS_PE_mrsa_mis-1_bi_2x250bp_default__mrsa_mis-2_bi_2x250bp_default.0.460percent_131.final.contigs_broken  VELVET_MIS_PE_mrsa_mis-1_bi_2x250bp_default__mrsa_mis-2_bi_2x250bp_default.0.460percent_131.final.contigs
#Contigs (>= 0 bp)             108                                                                                                               101                                                                                                      
#Contigs (>= 1000 bp)          61                                                                                                                58                                                                                                       
Total length (>= 0 bp)         2799917                                                                                                           2800199                                                                                                  
Total length (>= 1000 bp)      2783640                                                                                                           2785461                                                                                                  
#Contigs                       108                                                                                                               101                                                                                                      
Largest contig                 295359                                                                                                            295359                                                                                                   
Total length                   2799917                                                                                                           2800199                                                                                                  
Reference length               2813862                                                                                                           2813862                                                                                                  
GC (%)                         32.73                                                                                                             32.73                                                                                                    
Reference GC (%)               32.81                                                                                                             32.81                                                                                                    
N50                            107881                                                                                                            118517                                                                                                   
NG50                           89374                                                                                                             118517                                                                                                   
N75                            46163                                                                                                             49268                                                                                                    
NG75                           46163                                                                                                             49268                                                                                                    
#misassemblies                 2                                                                                                                 3                                                                                                        
#local misassemblies           1                                                                                                                 3                                                                                                        
#unaligned contigs             1 + 0 part                                                                                                        1 + 0 part                                                                                               
Unaligned contigs length       5313                                                                                                              5313                                                                                                     
Genome fraction (%)            98.734                                                                                                            98.738                                                                                                   
Duplication ratio              1.001                                                                                                             1.001                                                                                                    
#N's per 100 kbp               0.00                                                                                                              10.07                                                                                                    
#mismatches per 100 kbp        1.33                                                                                                              1.33                                                                                                     
#indels per 100 kbp            0.32                                                                                                              0.94                                                                                                     
#genes                         2673 + 38 part                                                                                                    2674 + 37 part                                                                                           
#predicted genes (unique)      2658                                                                                                              2659                                                                                                     
#predicted genes (>= 0 bp)     2661                                                                                                              2662                                                                                                     
#predicted genes (>= 300 bp)   2306                                                                                                              2305                                                                                                     
#predicted genes (>= 1500 bp)  299                                                                                                               299                                                                                                      
#predicted genes (>= 3000 bp)  30                                                                                                                30                                                                                                       
Largest alignment              295359                                                                                                            295359                                                                                                   
NA50                           107881                                                                                                            107881                                                                                                   
NGA50                          89374                                                                                                             107881                                                                                                   
NA75                           43115                                                                                                             49268                                                                                                    
NGA75                          43115                                                                                                             49268                                                                                                    
