All statistics are based on contigs of size >= 200 bp, unless otherwise noted (e.g., "# contigs (>= 0 bp)" and "Total length (>= 0 bp)" include all contigs).

Assembly                                                                                                          #Contigs (>= 0 bp)  #Contigs (>= 1000 bp)  Total length (>= 0 bp)  Total length (>= 1000 bp)  #Contigs  Largest contig  Total length  Reference length  GC (%)  Reference GC (%)  N50     NG50    N75    NG75   #misassemblies  #local misassemblies  #unaligned contigs  Unaligned contigs length  Genome fraction (%)  Duplication ratio  #N's per 100 kbp  #mismatches per 100 kbp  #indels per 100 kbp  #genes          #predicted genes (unique)  #predicted genes (>= 0 bp)  #predicted genes (>= 300 bp)  #predicted genes (>= 1500 bp)  #predicted genes (>= 3000 bp)  Largest alignment  NA50    NGA50   NA75   NGA75
VELVET_MIS_PE_mrsa_mis-1_bi_2x250bp_default__mrsa_mis-2_bi_2x250bp_default.0.460percent_131.final.contigs_broken  108                 61                     2799917                 2783640                    108       295359          2799917       2813862           32.73   32.81             107881  89374   46163  46163  2               1                     1 + 0 part          5313                      98.734               1.001              0.00              1.33                     0.32                 2673 + 38 part  2658                       2661                        2306                          299                            30                             295359             107881  89374   43115  43115
VELVET_MIS_PE_mrsa_mis-1_bi_2x250bp_default__mrsa_mis-2_bi_2x250bp_default.0.460percent_131.final.contigs         101                 58                     2800199                 2785461                    101       295359          2800199       2813862           32.73   32.81             118517  118517  49268  49268  3               3                     1 + 0 part          5313                      98.738               1.001              10.07             1.33                     0.94                 2674 + 37 part  2659                       2662                        2305                          299                            30                             295359             107881  107881  49268  49268
