calling: java -cp /vol/ngscomparison/software/analysis/quast-2.1/libs/gage:. SizeFasta /vol/codine-tmp/juene/tmp.ODkROmaGYx/quast/corrected_input/Ecoli_Sakai_editedNew_plasmids.fasta |awk '{SUM+=; print SUM}'|tail -n 1
Contig Stats
Total units: 293
Reference: 5594470
BasesInFasta: 5355742
Min: 201
Max: 374830
N10: 313894 COUNT: 2
N25: 238269 COUNT: 5
N50: 145496 COUNT: 13
N75: 66151 COUNT: 28
E-size:149972.52

Genome Size: 5594470
Assembly Size: 5355742
Chaff bases: 0
Missing Reference Bases: 31845(0.57%)
Missing Assembly Bases: 6158(0.11%)
Missing Assembly Contigs: 3(1.02%)
Duplicated Reference Bases: 7328
Compressed Reference Bases: 247333
Bad Trim: 130
Avg Idy: 99.99
SNPs: 118
Indels < 5bp: 19
Indels >= 5: 10
Inversions: 0
Relocation: 3
Translocation: 0

Corrected Contig Stats
calling: java -cp /vol/ngscomparison/software/analysis/quast-2.1/libs/gage:.:. GetFastaStats -o -min 199 -genomeSize 5594470 /vol/codine-tmp/juene/tmp.ODkROmaGYx/quast/gage/tmp/CLC_MIS_PE_sakai_mis-1_bi_2x150bp_default__sakai_mis-2_bi_2x150bp_default.96coverage.result_broken.matches.lens 2> /dev/null
Total units: 287
Reference: 5594470
BasesInFasta: 5342756
Min: 201
Max: 313894
N10: 260244 COUNT: 2
N25: 200426 COUNT: 6
N50: 141496 COUNT: 15
N75: 45027 COUNT: 32
E-size:130107.04

Done
