Assembly	VELVET_PGM_mtbh37_pgm_400bp_es_318v2_OT2_tsv3.6_morestringent_181.final.contigs
GAGE_Contigs #	2104
GAGE_Min contig	361
GAGE_Max contig	7647
GAGE_N50	1093 COUNT: 1082
GAGE_Genome size	4411532
GAGE_Assembly size	2947825
GAGE_Chaff bases	0
GAGE_Missing reference bases	1557355(35.30%)
GAGE_Missing assembly bases	520(0.02%)
GAGE_Missing assembly contigs	0(0.00%)
GAGE_Duplicated reference bases	36392
GAGE_Compressed reference bases	28613
GAGE_Bad trim	360
GAGE_Avg idy	99.94
GAGE_SNPs	48
GAGE_Indels < 5bp	1543
GAGE_Indels >= 5	17
GAGE_Inversions	1
GAGE_Relocation	1
GAGE_Translocation	0
GAGE_Corrected contig #	2063
GAGE_Corrected assembly size	2913963
GAGE_Min correct contig	298
GAGE_Max correct contig	7306
GAGE_Corrected N50	1073 COUNT: 1102
