calling: java -cp /vol/ngscomparison/software/analysis/quast-2.1/libs/gage:. SizeFasta /vol/codine-tmp/juene/tmp.5ykSWsJsCZ/quast/corrected_input/MRSA_COL_Plasmid.fasta |awk '{SUM+=; print SUM}'|tail -n 1
Contig Stats
Total units: 525
Reference: 2813862
BasesInFasta: 2734265
Min: 201
Max: 57274
N10: 29280 COUNT: 7
N25: 21300 COUNT: 25
N50: 11361 COUNT: 72
N75: 5189 COUNT: 160
E-size:14590.41

Genome Size: 2813862
Assembly Size: 2734265
Chaff bases: 0
Missing Reference Bases: 75473(2.68%)
Missing Assembly Bases: 10(0.00%)
Missing Assembly Contigs: 0(0.00%)
Duplicated Reference Bases: 460
Compressed Reference Bases: 10198
Bad Trim: 10
Avg Idy: 99.99
SNPs: 36
Indels < 5bp: 99
Indels >= 5: 3
Inversions: 0
Relocation: 1
Translocation: 0

Corrected Contig Stats
calling: java -cp /vol/ngscomparison/software/analysis/quast-2.1/libs/gage:.:. GetFastaStats -o -min 199 -genomeSize 2813862 /vol/codine-tmp/juene/tmp.5ykSWsJsCZ/quast/gage/tmp/ABYSS_PE_PGM_mrsa_pgm_400bp_es_318_IKA_ts3.2_morestringent.0.165percent_56-unitigs.matches.lens 2> /dev/null
Total units: 527
Reference: 2813862
BasesInFasta: 2734375
Min: 201
Max: 57276
N10: 29280 COUNT: 7
N25: 21211 COUNT: 25
N50: 11358 COUNT: 73
N75: 5185 COUNT: 161
E-size:14479.82

Done
