All statistics are based on contigs of size >= 200 bp, unless otherwise noted (e.g., "# contigs (>= 0 bp)" and "Total length (>= 0 bp)" include all contigs).

Assembly                                                                                 #Mis_misassemblies  #Mis_relocations  #Mis_translocations  #Mis_inversions  #Mis_misassembled contigs  Mis_Misassembled contigs length  #Mis_local misassemblies  #mismatches  #indels  #Mis_short indels (<= 5 bp)  #Mis_long indels (> 5 bp)  Indels length
VELVET_MIS_PE_sakai_mis-both_bi_2x250bp_SI_default.0.64percent_223.final.contigs_broken  6                   5                 1                    0                6                          9633                             0                         172          17       16                           1                          40           
VELVET_MIS_PE_sakai_mis-both_bi_2x250bp_SI_default.0.64percent_223.final.contigs         7                   6                 1                    0                7                          14331                            626                       171          188      186                          2                          279          
