Assembly	#Mis_misassemblies	#Mis_relocations	#Mis_translocations	#Mis_inversions	#Mis_misassembled contigs	Mis_Misassembled contigs length	#Mis_local misassemblies	#mismatches	#indels	#Mis_short indels (<= 5 bp)	#Mis_long indels (> 5 bp)	Indels length
VELVET_MIS_PE_sakai_mis-both_bi_2x250bp_SI_default.0.64percent_67.final.contigs_broken	6	6	0	0	6	172661	12	436	45	43	2	60
VELVET_MIS_PE_sakai_mis-both_bi_2x250bp_SI_default.0.64percent_67.final.contigs	17	17	0	0	13	507261	122	462	594	541	53	1753
