All statistics are based on contigs of size >= 200 bp, unless otherwise noted (e.g., "# contigs (>= 0 bp)" and "Total length (>= 0 bp)" include all contigs).

Assembly                                                                                                                 GAGE_Contigs #  GAGE_Min contig  GAGE_Max contig  GAGE_N50         GAGE_Genome size  GAGE_Assembly size  GAGE_Chaff bases  GAGE_Missing reference bases  GAGE_Missing assembly bases  GAGE_Missing assembly contigs  GAGE_Duplicated reference bases  GAGE_Compressed reference bases  GAGE_Bad trim  GAGE_Avg idy  GAGE_SNPs  GAGE_Indels < 5bp  GAGE_Indels >= 5  GAGE_Inversions  GAGE_Relocation  GAGE_Translocation  GAGE_Corrected contig #  GAGE_Corrected assembly size  GAGE_Min correct contig  GAGE_Max correct contig  GAGE_Corrected N50
ABYSS_PE_MIS_PE_mtbh37-1_mis_2x250bp_nextera_default__mtbh37-2_mis_2x250bp_nextera_default.0.800percent_92.final_broken  202             204              162935           55849 COUNT: 27  4411532           4409785             0                 30959(0.70%)                  897(0.02%)                   0(0.00%)                       7429                             30617                            863            99.98         273        61                 30                1                3                0                   231                      4405937                       204                      107659                   41650 COUNT: 34   
ABYSS_PE_MIS_PE_mtbh37-1_mis_2x250bp_nextera_default__mtbh37-2_mis_2x250bp_nextera_default.0.800percent_92.final         153             204              193870           82061 COUNT: 18  4411532           4412304             0                 30679(0.70%)                  3119(0.07%)                  0(0.00%)                       7429                             30489                            913            99.97         273        81                 70                1                4                0                   224                      4406234                       204                      107659                   42473 COUNT: 33   
