All statistics are based on contigs of size >= 200 bp, unless otherwise noted (e.g., "# contigs (>= 0 bp)" and "Total length (>= 0 bp)" include all contigs).

Assembly                         ABYSS_PE_MIS_PE_mtbh37-1_mis_2x250bp_nextera_default__mtbh37-2_mis_2x250bp_nextera_default.0.800percent_92.final_broken  ABYSS_PE_MIS_PE_mtbh37-1_mis_2x250bp_nextera_default__mtbh37-2_mis_2x250bp_nextera_default.0.800percent_92.final
GAGE_Contigs #                   202                                                                                                                      153                                                                                                             
GAGE_Min contig                  204                                                                                                                      204                                                                                                             
GAGE_Max contig                  162935                                                                                                                   193870                                                                                                          
GAGE_N50                         55849 COUNT: 27                                                                                                          82061 COUNT: 18                                                                                                 
GAGE_Genome size                 4411532                                                                                                                  4411532                                                                                                         
GAGE_Assembly size               4409785                                                                                                                  4412304                                                                                                         
GAGE_Chaff bases                 0                                                                                                                        0                                                                                                               
GAGE_Missing reference bases     30959(0.70%)                                                                                                             30679(0.70%)                                                                                                    
GAGE_Missing assembly bases      897(0.02%)                                                                                                               3119(0.07%)                                                                                                     
GAGE_Missing assembly contigs    0(0.00%)                                                                                                                 0(0.00%)                                                                                                        
GAGE_Duplicated reference bases  7429                                                                                                                     7429                                                                                                            
GAGE_Compressed reference bases  30617                                                                                                                    30489                                                                                                           
GAGE_Bad trim                    863                                                                                                                      913                                                                                                             
GAGE_Avg idy                     99.98                                                                                                                    99.97                                                                                                           
GAGE_SNPs                        273                                                                                                                      273                                                                                                             
GAGE_Indels < 5bp                61                                                                                                                       81                                                                                                              
GAGE_Indels >= 5                 30                                                                                                                       70                                                                                                              
GAGE_Inversions                  1                                                                                                                        1                                                                                                               
GAGE_Relocation                  3                                                                                                                        4                                                                                                               
GAGE_Translocation               0                                                                                                                        0                                                                                                               
GAGE_Corrected contig #          231                                                                                                                      224                                                                                                             
GAGE_Corrected assembly size     4405937                                                                                                                  4406234                                                                                                         
GAGE_Min correct contig          204                                                                                                                      204                                                                                                             
GAGE_Max correct contig          107659                                                                                                                   107659                                                                                                          
GAGE_Corrected N50               41650 COUNT: 34                                                                                                          42473 COUNT: 33                                                                                                 
