All statistics are based on contigs of size >= 200 bp, unless otherwise noted (e.g., "# contigs (>= 0 bp)" and "Total length (>= 0 bp)" include all contigs).

Assembly                         CLC_MIS_PE_sakai_mis-1_bi_2x250bp_SI_default__sakai_mis-2_bi_2x250bp_SI_default.0.975percent.result_broken  CLC_MIS_PE_sakai_mis-1_bi_2x250bp_SI_default__sakai_mis-2_bi_2x250bp_SI_default.0.975percent.result
GAGE_Contigs #                   675                                                                                                         668                                                                                                
GAGE_Min contig                  200                                                                                                         200                                                                                                
GAGE_Max contig                  374686                                                                                                      374686                                                                                             
GAGE_N50                         144812 COUNT: 13                                                                                            148305 COUNT: 11                                                                                   
GAGE_Genome size                 5594470                                                                                                     5594470                                                                                            
GAGE_Assembly size               5499521                                                                                                     5503137                                                                                            
GAGE_Chaff bases                 0                                                                                                           0                                                                                                  
GAGE_Missing reference bases     13404(0.24%)                                                                                                13257(0.24%)                                                                                       
GAGE_Missing assembly bases      111416(2.03%)                                                                                               114380(2.08%)                                                                                      
GAGE_Missing assembly contigs    381(56.44%)                                                                                                 385(57.63%)                                                                                        
GAGE_Duplicated reference bases  17651                                                                                                       17030                                                                                              
GAGE_Compressed reference bases  240285                                                                                                      239171                                                                                             
GAGE_Bad trim                    248                                                                                                         1039                                                                                               
GAGE_Avg idy                     99.99                                                                                                       99.99                                                                                              
GAGE_SNPs                        82                                                                                                          108                                                                                                
GAGE_Indels < 5bp                12                                                                                                          12                                                                                                 
GAGE_Indels >= 5                 10                                                                                                          17                                                                                                 
GAGE_Inversions                  0                                                                                                           0                                                                                                  
GAGE_Relocation                  3                                                                                                           3                                                                                                  
GAGE_Translocation               0                                                                                                           0                                                                                                  
GAGE_Corrected contig #          252                                                                                                         255                                                                                                
GAGE_Corrected assembly size     5370851                                                                                                     5371990                                                                                            
GAGE_Min correct contig          203                                                                                                         203                                                                                                
GAGE_Max correct contig          305741                                                                                                      305741                                                                                             
GAGE_Corrected N50               124191 COUNT: 14                                                                                            124191 COUNT: 14                                                                                   
