calling: java -cp /vol/ngscomparison/software/analysis/quast-2.1/libs/gage:. SizeFasta /vol/codine-tmp/juene/tmp.9gd5SPOagU/quast/corrected_input/Ecoli_Sakai_editedNew_plasmids.fasta |awk '{SUM+=; print SUM}'|tail -n 1
Contig Stats
Total units: 344
Reference: 5594470
BasesInFasta: 5355778
Min: 200
Max: 218516
N10: 200781 COUNT: 3
N25: 114901 COUNT: 9
N50: 54180 COUNT: 28
N75: 24757 COUNT: 66
E-size:73944.57

Genome Size: 5594470
Assembly Size: 5355778
Chaff bases: 0
Missing Reference Bases: 96247(1.72%)
Missing Assembly Bases: 21(0.00%)
Missing Assembly Contigs: 0(0.00%)
Duplicated Reference Bases: 6640
Compressed Reference Bases: 235562
Bad Trim: 0
Avg Idy: 99.98
SNPs: 595
Indels < 5bp: 40
Indels >= 5: 22
Inversions: 5
Relocation: 2
Translocation: 0

Corrected Contig Stats
calling: java -cp /vol/ngscomparison/software/analysis/quast-2.1/libs/gage:.:. GetFastaStats -o -min 199 -genomeSize 5594470 /vol/codine-tmp/juene/tmp.9gd5SPOagU/quast/gage/tmp/ABYSS_PE_MIS_PE_sakai_mis-1_bi_2x150bp_default__sakai_mis-2_bi_2x150bp_default.26coverage_48.final_broken.matches.lens 2> /dev/null
Total units: 362
Reference: 5594470
BasesInFasta: 5355085
Min: 200
Max: 218516
N10: 142373 COUNT: 4
N25: 103912 COUNT: 10
N50: 49596 COUNT: 31
N75: 23718 COUNT: 73
E-size:65868.11

Done
