Assembly	VELVET_MIS_PE_mtbh37-1_mis_2x250bp_nextera_default__mtbh37-2_mis_2x250bp_nextera_default_149.final.contigs_broken	VELVET_MIS_PE_mtbh37-1_mis_2x250bp_nextera_default__mtbh37-2_mis_2x250bp_nextera_default_149.final.contigs
#Mis_misassemblies	6	9
#Mis_relocations	5	8
#Mis_translocations	0	0
#Mis_inversions	1	1
#Mis_misassembled contigs	6	9
Mis_Misassembled contigs length	41957	259794
#Mis_local misassemblies	7	154
#mismatches	263	272
#indels	38	351
#Mis_short indels (<= 5 bp)	37	344
#Mis_long indels (> 5 bp)	1	7
Indels length	58	509
