calling: java -cp /vol/ngscomparison/software/analysis/quast-2.1/libs/gage:. SizeFasta /vol/codine-tmp/juene/tmp.8Adl8ehhTP/quast/corrected_input/Ecoli_Sakai_editedNew_plasmids.fasta |awk '{SUM+=; print SUM}'|tail -n 1
Contig Stats
Total units: 588
Reference: 5594470
BasesInFasta: 5393575
Min: 200
Max: 259965
N10: 200585 COUNT: 3
N25: 130420 COUNT: 8
N50: 72106 COUNT: 23
N75: 28924 COUNT: 53
E-size:89173.59

Genome Size: 5594470
Assembly Size: 5393575
Chaff bases: 0
Missing Reference Bases: 12667(0.23%)
Missing Assembly Bases: 0(0.00%)
Missing Assembly Contigs: 0(0.00%)
Duplicated Reference Bases: 4277
Compressed Reference Bases: 267815
Bad Trim: 0
Avg Idy: 99.99
SNPs: 154
Indels < 5bp: 14
Indels >= 5: 1
Inversions: 0
Relocation: 2
Translocation: 0

Corrected Contig Stats
calling: java -cp /vol/ngscomparison/software/analysis/quast-2.1/libs/gage:.:. GetFastaStats -o -min 199 -genomeSize 5594470 /vol/codine-tmp/juene/tmp.8Adl8ehhTP/quast/gage/tmp/ABYSS_PE_MIS_PE_sakai_mis-1_bi_2x250bp_SI_default__sakai_mis-2_bi_2x250bp_SI_default.0.45percent_100.final.matches.lens 2> /dev/null
Total units: 575
Reference: 5594470
BasesInFasta: 5389301
Min: 200
Max: 259965
N10: 200585 COUNT: 3
N25: 123534 COUNT: 8
N50: 71972 COUNT: 23
N75: 28242 COUNT: 54
E-size:88457.18

Done
