1: PREPARING DATA
2,3: RUNNING mummer AND CREATING CLUSTERS
# reading input file "/vol/codine-tmp/juene/tmp.kyklJJ7wnw/quast/contigs_reports/nucmer_output/CLC_PGM_mrsa_pgm_400bp_es_318_IKA_ts3.2_morestringent.0.075percent.result.ntref" of length 2813864
# construct suffix tree for sequence of length 2813864
# (maximum reference length is 536870908)
# (maximum query length is 4294967295)
# process 28138 characters per dot
#....................................................................................................
# CONSTRUCTIONTIME /vol/ngscomparison/software/analysis/quast-2.1/libs/MUMmer3.23-linux/mummer /vol/codine-tmp/juene/tmp.kyklJJ7wnw/quast/contigs_reports/nucmer_output/CLC_PGM_mrsa_pgm_400bp_es_318_IKA_ts3.2_morestringent.0.075percent.result.ntref 1.33
# reading input file "/vol/codine-tmp/juene/tmp.kyklJJ7wnw/quast/corrected_input/CLC_PGM_mrsa_pgm_400bp_es_318_IKA_ts3.2_morestringent.0.075percent.result" of length 2832330
# matching query-file "/vol/codine-tmp/juene/tmp.kyklJJ7wnw/quast/corrected_input/CLC_PGM_mrsa_pgm_400bp_es_318_IKA_ts3.2_morestringent.0.075percent.result"
# against subject-file "/vol/codine-tmp/juene/tmp.kyklJJ7wnw/quast/contigs_reports/nucmer_output/CLC_PGM_mrsa_pgm_400bp_es_318_IKA_ts3.2_morestringent.0.075percent.result.ntref"
# COMPLETETIME /vol/ngscomparison/software/analysis/quast-2.1/libs/MUMmer3.23-linux/mummer /vol/codine-tmp/juene/tmp.kyklJJ7wnw/quast/contigs_reports/nucmer_output/CLC_PGM_mrsa_pgm_400bp_es_318_IKA_ts3.2_morestringent.0.075percent.result.ntref 4.18
# SPACE /vol/ngscomparison/software/analysis/quast-2.1/libs/MUMmer3.23-linux/mummer /vol/codine-tmp/juene/tmp.kyklJJ7wnw/quast/contigs_reports/nucmer_output/CLC_PGM_mrsa_pgm_400bp_es_318_IKA_ts3.2_morestringent.0.075percent.result.ntref 5.48
4: FINISHING DATA
