Assembly	SOAP2_PGM_mrsa_pgm_200bp_es_316_IonOnev2_ts3.0_morestringent.0.230percent_95.final.contig
GAGE_Contigs #	2248
GAGE_Min contig	200
GAGE_Max contig	9622
GAGE_N50	1815 COUNT: 480
GAGE_Genome size	2813862
GAGE_Assembly size	2794864
GAGE_Chaff bases	0
GAGE_Missing reference bases	81103(2.88%)
GAGE_Missing assembly bases	3914(0.14%)
GAGE_Missing assembly contigs	4(0.18%)
GAGE_Duplicated reference bases	15706
GAGE_Compressed reference bases	24176
GAGE_Bad trim	2737
GAGE_Avg idy	99.95
GAGE_SNPs	49
GAGE_Indels < 5bp	709
GAGE_Indels >= 5	2
GAGE_Inversions	0
GAGE_Relocation	2
GAGE_Translocation	0
GAGE_Corrected contig #	2182
GAGE_Corrected assembly size	2775495
GAGE_Min correct contig	200
GAGE_Max correct contig	9622
GAGE_Corrected N50	1815 COUNT: 481
