1: PREPARING DATA
2,3: RUNNING mummer AND CREATING CLUSTERS
# reading input file "/vol/codine-tmp/juene/tmp.6nLim1x8Bf/quast/gage/tmp/CLC_PGM_sakai_pgm_mu_318_400bp_IO_TS3.4_ms.0.925percent.result.ntref" of length 5594473
# construct suffix tree for sequence of length 5594473
# (maximum reference length is 536870908)
# (maximum query length is 4294967295)
# process 55944 characters per dot
#....................................................................................................
# CONSTRUCTIONTIME /vol/ngscomparison/software/analysis/quast-2.1/libs/MUMmer3.23-linux/mummer /vol/codine-tmp/juene/tmp.6nLim1x8Bf/quast/gage/tmp/CLC_PGM_sakai_pgm_mu_318_400bp_IO_TS3.4_ms.0.925percent.result.ntref 3.24
# reading input file "/vol/codine-tmp/juene/tmp.6nLim1x8Bf/quast/corrected_input/CLC_PGM_sakai_pgm_mu_318_400bp_IO_TS3.4_ms.0.925percent.result" of length 5457927
# matching query-file "/vol/codine-tmp/juene/tmp.6nLim1x8Bf/quast/corrected_input/CLC_PGM_sakai_pgm_mu_318_400bp_IO_TS3.4_ms.0.925percent.result"
# against subject-file "/vol/codine-tmp/juene/tmp.6nLim1x8Bf/quast/gage/tmp/CLC_PGM_sakai_pgm_mu_318_400bp_IO_TS3.4_ms.0.925percent.result.ntref"
# COMPLETETIME /vol/ngscomparison/software/analysis/quast-2.1/libs/MUMmer3.23-linux/mummer /vol/codine-tmp/juene/tmp.6nLim1x8Bf/quast/gage/tmp/CLC_PGM_sakai_pgm_mu_318_400bp_IO_TS3.4_ms.0.925percent.result.ntref 9.37
# SPACE /vol/ngscomparison/software/analysis/quast-2.1/libs/MUMmer3.23-linux/mummer /vol/codine-tmp/juene/tmp.6nLim1x8Bf/quast/gage/tmp/CLC_PGM_sakai_pgm_mu_318_400bp_IO_TS3.4_ms.0.925percent.result.ntref 10.73
4: FINISHING DATA
Filtering alignments
Extracting alignment coordinates
Analyzing SNPs
Extracting alignment breakpoints
Generating report file
Found genome size at position 4 with value 5594470 aka 5594470
Calculating point at 0 and the sum is 1051369 and i is760 and lens is 772 and length is 61371
Calculating point at 1 and the sum is 2013636 and i is742 and lens is 772 and length is 47469
Calculating point at 2 and the sum is 3015654 and i is718 and lens is 772 and length is 35593
Calculating point at 3 and the sum is 4013536 and i is678 and lens is 772 and length is 19542
Calculating point at 4 and the sum is 5000354 and i is567 and lens is 772 and length is 2758
