Assembly	SOAP2_MIS_PE_sakai_mis-1_bi_2x250bp_SI_default.0.64percent_109.final.scaf_broken	SOAP2_MIS_PE_sakai_mis-1_bi_2x250bp_SI_default.0.64percent_109.final.scaf
#Contigs	3434	2653
#Contigs (>= 0 bp)	4497	3662
#Contigs (>= 1000 bp)	819	327
Largest contig	35906	112728
Total length	5761067	5809124
Total length (>= 0 bp)	5914863	5954563
Total length (>= 1000 bp)	5065638	5252391
Reference length	5594470	5594470
N50	8206	29635
NG50	8501	31394
N75	3652	12745
NG75	3983	15722
L50	209	62
LG50	199	58
L75	467	133
LG75	434	121
#local misassemblies	44	683
#misassemblies	9	24
#misassembled contigs	9	19
Misassembled contigs length	36760	79844
Misassemblies inter-contig overlap	83	83
#unaligned contigs	11 + 0 part	23 + 10 part
Unaligned contigs length	8486	26382
#ambiguously mapped contigs	553	503
Extra bases in ambiguously mapped contigs	-158118	-136750
#N's	270	39970
#N's per 100 kbp	4.69	688.06
Genome fraction (%)	94.679	94.724
Duplication ratio	1.056	1.065
#genes	4209 + 984 part	4253 + 922 part
#predicted genes (unique)	7993	7768
#predicted genes (>= 0 bp)	8066	7838
#predicted genes (>= 300 bp)	4728	4696
#predicted genes (>= 1500 bp)	544	569
#predicted genes (>= 3000 bp)	41	46
#mismatches	523	583
#indels	61	1211
Indels length	167	2693
#mismatches per 100 kbp	9.87	11.00
#indels per 100 kbp	1.15	22.85
GC (%)	50.45	50.46
Reference GC (%)	50.48	50.48
Average %IDY	99.298	99.294
Largest alignment	35905	111907
NA50	8204	28984
NGA50	8495	29784
NA75	3651	12233
NGA75	3983	14609
LA50	209	63
LGA50	199	59
LA75	468	136
LGA75	435	124
#Mis_misassemblies	9	24
#Mis_relocations	9	24
#Mis_translocations	0	0
#Mis_inversions	0	0
#Mis_misassembled contigs	9	19
Mis_Misassembled contigs length	36760	79844
#Mis_local misassemblies	44	683
#Mis_short indels (<= 5 bp)	52	1143
#Mis_long indels (> 5 bp)	9	68
#Una_fully unaligned contigs	11	23
Una_Fully unaligned length	8486	20295
#Una_partially unaligned contigs	0	10
#Una_with misassembly	0	0
#Una_both parts are significant	0	6
Una_Partially unaligned length	0	6087
GAGE_Contigs #	3434	2653
GAGE_Min contig	200	200
GAGE_Max contig	35906	112728
GAGE_N50	8501 COUNT: 199	31394 COUNT: 58
GAGE_Genome size	5594470	5594470
GAGE_Assembly size	5761067	5809124
GAGE_Chaff bases	0	0
GAGE_Missing reference bases	10361(0.19%)	7896(0.14%)
GAGE_Missing assembly bases	7333(0.13%)	48749(0.84%)
GAGE_Missing assembly contigs	8(0.23%)	9(0.34%)
GAGE_Duplicated reference bases	223536	224426
GAGE_Compressed reference bases	280732	275933
GAGE_Bad trim	57	3115
GAGE_Avg idy	100.00	99.99
GAGE_SNPs	156	150
GAGE_Indels < 5bp	48	106
GAGE_Indels >= 5	12	131
GAGE_Inversions	2	3
GAGE_Relocation	3	9
GAGE_Translocation	0	0
GAGE_Corrected contig #	2456	2436
GAGE_Corrected assembly size	5528142	5528013
GAGE_Min correct contig	200	200
GAGE_Max correct contig	35233	35233
GAGE_Corrected N50	8081 COUNT: 208	8081 COUNT: 208
