Assembly	SOAP2_MIS_PE_sakai_mis-1_bi_2x250bp_SI_default.0.64percent_109.final.scaf_broken	SOAP2_MIS_PE_sakai_mis-1_bi_2x250bp_SI_default.0.64percent_109.final.scaf
GAGE_Contigs #	3434	2653
GAGE_Min contig	200	200
GAGE_Max contig	35906	112728
GAGE_N50	8501 COUNT: 199	31394 COUNT: 58
GAGE_Genome size	5594470	5594470
GAGE_Assembly size	5761067	5809124
GAGE_Chaff bases	0	0
GAGE_Missing reference bases	10361(0.19%)	7896(0.14%)
GAGE_Missing assembly bases	7333(0.13%)	48749(0.84%)
GAGE_Missing assembly contigs	8(0.23%)	9(0.34%)
GAGE_Duplicated reference bases	223536	224426
GAGE_Compressed reference bases	280732	275933
GAGE_Bad trim	57	3115
GAGE_Avg idy	100.00	99.99
GAGE_SNPs	156	150
GAGE_Indels < 5bp	48	106
GAGE_Indels >= 5	12	131
GAGE_Inversions	2	3
GAGE_Relocation	3	9
GAGE_Translocation	0	0
GAGE_Corrected contig #	2456	2436
GAGE_Corrected assembly size	5528142	5528013
GAGE_Min correct contig	200	200
GAGE_Max correct contig	35233	35233
GAGE_Corrected N50	8081 COUNT: 208	8081 COUNT: 208
