1: PREPARING DATA
2,3: RUNNING mummer AND CREATING CLUSTERS
# reading input file "/vol/codine-tmp/juene/tmp.kd8IxDgCHR/quast/contigs_reports/nucmer_output/VELVET_PGM_sakai_pgm_mu_318_400bp_IO_TS3.4_ms_0.395percent_77.final.contigs.ntref" of length 5594473
# construct suffix tree for sequence of length 5594473
# (maximum reference length is 536870908)
# (maximum query length is 4294967295)
# process 55944 characters per dot
#....................................................................................................
# CONSTRUCTIONTIME /vol/ngscomparison/software/analysis/quast-2.1/libs/MUMmer3.23-linux/mummer /vol/codine-tmp/juene/tmp.kd8IxDgCHR/quast/contigs_reports/nucmer_output/VELVET_PGM_sakai_pgm_mu_318_400bp_IO_TS3.4_ms_0.395percent_77.final.contigs.ntref 2.77
# reading input file "/vol/codine-tmp/juene/tmp.kd8IxDgCHR/quast/corrected_input/VELVET_PGM_sakai_pgm_mu_318_400bp_IO_TS3.4_ms_0.395percent_77.final.contigs" of length 2781010
# matching query-file "/vol/codine-tmp/juene/tmp.kd8IxDgCHR/quast/corrected_input/VELVET_PGM_sakai_pgm_mu_318_400bp_IO_TS3.4_ms_0.395percent_77.final.contigs"
# against subject-file "/vol/codine-tmp/juene/tmp.kd8IxDgCHR/quast/contigs_reports/nucmer_output/VELVET_PGM_sakai_pgm_mu_318_400bp_IO_TS3.4_ms_0.395percent_77.final.contigs.ntref"
# COMPLETETIME /vol/ngscomparison/software/analysis/quast-2.1/libs/MUMmer3.23-linux/mummer /vol/codine-tmp/juene/tmp.kd8IxDgCHR/quast/contigs_reports/nucmer_output/VELVET_PGM_sakai_pgm_mu_318_400bp_IO_TS3.4_ms_0.395percent_77.final.contigs.ntref 4.94
# SPACE /vol/ngscomparison/software/analysis/quast-2.1/libs/MUMmer3.23-linux/mummer /vol/codine-tmp/juene/tmp.kd8IxDgCHR/quast/contigs_reports/nucmer_output/VELVET_PGM_sakai_pgm_mu_318_400bp_IO_TS3.4_ms_0.395percent_77.final.contigs.ntref 8.55
4: FINISHING DATA
