Assembly	GAGE_Contigs #	GAGE_Min contig	GAGE_Max contig	GAGE_N50	GAGE_Genome size	GAGE_Assembly size	GAGE_Chaff bases	GAGE_Missing reference bases	GAGE_Missing assembly bases	GAGE_Missing assembly contigs	GAGE_Duplicated reference bases	GAGE_Compressed reference bases	GAGE_Bad trim	GAGE_Avg idy	GAGE_SNPs	GAGE_Indels < 5bp	GAGE_Indels >= 5	GAGE_Inversions	GAGE_Relocation	GAGE_Translocation	GAGE_Corrected contig #	GAGE_Corrected assembly size	GAGE_Min correct contig	GAGE_Max correct contig	GAGE_Corrected N50
CLC_MIS_PE_sakai_mis-1_bi_2x250bp_SI_default__sakai_mis-2_bi_2x250bp_SI_default.51coverage.result_broken	416	200	356099	144810 COUNT: 14	5594470	5423185	0	13522(0.24%)	40460(0.75%)	133(31.97%)	11739	243978	210	99.99	141	17	14	0	4	0	267	5370860	202	321413	124190 COUNT: 15
CLC_MIS_PE_sakai_mis-1_bi_2x250bp_SI_default__sakai_mis-2_bi_2x250bp_SI_default.51coverage.result	404	200	362579	149652 COUNT: 12	5594470	5424184	0	13349(0.24%)	41291(0.76%)	133(32.92%)	11403	243642	208	99.99	141	22	23	1	4	0	268	5371781	202	321413	124190 COUNT: 15
