All statistics are based on contigs of size >= 200 bp, unless otherwise noted (e.g., "# contigs (>= 0 bp)" and "Total length (>= 0 bp)" include all contigs).

Assembly                       CLC_MIS_PE_sakai_mis-1_bi_2x250bp_SI_default__sakai_mis-2_bi_2x250bp_SI_default.51coverage.result_broken  CLC_MIS_PE_sakai_mis-1_bi_2x250bp_SI_default__sakai_mis-2_bi_2x250bp_SI_default.51coverage.result
#Contigs (>= 0 bp)             417                                                                                                       404                                                                                              
#Contigs (>= 1000 bp)          139                                                                                                       130                                                                                              
Total length (>= 0 bp)         5423270                                                                                                   5424184                                                                                          
Total length (>= 1000 bp)      5324296                                                                                                   5326451                                                                                          
#Contigs                       416                                                                                                       404                                                                                              
Largest contig                 356099                                                                                                    362579                                                                                           
Total length                   5423185                                                                                                   5424184                                                                                          
Reference length               5594470                                                                                                   5594470                                                                                          
GC (%)                         50.27                                                                                                     50.27                                                                                            
Reference GC (%)               50.48                                                                                                     50.48                                                                                            
N50                            146443                                                                                                    157700                                                                                           
NG50                           144810                                                                                                    149652                                                                                           
N75                            73482                                                                                                     82794                                                                                            
NG75                           56747                                                                                                     73969                                                                                            
#misassemblies                 3                                                                                                         3                                                                                                
#local misassemblies           7                                                                                                         11                                                                                               
#unaligned contigs             133 + 3 part                                                                                              133 + 3 part                                                                                     
Unaligned contigs length       40707                                                                                                     40707                                                                                            
Genome fraction (%)            94.927                                                                                                    95.012                                                                                           
Duplication ratio              1.005                                                                                                     1.005                                                                                            
#N's per 100 kbp               1.05                                                                                                      17.90                                                                                            
#mismatches per 100 kbp        2.90                                                                                                      2.93                                                                                             
#indels per 100 kbp            1.81                                                                                                      1.94                                                                                             
#genes                         5044 + 133 part                                                                                           5051 + 130 part                                                                                  
#predicted genes (unique)      5439                                                                                                      5437                                                                                             
#predicted genes (>= 0 bp)     5440                                                                                                      5438                                                                                             
#predicted genes (>= 300 bp)   4486                                                                                                      4485                                                                                             
#predicted genes (>= 1500 bp)  674                                                                                                       674                                                                                              
#predicted genes (>= 3000 bp)  69                                                                                                        69                                                                                               
Largest alignment              356099                                                                                                    361826                                                                                           
NA50                           145519                                                                                                    149652                                                                                           
NGA50                          144810                                                                                                    148304                                                                                           
NA75                           73482                                                                                                     79702                                                                                            
NGA75                          56747                                                                                                     73969                                                                                            
