1: PREPARING DATA
2,3: RUNNING mummer AND CREATING CLUSTERS
# reading input file "/vol/codine-tmp/juene/tmp.Dw4285u0Cj/quast/contigs_reports/nucmer_output/SOAP2_PGM_sakai_pgm_mu_200bp_IO_TS3.0Disabled_stringent.0.34percent_115.final.contig.ntref" of length 5594473
# construct suffix tree for sequence of length 5594473
# (maximum reference length is 536870908)
# (maximum query length is 4294967295)
# process 55944 characters per dot
#....................................................................................................
# CONSTRUCTIONTIME /vol/ngscomparison/software/analysis/quast-2.1/libs/MUMmer3.23-linux/mummer /vol/codine-tmp/juene/tmp.Dw4285u0Cj/quast/contigs_reports/nucmer_output/SOAP2_PGM_sakai_pgm_mu_200bp_IO_TS3.0Disabled_stringent.0.34percent_115.final.contig.ntref 3.23
# reading input file "/vol/codine-tmp/juene/tmp.Dw4285u0Cj/quast/corrected_input/SOAP2_PGM_sakai_pgm_mu_200bp_IO_TS3.0Disabled_stringent.0.34percent_115.final.contig" of length 7970990
# matching query-file "/vol/codine-tmp/juene/tmp.Dw4285u0Cj/quast/corrected_input/SOAP2_PGM_sakai_pgm_mu_200bp_IO_TS3.0Disabled_stringent.0.34percent_115.final.contig"
# against subject-file "/vol/codine-tmp/juene/tmp.Dw4285u0Cj/quast/contigs_reports/nucmer_output/SOAP2_PGM_sakai_pgm_mu_200bp_IO_TS3.0Disabled_stringent.0.34percent_115.final.contig.ntref"
# COMPLETETIME /vol/ngscomparison/software/analysis/quast-2.1/libs/MUMmer3.23-linux/mummer /vol/codine-tmp/juene/tmp.Dw4285u0Cj/quast/contigs_reports/nucmer_output/SOAP2_PGM_sakai_pgm_mu_200bp_IO_TS3.0Disabled_stringent.0.34percent_115.final.contig.ntref 12.24
# SPACE /vol/ngscomparison/software/analysis/quast-2.1/libs/MUMmer3.23-linux/mummer /vol/codine-tmp/juene/tmp.Dw4285u0Cj/quast/contigs_reports/nucmer_output/SOAP2_PGM_sakai_pgm_mu_200bp_IO_TS3.0Disabled_stringent.0.34percent_115.final.contig.ntref 13.70
4: FINISHING DATA
