All statistics are based on contigs of size >= 200 bp, unless otherwise noted (e.g., "# contigs (>= 0 bp)" and "Total length (>= 0 bp)" include all contigs).

Assembly                                                                                            GAGE_Contigs #  GAGE_Min contig  GAGE_Max contig  GAGE_N50         GAGE_Genome size  GAGE_Assembly size  GAGE_Chaff bases  GAGE_Missing reference bases  GAGE_Missing assembly bases  GAGE_Missing assembly contigs  GAGE_Duplicated reference bases  GAGE_Compressed reference bases  GAGE_Bad trim  GAGE_Avg idy  GAGE_SNPs  GAGE_Indels < 5bp  GAGE_Indels >= 5  GAGE_Inversions  GAGE_Relocation  GAGE_Translocation  GAGE_Corrected contig #  GAGE_Corrected assembly size  GAGE_Min correct contig  GAGE_Max correct contig  GAGE_Corrected N50
CLC_MIS_PE_mrsa_mis-1_bi_2x250bp_default__mrsa_mis-2_bi_2x250bp_default.0.700percent.result_broken  371             200              328625           171332 COUNT: 6  2813862           2874018             0                 3322(0.12%)                   95500(3.32%)                 326(87.87%)                    261                              33756                            217            99.99         68         13                 7                 0                2                0                   52                       2779071                       206                      328625                   148928 COUNT: 7   
CLC_MIS_PE_mrsa_mis-1_bi_2x250bp_default__mrsa_mis-2_bi_2x250bp_default.0.700percent.result         368             200              328625           214784 COUNT: 5  2813862           2874413             0                 3322(0.12%)                   95895(3.34%)                 326(88.59%)                    261                              33756                            388            99.99         68         13                 8                 0                3                0                   52                       2779071                       206                      328625                   148928 COUNT: 7   
