calling: java -cp /vol/ngscomparison/software/analysis/quast-2.1/libs/gage:. SizeFasta /vol/codine-tmp/juene/tmp.ctr6NxNa9k/quast/corrected_input/Mycobacterium_tuberculosis_H37Rv.fasta |awk '{SUM+=; print SUM}'|tail -n 1
Contig Stats
Total units: 1005
Reference: 4411532
BasesInFasta: 3436676
Min: 507
Max: 15317
N10: 8745 COUNT: 41
N25: 6052 COUNT: 133
N50: 3335 COUNT: 383
N75: 1209 COUNT: 858
E-size:3984.29

Genome Size: 4411532
Assembly Size: 3436676
Chaff bases: 0
Missing Reference Bases: 962575(21.82%)
Missing Assembly Bases: 34(0.00%)
Missing Assembly Contigs: 0(0.00%)
Duplicated Reference Bases: 70
Compressed Reference Bases: 12634
Bad Trim: 34
Avg Idy: 99.99
SNPs: 338
Indels < 5bp: 84
Indels >= 5: 7
Inversions: 3
Relocation: 2
Translocation: 0

Corrected Contig Stats
calling: java -cp /vol/ngscomparison/software/analysis/quast-2.1/libs/gage:.:. GetFastaStats -o -min 199 -genomeSize 4411532 /vol/codine-tmp/juene/tmp.ctr6NxNa9k/quast/gage/tmp/NEWBLER_MIS_PE_mtbh37-1_mis_2x250bp_nextera_default__mtbh37-2_mis_2x250bp_nextera_default.0.100percent.contigs_broken.matches.lens 2> /dev/null
Total units: 1017
Reference: 4411532
BasesInFasta: 3438277
Min: 230
Max: 15317
N10: 8745 COUNT: 41
N25: 6008 COUNT: 133
N50: 3329 COUNT: 384
N75: 1160 COUNT: 861
E-size:3977.83

Done
