Assembly	ABYSS_PE_MIS_PE_mrsa_mis-1_bi_2x250bp_default__mrsa_mis-2_bi_2x250bp_default.0.700percent_128.final_broken	ABYSS_PE_MIS_PE_mrsa_mis-1_bi_2x250bp_default__mrsa_mis-2_bi_2x250bp_default.0.700percent_128.final
GAGE_Contigs #	146	146
GAGE_Min contig	203	203
GAGE_Max contig	457344	457344
GAGE_N50	145436 COUNT: 6	145436 COUNT: 6
GAGE_Genome size	2813862	2813862
GAGE_Assembly size	2803132	2803132
GAGE_Chaff bases	0	0
GAGE_Missing reference bases	176(0.01%)	176(0.01%)
GAGE_Missing assembly bases	0(0.00%)	0(0.00%)
GAGE_Missing assembly contigs	0(0.00%)	0(0.00%)
GAGE_Duplicated reference bases	8010	8010
GAGE_Compressed reference bases	32068	32068
GAGE_Bad trim	0	0
GAGE_Avg idy	99.99	99.99
GAGE_SNPs	35	35
GAGE_Indels < 5bp	9	9
GAGE_Indels >= 5	0	0
GAGE_Inversions	0	0
GAGE_Relocation	2	2
GAGE_Translocation	0	0
GAGE_Corrected contig #	115	115
GAGE_Corrected assembly size	2795128	2795128
GAGE_Min correct contig	203	203
GAGE_Max correct contig	457343	457343
GAGE_Corrected N50	145435 COUNT: 6	145435 COUNT: 6
