Assembly	NEWBLER_PGM_sakai_pgm_mu_318_400bp_IO_TS3.4_ms.contigs
#Mis_misassemblies	28
#Mis_relocations	25
#Mis_translocations	3
#Mis_inversions	0
#Mis_misassembled contigs	28
Mis_Misassembled contigs length	354373
#Mis_local misassemblies	3
#mismatches	80
#indels	174
#Mis_short indels (<= 5 bp)	174
#Mis_long indels (> 5 bp)	0
Indels length	181
