All statistics are based on contigs of size >= 200 bp, unless otherwise noted (e.g., "# contigs (>= 0 bp)" and "Total length (>= 0 bp)" include all contigs).

Assembly                                                                               #Contigs (>= 0 bp)  #Contigs (>= 1000 bp)  Total length (>= 0 bp)  Total length (>= 1000 bp)  #Contigs  Largest contig  Total length  Reference length  GC (%)  Reference GC (%)  N50   NG50  N75   NG75  #misassemblies  #local misassemblies  #unaligned contigs  Unaligned contigs length  Genome fraction (%)  Duplication ratio  #N's per 100 kbp  #mismatches per 100 kbp  #indels per 100 kbp  #genes            #predicted genes (unique)  #predicted genes (>= 0 bp)  #predicted genes (>= 300 bp)  #predicted genes (>= 1500 bp)  #predicted genes (>= 3000 bp)  Largest alignment  NA50  NGA50  NA75  NGA75
VELVET_PGM_sakai_pgm_mu_200bp_IO_TS3.0Disabled_stringent.0.34percent_85.final.contigs  1987                1128                   5327217                 4934344                    1908      34192           5312732       5594470           50.41   50.48             5821  5562  2871  2464  52              27                    0 + 3 part          380                       92.855               1.007              15.81             3.39                     36.11                4019 + 1073 part  6872                       6879                        5026                          434                            22                             34192              5706  5406   2817  2421 
