Assembly	ABYSS_PE_PGM_sakai_pgm_mu_200bp_IO_TS3.0Disabled_stringent.0.55percent_122.final
GAGE_Contigs #	3223
GAGE_Min contig	200
GAGE_Max contig	69753
GAGE_N50	8612 COUNT: 187
GAGE_Genome size	5594470
GAGE_Assembly size	5798756
GAGE_Chaff bases	0
GAGE_Missing reference bases	14928(0.27%)
GAGE_Missing assembly bases	189(0.00%)
GAGE_Missing assembly contigs	0(0.00%)
GAGE_Duplicated reference bases	285408
GAGE_Compressed reference bases	270162
GAGE_Bad trim	189
GAGE_Avg idy	99.96
GAGE_SNPs	48
GAGE_Indels < 5bp	1778
GAGE_Indels >= 5	1
GAGE_Inversions	0
GAGE_Relocation	3
GAGE_Translocation	0
GAGE_Corrected contig #	2039
GAGE_Corrected assembly size	5514755
GAGE_Min correct contig	200
GAGE_Max correct contig	69790
GAGE_Corrected N50	8599 COUNT: 188
