calling: java -cp /vol/ngscomparison/software/analysis/quast-2.1/libs/gage:. SizeFasta /vol/codine-tmp/juene/tmp.ikqO3ZzZra/quast/corrected_input/MRSA_COL_Plasmid.fasta |awk '{SUM+=; print SUM}'|tail -n 1
Contig Stats
Total units: 1380
Reference: 2813862
BasesInFasta: 3020462
Min: 200
Max: 82555
N10: 46544 COUNT: 5
N25: 29947 COUNT: 17
N50: 18260 COUNT: 47
N75: 9963 COUNT: 99
E-size:22548.99

Genome Size: 2813862
Assembly Size: 3020462
Chaff bases: 0
Missing Reference Bases: 6893(0.24%)
Missing Assembly Bases: 450(0.01%)
Missing Assembly Contigs: 0(0.00%)
Duplicated Reference Bases: 207724
Compressed Reference Bases: 40060
Bad Trim: 450
Avg Idy: 99.98
SNPs: 34
Indels < 5bp: 357
Indels >= 5: 3
Inversions: 0
Relocation: 1
Translocation: 0

Corrected Contig Stats
calling: java -cp /vol/ngscomparison/software/analysis/quast-2.1/libs/gage:.:. GetFastaStats -o -min 199 -genomeSize 2813862 /vol/codine-tmp/juene/tmp.ikqO3ZzZra/quast/gage/tmp/ABYSS_PE_PGM_mrsa_pgm_200bp_es_316_IonOnev2_ts3.0_morestringent.0.975percent_128.final.matches.lens 2> /dev/null
Total units: 540
Reference: 2813862
BasesInFasta: 2812428
Min: 200
Max: 82562
N10: 46549 COUNT: 5
N25: 29554 COUNT: 17
N50: 18175 COUNT: 48
N75: 9541 COUNT: 101
E-size:22323.23

Done
