All statistics are based on contigs of size >= 200 bp, unless otherwise noted (e.g., "# contigs (>= 0 bp)" and "Total length (>= 0 bp)" include all contigs).

Assembly                       CLC_MIS_PE_mrsa_mis-1_bi_2x150bp_default__mrsa_mis-2_bi_2x150bp_default.76coverage.result_broken  CLC_MIS_PE_mrsa_mis-1_bi_2x150bp_default__mrsa_mis-2_bi_2x150bp_default.76coverage.result
#Contigs (>= 0 bp)             53                                                                                                46                                                                                       
#Contigs (>= 1000 bp)          42                                                                                                36                                                                                       
Total length (>= 0 bp)         2778875                                                                                           2779254                                                                                  
Total length (>= 1000 bp)      2773352                                                                                           2773920                                                                                  
#Contigs                       52                                                                                                46                                                                                       
Largest contig                 308150                                                                                            326017                                                                                   
Total length                   2778686                                                                                           2779254                                                                                  
Reference length               2813862                                                                                           2813862                                                                                  
GC (%)                         32.68                                                                                             32.68                                                                                    
Reference GC (%)               32.81                                                                                             32.81                                                                                    
N50                            135344                                                                                            179162                                                                                   
NG50                           135344                                                                                            179162                                                                                   
N75                            87777                                                                                             105738                                                                                   
NG75                           81883                                                                                             105738                                                                                   
#misassemblies                 3                                                                                                 3                                                                                        
#local misassemblies           5                                                                                                 10                                                                                       
#unaligned contigs             1 + 0 part                                                                                        1 + 0 part                                                                               
Unaligned contigs length       5386                                                                                              5386                                                                                     
Genome fraction (%)            98.309                                                                                            98.486                                                                                   
Duplication ratio              1.000                                                                                             1.000                                                                                    
#N's per 100 kbp               0.43                                                                                              14.07                                                                                    
#mismatches per 100 kbp        5.64                                                                                              5.77                                                                                     
#indels per 100 kbp            0.72                                                                                              1.05                                                                                     
#genes                         2675 + 24 part                                                                                    2678 + 24 part                                                                           
#predicted genes (unique)      2626                                                                                              2623                                                                                     
#predicted genes (>= 0 bp)     2626                                                                                              2623                                                                                     
#predicted genes (>= 300 bp)   2287                                                                                              2287                                                                                     
#predicted genes (>= 1500 bp)  300                                                                                               300                                                                                      
#predicted genes (>= 3000 bp)  29                                                                                                29                                                                                       
Largest alignment              308150                                                                                            326017                                                                                   
NA50                           112914                                                                                            148146                                                                                   
NGA50                          112914                                                                                            148146                                                                                   
NA75                           75431                                                                                             87772                                                                                    
NGA75                          75431                                                                                             87772                                                                                    
