All statistics are based on contigs of size >= 200 bp, unless otherwise noted (e.g., "# contigs (>= 0 bp)" and "Total length (>= 0 bp)" include all contigs).

Assembly                                                                                          #Contigs  #Contigs (>= 0 bp)  #Contigs (>= 1000 bp)  Largest contig  Total length  Total length (>= 0 bp)  Total length (>= 1000 bp)  Reference length  N50     NG50    N75     NG75    L50  LG50  L75  LG75  #local misassemblies  #misassemblies  #misassembled contigs  Misassembled contigs length  Misassemblies inter-contig overlap  #unaligned contigs  Unaligned contigs length  #ambiguously mapped contigs  Extra bases in ambiguously mapped contigs  #N's  #N's per 100 kbp  Genome fraction (%)  Duplication ratio  #genes          #predicted genes (unique)  #predicted genes (>= 0 bp)  #predicted genes (>= 300 bp)  #predicted genes (>= 1500 bp)  #predicted genes (>= 3000 bp)  #mismatches  #indels  Indels length  #mismatches per 100 kbp  #indels per 100 kbp  GC (%)  Reference GC (%)  Average %IDY  Largest alignment  NA50    NGA50   NA75   NGA75  LA50  LGA50  LA75  LGA75  #Mis_misassemblies  #Mis_relocations  #Mis_translocations  #Mis_inversions  #Mis_misassembled contigs  Mis_Misassembled contigs length  #Mis_local misassemblies  #Mis_short indels (<= 5 bp)  #Mis_long indels (> 5 bp)  #Una_fully unaligned contigs  Una_Fully unaligned length  #Una_partially unaligned contigs  #Una_with misassembly  #Una_both parts are significant  Una_Partially unaligned length  GAGE_Contigs #  GAGE_Min contig  GAGE_Max contig  GAGE_N50         GAGE_Genome size  GAGE_Assembly size  GAGE_Chaff bases  GAGE_Missing reference bases  GAGE_Missing assembly bases  GAGE_Missing assembly contigs  GAGE_Duplicated reference bases  GAGE_Compressed reference bases  GAGE_Bad trim  GAGE_Avg idy  GAGE_SNPs  GAGE_Indels < 5bp  GAGE_Indels >= 5  GAGE_Inversions  GAGE_Relocation  GAGE_Translocation  GAGE_Corrected contig #  GAGE_Corrected assembly size  GAGE_Min correct contig  GAGE_Max correct contig  GAGE_Corrected N50
CLC_MIS_PE_mrsa_mis-1_bi_2x150bp_default__mrsa_mis-2_bi_2x150bp_default.76coverage.result_broken  52        53                  42                     308150          2778686       2778875                 2773352                    2813862           135344  135344  87777   81883   7    7     13   14    5                     3               3                      359361                       2184                                1 + 0 part          5386                      7                            -8576                                      12    0.43              98.309               1.000              2675 + 24 part  2626                       2626                        2287                          300                            29                             156          20       117            5.64                     0.72                 32.68   32.81             98.651        308150             112914  112914  75431  75431  8     8      15    15     3                   3                 0                    0                3                          359361                           5                         15                           5                          1                             5386                        0                                 0                      0                                0                               52              210              308150           135344 COUNT: 7  2813862           2778686             0                 6306(0.22%)                   5398(0.19%)                  1(1.92%)                       0                                35743                            6              99.99         75         9                  8                 0                3                0                   62                       2775384                       204                      308151                   109149 COUNT: 9   
CLC_MIS_PE_mrsa_mis-1_bi_2x150bp_default__mrsa_mis-2_bi_2x150bp_default.76coverage.result         46        46                  36                     326017          2779254       2779254                 2773920                    2813862           179162  179162  105738  105738  6    6     11   11    10                    3               3                      454615                       2184                                1 + 0 part          5386                      5                            -3888                                      391   14.07             98.486               1.000              2678 + 24 part  2623                       2623                        2287                          300                            29                             160          29       192            5.77                     1.05                 32.68   32.81             98.654        326017             148146  148146  87772  87772  7     7      13    13     3                   3                 0                    0                3                          454615                           10                        21                           8                          1                             5386                        0                                 0                      0                                0                               46              210              326017           179162 COUNT: 6  2813862           2779254             0                 5264(0.19%)                   5777(0.21%)                  1(2.17%)                       0                                36598                            82             99.99         75         9                  14                0                3                0                   62                       2775384                       204                      308151                   109149 COUNT: 9   
