calling: java -cp /vol/ngscomparison/software/analysis/quast-2.1/libs/gage:. SizeFasta /vol/codine-tmp/juene/tmp.rj6VmZfaAo/quast/corrected_input/Ecoli_Sakai_editedNew_plasmids.fasta |awk '{SUM+=; print SUM}'|tail -n 1
Contig Stats
Total units: 1487
Reference: 5594470
BasesInFasta: 5344754
Min: 200
Max: 46515
N10: 23061 COUNT: 19
N25: 13651 COUNT: 69
N50: 8101 COUNT: 204
N75: 3948 COUNT: 446
E-size:10286.41

Genome Size: 5594470
Assembly Size: 5344754
Chaff bases: 0
Missing Reference Bases: 90335(1.61%)
Missing Assembly Bases: 1379(0.03%)
Missing Assembly Contigs: 0(0.00%)
Duplicated Reference Bases: 10026
Compressed Reference Bases: 238938
Bad Trim: 518
Avg Idy: 99.95
SNPs: 131
Indels < 5bp: 2269
Indels >= 5: 47
Inversions: 3
Relocation: 49
Translocation: 0

Corrected Contig Stats
calling: java -cp /vol/ngscomparison/software/analysis/quast-2.1/libs/gage:.:. GetFastaStats -o -min 199 -genomeSize 5594470 /vol/codine-tmp/juene/tmp.rj6VmZfaAo/quast/gage/tmp/VELVET_PGM_sakai_pgm_mu_200bp_IO_TS3.0Disabled_stringent.0.34percent_69.final.contigs.matches.lens 2> /dev/null
Total units: 1543
Reference: 5594470
BasesInFasta: 5335013
Min: 200
Max: 46531
N10: 19615 COUNT: 21
N25: 12107 COUNT: 77
N50: 7403 COUNT: 228
N75: 3586 COUNT: 490
E-size:9326.34

Done
