calling: java -cp /vol/ngscomparison/software/analysis/quast-2.1/libs/gage:. SizeFasta /vol/codine-tmp/juene/tmp.jR25dXyrrl/quast/corrected_input/Ecoli_Sakai_editedNew_plasmids.fasta |awk '{SUM+=; print SUM}'|tail -n 1
Contig Stats
Total units: 351
Reference: 5594470
BasesInFasta: 5405758
Min: 200
Max: 356095
N10: 327237 COUNT: 2
N25: 248703 COUNT: 5
N50: 148296 COUNT: 12
N75: 72204 COUNT: 26
E-size:162869.38

Genome Size: 5594470
Assembly Size: 5405758
Chaff bases: 0
Missing Reference Bases: 11099(0.20%)
Missing Assembly Bases: 29546(0.55%)
Missing Assembly Contigs: 92(26.21%)
Duplicated Reference Bases: 11773
Compressed Reference Bases: 246958
Bad Trim: 308
Avg Idy: 99.99
SNPs: 100
Indels < 5bp: 14
Indels >= 5: 22
Inversions: 0
Relocation: 5
Translocation: 0

Corrected Contig Stats
calling: java -cp /vol/ngscomparison/software/analysis/quast-2.1/libs/gage:.:. GetFastaStats -o -min 199 -genomeSize 5594470 /vol/codine-tmp/juene/tmp.jR25dXyrrl/quast/gage/tmp/CLC_MIS_PE_sakai_mis-1_bi_2x250bp_SI_default__sakai_mis-2_bi_2x250bp_SI_default.36coverage.result.matches.lens 2> /dev/null
Total units: 263
Reference: 5594470
BasesInFasta: 5366027
Min: 200
Max: 313894
N10: 285960 COUNT: 2
N25: 170771 COUNT: 6
N50: 99595 COUNT: 17
N75: 41868 COUNT: 37
E-size:121267.31

Done
