All statistics are based on contigs of size >= 200 bp, unless otherwise noted (e.g., "# contigs (>= 0 bp)" and "Total length (>= 0 bp)" include all contigs).

Assembly                         ABYSS_PE_MIS_PE_mrsa_mis-1_bi_2x150bp_default__mrsa_mis-2_bi_2x150bp_default.51coverage_74.final_broken  ABYSS_PE_MIS_PE_mrsa_mis-1_bi_2x150bp_default__mrsa_mis-2_bi_2x150bp_default.51coverage_74.final
#Mis_misassemblies               2                                                                                                        3                                                                                               
#Mis_relocations                 2                                                                                                        3                                                                                               
#Mis_translocations              0                                                                                                        0                                                                                               
#Mis_inversions                  0                                                                                                        0                                                                                               
#Mis_misassembled contigs        2                                                                                                        2                                                                                               
Mis_Misassembled contigs length  72589                                                                                                    146380                                                                                          
#Mis_local misassemblies         2                                                                                                        9                                                                                               
#mismatches                      95                                                                                                       109                                                                                             
#indels                          26                                                                                                       107                                                                                             
#Mis_short indels (<= 5 bp)      24                                                                                                       100                                                                                             
#Mis_long indels (> 5 bp)        2                                                                                                        7                                                                                               
Indels length                    48                                                                                                       230                                                                                             
