Assembly	CLC_PGM_mtbh37_pgm_400bp_es_318v2_OT2_tsv3.6_morestringent.0.125percent.result
#Contigs	2079
#Contigs (>= 0 bp)	2079
#Contigs (>= 1000 bp)	877
Largest contig	22575
Total length	4150290
Total length (>= 0 bp)	4150290
Total length (>= 1000 bp)	3674149
Reference length	4411532
N50	5120
NG50	4810
N75	2445
NG75	1912
L50	246
LG50	272
L75	531
LG75	622
#local misassemblies	8
#misassemblies	83
#misassembled contigs	80
Misassembled contigs length	454082
Misassemblies inter-contig overlap	6647
#unaligned contigs	5 + 20 part
Unaligned contigs length	3362
#ambiguously mapped contigs	15
Extra bases in ambiguously mapped contigs	-8057
#N's	342
#N's per 100 kbp	8.24
Genome fraction (%)	91.236
Duplication ratio	1.030
#genes	2764 + 1245 part
#predicted genes (unique)	6125
#predicted genes (>= 0 bp)	6126
#predicted genes (>= 300 bp)	4053
#predicted genes (>= 1500 bp)	230
#predicted genes (>= 3000 bp)	9
#mismatches	1308
#indels	3783
Indels length	4113
#mismatches per 100 kbp	32.50
#indels per 100 kbp	93.99
GC (%)	65.23
Reference GC (%)	65.61
Average %IDY	99.757
Largest alignment	22575
NA50	4780
NGA50	4448
NA75	2303
NGA75	1837
LA50	261
LGA50	290
LA75	566
LGA75	661
#Mis_misassemblies	83
#Mis_relocations	83
#Mis_translocations	0
#Mis_inversions	0
#Mis_misassembled contigs	80
Mis_Misassembled contigs length	454082
#Mis_local misassemblies	8
#Mis_short indels (<= 5 bp)	3777
#Mis_long indels (> 5 bp)	6
#Una_fully unaligned contigs	5
Una_Fully unaligned length	1633
#Una_partially unaligned contigs	20
#Una_with misassembly	0
#Una_both parts are significant	1
Una_Partially unaligned length	1729
GAGE_Contigs #	2079
GAGE_Min contig	200
GAGE_Max contig	22575
GAGE_N50	4810 COUNT: 272
GAGE_Genome size	4411532
GAGE_Assembly size	4150290
GAGE_Chaff bases	0
GAGE_Missing reference bases	332502(7.54%)
GAGE_Missing assembly bases	5332(0.13%)
GAGE_Missing assembly contigs	6(0.29%)
GAGE_Duplicated reference bases	42327
GAGE_Compressed reference bases	49363
GAGE_Bad trim	2257
GAGE_Avg idy	99.86
GAGE_SNPs	555
GAGE_Indels < 5bp	3529
GAGE_Indels >= 5	11
GAGE_Inversions	34
GAGE_Relocation	23
GAGE_Translocation	0
GAGE_Corrected contig #	2011
GAGE_Corrected assembly size	4110462
GAGE_Min correct contig	200
GAGE_Max correct contig	22580
GAGE_Corrected N50	4459 COUNT: 292
