Assembly	CLC_PGM_mtbh37_pgm_400bp_es_318v2_OT2_tsv3.6_morestringent.0.125percent.result
#Contigs (>= 0 bp)	2079
#Contigs (>= 1000 bp)	877
Total length (>= 0 bp)	4150290
Total length (>= 1000 bp)	3674149
#Contigs	2079
Largest contig	22575
Total length	4150290
Reference length	4411532
GC (%)	65.23
Reference GC (%)	65.61
N50	5120
NG50	4810
N75	2445
NG75	1912
#misassemblies	83
#local misassemblies	8
#unaligned contigs	5 + 20 part
Unaligned contigs length	3362
Genome fraction (%)	91.236
Duplication ratio	1.030
#N's per 100 kbp	8.24
#mismatches per 100 kbp	32.50
#indels per 100 kbp	93.99
#genes	2764 + 1245 part
#predicted genes (unique)	6125
#predicted genes (>= 0 bp)	6126
#predicted genes (>= 300 bp)	4053
#predicted genes (>= 1500 bp)	230
#predicted genes (>= 3000 bp)	9
Largest alignment	22575
NA50	4780
NGA50	4448
NA75	2303
NGA75	1837
