Assembly	NEWBLER_PGM_sakai_pgm_mu_200bp_IO_TS3.0Disabled_stringent.0.4percent.contigs
#Contigs (>= 0 bp)	421
#Contigs (>= 1000 bp)	157
Total length (>= 0 bp)	5338986
Total length (>= 1000 bp)	5247982
#Contigs	339
Largest contig	313793
Total length	5327229
Reference length	5594470
GC (%)	50.27
Reference GC (%)	50.48
N50	142170
NG50	128911
N75	55515
NG75	43039
#misassemblies	4
#local misassemblies	8
#unaligned contigs	0 + 0 part
Unaligned contigs length	0
Genome fraction (%)	93.695
Duplication ratio	1.000
#N's per 100 kbp	0.00
#mismatches per 100 kbp	1.76
#indels per 100 kbp	19.44
#genes	4928 + 177 part
#predicted genes (unique)	5719
#predicted genes (>= 0 bp)	5719
#predicted genes (>= 300 bp)	4659
#predicted genes (>= 1500 bp)	566
#predicted genes (>= 3000 bp)	47
Largest alignment	313793
NA50	128911
NGA50	124132
NA75	55515
NGA75	43039
