Assembly	GAGE_Contigs #	GAGE_Min contig	GAGE_Max contig	GAGE_N50	GAGE_Genome size	GAGE_Assembly size	GAGE_Chaff bases	GAGE_Missing reference bases	GAGE_Missing assembly bases	GAGE_Missing assembly contigs	GAGE_Duplicated reference bases	GAGE_Compressed reference bases	GAGE_Bad trim	GAGE_Avg idy	GAGE_SNPs	GAGE_Indels < 5bp	GAGE_Indels >= 5	GAGE_Inversions	GAGE_Relocation	GAGE_Translocation	GAGE_Corrected contig #	GAGE_Corrected assembly size	GAGE_Min correct contig	GAGE_Max correct contig	GAGE_Corrected N50
VELVET_MIS_PE_mrsa_mis-1_bi_2x150bp_default__mrsa_mis-2_bi_2x150bp_default.0.527percent_15.final.contigs_broken	2731	200	3346	240 COUNT: 2302	2813862	1501115	0	1310067(46.56%)	5286(0.35%)	8(0.29%)	1828	9778	39	99.96	439	118	9	3	3	0	2716	1492366	200	3346	236 COUNT: 2324
VELVET_MIS_PE_mrsa_mis-1_bi_2x150bp_default__mrsa_mis-2_bi_2x150bp_default.0.527percent_15.final.contigs	1394	200	13463	673 COUNT: 729	2813862	1645903	0	1248941(44.39%)	88646(5.39%)	2(0.14%)	1828	9778	12883	99.93	445	223	1289	80	401	0	2670	1489968	200	3346	237 COUNT: 2289
