calling: java -cp /vol/ngscomparison/software/analysis/quast-2.1/libs/gage:. SizeFasta /vol/codine-tmp/juene/tmp.m0uPf34ABj/quast/corrected_input/Ecoli_Sakai_editedNew_plasmids.fasta |awk '{SUM+=; print SUM}'|tail -n 1
Contig Stats
Total units: 613
Reference: 5594470
BasesInFasta: 5347396
Min: 201
Max: 131547
N10: 76091 COUNT: 6
N25: 51878 COUNT: 20
N50: 27233 COUNT: 59
N75: 13755 COUNT: 128
E-size:35064.81

Genome Size: 5594470
Assembly Size: 5347396
Chaff bases: 0
Missing Reference Bases: 54228(0.97%)
Missing Assembly Bases: 5460(0.10%)
Missing Assembly Contigs: 1(0.16%)
Duplicated Reference Bases: 9856
Compressed Reference Bases: 248526
Bad Trim: 18
Avg Idy: 99.99
SNPs: 445
Indels < 5bp: 32
Indels >= 5: 10
Inversions: 1
Relocation: 10
Translocation: 0

Corrected Contig Stats
calling: java -cp /vol/ngscomparison/software/analysis/quast-2.1/libs/gage:.:. GetFastaStats -o -min 199 -genomeSize 5594470 /vol/codine-tmp/juene/tmp.m0uPf34ABj/quast/gage/tmp/VELVET_MIS_PE_sakai_mis-both_bi_2x250bp_SI_default.0.64percent_57.final.contigs_broken.matches.lens 2> /dev/null
Total units: 596
Reference: 5594470
BasesInFasta: 5334755
Min: 201
Max: 123428
N10: 72681 COUNT: 7
N25: 50822 COUNT: 21
N50: 26485 COUNT: 61
N75: 12433 COUNT: 134
E-size:33490.32

Done
