Assembly	ABYSS_PE_PGM_mrsa_pgm_400bp_es_318_IKA_ts3.2_morestringent.21coverage_32.final
#Contigs	988
#Contigs (>= 0 bp)	4703
#Contigs (>= 1000 bp)	610
Largest contig	28205
Total length	2696586
Total length (>= 0 bp)	2898449
Total length (>= 1000 bp)	2510209
Reference length	2813862
N50	5299
NG50	5028
N75	2644
NG75	2364
L50	145
LG50	156
L75	325
LG75	359
#local misassemblies	2
#misassemblies	0
#misassembled contigs	0
Misassembled contigs length	0
Misassemblies inter-contig overlap	151
#unaligned contigs	0 + 1 part
Unaligned contigs length	24
#ambiguously mapped contigs	9
Extra bases in ambiguously mapped contigs	-5273
#N's	0
#N's per 100 kbp	0.00
Genome fraction (%)	95.397
Duplication ratio	1.003
#genes	2049 + 557 part
#predicted genes (unique)	3146
#predicted genes (>= 0 bp)	3146
#predicted genes (>= 300 bp)	2428
#predicted genes (>= 1500 bp)	235
#predicted genes (>= 3000 bp)	17
#mismatches	38
#indels	270
Indels length	273
#mismatches per 100 kbp	1.42
#indels per 100 kbp	10.06
GC (%)	32.62
Reference GC (%)	32.81
Average %IDY	99.946
Largest alignment	28205
NA50	5299
NGA50	5028
NA75	2644
NGA75	2362
LA50	145
LGA50	156
LA75	325
LGA75	359
#Mis_misassemblies	0
#Mis_relocations	0
#Mis_translocations	0
#Mis_inversions	0
#Mis_misassembled contigs	0
Mis_Misassembled contigs length	0
#Mis_local misassemblies	2
#Mis_short indels (<= 5 bp)	270
#Mis_long indels (> 5 bp)	0
#Una_fully unaligned contigs	0
Una_Fully unaligned length	0
#Una_partially unaligned contigs	1
#Una_with misassembly	0
#Una_both parts are significant	0
Una_Partially unaligned length	24
GAGE_Contigs #	988
GAGE_Min contig	201
GAGE_Max contig	28205
GAGE_N50	5028 COUNT: 156
GAGE_Genome size	2813862
GAGE_Assembly size	2696586
GAGE_Chaff bases	0
GAGE_Missing reference bases	113965(4.05%)
GAGE_Missing assembly bases	57(0.00%)
GAGE_Missing assembly contigs	0(0.00%)
GAGE_Duplicated reference bases	0
GAGE_Compressed reference bases	10842
GAGE_Bad trim	57
GAGE_Avg idy	99.99
GAGE_SNPs	57
GAGE_Indels < 5bp	251
GAGE_Indels >= 5	2
GAGE_Inversions	0
GAGE_Relocation	0
GAGE_Translocation	0
GAGE_Corrected contig #	989
GAGE_Corrected assembly size	2696869
GAGE_Min correct contig	201
GAGE_Max correct contig	28206
GAGE_Corrected N50	5028 COUNT: 156
