Assembly	#Una_fully unaligned contigs	Una_Fully unaligned length	#Una_partially unaligned contigs	#Una_with misassembly	#Una_both parts are significant	Una_Partially unaligned length	#N's
SOAP2_MIS_PE_mrsa_mis-1_bi_2x250bp_default.0.460percent_83.final.scaf_broken	3591	907854	156	0	0	17749	221
SOAP2_MIS_PE_mrsa_mis-1_bi_2x250bp_default.0.460percent_83.final.scaf	3592	908817	156	0	0	17864	3118
