Assembly	CLC_PGM_mtbh37_pgm_400bp_es_318v2_OT2_tsv3.6_morestringent.0.025percent.result
#Contigs (>= 0 bp)	3629
#Contigs (>= 1000 bp)	764
Total length (>= 0 bp)	2754293
Total length (>= 1000 bp)	1155253
#Contigs	3629
Largest contig	4752
Total length	2754293
Reference length	4411532
GC (%)	64.35
Reference GC (%)	65.61
N50	878
NG50	522
N75	570
NG75	None
#misassemblies	291
#local misassemblies	9
#unaligned contigs	12 + 64 part
Unaligned contigs length	16226
Genome fraction (%)	60.874
Duplication ratio	1.022
#N's per 100 kbp	22.84
#mismatches per 100 kbp	121.17
#indels per 100 kbp	326.98
#genes	687 + 2832 part
#predicted genes (unique)	6087
#predicted genes (>= 0 bp)	6092
#predicted genes (>= 300 bp)	2888
#predicted genes (>= 1500 bp)	6
#predicted genes (>= 3000 bp)	0
Largest alignment	4641
NA50	820
NGA50	491
NA75	540
NGA75	None
