All statistics are based on contigs of size >= 200 bp, unless otherwise noted (e.g., "# contigs (>= 0 bp)" and "Total length (>= 0 bp)" include all contigs).

Assembly                                                                        #Contigs  #Contigs (>= 0 bp)  #Contigs (>= 1000 bp)  Largest contig  Total length  Total length (>= 0 bp)  Total length (>= 1000 bp)  Reference length  N50    NG50   N75    NG75   L50  LG50  L75  LG75  #local misassemblies  #misassemblies  #misassembled contigs  Misassembled contigs length  Misassemblies inter-contig overlap  #unaligned contigs  Unaligned contigs length  #ambiguously mapped contigs  Extra bases in ambiguously mapped contigs  #N's   #N's per 100 kbp  Genome fraction (%)  Duplication ratio  #genes           #predicted genes (unique)  #predicted genes (>= 0 bp)  #predicted genes (>= 300 bp)  #predicted genes (>= 1500 bp)  #predicted genes (>= 3000 bp)  #mismatches  #indels  Indels length  #mismatches per 100 kbp  #indels per 100 kbp  GC (%)  Reference GC (%)  Average %IDY  Largest alignment  NA50   NGA50  NA75   NGA75  LA50  LGA50  LA75  LGA75  #Mis_misassemblies  #Mis_relocations  #Mis_translocations  #Mis_inversions  #Mis_misassembled contigs  Mis_Misassembled contigs length  #Mis_local misassemblies  #Mis_short indels (<= 5 bp)  #Mis_long indels (> 5 bp)  #Una_fully unaligned contigs  Una_Fully unaligned length  #Una_partially unaligned contigs  #Una_with misassembly  #Una_both parts are significant  Una_Partially unaligned length  GAGE_Contigs #  GAGE_Min contig  GAGE_Max contig  GAGE_N50         GAGE_Genome size  GAGE_Assembly size  GAGE_Chaff bases  GAGE_Missing reference bases  GAGE_Missing assembly bases  GAGE_Missing assembly contigs  GAGE_Duplicated reference bases  GAGE_Compressed reference bases  GAGE_Bad trim  GAGE_Avg idy  GAGE_SNPs  GAGE_Indels < 5bp  GAGE_Indels >= 5  GAGE_Inversions  GAGE_Relocation  GAGE_Translocation  GAGE_Corrected contig #  GAGE_Corrected assembly size  GAGE_Min correct contig  GAGE_Max correct contig  GAGE_Corrected N50
SOAP2_MIS_PE_sakai_mis-1_bi_2x150bp_default.0.826percent_119.final.scaf_broken  1522      1982                762                    57827           5439806       5510091                 5146727                    5594470           9390   9112   4788   4481   166  174   360  385   4                     4               4                      75920                        29                                  4 + 0 part          5974                      420                          -151946                                    348    6.40              94.323               1.001              4389 + 797 part  6218                       6248                        4702                          595                            48                             95           115      936            1.80                     2.18                 50.36   50.48             99.131        57827              9390   9112   4705   4462   166   174    361   386    4                   4                 0                    0                4                          75920                            4                         68                           47                         4                             5974                        0                                 0                      0                                0                               1522            200              57827            9112 COUNT: 174  5594470           5439806             0                 27512(0.49%)                  6207(0.11%)                  4(0.26%)                       18321                            272322                           61             99.99         95         129                49                0                3                0                   1505                     5415158                       200                      53798                    8518 COUNT: 185   
SOAP2_MIS_PE_sakai_mis-1_bi_2x150bp_default.0.826percent_119.final.scaf         686       1107                203                    200086          5478746       5542556                 5319715                    5594470           72226  72226  31244  30924  26   26    56   59    113                   16              15                     292898                       29                                  16 + 13 part        31484                     386                          -142110                                    32813  598.91            94.266               1.006              4877 + 281 part  5941                       5967                        4646                          612                            55                             207          6314     15308          3.93                     119.73               50.36   50.48             98.984        199890             72226  65876  31207  30811  26    27     56    59     16                  16                0                    0                15                         292898                           113                       5917                         397                        16                            17599                       13                                0                      11                               13885                           686             200              200086           72226 COUNT: 26  5594470           5478746             0                 27143(0.49%)                  40871(0.75%)                 4(0.58%)                       17546                            264420                           4503           99.95         93         412                689               2                7                0                   1399                     5415011                       200                      53798                    9826 COUNT: 163   
