Assembly	SOAP2_MIS_PE_sakai_mis-1_bi_2x150bp_default.0.826percent_37.final.scaf_broken	SOAP2_MIS_PE_sakai_mis-1_bi_2x150bp_default.0.826percent_37.final.scaf
#Una_fully unaligned contigs	44	182
Una_Fully unaligned length	12552	112181
#Una_partially unaligned contigs	3	47
#Una_with misassembly	0	0
#Una_both parts are significant	0	11
Una_Partially unaligned length	213	23339
#N's	80	33009
