calling: java -cp /vol/ngscomparison/software/analysis/quast-2.1/libs/gage:. SizeFasta /vol/codine-tmp/juene/tmp.ryN4WnxHbY/quast/corrected_input/Mycobacterium_tuberculosis_H37Rv.fasta |awk '{SUM+=; print SUM}'|tail -n 1
Contig Stats
Total units: 6301
Reference: 4411532
BasesInFasta: 2201577
Min: 200
Max: 2356
N10: 577 COUNT: 581
N25: 354 COUNT: 2084
N50: 0 COUNT: 0
N75: 0 COUNT: 0
E-size:215.15

Genome Size: 4411532
Assembly Size: 2201577
Chaff bases: 0
Missing Reference Bases: 2219970(50.32%)
Missing Assembly Bases: 685(0.03%)
Missing Assembly Contigs: 0(0.00%)
Duplicated Reference Bases: 472
Compressed Reference Bases: 4023
Bad Trim: 685
Avg Idy: 99.93
SNPs: 104
Indels < 5bp: 1370
Indels >= 5: 4
Inversions: 0
Relocation: 0
Translocation: 0

Corrected Contig Stats
calling: java -cp /vol/ngscomparison/software/analysis/quast-2.1/libs/gage:.:. GetFastaStats -o -min 199 -genomeSize 4411532 /vol/codine-tmp/juene/tmp.ryN4WnxHbY/quast/gage/tmp/VELVET_PGM_mtbh37_pgm_400bp_es_318v2_OT2_tsv3.6_morestringent_57.final.contigs.matches.lens 2> /dev/null
Total units: 6290
Reference: 4411532
BasesInFasta: 2198960
Min: 200
Max: 2356
N10: 578 COUNT: 581
N25: 354 COUNT: 2084
N50: 0 COUNT: 0
N75: 0 COUNT: 0
E-size:215.03

Done
