Assembly	GAGE_Contigs #	GAGE_Min contig	GAGE_Max contig	GAGE_N50	GAGE_Genome size	GAGE_Assembly size	GAGE_Chaff bases	GAGE_Missing reference bases	GAGE_Missing assembly bases	GAGE_Missing assembly contigs	GAGE_Duplicated reference bases	GAGE_Compressed reference bases	GAGE_Bad trim	GAGE_Avg idy	GAGE_SNPs	GAGE_Indels < 5bp	GAGE_Indels >= 5	GAGE_Inversions	GAGE_Relocation	GAGE_Translocation	GAGE_Corrected contig #	GAGE_Corrected assembly size	GAGE_Min correct contig	GAGE_Max correct contig	GAGE_Corrected N50
VELVET_MIS_PE_mtbh37-1_mis_2x250bp_nextera_default__mtbh37-2_mis_2x250bp_nextera_default_137.final.contigs_broken	347	229	92958	23790 COUNT: 57	4411532	4290930	0	91672(2.08%)	1062(0.02%)	0(0.00%)	1304	54946	1062	99.99	161	31	10	0	3	0	358	4291242	240	78053	22099 COUNT: 60
VELVET_MIS_PE_mtbh37-1_mis_2x250bp_nextera_default__mtbh37-2_mis_2x250bp_nextera_default_137.final.contigs	197	273	156358	55055 COUNT: 28	4411532	4313332	0	91625(2.08%)	23417(0.54%)	0(0.00%)	1228	54946	1139	99.99	161	31	155	1	5	0	356	4291289	240	78053	22296 COUNT: 60
