All statistics are based on contigs of size >= 200 bp, unless otherwise noted (e.g., "# contigs (>= 0 bp)" and "Total length (>= 0 bp)" include all contigs).

Assembly                                                                                                          #Contigs  #Contigs (>= 0 bp)  #Contigs (>= 1000 bp)  Largest contig  Total length  Total length (>= 0 bp)  Total length (>= 1000 bp)  Reference length  N50    NG50   N75    NG75   L50  LG50  L75  LG75  #local misassemblies  #misassemblies  #misassembled contigs  Misassembled contigs length  Misassemblies inter-contig overlap  #unaligned contigs  Unaligned contigs length  #ambiguously mapped contigs  Extra bases in ambiguously mapped contigs  #N's   #N's per 100 kbp  Genome fraction (%)  Duplication ratio  #genes           #predicted genes (unique)  #predicted genes (>= 0 bp)  #predicted genes (>= 300 bp)  #predicted genes (>= 1500 bp)  #predicted genes (>= 3000 bp)  #mismatches  #indels  Indels length  #mismatches per 100 kbp  #indels per 100 kbp  GC (%)  Reference GC (%)  Average %IDY  Largest alignment  NA50   NGA50  NA75   NGA75  LA50  LGA50  LA75  LGA75  #Mis_misassemblies  #Mis_relocations  #Mis_translocations  #Mis_inversions  #Mis_misassembled contigs  Mis_Misassembled contigs length  #Mis_local misassemblies  #Mis_short indels (<= 5 bp)  #Mis_long indels (> 5 bp)  #Una_fully unaligned contigs  Una_Fully unaligned length  #Una_partially unaligned contigs  #Una_with misassembly  #Una_both parts are significant  Una_Partially unaligned length  GAGE_Contigs #  GAGE_Min contig  GAGE_Max contig  GAGE_N50         GAGE_Genome size  GAGE_Assembly size  GAGE_Chaff bases  GAGE_Missing reference bases  GAGE_Missing assembly bases  GAGE_Missing assembly contigs  GAGE_Duplicated reference bases  GAGE_Compressed reference bases  GAGE_Bad trim  GAGE_Avg idy  GAGE_SNPs  GAGE_Indels < 5bp  GAGE_Indels >= 5  GAGE_Inversions  GAGE_Relocation  GAGE_Translocation  GAGE_Corrected contig #  GAGE_Corrected assembly size  GAGE_Min correct contig  GAGE_Max correct contig  GAGE_Corrected N50
VELVET_MIS_PE_mtbh37-1_mis_2x250bp_nextera_default__mtbh37-2_mis_2x250bp_nextera_default_71.final.contigs_broken  447       457                 369                    74792           4253140       4254806                 4211623                    4411532           19719  18395  9858   9090   67   71    145  157   20                    6               5                      42574                        13225                               1 + 0 part          553                       23                           -16557                                     0      0.00              96.018               1.003              3688 + 350 part  4223                       4226                        3639                          524                            62                             324          101      284            7.65                     2.38                 65.39   65.61             99.798        74792              19719  18395  9858   9010   67    71     145   158    6                   6                 0                    0                5                          42574                            20                        95                           6                          1                             553                         0                                 0                      0                                0                               447             216              74792            18395 COUNT: 71  4411532           4253140             0                 114901(2.60%)                 1007(0.02%)                  0(0.00%)                       1407                             56367                            1007           99.99         248        39                 16                0                10               0                   469                      4254304                       216                      74791                    16766 COUNT: 75   
VELVET_MIS_PE_mtbh37-1_mis_2x250bp_nextera_default__mtbh37-2_mis_2x250bp_nextera_default_71.final.contigs         180       188                 137                    128427          4278193       4279572                 4255675                    4411532           66194  65458  34460  32841  23   24    45   48    191                   13              10                     399609                       13225                               2 + 1 part          2207                      21                           -15473                                     24766  578.89            96.090               1.008              3766 + 273 part  4173                       4176                        3618                          525                            62                             325          770      2345           7.67                     18.16                65.39   65.61             99.743        127685             64157  62655  32984  30539  24    25     47    50     13                  13                0                    0                10                         399609                           191                       712                          58                         2                             1393                        1                                 0                      1                                814                             180             220              128427           65458 COUNT: 24  4411532           4278193             0                 114212(2.59%)                 25370(0.59%)                 0(0.00%)                       1407                             56367                            1131           99.98         248        56                 260               2                20               0                   459                      4254847                       216                      87369                    18260 COUNT: 72   
