All statistics are based on contigs of size >= 200 bp, unless otherwise noted (e.g., "# contigs (>= 0 bp)" and "Total length (>= 0 bp)" include all contigs).

Assembly                                                                                      #Contigs  #Contigs (>= 0 bp)  #Contigs (>= 1000 bp)  Largest contig  Total length  Total length (>= 0 bp)  Total length (>= 1000 bp)  Reference length  N50    NG50   N75    NG75   L50  LG50  L75  LG75  #local misassemblies  #misassemblies  #misassembled contigs  Misassembled contigs length  Misassemblies inter-contig overlap  #unaligned contigs  Unaligned contigs length  #ambiguously mapped contigs  Extra bases in ambiguously mapped contigs  #N's  #N's per 100 kbp  Genome fraction (%)  Duplication ratio  #genes           #predicted genes (unique)  #predicted genes (>= 0 bp)  #predicted genes (>= 300 bp)  #predicted genes (>= 1500 bp)  #predicted genes (>= 3000 bp)  #mismatches  #indels  Indels length  #mismatches per 100 kbp  #indels per 100 kbp  GC (%)  Reference GC (%)  Average %IDY  Largest alignment  NA50   NGA50  NA75   NGA75  LA50  LGA50  LA75  LGA75  #Mis_misassemblies  #Mis_relocations  #Mis_translocations  #Mis_inversions  #Mis_misassembled contigs  Mis_Misassembled contigs length  #Mis_local misassemblies  #Mis_short indels (<= 5 bp)  #Mis_long indels (> 5 bp)  #Una_fully unaligned contigs  Una_Fully unaligned length  #Una_partially unaligned contigs  #Una_with misassembly  #Una_both parts are significant  Una_Partially unaligned length  GAGE_Contigs #  GAGE_Min contig  GAGE_Max contig  GAGE_N50         GAGE_Genome size  GAGE_Assembly size  GAGE_Chaff bases  GAGE_Missing reference bases  GAGE_Missing assembly bases  GAGE_Missing assembly contigs  GAGE_Duplicated reference bases  GAGE_Compressed reference bases  GAGE_Bad trim  GAGE_Avg idy  GAGE_SNPs  GAGE_Indels < 5bp  GAGE_Indels >= 5  GAGE_Inversions  GAGE_Relocation  GAGE_Translocation  GAGE_Corrected contig #  GAGE_Corrected assembly size  GAGE_Min correct contig  GAGE_Max correct contig  GAGE_Corrected N50
ABYSS_PE_MIS_PE_sakai_mis-both_bi_2x250bp_SI_default.0.64percent.NEWBLER_58-scaffolds_broken  307       1131                196                    236675          5420429       5508597                 5365414                    5594470           95737  90897  42303  39789  17   18    38   41    6                     6               6                      262352                       23350                               0 + 0 part          0                         43                           -41004                                     62    1.14              95.417               1.012              4994 + 183 part  5250                       5344                        4479                          680                            73                             1171         59       340            21.94                    1.11                 50.36   50.48             99.093        236675             95737  90897  41490  37077  17    18     38    41     6                   6                 0                    0                6                          262352                           6                         49                           10                         0                             0                           0                                 0                      0                                0                               307             200              236675           90897 COUNT: 18  5594470           5420429             0                 59861(1.07%)                  12(0.00%)                    0(0.00%)                       12580                            217794                           0              99.97         820        43                 13                1                3                0                   305                      5411882                       200                      224154                   77762 COUNT: 22   
ABYSS_PE_MIS_PE_sakai_mis-both_bi_2x250bp_SI_default.0.64percent.NEWBLER_58-scaffolds         259       1083                178                    376741          5422900       5511068                 5380100                    5594470           99767  99767  43766  41596  16   16    34   37    24                    12              10                     517055                       24108                               2 + 1 part          3551                      23                           -21070                                     2533  46.71             95.715               1.013              5019 + 178 part  5241                       5334                        4479                          680                            72                             1211         161      638            22.62                    3.01                 50.36   50.48             99.057        236675             99767  99767  43766  41490  17    17     35    38     12                  12                0                    0                10                         517055                           24                        141                          20                         2                             1712                        1                                 0                      1                                1839                            259             200              376741           99767 COUNT: 16  5594470           5422900             0                 59879(1.07%)                  2375(0.04%)                  0(0.00%)                       11703                            216319                           50             99.97         820        43                 44                3                11               0                   305                      5412867                       200                      224154                   77762 COUNT: 22   
