1: PREPARING DATA
2,3: RUNNING mummer AND CREATING CLUSTERS
# reading input file "/vol/codine-tmp/juene/tmp.C8llbj4e87/quast/contigs_reports/nucmer_output/ABYSS_PE_PGM_mrsa_pgm_200bp_es_316_IonOnev2_ts3.0_morestringent.0.230percent_64-unitigs.ntref" of length 2813864
# construct suffix tree for sequence of length 2813864
# (maximum reference length is 536870908)
# (maximum query length is 4294967295)
# process 28138 characters per dot
#....................................................................................................
# CONSTRUCTIONTIME /vol/ngscomparison/software/analysis/quast-2.1/libs/MUMmer3.23-linux/mummer /vol/codine-tmp/juene/tmp.C8llbj4e87/quast/contigs_reports/nucmer_output/ABYSS_PE_PGM_mrsa_pgm_200bp_es_316_IonOnev2_ts3.0_morestringent.0.230percent_64-unitigs.ntref 1.63
# reading input file "/vol/codine-tmp/juene/tmp.C8llbj4e87/quast/corrected_input/ABYSS_PE_PGM_mrsa_pgm_200bp_es_316_IonOnev2_ts3.0_morestringent.0.230percent_64-unitigs" of length 2754655
# matching query-file "/vol/codine-tmp/juene/tmp.C8llbj4e87/quast/corrected_input/ABYSS_PE_PGM_mrsa_pgm_200bp_es_316_IonOnev2_ts3.0_morestringent.0.230percent_64-unitigs"
# against subject-file "/vol/codine-tmp/juene/tmp.C8llbj4e87/quast/contigs_reports/nucmer_output/ABYSS_PE_PGM_mrsa_pgm_200bp_es_316_IonOnev2_ts3.0_morestringent.0.230percent_64-unitigs.ntref"
# COMPLETETIME /vol/ngscomparison/software/analysis/quast-2.1/libs/MUMmer3.23-linux/mummer /vol/codine-tmp/juene/tmp.C8llbj4e87/quast/contigs_reports/nucmer_output/ABYSS_PE_PGM_mrsa_pgm_200bp_es_316_IonOnev2_ts3.0_morestringent.0.230percent_64-unitigs.ntref 4.26
# SPACE /vol/ngscomparison/software/analysis/quast-2.1/libs/MUMmer3.23-linux/mummer /vol/codine-tmp/juene/tmp.C8llbj4e87/quast/contigs_reports/nucmer_output/ABYSS_PE_PGM_mrsa_pgm_200bp_es_316_IonOnev2_ts3.0_morestringent.0.230percent_64-unitigs.ntref 5.41
4: FINISHING DATA
