Assembly	SOAP2_PGM_mrsa_pgm_200bp_es_316_IonOnev2_ts3.0_morestringent.0.230percent_111.final.contig
#Mis_misassemblies	13
#Mis_relocations	8
#Mis_translocations	0
#Mis_inversions	5
#Mis_misassembled contigs	13
Mis_Misassembled contigs length	7869
#Mis_local misassemblies	0
#mismatches	84
#indels	1293
#Mis_short indels (<= 5 bp)	1293
#Mis_long indels (> 5 bp)	0
Indels length	1316
