All statistics are based on contigs of size >= 200 bp, unless otherwise noted (e.g., "# contigs (>= 0 bp)" and "Total length (>= 0 bp)" include all contigs).

Assembly                                                                                                                 #Contigs  #Contigs (>= 0 bp)  #Contigs (>= 1000 bp)  Largest contig  Total length  Total length (>= 0 bp)  Total length (>= 1000 bp)  Reference length  N50    NG50   N75    NG75   L50  LG50  L75  LG75  #local misassemblies  #misassemblies  #misassembled contigs  Misassembled contigs length  Misassemblies inter-contig overlap  #unaligned contigs  Unaligned contigs length  #ambiguously mapped contigs  Extra bases in ambiguously mapped contigs  #N's  #N's per 100 kbp  Genome fraction (%)  Duplication ratio  #genes           #predicted genes (unique)  #predicted genes (>= 0 bp)  #predicted genes (>= 300 bp)  #predicted genes (>= 1500 bp)  #predicted genes (>= 3000 bp)  #mismatches  #indels  Indels length  #mismatches per 100 kbp  #indels per 100 kbp  GC (%)  Reference GC (%)  Average %IDY  Largest alignment  NA50   NGA50  NA75   NGA75  LA50  LGA50  LA75  LGA75  #Mis_misassemblies  #Mis_relocations  #Mis_translocations  #Mis_inversions  #Mis_misassembled contigs  Mis_Misassembled contigs length  #Mis_local misassemblies  #Mis_short indels (<= 5 bp)  #Mis_long indels (> 5 bp)  #Una_fully unaligned contigs  Una_Fully unaligned length  #Una_partially unaligned contigs  #Una_with misassembly  #Una_both parts are significant  Una_Partially unaligned length  GAGE_Contigs #  GAGE_Min contig  GAGE_Max contig  GAGE_N50         GAGE_Genome size  GAGE_Assembly size  GAGE_Chaff bases  GAGE_Missing reference bases  GAGE_Missing assembly bases  GAGE_Missing assembly contigs  GAGE_Duplicated reference bases  GAGE_Compressed reference bases  GAGE_Bad trim  GAGE_Avg idy  GAGE_SNPs  GAGE_Indels < 5bp  GAGE_Indels >= 5  GAGE_Inversions  GAGE_Relocation  GAGE_Translocation  GAGE_Corrected contig #  GAGE_Corrected assembly size  GAGE_Min correct contig  GAGE_Max correct contig  GAGE_Corrected N50
ABYSS_PE_MIS_PE_mtbh37-1_mis_2x250bp_nextera_default__mtbh37-2_mis_2x250bp_nextera_default.0.900percent_84.final_broken  194       248                 168                    162948          4432023       4439063                 4419656                    4411532           55841  55841  33042  33042  26   26    53   53    21                    8               7                      330646                       34015                               0 + 0 part          0                         9                            -6359                                      43    0.97              99.108               1.020              3974 + 133 part  4093                       4188                        3667                          581                            78                             364          87       532            8.33                     1.99                 65.54   65.61             99.757        162948             53500  53500  30914  32430  27    27     55    54     8                   8                 0                    0                7                          330646                           21                        71                           16                         0                             0                           0                                 0                      0                                0                               194             208              162948           55841 COUNT: 26  4411532           4432023             0                 29625(0.67%)                  865(0.02%)                   0(0.00%)                       28004                            17190                            845            99.98         290        65                 32                2                2                0                   224                      4408079                       208                      134444                   42703 COUNT: 34   
ABYSS_PE_MIS_PE_mtbh37-1_mis_2x250bp_nextera_default__mtbh37-2_mis_2x250bp_nextera_default.0.900percent_84.final         148       202                 124                    204533          4434091       4441131                 4423342                    4411532           84924  84924  40555  43355  17   17    35   34    32                    8               7                      452064                       54296                               0 + 0 part          0                         9                            -6359                                      2111  47.61             99.115               1.025              4006 + 101 part  4080                       4175                        3659                          583                            79                             363          193      976            8.30                     4.41                 65.54   65.61             99.750        204411             76272  76272  39796  39796  18    18     37    37     8                   8                 0                    0                7                          452064                           32                        159                          34                         0                             0                           0                                 0                      0                                0                               148             208              204533           84924 COUNT: 17  4411532           4434091             0                 29359(0.67%)                  2638(0.06%)                  0(0.00%)                       28004                            16478                            845            99.98         290        99                 63                3                3                0                   211                      4408368                       208                      134444                   43355 COUNT: 30   
