All statistics are based on contigs of size >= 200 bp, unless otherwise noted (e.g., "# contigs (>= 0 bp)" and "Total length (>= 0 bp)" include all contigs).

Assembly                                   VELVET_MIS_PE_mrsa_mis-1_bi_2x150bp_default__mrsa_mis-2_bi_2x150bp_default.0.527percent_71.final.contigs_broken  VELVET_MIS_PE_mrsa_mis-1_bi_2x150bp_default__mrsa_mis-2_bi_2x150bp_default.0.527percent_71.final.contigs
#Contigs                                   84                                                                                                               54                                                                                                      
#Contigs (>= 0 bp)                         109                                                                                                              79                                                                                                      
#Contigs (>= 1000 bp)                      59                                                                                                               31                                                                                                      
Largest contig                             258821                                                                                                           673350                                                                                                  
Total length                               2786163                                                                                                          2787505                                                                                                 
Total length (>= 0 bp)                     2790170                                                                                                          2791512                                                                                                 
Total length (>= 1000 bp)                  2778198                                                                                                          2780773                                                                                                 
Reference length                           2813862                                                                                                          2813862                                                                                                 
N50                                        136428                                                                                                           229797                                                                                                  
NG50                                       136428                                                                                                           229797                                                                                                  
N75                                        51236                                                                                                            114011                                                                                                  
NG75                                       51236                                                                                                            114011                                                                                                  
L50                                        8                                                                                                                4                                                                                                       
LG50                                       8                                                                                                                4                                                                                                       
L75                                        16                                                                                                               8                                                                                                       
LG75                                       16                                                                                                               8                                                                                                       
#local misassemblies                       3                                                                                                                12                                                                                                      
#misassemblies                             2                                                                                                                8                                                                                                       
#misassembled contigs                      2                                                                                                                6                                                                                                       
Misassembled contigs length                161751                                                                                                           1405883                                                                                                 
Misassemblies inter-contig overlap         775                                                                                                              977                                                                                                     
#unaligned contigs                         1 + 1 part                                                                                                       1 + 0 part                                                                                              
Unaligned contigs length                   6230                                                                                                             5456                                                                                                    
#ambiguously mapped contigs                14                                                                                                               13                                                                                                      
Extra bases in ambiguously mapped contigs  -10366                                                                                                           -8861                                                                                                   
#N's                                       0                                                                                                                1342                                                                                                    
#N's per 100 kbp                           0.00                                                                                                             48.14                                                                                                   
Genome fraction (%)                        98.390                                                                                                           98.467                                                                                                  
Duplication ratio                          1.001                                                                                                            1.001                                                                                                   
#genes                                     2660 + 34 part                                                                                                   2674 + 22 part                                                                                          
#predicted genes (unique)                  2655                                                                                                             2646                                                                                                    
#predicted genes (>= 0 bp)                 2658                                                                                                             2649                                                                                                    
#predicted genes (>= 300 bp)               2298                                                                                                             2297                                                                                                    
#predicted genes (>= 1500 bp)              300                                                                                                              301                                                                                                     
#predicted genes (>= 3000 bp)              27                                                                                                               27                                                                                                      
#mismatches                                110                                                                                                              99                                                                                                      
#indels                                    15                                                                                                               152                                                                                                     
Indels length                              15                                                                                                               457                                                                                                     
#mismatches per 100 kbp                    3.97                                                                                                             3.57                                                                                                    
#indels per 100 kbp                        0.54                                                                                                             5.49                                                                                                    
GC (%)                                     32.69                                                                                                            32.69                                                                                                   
Reference GC (%)                           32.81                                                                                                            32.81                                                                                                   
Average %IDY                               98.626                                                                                                           98.601                                                                                                  
Largest alignment                          258821                                                                                                           491014                                                                                                  
NA50                                       133607                                                                                                           178769                                                                                                  
NGA50                                      133607                                                                                                           178769                                                                                                  
NA75                                       51236                                                                                                            78539                                                                                                   
NGA75                                      51236                                                                                                            78539                                                                                                   
LA50                                       8                                                                                                                5                                                                                                       
LGA50                                      8                                                                                                                5                                                                                                       
LA75                                       17                                                                                                               11                                                                                                      
LGA75                                      17                                                                                                               11                                                                                                      
#Mis_misassemblies                         2                                                                                                                8                                                                                                       
#Mis_relocations                           2                                                                                                                8                                                                                                       
#Mis_translocations                        0                                                                                                                0                                                                                                       
#Mis_inversions                            0                                                                                                                0                                                                                                       
#Mis_misassembled contigs                  2                                                                                                                6                                                                                                       
Mis_Misassembled contigs length            161751                                                                                                           1405883                                                                                                 
#Mis_local misassemblies                   3                                                                                                                12                                                                                                      
#Mis_short indels (<= 5 bp)                15                                                                                                               142                                                                                                     
#Mis_long indels (> 5 bp)                  0                                                                                                                10                                                                                                      
#Una_fully unaligned contigs               1                                                                                                                1                                                                                                       
Una_Fully unaligned length                 5456                                                                                                             5456                                                                                                    
#Una_partially unaligned contigs           1                                                                                                                0                                                                                                       
#Una_with misassembly                      0                                                                                                                0                                                                                                       
#Una_both parts are significant            1                                                                                                                0                                                                                                       
Una_Partially unaligned length             774                                                                                                              0                                                                                                       
GAGE_Contigs #                             84                                                                                                               54                                                                                                      
GAGE_Min contig                            201                                                                                                              201                                                                                                     
GAGE_Max contig                            258821                                                                                                           673350                                                                                                  
GAGE_N50                                   136428 COUNT: 8                                                                                                  229797 COUNT: 4                                                                                         
GAGE_Genome size                           2813862                                                                                                          2813862                                                                                                 
GAGE_Assembly size                         2786163                                                                                                          2787505                                                                                                 
GAGE_Chaff bases                           0                                                                                                                0                                                                                                       
GAGE_Missing reference bases               2622(0.09%)                                                                                                      2600(0.09%)                                                                                             
GAGE_Missing assembly bases                5457(0.20%)                                                                                                      6769(0.24%)                                                                                             
GAGE_Missing assembly contigs              1(1.19%)                                                                                                         1(1.85%)                                                                                                
GAGE_Duplicated reference bases            1293                                                                                                             1293                                                                                                    
GAGE_Compressed reference bases            38093                                                                                                            37993                                                                                                   
GAGE_Bad trim                              1                                                                                                                0                                                                                                       
GAGE_Avg idy                               99.99                                                                                                            99.99                                                                                                   
GAGE_SNPs                                  47                                                                                                               47                                                                                                      
GAGE_Indels < 5bp                          12                                                                                                               13                                                                                                      
GAGE_Indels >= 5                           3                                                                                                                19                                                                                                      
GAGE_Inversions                            0                                                                                                                3                                                                                                       
GAGE_Relocation                            2                                                                                                                8                                                                                                       
GAGE_Translocation                         0                                                                                                                0                                                                                                       
GAGE_Corrected contig #                    84                                                                                                               81                                                                                                      
GAGE_Corrected assembly size               2780056                                                                                                          2780174                                                                                                 
GAGE_Min correct contig                    202                                                                                                              202                                                                                                     
GAGE_Max correct contig                    258821                                                                                                           258821                                                                                                  
GAGE_Corrected N50                         133607 COUNT: 8                                                                                                  133607 COUNT: 8                                                                                         
