Assembly	SOAP2_PGM_sakai_pgm_mu_318_400bp_IO_TS3.4_ms_0.395percent_45.final.contig
#Una_fully unaligned contigs	256
Una_Fully unaligned length	58551
#Una_partially unaligned contigs	3
#Una_with misassembly	0
#Una_both parts are significant	0
Una_Partially unaligned length	159
#N's	0
