All statistics are based on contigs of size >= 200 bp, unless otherwise noted (e.g., "# contigs (>= 0 bp)" and "Total length (>= 0 bp)" include all contigs).

Assembly                          CLC_PGM_mrsa_pgm_200bp_es_316_IonOnev2_ts3.0_morestringent.0.100percent.result
#Una_fully unaligned contigs      1                                                                             
Una_Fully unaligned length        290                                                                           
#Una_partially unaligned contigs  21                                                                            
#Una_with misassembly             0                                                                             
#Una_both parts are significant   0                                                                             
Una_Partially unaligned length    1081                                                                          
#N's                              379                                                                           
