1: PREPARING DATA
2,3: RUNNING mummer AND CREATING CLUSTERS
# reading input file "/vol/codine-tmp/juene/tmp.vNm22p9AmF/quast/gage/tmp/VELVET_MIS_PE_sakai_mis-both_bi_2x250bp_SI_default.0.64percent_29.final.contigs_broken.ntref" of length 5594473
# construct suffix tree for sequence of length 5594473
# (maximum reference length is 536870908)
# (maximum query length is 4294967295)
# process 55944 characters per dot
#....................................................................................................
# CONSTRUCTIONTIME /vol/ngscomparison/software/analysis/quast-2.1/libs/MUMmer3.23-linux/mummer /vol/codine-tmp/juene/tmp.vNm22p9AmF/quast/gage/tmp/VELVET_MIS_PE_sakai_mis-both_bi_2x250bp_SI_default.0.64percent_29.final.contigs_broken.ntref 3.38
# reading input file "/vol/codine-tmp/juene/tmp.vNm22p9AmF/quast/corrected_input/VELVET_MIS_PE_sakai_mis-both_bi_2x250bp_SI_default.0.64percent_29.final.contigs_broken" of length 5249623
# matching query-file "/vol/codine-tmp/juene/tmp.vNm22p9AmF/quast/corrected_input/VELVET_MIS_PE_sakai_mis-both_bi_2x250bp_SI_default.0.64percent_29.final.contigs_broken"
# against subject-file "/vol/codine-tmp/juene/tmp.vNm22p9AmF/quast/gage/tmp/VELVET_MIS_PE_sakai_mis-both_bi_2x250bp_SI_default.0.64percent_29.final.contigs_broken.ntref"
# COMPLETETIME /vol/ngscomparison/software/analysis/quast-2.1/libs/MUMmer3.23-linux/mummer /vol/codine-tmp/juene/tmp.vNm22p9AmF/quast/gage/tmp/VELVET_MIS_PE_sakai_mis-both_bi_2x250bp_SI_default.0.64percent_29.final.contigs_broken.ntref 10.76
# SPACE /vol/ngscomparison/software/analysis/quast-2.1/libs/MUMmer3.23-linux/mummer /vol/codine-tmp/juene/tmp.vNm22p9AmF/quast/gage/tmp/VELVET_MIS_PE_sakai_mis-both_bi_2x250bp_SI_default.0.64percent_29.final.contigs_broken.ntref 10.54
4: FINISHING DATA
Filtering alignments
Extracting alignment coordinates
Analyzing SNPs
Extracting alignment breakpoints
Generating report file
Found genome size at position 4 with value 5594470 aka 5594470
Calculating point at 0 and the sum is 1019970 and i is638 and lens is 653 and length is 53907
Calculating point at 1 and the sum is 2027064 and i is614 and lens is 653 and length is 35071
Calculating point at 2 and the sum is 3022933 and i is579 and lens is 653 and length is 23823
Calculating point at 3 and the sum is 4005018 and i is524 and lens is 653 and length is 14294
Calculating point at 4 and the sum is 5002276 and i is379 and lens is 653 and length is 2290
