All statistics are based on contigs of size >= 200 bp, unless otherwise noted (e.g., "# contigs (>= 0 bp)" and "Total length (>= 0 bp)" include all contigs).

Assembly                                                                                                  GAGE_Contigs #  GAGE_Min contig  GAGE_Max contig  GAGE_N50          GAGE_Genome size  GAGE_Assembly size  GAGE_Chaff bases  GAGE_Missing reference bases  GAGE_Missing assembly bases  GAGE_Missing assembly contigs  GAGE_Duplicated reference bases  GAGE_Compressed reference bases  GAGE_Bad trim  GAGE_Avg idy  GAGE_SNPs  GAGE_Indels < 5bp  GAGE_Indels >= 5  GAGE_Inversions  GAGE_Relocation  GAGE_Translocation  GAGE_Corrected contig #  GAGE_Corrected assembly size  GAGE_Min correct contig  GAGE_Max correct contig  GAGE_Corrected N50
CLC_MIS_PE_sakai_mis-1_bi_2x250bp_SI_default__sakai_mis-2_bi_2x250bp_SI_default.46coverage.result_broken  389             200              374555           144810 COUNT: 12  5594470           5412508             0                 18190(0.33%)                  36606(0.68%)                 118(30.33%)                    15855                            240101                           230            99.99         92         17                 13                0                5                0                   254                      5361110                       202                      361843                   104407 COUNT: 15  
CLC_MIS_PE_sakai_mis-1_bi_2x250bp_SI_default__sakai_mis-2_bi_2x250bp_SI_default.46coverage.result         376             200              374555           148329 COUNT: 11  5594470           5413849             0                 18244(0.33%)                  37803(0.70%)                 118(31.38%)                    13098                            237813                           602            99.99         92         17                 21                0                7                0                   257                      5363867                       200                      361843                   104407 COUNT: 15  
