1: PREPARING DATA
2,3: RUNNING mummer AND CREATING CLUSTERS
# reading input file "/vol/codine-tmp/juene/tmp.ncOyLKNAGv/quast/contigs_reports/nucmer_output/NEWBLER_PGM_mrsa_pgm_400bp_es_318_IKA_ts3.2_morestringent.91coverage.contigs.ntref" of length 2813864
# construct suffix tree for sequence of length 2813864
# (maximum reference length is 536870908)
# (maximum query length is 4294967295)
# process 28138 characters per dot
#....................................................................................................
# CONSTRUCTIONTIME /vol/ngscomparison/software/analysis/quast-2.1/libs/MUMmer3.23-linux/mummer /vol/codine-tmp/juene/tmp.ncOyLKNAGv/quast/contigs_reports/nucmer_output/NEWBLER_PGM_mrsa_pgm_400bp_es_318_IKA_ts3.2_morestringent.91coverage.contigs.ntref 1.78
# reading input file "/vol/codine-tmp/juene/tmp.ncOyLKNAGv/quast/corrected_input/NEWBLER_PGM_mrsa_pgm_400bp_es_318_IKA_ts3.2_morestringent.91coverage.contigs" of length 2774521
# matching query-file "/vol/codine-tmp/juene/tmp.ncOyLKNAGv/quast/corrected_input/NEWBLER_PGM_mrsa_pgm_400bp_es_318_IKA_ts3.2_morestringent.91coverage.contigs"
# against subject-file "/vol/codine-tmp/juene/tmp.ncOyLKNAGv/quast/contigs_reports/nucmer_output/NEWBLER_PGM_mrsa_pgm_400bp_es_318_IKA_ts3.2_morestringent.91coverage.contigs.ntref"
# COMPLETETIME /vol/ngscomparison/software/analysis/quast-2.1/libs/MUMmer3.23-linux/mummer /vol/codine-tmp/juene/tmp.ncOyLKNAGv/quast/contigs_reports/nucmer_output/NEWBLER_PGM_mrsa_pgm_400bp_es_318_IKA_ts3.2_morestringent.91coverage.contigs.ntref 6.09
# SPACE /vol/ngscomparison/software/analysis/quast-2.1/libs/MUMmer3.23-linux/mummer /vol/codine-tmp/juene/tmp.ncOyLKNAGv/quast/contigs_reports/nucmer_output/NEWBLER_PGM_mrsa_pgm_400bp_es_318_IKA_ts3.2_morestringent.91coverage.contigs.ntref 5.42
4: FINISHING DATA
