All statistics are based on contigs of size >= 200 bp, unless otherwise noted (e.g., "# contigs (>= 0 bp)" and "Total length (>= 0 bp)" include all contigs).

Assembly                                                                                                          GAGE_Contigs #  GAGE_Min contig  GAGE_Max contig  GAGE_N50         GAGE_Genome size  GAGE_Assembly size  GAGE_Chaff bases  GAGE_Missing reference bases  GAGE_Missing assembly bases  GAGE_Missing assembly contigs  GAGE_Duplicated reference bases  GAGE_Compressed reference bases  GAGE_Bad trim  GAGE_Avg idy  GAGE_SNPs  GAGE_Indels < 5bp  GAGE_Indels >= 5  GAGE_Inversions  GAGE_Relocation  GAGE_Translocation  GAGE_Corrected contig #  GAGE_Corrected assembly size  GAGE_Min correct contig  GAGE_Max correct contig  GAGE_Corrected N50
VELVET_MIS_PE_mtbh37-1_mis_2x250bp_nextera_default__mtbh37-2_mis_2x250bp_nextera_default_43.final.contigs_broken  540             201              66785            15847 COUNT: 88  4411532           4247946             0                 115759(2.62%)                 1321(0.03%)                  1(0.19%)                       1464                             55495                            384            99.98         475        48                 33                0                14               0                   582                      4250235                       201                      54526                    13894 COUNT: 100  
VELVET_MIS_PE_mtbh37-1_mis_2x250bp_nextera_default__mtbh37-2_mis_2x250bp_nextera_default_43.final.contigs         212             201              191761           63872 COUNT: 22  4411532           4271008             0                 112023(2.54%)                 20627(0.48%)                 1(0.47%)                       1542                             55383                            244            99.94         455        187                317               1                24               0                   543                      4252190                       201                      54526                    14864 COUNT: 93   
