All statistics are based on contigs of size >= 200 bp, unless otherwise noted (e.g., "# contigs (>= 0 bp)" and "Total length (>= 0 bp)" include all contigs).

Assembly                                                                                                          #Contigs  #Contigs (>= 0 bp)  #Contigs (>= 1000 bp)  Largest contig  Total length  Total length (>= 0 bp)  Total length (>= 1000 bp)  Reference length  N50    NG50   N75    NG75   L50  LG50  L75  LG75  #local misassemblies  #misassemblies  #misassembled contigs  Misassembled contigs length  Misassemblies inter-contig overlap  #unaligned contigs  Unaligned contigs length  #ambiguously mapped contigs  Extra bases in ambiguously mapped contigs  #N's   #N's per 100 kbp  Genome fraction (%)  Duplication ratio  #genes           #predicted genes (unique)  #predicted genes (>= 0 bp)  #predicted genes (>= 300 bp)  #predicted genes (>= 1500 bp)  #predicted genes (>= 3000 bp)  #mismatches  #indels  Indels length  #mismatches per 100 kbp  #indels per 100 kbp  GC (%)  Reference GC (%)  Average %IDY  Largest alignment  NA50   NGA50  NA75   NGA75  LA50  LGA50  LA75  LGA75  #Mis_misassemblies  #Mis_relocations  #Mis_translocations  #Mis_inversions  #Mis_misassembled contigs  Mis_Misassembled contigs length  #Mis_local misassemblies  #Mis_short indels (<= 5 bp)  #Mis_long indels (> 5 bp)  #Una_fully unaligned contigs  Una_Fully unaligned length  #Una_partially unaligned contigs  #Una_with misassembly  #Una_both parts are significant  Una_Partially unaligned length  GAGE_Contigs #  GAGE_Min contig  GAGE_Max contig  GAGE_N50         GAGE_Genome size  GAGE_Assembly size  GAGE_Chaff bases  GAGE_Missing reference bases  GAGE_Missing assembly bases  GAGE_Missing assembly contigs  GAGE_Duplicated reference bases  GAGE_Compressed reference bases  GAGE_Bad trim  GAGE_Avg idy  GAGE_SNPs  GAGE_Indels < 5bp  GAGE_Indels >= 5  GAGE_Inversions  GAGE_Relocation  GAGE_Translocation  GAGE_Corrected contig #  GAGE_Corrected assembly size  GAGE_Min correct contig  GAGE_Max correct contig  GAGE_Corrected N50
VELVET_MIS_PE_mtbh37-1_mis_2x250bp_nextera_default__mtbh37-2_mis_2x250bp_nextera_default_43.final.contigs_broken  540       638                 423                    66785           4247946       4260196                 4187054                    4411532           16348  15847  8813   7888   83   88    171  186   41                    2               2                      24525                        24578                               2 + 3 part          1612                      31                           -26070                                     0      0.00              95.693               1.006              3635 + 396 part  4291                       4292                        3652                          514                            59                             573          115      226            13.57                    2.72                 65.36   65.61             99.785        66785              16128  15429  8766   7888   83    88     172   186    2                   2                 0                    0                2                          24525                            41                        107                          8                          2                             1490                        3                                 0                      0                                122                             540             201              66785            15847 COUNT: 88  4411532           4247946             0                 115759(2.62%)                 1321(0.03%)                  1(0.19%)                       1464                             55495                            384            99.98         475        48                 33                0                14               0                   582                      4250235                       201                      54526                    13894 COUNT: 100  
VELVET_MIS_PE_mtbh37-1_mis_2x250bp_nextera_default__mtbh37-2_mis_2x250bp_nextera_default_43.final.contigs         212       292                 147                    191761          4271008       4280803                 4236749                    4411532           65239  63872  34589  32500  21   22    43   46    163                   9               9                      316724                       25031                               1 + 3 part          1980                      29                           -21018                                     20607  482.49            96.020               1.009              3803 + 233 part  4200                       4201                        3618                          524                            58                             586          1397     4329           13.83                    32.98                65.36   65.61             99.533        190968             64798  63693  32981  28807  21    22     45    48     9                   9                 0                    0                9                          316724                           163                       1261                         136                        1                             937                         3                                 0                      0                                1043                            212             201              191761           63872 COUNT: 22  4411532           4271008             0                 112023(2.54%)                 20627(0.48%)                 1(0.47%)                       1542                             55383                            244            99.94         455        187                317               1                24               0                   543                      4252190                       201                      54526                    14864 COUNT: 93   
