All statistics are based on contigs of size >= 200 bp, unless otherwise noted (e.g., "# contigs (>= 0 bp)" and "Total length (>= 0 bp)" include all contigs).

Assembly                         VELVET_MIS_PE_mrsa_mis-1_bi_2x150bp_default__mrsa_mis-2_bi_2x150bp_default.0.527percent_17.final.contigs_broken  VELVET_MIS_PE_mrsa_mis-1_bi_2x150bp_default__mrsa_mis-2_bi_2x150bp_default.0.527percent_17.final.contigs
#Mis_misassemblies               55                                                                                                               116                                                                                                     
#Mis_relocations                 55                                                                                                               116                                                                                                     
#Mis_translocations              0                                                                                                                0                                                                                                       
#Mis_inversions                  0                                                                                                                0                                                                                                       
#Mis_misassembled contigs        53                                                                                                               81                                                                                                      
Mis_Misassembled contigs length  76221                                                                                                            713395                                                                                                  
#Mis_local misassemblies         13                                                                                                               422                                                                                                     
#mismatches                      607                                                                                                              655                                                                                                     
#indels                          204                                                                                                              2901                                                                                                    
#Mis_short indels (<= 5 bp)      192                                                                                                              2480                                                                                                    
#Mis_long indels (> 5 bp)        12                                                                                                               421                                                                                                     
Indels length                    445                                                                                                              12157                                                                                                   
