Assembly	SOAP2_PGM_sakai_pgm_mu_318_400bp_IO_TS3.4_ms_0.395percent_37.final.contig
GAGE_Contigs #	1105
GAGE_Min contig	200
GAGE_Max contig	550
GAGE_N50	0 COUNT: 0
GAGE_Genome size	5594470
GAGE_Assembly size	271672
GAGE_Chaff bases	0
GAGE_Missing reference bases	5336136(95.38%)
GAGE_Missing assembly bases	13395(4.93%)
GAGE_Missing assembly contigs	50(4.52%)
GAGE_Duplicated reference bases	0
GAGE_Compressed reference bases	204
GAGE_Bad trim	155
GAGE_Avg idy	99.95
GAGE_SNPs	6
GAGE_Indels < 5bp	128
GAGE_Indels >= 5	0
GAGE_Inversions	0
GAGE_Relocation	0
GAGE_Translocation	0
GAGE_Corrected contig #	1050
GAGE_Corrected assembly size	257368
GAGE_Min correct contig	200
GAGE_Max correct contig	550
GAGE_Corrected N50	0 COUNT: 0
