Assembly	VELVET_MIS_PE_mtbh37-1_mis_2x250bp_nextera_default__mtbh37-2_mis_2x250bp_nextera_default_169.final.contigs_broken	VELVET_MIS_PE_mtbh37-1_mis_2x250bp_nextera_default__mtbh37-2_mis_2x250bp_nextera_default_169.final.contigs
#Contigs (>= 0 bp)	536	313
#Contigs (>= 1000 bp)	476	278
Total length (>= 0 bp)	4299204	4334004
Total length (>= 1000 bp)	4260279	4311665
#Contigs	536	313
Largest contig	62971	109448
Total length	4299204	4334004
Reference length	4411532	4411532
GC (%)	65.44	65.44
Reference GC (%)	65.61	65.61
N50	13459	27876
NG50	12717	27698
N75	7570	13893
NG75	7188	13425
#misassemblies	6	7
#local misassemblies	6	217
#unaligned contigs	0 + 1 part	0 + 0 part
Unaligned contigs length	13	0
Genome fraction (%)	96.805	96.811
Duplication ratio	1.005	1.013
#N's per 100 kbp	0.00	802.95
#mismatches per 100 kbp	13.30	13.32
#indels per 100 kbp	1.01	4.80
#genes	3599 + 503 part	3608 + 494 part
#predicted genes (unique)	4339	4312
#predicted genes (>= 0 bp)	4373	4347
#predicted genes (>= 300 bp)	3685	3684
#predicted genes (>= 1500 bp)	519	520
#predicted genes (>= 3000 bp)	63	62
Largest alignment	62971	107656
NA50	13425	27524
NGA50	12717	27040
NA75	7542	13374
NGA75	7124	12430
