Assembly	#Contigs (>= 0 bp)	#Contigs (>= 1000 bp)	Total length (>= 0 bp)	Total length (>= 1000 bp)	#Contigs	Largest contig	Total length	Reference length	GC (%)	Reference GC (%)	N50	NG50	N75	NG75	#misassemblies	#local misassemblies	#unaligned contigs	Unaligned contigs length	Genome fraction (%)	Duplication ratio	#N's per 100 kbp	#mismatches per 100 kbp	#indels per 100 kbp	#genes	#predicted genes (unique)	#predicted genes (>= 0 bp)	#predicted genes (>= 300 bp)	#predicted genes (>= 1500 bp)	#predicted genes (>= 3000 bp)	Largest alignment	NA50	NGA50	NA75	NGA75
NEWBLER_MIS_PE_sakai_mis-1_bi_2x250bp_SI_default__sakai_mis-2_bi_2x250bp_SI_default.0.25percent.contigs_broken	174	149	5243215	5224833	174	259768	5243215	5594470	50.25	50.48	92039	91398	59489	42799	2	3	1 + 0 part	5386	92.600	1.000	0.00	1.16	0.31	4873 + 122 part	5068	5068	4339	665	68	259768	92039	91398	59489	40885
NEWBLER_MIS_PE_sakai_mis-1_bi_2x250bp_SI_default__sakai_mis-2_bi_2x250bp_SI_default.0.25percent.contigs	98	98	5291492	5291492	98	375703	5291492	5594470	50.25	50.48	139696	132902	72228	65124	23	57	1 + 0 part	5386	93.376	1.010	912.35	3.91	0.42	4907 + 137 part	5045	5045	4335	664	67	270378	132902	124154	66399	54973
