Assembly	VELVET_MIS_PE_sakai_mis-both_bi_2x250bp_SI_default.0.64percent_167.final.contigs_broken	VELVET_MIS_PE_sakai_mis-both_bi_2x250bp_SI_default.0.64percent_167.final.contigs
GAGE_Contigs #	556	423
GAGE_Min contig	275	333
GAGE_Max contig	93220	223586
GAGE_N50	31074 COUNT: 60	53127 COUNT: 34
GAGE_Genome size	5594470	5594470
GAGE_Assembly size	5469192	5485904
GAGE_Chaff bases	0	0
GAGE_Missing reference bases	9899(0.18%)	9887(0.18%)
GAGE_Missing assembly bases	5774(0.11%)	22330(0.41%)
GAGE_Missing assembly contigs	1(0.18%)	1(0.24%)
GAGE_Duplicated reference bases	8055	7873
GAGE_Compressed reference bases	231223	230818
GAGE_Bad trim	222	197
GAGE_Avg idy	99.99	99.99
GAGE_SNPs	106	105
GAGE_Indels < 5bp	16	18
GAGE_Indels >= 5	2	116
GAGE_Inversions	2	4
GAGE_Relocation	3	11
GAGE_Translocation	1	1
GAGE_Corrected contig #	542	541
GAGE_Corrected assembly size	5459289	5459293
GAGE_Min correct contig	269	269
GAGE_Max correct contig	93220	93220
GAGE_Corrected N50	30858 COUNT: 61	30939 COUNT: 61
