1: PREPARING DATA
2,3: RUNNING mummer AND CREATING CLUSTERS
# reading input file "/vol/codine-tmp/juene/tmp.hMBLZFXCtY/quast/gage/tmp/VELVET_PGM_mtbh37_pgm_400bp_es_318v2_OT2_tsv3.6_morestringent_215.final.contigs.ntref" of length 4411533
# construct suffix tree for sequence of length 4411533
# (maximum reference length is 536870908)
# (maximum query length is 4294967295)
# process 44115 characters per dot
#....................................................................................................
# CONSTRUCTIONTIME /vol/ngscomparison/software/analysis/quast-2.1/libs/MUMmer3.23-linux/mummer /vol/codine-tmp/juene/tmp.hMBLZFXCtY/quast/gage/tmp/VELVET_PGM_mtbh37_pgm_400bp_es_318v2_OT2_tsv3.6_morestringent_215.final.contigs.ntref 2.02
# reading input file "/vol/codine-tmp/juene/tmp.hMBLZFXCtY/quast/corrected_input/VELVET_PGM_mtbh37_pgm_400bp_es_318v2_OT2_tsv3.6_morestringent_215.final.contigs" of length 2862507
# matching query-file "/vol/codine-tmp/juene/tmp.hMBLZFXCtY/quast/corrected_input/VELVET_PGM_mtbh37_pgm_400bp_es_318v2_OT2_tsv3.6_morestringent_215.final.contigs"
# against subject-file "/vol/codine-tmp/juene/tmp.hMBLZFXCtY/quast/gage/tmp/VELVET_PGM_mtbh37_pgm_400bp_es_318v2_OT2_tsv3.6_morestringent_215.final.contigs.ntref"
# COMPLETETIME /vol/ngscomparison/software/analysis/quast-2.1/libs/MUMmer3.23-linux/mummer /vol/codine-tmp/juene/tmp.hMBLZFXCtY/quast/gage/tmp/VELVET_PGM_mtbh37_pgm_400bp_es_318v2_OT2_tsv3.6_morestringent_215.final.contigs.ntref 4.75
# SPACE /vol/ngscomparison/software/analysis/quast-2.1/libs/MUMmer3.23-linux/mummer /vol/codine-tmp/juene/tmp.hMBLZFXCtY/quast/gage/tmp/VELVET_PGM_mtbh37_pgm_400bp_es_318v2_OT2_tsv3.6_morestringent_215.final.contigs.ntref 7.12
4: FINISHING DATA
Filtering alignments
Extracting alignment coordinates
Analyzing SNPs
Extracting alignment breakpoints
Generating report file
Found genome size at position 4 with value 4411532 aka 4411532
Calculating point at 0 and the sum is 1001061 and i is1564 and lens is 1884 and length is 2145
Calculating point at 1 and the sum is 2000720 and i is940 and lens is 1884 and length is 1217
