1: PREPARING DATA
2,3: RUNNING mummer AND CREATING CLUSTERS
# reading input file "/vol/codine-tmp/juene/tmp.qvYfre8va1/quast/gage/tmp/NEWBLER_MIS_PE_mtbh37-1_mis_2x250bp_nextera_default__mtbh37-2_mis_2x250bp_nextera_default.0.175percent.contigs_broken.ntref" of length 4411533
# construct suffix tree for sequence of length 4411533
# (maximum reference length is 536870908)
# (maximum query length is 4294967295)
# process 44115 characters per dot
#....................................................................................................
# CONSTRUCTIONTIME /vol/ngscomparison/software/analysis/quast-2.1/libs/MUMmer3.23-linux/mummer /vol/codine-tmp/juene/tmp.qvYfre8va1/quast/gage/tmp/NEWBLER_MIS_PE_mtbh37-1_mis_2x250bp_nextera_default__mtbh37-2_mis_2x250bp_nextera_default.0.175percent.contigs_broken.ntref 2.79
# reading input file "/vol/codine-tmp/juene/tmp.qvYfre8va1/quast/corrected_input/NEWBLER_MIS_PE_mtbh37-1_mis_2x250bp_nextera_default__mtbh37-2_mis_2x250bp_nextera_default.0.175percent.contigs_broken" of length 4230584
# matching query-file "/vol/codine-tmp/juene/tmp.qvYfre8va1/quast/corrected_input/NEWBLER_MIS_PE_mtbh37-1_mis_2x250bp_nextera_default__mtbh37-2_mis_2x250bp_nextera_default.0.175percent.contigs_broken"
# against subject-file "/vol/codine-tmp/juene/tmp.qvYfre8va1/quast/gage/tmp/NEWBLER_MIS_PE_mtbh37-1_mis_2x250bp_nextera_default__mtbh37-2_mis_2x250bp_nextera_default.0.175percent.contigs_broken.ntref"
# COMPLETETIME /vol/ngscomparison/software/analysis/quast-2.1/libs/MUMmer3.23-linux/mummer /vol/codine-tmp/juene/tmp.qvYfre8va1/quast/gage/tmp/NEWBLER_MIS_PE_mtbh37-1_mis_2x250bp_nextera_default__mtbh37-2_mis_2x250bp_nextera_default.0.175percent.contigs_broken.ntref 8.58
# SPACE /vol/ngscomparison/software/analysis/quast-2.1/libs/MUMmer3.23-linux/mummer /vol/codine-tmp/juene/tmp.qvYfre8va1/quast/gage/tmp/NEWBLER_MIS_PE_mtbh37-1_mis_2x250bp_nextera_default__mtbh37-2_mis_2x250bp_nextera_default.0.175percent.contigs_broken.ntref 8.39
4: FINISHING DATA
Filtering alignments
Extracting alignment coordinates
Analyzing SNPs
Extracting alignment breakpoints
Generating report file
Found genome size at position 4 with value 4411532 aka 4411532
Calculating point at 0 and the sum is 1004931 and i is383 and lens is 411 and length is 28231
Calculating point at 1 and the sum is 2008750 and i is339 and lens is 411 and length is 17845
Calculating point at 2 and the sum is 3009326 and i is269 and lens is 411 and length is 11197
Calculating point at 3 and the sum is 4000186 and i is124 and lens is 411 and length is 3605
