calling: java -cp /vol/ngscomparison/software/analysis/quast-2.1/libs/gage:. SizeFasta /vol/codine-tmp/juene/tmp.Y5yKtoBqNG/quast/corrected_input/Ecoli_Sakai_editedNew_plasmids.fasta |awk '{SUM+=; print SUM}'|tail -n 1
Contig Stats
Total units: 265
Reference: 5594470
BasesInFasta: 5533316
Min: 202
Max: 353802
N10: 269573 COUNT: 2
N25: 213204 COUNT: 6
N50: 146173 COUNT: 14
N75: 66496 COUNT: 29
E-size:141942.64

Genome Size: 5594470
Assembly Size: 5533316
Chaff bases: 0
Missing Reference Bases: 10763(0.19%)
Missing Assembly Bases: 2614(0.05%)
Missing Assembly Contigs: 0(0.00%)
Duplicated Reference Bases: 24473
Compressed Reference Bases: 231959
Bad Trim: 350
Avg Idy: 99.98
SNPs: 377
Indels < 5bp: 38
Indels >= 5: 37
Inversions: 8
Relocation: 13
Translocation: 0

Corrected Contig Stats
calling: java -cp /vol/ngscomparison/software/analysis/quast-2.1/libs/gage:.:. GetFastaStats -o -min 199 -genomeSize 5594470 /vol/codine-tmp/juene/tmp.Y5yKtoBqNG/quast/gage/tmp/ABYSS_PE_MIS_PE_sakai_mis-1_bi_2x250bp_SI_default__sakai_mis-2_bi_2x250bp_SI_default.96coverage_96.final.matches.lens 2> /dev/null
Total units: 303
Reference: 5594470
BasesInFasta: 5510207
Min: 206
Max: 263093
N10: 213203 COUNT: 3
N25: 158405 COUNT: 7
N50: 108140 COUNT: 17
N75: 46060 COUNT: 37
E-size:111204.18

Done
