calling: java -cp /vol/ngscomparison/software/analysis/quast-2.1/libs/gage:. SizeFasta /vol/codine-tmp/juene/tmp.2RWVOBdsNa/quast/corrected_input/Mycobacterium_tuberculosis_H37Rv.fasta |awk '{SUM+=; print SUM}'|tail -n 1
Contig Stats
Total units: 1707
Reference: 4411532
BasesInFasta: 4526758
Min: 200
Max: 42431
N10: 21536 COUNT: 17
N25: 15760 COUNT: 54
N50: 9824 COUNT: 145
N75: 5712 COUNT: 290
E-size:11249.73

Genome Size: 4411532
Assembly Size: 4526758
Chaff bases: 0
Missing Reference Bases: 15977(0.36%)
Missing Assembly Bases: 1760(0.04%)
Missing Assembly Contigs: 2(0.12%)
Duplicated Reference Bases: 110992
Compressed Reference Bases: 65147
Bad Trim: 1205
Avg Idy: 99.99
SNPs: 247
Indels < 5bp: 45
Indels >= 5: 7
Inversions: 0
Relocation: 4
Translocation: 0

Corrected Contig Stats
calling: java -cp /vol/ngscomparison/software/analysis/quast-2.1/libs/gage:.:. GetFastaStats -o -min 199 -genomeSize 4411532 /vol/codine-tmp/juene/tmp.2RWVOBdsNa/quast/gage/tmp/SOAP2_MIS_PE_mtbh37-1_mis_2x250bp_nextera_default_113.final.scaf_broken.matches.lens 2> /dev/null
Total units: 1242
Reference: 4411532
BasesInFasta: 4414026
Min: 201
Max: 31757
N10: 21016 COUNT: 18
N25: 14940 COUNT: 55
N50: 9406 COUNT: 149
N75: 5428 COUNT: 299
E-size:10849.95

Done
