Assembly	ABYSS_PE_PGM_sakai_pgm_mu_318_400bp_IO_TS3.4_ms.0.4percent_78.final
GAGE_Contigs #	1017
GAGE_Min contig	200
GAGE_Max contig	74915
GAGE_N50	15074 COUNT: 109
GAGE_Genome size	5594470
GAGE_Assembly size	5313543
GAGE_Chaff bases	0
GAGE_Missing reference bases	134719(2.41%)
GAGE_Missing assembly bases	1(0.00%)
GAGE_Missing assembly contigs	0(0.00%)
GAGE_Duplicated reference bases	3997
GAGE_Compressed reference bases	192797
GAGE_Bad trim	1
GAGE_Avg idy	99.99
GAGE_SNPs	73
GAGE_Indels < 5bp	249
GAGE_Indels >= 5	5
GAGE_Inversions	0
GAGE_Relocation	4
GAGE_Translocation	0
GAGE_Corrected contig #	1007
GAGE_Corrected assembly size	5309985
GAGE_Min correct contig	200
GAGE_Max correct contig	74916
GAGE_Corrected N50	14869 COUNT: 110
