All statistics are based on contigs of size >= 200 bp, unless otherwise noted (e.g., "# contigs (>= 0 bp)" and "Total length (>= 0 bp)" include all contigs).

Assembly                                                             #Contigs (>= 0 bp)  #Contigs (>= 1000 bp)  Total length (>= 0 bp)  Total length (>= 1000 bp)  #Contigs  Largest contig  Total length  Reference length  GC (%)  Reference GC (%)  N50    NG50   N75   NG75  #misassemblies  #local misassemblies  #unaligned contigs  Unaligned contigs length  Genome fraction (%)  Duplication ratio  #N's per 100 kbp  #mismatches per 100 kbp  #indels per 100 kbp  #genes           #predicted genes (unique)  #predicted genes (>= 0 bp)  #predicted genes (>= 300 bp)  #predicted genes (>= 1500 bp)  #predicted genes (>= 3000 bp)  Largest alignment  NA50   NGA50  NA75  NGA75
ABYSS_PE_PGM_sakai_pgm_mu_318_400bp_IO_TS3.4_ms.0.4percent_78.final  4550                533                    5766255                 5113351                    1017      74915           5313543       5594470           50.26   50.48             15816  15074  8704  7583  4               7                     0 + 0 part          0                         93.536               1.002              0.00              1.34                     4.53                 4517 + 571 part  5811                       5815                        4589                          595                            51                             74915              15800  14936  8704  7583 
