All statistics are based on contigs of size >= 200 bp, unless otherwise noted (e.g., "# contigs (>= 0 bp)" and "Total length (>= 0 bp)" include all contigs).

Assembly                         CLC_MIS_PE_mrsa_mis-1_bi_2x250bp_default__mrsa_mis-2_bi_2x250bp_default.36coverage.result_broken  CLC_MIS_PE_mrsa_mis-1_bi_2x250bp_default__mrsa_mis-2_bi_2x250bp_default.36coverage.result
#Mis_misassemblies               3                                                                                                 3                                                                                        
#Mis_relocations                 3                                                                                                 3                                                                                        
#Mis_translocations              0                                                                                                 0                                                                                        
#Mis_inversions                  0                                                                                                 0                                                                                        
#Mis_misassembled contigs        3                                                                                                 3                                                                                        
Mis_Misassembled contigs length  157063                                                                                            248482                                                                                   
#Mis_local misassemblies         6                                                                                                 8                                                                                        
#mismatches                      122                                                                                               122                                                                                      
#indels                          28                                                                                                29                                                                                       
#Mis_short indels (<= 5 bp)      20                                                                                                20                                                                                       
#Mis_long indels (> 5 bp)        8                                                                                                 9                                                                                        
Indels length                    347                                                                                               400                                                                                      
