Assembly	ABYSS_PE_MIS_PE_mrsa_mis-1_bi_2x150bp_default__mrsa_mis-2_bi_2x150bp_default.0.125percent_34.final_broken	ABYSS_PE_MIS_PE_mrsa_mis-1_bi_2x150bp_default__mrsa_mis-2_bi_2x150bp_default.0.125percent_34.final
#Contigs (>= 0 bp)	1410	1405
#Contigs (>= 1000 bp)	294	291
Total length (>= 0 bp)	2798657	2798945
Total length (>= 1000 bp)	2683824	2684182
#Contigs	406	403
Largest contig	62832	62832
Total length	2735260	2735792
Reference length	2813862	2813862
GC (%)	32.65	32.65
Reference GC (%)	32.81	32.81
N50	15362	15449
NG50	15134	15134
N75	8012	8012
NG75	7445	7550
#misassemblies	2	2
#local misassemblies	1	3
#unaligned contigs	1 + 0 part	1 + 1 part
Unaligned contigs length	5366	5718
Genome fraction (%)	96.636	96.815
Duplication ratio	1.001	1.001
#N's per 100 kbp	0.11	10.64
#mismatches per 100 kbp	2.79	3.01
#indels per 100 kbp	0.33	3.01
#genes	2408 + 217 part	2411 + 217 part
#predicted genes (unique)	2771	2773
#predicted genes (>= 0 bp)	2771	2773
#predicted genes (>= 300 bp)	2300	2300
#predicted genes (>= 1500 bp)	279	279
#predicted genes (>= 3000 bp)	21	21
Largest alignment	62832	62832
NA50	15362	15362
NGA50	15125	15134
NA75	7909	7909
NGA75	7160	7445
