Assembly	VELVET_MIS_PE_mtbh37-1_mis_2x250bp_nextera_default__mtbh37-2_mis_2x250bp_nextera_default_15.final.contigs_broken	VELVET_MIS_PE_mtbh37-1_mis_2x250bp_nextera_default__mtbh37-2_mis_2x250bp_nextera_default_15.final.contigs
#Contigs (>= 0 bp)	197617	197617
#Contigs (>= 1000 bp)	0	0
Total length (>= 0 bp)	6951969	6951969
Total length (>= 1000 bp)	0	0
#Contigs	2	2
Largest contig	212	212
Total length	415	415
Reference length	4411532	4411532
GC (%)	38.07	38.07
Reference GC (%)	65.61	65.61
N50	212	212
NG50	None	None
N75	203	203
NG75	None	None
#unaligned contigs	2 + 0 part	2 + 0 part
Unaligned contigs length	415	415
#N's per 100 kbp	0.00	0.00
#predicted genes (unique)	0	0
#predicted genes (>= 0 bp)	0	0
#predicted genes (>= 300 bp)	0	0
#predicted genes (>= 1500 bp)	0	0
#predicted genes (>= 3000 bp)	0	0
