Assembly	VELVET_PGM_mrsa_pgm_400bp_es_318_IKA_ts3.2_morestringent.0.165percent_173.final.contigs
#Contigs (>= 0 bp)	1172
#Contigs (>= 1000 bp)	735
Total length (>= 0 bp)	2162245
Total length (>= 1000 bp)	1879732
#Contigs	1172
Largest contig	11107
Total length	2162245
Reference length	2813862
GC (%)	32.71
Reference GC (%)	32.81
N50	2599
NG50	1880
N75	1498
NG75	531
#misassemblies	30
#local misassemblies	1
#unaligned contigs	0 + 0 part
Unaligned contigs length	0
Genome fraction (%)	75.555
Duplication ratio	1.015
#N's per 100 kbp	0.92
#mismatches per 100 kbp	2.63
#indels per 100 kbp	23.09
#genes	1289 + 917 part
#predicted genes (unique)	2941
#predicted genes (>= 0 bp)	2949
#predicted genes (>= 300 bp)	2154
#predicted genes (>= 1500 bp)	129
#predicted genes (>= 3000 bp)	6
Largest alignment	11107
NA50	2575
NGA50	1862
NA75	1488
NGA75	494
