All statistics are based on contigs of size >= 200 bp, unless otherwise noted (e.g., "# contigs (>= 0 bp)" and "Total length (>= 0 bp)" include all contigs).

Assembly                                   VELVET_MIS_PE_mtbh37-1_mis_2x250bp_nextera_default__mtbh37-2_mis_2x250bp_nextera_default_207.final.contigs_broken  VELVET_MIS_PE_mtbh37-1_mis_2x250bp_nextera_default__mtbh37-2_mis_2x250bp_nextera_default_207.final.contigs
#Contigs                                   2232                                                                                                               1452                                                                                                      
#Contigs (>= 0 bp)                         2232                                                                                                               1452                                                                                                      
#Contigs (>= 1000 bp)                      1578                                                                                                               1198                                                                                                      
Largest contig                             10408                                                                                                              21377                                                                                                     
Total length                               4126824                                                                                                            4254578                                                                                                   
Total length (>= 0 bp)                     4126824                                                                                                            4254578                                                                                                   
Total length (>= 1000 bp)                  3637534                                                                                                            4053084                                                                                                   
Reference length                           4411532                                                                                                            4411532                                                                                                   
N50                                        2318                                                                                                               4073                                                                                                      
NG50                                       2190                                                                                                               3868                                                                                                      
N75                                        1442                                                                                                               2308                                                                                                      
NG75                                       1281                                                                                                               2172                                                                                                      
L50                                        568                                                                                                                318                                                                                                       
LG50                                       631                                                                                                                337                                                                                                       
L75                                        1131                                                                                                               665                                                                                                       
LG75                                       1288                                                                                                               717                                                                                                       
#local misassemblies                       3                                                                                                                  764                                                                                                       
#misassemblies                             4                                                                                                                  5                                                                                                         
#misassembled contigs                      4                                                                                                                  5                                                                                                         
Misassembled contigs length                16531                                                                                                              21871                                                                                                     
Misassemblies inter-contig overlap         2355                                                                                                               1547                                                                                                      
#unaligned contigs                         0 + 5 part                                                                                                         0 + 2 part                                                                                                
Unaligned contigs length                   1748                                                                                                               934                                                                                                       
#ambiguously mapped contigs                10                                                                                                                 10                                                                                                        
Extra bases in ambiguously mapped contigs  -6888                                                                                                              -6888                                                                                                     
#N's                                       0                                                                                                                  127754                                                                                                    
#N's per 100 kbp                           0.00                                                                                                               3002.74                                                                                                   
Genome fraction (%)                        91.442                                                                                                             91.446                                                                                                    
Duplication ratio                          1.021                                                                                                              1.053                                                                                                     
#genes                                     2229 + 1819 part                                                                                                   2238 + 1810 part                                                                                          
#predicted genes (unique)                  5462                                                                                                               5388                                                                                                      
#predicted genes (>= 0 bp)                 5478                                                                                                               5405                                                                                                      
#predicted genes (>= 300 bp)               4208                                                                                                               4222                                                                                                      
#predicted genes (>= 1500 bp)              306                                                                                                                307                                                                                                       
#predicted genes (>= 3000 bp)              12                                                                                                                 12                                                                                                        
#mismatches                                360                                                                                                                359                                                                                                       
#indels                                    83                                                                                                                 508                                                                                                       
Indels length                              110                                                                                                                1226                                                                                                      
#mismatches per 100 kbp                    8.92                                                                                                               8.90                                                                                                      
#indels per 100 kbp                        2.06                                                                                                               12.59                                                                                                     
GC (%)                                     65.33                                                                                                              65.33                                                                                                     
Reference GC (%)                           65.61                                                                                                              65.61                                                                                                     
Average %IDY                               99.914                                                                                                             99.899                                                                                                    
Largest alignment                          10408                                                                                                              20265                                                                                                     
NA50                                       2315                                                                                                               3722                                                                                                      
NGA50                                      2188                                                                                                               3573                                                                                                      
NA75                                       1442                                                                                                               2101                                                                                                      
NGA75                                      1270                                                                                                               1942                                                                                                      
LA50                                       570                                                                                                                341                                                                                                       
LGA50                                      633                                                                                                                363                                                                                                       
LA75                                       1134                                                                                                               719                                                                                                       
LGA75                                      1291                                                                                                               777                                                                                                       
#Mis_misassemblies                         4                                                                                                                  5                                                                                                         
#Mis_relocations                           4                                                                                                                  5                                                                                                         
#Mis_translocations                        0                                                                                                                  0                                                                                                         
#Mis_inversions                            0                                                                                                                  0                                                                                                         
#Mis_misassembled contigs                  4                                                                                                                  5                                                                                                         
Mis_Misassembled contigs length            16531                                                                                                              21871                                                                                                     
#Mis_local misassemblies                   3                                                                                                                  764                                                                                                       
#Mis_short indels (<= 5 bp)                82                                                                                                                 496                                                                                                       
#Mis_long indels (> 5 bp)                  1                                                                                                                  12                                                                                                        
#Una_fully unaligned contigs               0                                                                                                                  0                                                                                                         
Una_Fully unaligned length                 0                                                                                                                  0                                                                                                         
#Una_partially unaligned contigs           5                                                                                                                  2                                                                                                         
#Una_with misassembly                      0                                                                                                                  0                                                                                                         
#Una_both parts are significant            1                                                                                                                  0                                                                                                         
Una_Partially unaligned length             1748                                                                                                               934                                                                                                       
GAGE_Contigs #                             2232                                                                                                               1452                                                                                                      
GAGE_Min contig                            413                                                                                                                413                                                                                                       
GAGE_Max contig                            10408                                                                                                              21377                                                                                                     
GAGE_N50                                   2190 COUNT: 631                                                                                                    3868 COUNT: 337                                                                                           
GAGE_Genome size                           4411532                                                                                                            4411532                                                                                                   
GAGE_Assembly size                         4126824                                                                                                            4254578                                                                                                   
GAGE_Chaff bases                           0                                                                                                                  0                                                                                                         
GAGE_Missing reference bases               336199(7.62%)                                                                                                      336196(7.62%)                                                                                             
GAGE_Missing assembly bases                2317(0.06%)                                                                                                        130137(3.06%)                                                                                             
GAGE_Missing assembly contigs              0(0.00%)                                                                                                           0(0.00%)                                                                                                  
GAGE_Duplicated reference bases            895                                                                                                                895                                                                                                       
GAGE_Compressed reference bases            50968                                                                                                              50971                                                                                                     
GAGE_Bad trim                              2317                                                                                                               1398                                                                                                      
GAGE_Avg idy                               99.99                                                                                                              99.99                                                                                                     
GAGE_SNPs                                  313                                                                                                                312                                                                                                       
GAGE_Indels < 5bp                          30                                                                                                                 30                                                                                                        
GAGE_Indels >= 5                           1                                                                                                                  778                                                                                                       
GAGE_Inversions                            1                                                                                                                  1                                                                                                         
GAGE_Relocation                            5                                                                                                                  6                                                                                                         
GAGE_Translocation                         0                                                                                                                  0                                                                                                         
GAGE_Corrected contig #                    2238                                                                                                               2238                                                                                                      
GAGE_Corrected assembly size               4126779                                                                                                            4126713                                                                                                   
GAGE_Min correct contig                    240                                                                                                                240                                                                                                       
GAGE_Max correct contig                    10408                                                                                                              10408                                                                                                     
GAGE_Corrected N50                         2187 COUNT: 634                                                                                                    2187 COUNT: 634                                                                                           
