All statistics are based on contigs of size >= 200 bp, unless otherwise noted (e.g., "# contigs (>= 0 bp)" and "Total length (>= 0 bp)" include all contigs).

Assembly                                                                                                          #Contigs  #Contigs (>= 0 bp)  #Contigs (>= 1000 bp)  Largest contig  Total length  Total length (>= 0 bp)  Total length (>= 1000 bp)  Reference length  N50    NG50   N75    NG75   L50  LG50  L75  LG75  #local misassemblies  #misassemblies  #misassembled contigs  Misassembled contigs length  Misassemblies inter-contig overlap  #unaligned contigs  Unaligned contigs length  #ambiguously mapped contigs  Extra bases in ambiguously mapped contigs  #N's  #N's per 100 kbp  Genome fraction (%)  Duplication ratio  #genes          #predicted genes (unique)  #predicted genes (>= 0 bp)  #predicted genes (>= 300 bp)  #predicted genes (>= 1500 bp)  #predicted genes (>= 3000 bp)  #mismatches  #indels  Indels length  #mismatches per 100 kbp  #indels per 100 kbp  GC (%)  Reference GC (%)  Average %IDY  Largest alignment  NA50   NGA50  NA75   NGA75  LA50  LGA50  LA75  LGA75  #Mis_misassemblies  #Mis_relocations  #Mis_translocations  #Mis_inversions  #Mis_misassembled contigs  Mis_Misassembled contigs length  #Mis_local misassemblies  #Mis_short indels (<= 5 bp)  #Mis_long indels (> 5 bp)  #Una_fully unaligned contigs  Una_Fully unaligned length  #Una_partially unaligned contigs  #Una_with misassembly  #Una_both parts are significant  Una_Partially unaligned length  GAGE_Contigs #  GAGE_Min contig  GAGE_Max contig  GAGE_N50         GAGE_Genome size  GAGE_Assembly size  GAGE_Chaff bases  GAGE_Missing reference bases  GAGE_Missing assembly bases  GAGE_Missing assembly contigs  GAGE_Duplicated reference bases  GAGE_Compressed reference bases  GAGE_Bad trim  GAGE_Avg idy  GAGE_SNPs  GAGE_Indels < 5bp  GAGE_Indels >= 5  GAGE_Inversions  GAGE_Relocation  GAGE_Translocation  GAGE_Corrected contig #  GAGE_Corrected assembly size  GAGE_Min correct contig  GAGE_Max correct contig  GAGE_Corrected N50
VELVET_MIS_PE_mrsa_mis-1_bi_2x250bp_default__mrsa_mis-2_bi_2x250bp_default.0.460percent_163.final.contigs_broken  196       196                 153                    144863          2812327       2812327                 2794462                    2813862           34412  34412  20605  20605  28   28    55   55    1                     2               2                      68867                        634                                 1 + 0 part          5548                      30                           -13169                                     0     0.00              98.723               1.006              2623 + 90 part  2724                       2731                        2327                          295                            27                             43           9        9              1.55                     0.32                 32.73   32.81             99.010        144863             32637  32637  20605  20605  29    29     56    56     2                   2                 0                    0                2                          68867                            1                         9                            0                          1                             5548                        0                                 0                      0                                0                               196             233              144863           34412 COUNT: 28  2813862           2812327             0                 3664(0.13%)                   5553(0.20%)                  1(0.51%)                       4005                             38791                            5              100.00        37         9                  1                 0                2                0                   187                      2803408                       298                      144866                   32637 COUNT: 29   
VELVET_MIS_PE_mrsa_mis-1_bi_2x250bp_default__mrsa_mis-2_bi_2x250bp_default.0.460percent_163.final.contigs         177       177                 138                    144863          2813314       2813314                 2797549                    2813862           42979  42979  21823  21823  23   23    46   46    5                     3               3                      98621                        634                                 1 + 0 part          5548                      29                           -12402                                     987   35.08             98.751               1.006              2632 + 81 part  2720                       2727                        2328                          295                            27                             49           351      503            1.76                     12.63                32.73   32.81             98.990        144863             40166  40166  21823  21823  24    24     47    47     3                   3                 0                    0                3                          98621                            5                         346                          5                          1                             5548                        0                                 0                      0                                0                               177             325              144863           42979 COUNT: 23  2813862           2813314             0                 3664(0.13%)                   6540(0.23%)                  1(0.56%)                       4005                             38791                            25             100.00        37         9                  16                0                4                0                   187                      2803408                       298                      144866                   32637 COUNT: 29   
