Assembly	ABYSS_PE_MIS_PE_sakai_mis-1_bi_2x150bp_default__sakai_mis-2_bi_2x150bp_default.41coverage_48.final_broken	ABYSS_PE_MIS_PE_sakai_mis-1_bi_2x150bp_default__sakai_mis-2_bi_2x150bp_default.41coverage_48.final
#Una_fully unaligned contigs	0	0
Una_Fully unaligned length	0	0
#Una_partially unaligned contigs	0	1
#Una_with misassembly	0	0
#Una_both parts are significant	0	1
Una_Partially unaligned length	0	1133
#N's	89	2538
