1: PREPARING DATA
2,3: RUNNING mummer AND CREATING CLUSTERS
# reading input file "/vol/codine-tmp/juene/tmp.QAkxeiWnK7/quast/contigs_reports/nucmer_output/SOAP2_MIS_PE_mtbh37-1_mis_2x250bp_nextera_default_57.final.scaf.ntref" of length 4411533
# construct suffix tree for sequence of length 4411533
# (maximum reference length is 536870908)
# (maximum query length is 4294967295)
# process 44115 characters per dot
#....................................................................................................
# CONSTRUCTIONTIME /vol/ngscomparison/software/analysis/quast-2.1/libs/MUMmer3.23-linux/mummer /vol/codine-tmp/juene/tmp.QAkxeiWnK7/quast/contigs_reports/nucmer_output/SOAP2_MIS_PE_mtbh37-1_mis_2x250bp_nextera_default_57.final.scaf.ntref 2.16
# reading input file "/vol/codine-tmp/juene/tmp.QAkxeiWnK7/quast/corrected_input/SOAP2_MIS_PE_mtbh37-1_mis_2x250bp_nextera_default_57.final.scaf" of length 22219031
# matching query-file "/vol/codine-tmp/juene/tmp.QAkxeiWnK7/quast/corrected_input/SOAP2_MIS_PE_mtbh37-1_mis_2x250bp_nextera_default_57.final.scaf"
# against subject-file "/vol/codine-tmp/juene/tmp.QAkxeiWnK7/quast/contigs_reports/nucmer_output/SOAP2_MIS_PE_mtbh37-1_mis_2x250bp_nextera_default_57.final.scaf.ntref"
# COMPLETETIME /vol/ngscomparison/software/analysis/quast-2.1/libs/MUMmer3.23-linux/mummer /vol/codine-tmp/juene/tmp.QAkxeiWnK7/quast/contigs_reports/nucmer_output/SOAP2_MIS_PE_mtbh37-1_mis_2x250bp_nextera_default_57.final.scaf.ntref 19.33
# SPACE /vol/ngscomparison/software/analysis/quast-2.1/libs/MUMmer3.23-linux/mummer /vol/codine-tmp/juene/tmp.QAkxeiWnK7/quast/contigs_reports/nucmer_output/SOAP2_MIS_PE_mtbh37-1_mis_2x250bp_nextera_default_57.final.scaf.ntref 26.99
4: FINISHING DATA
