Assembly	ABYSS_PE_MIS_PE_mrsa_mis-1_bi_2x250bp_default__mrsa_mis-2_bi_2x250bp_default.0.460percent_86-scaffolds_broken	ABYSS_PE_MIS_PE_mrsa_mis-1_bi_2x250bp_default__mrsa_mis-2_bi_2x250bp_default.0.460percent_86-scaffolds
#Contigs (>= 0 bp)	299	290
#Contigs (>= 1000 bp)	68	64
Total length (>= 0 bp)	2807445	2807856
Total length (>= 1000 bp)	2766443	2769484
#Contigs	108	99
Largest contig	207865	207865
Total length	2782197	2782608
Reference length	2813862	2813862
GC (%)	32.67	32.67
Reference GC (%)	32.81	32.81
N50	92786	92786
NG50	92786	92786
N75	38793	43313
NG75	36008	43313
#misassemblies	3	4
#local misassemblies	1	3
#unaligned contigs	0 + 0 part	0 + 0 part
Unaligned contigs length	0	0
Genome fraction (%)	98.663	98.803
Duplication ratio	1.001	1.001
#N's per 100 kbp	0.07	14.84
#mismatches per 100 kbp	2.09	2.34
#indels per 100 kbp	0.36	2.19
#genes	2665 + 44 part	2668 + 42 part
#predicted genes (unique)	2659	2658
#predicted genes (>= 0 bp)	2663	2661
#predicted genes (>= 300 bp)	2285	2286
#predicted genes (>= 1500 bp)	298	298
#predicted genes (>= 3000 bp)	28	28
Largest alignment	207865	207865
NA50	92786	92786
NGA50	92786	92786
NA75	38793	42147
NGA75	36008	40795
