All statistics are based on contigs of size >= 200 bp, unless otherwise noted (e.g., "# contigs (>= 0 bp)" and "Total length (>= 0 bp)" include all contigs).

Assembly                         ABYSS_PE_MIS_PE_sakai_mis-1_bi_2x150bp_default__sakai_mis-2_bi_2x150bp_default.0.826percent_70-scaffolds_broken  ABYSS_PE_MIS_PE_sakai_mis-1_bi_2x150bp_default__sakai_mis-2_bi_2x150bp_default.0.826percent_70-scaffolds
GAGE_Contigs #                   260                                                                                                              208                                                                                                     
GAGE_Min contig                  200                                                                                                              200                                                                                                     
GAGE_Max contig                  292288                                                                                                           376756                                                                                                  
GAGE_N50                         100154 COUNT: 17                                                                                                 148489 COUNT: 13                                                                                        
GAGE_Genome size                 5594470                                                                                                          5594470                                                                                                 
GAGE_Assembly size               5499236                                                                                                          5502234                                                                                                 
GAGE_Chaff bases                 0                                                                                                                0                                                                                                       
GAGE_Missing reference bases     30497(0.55%)                                                                                                     30309(0.54%)                                                                                            
GAGE_Missing assembly bases      1187(0.02%)                                                                                                      3778(0.07%)                                                                                             
GAGE_Missing assembly contigs    0(0.00%)                                                                                                         0(0.00%)                                                                                                
GAGE_Duplicated reference bases  18154                                                                                                            15817                                                                                                   
GAGE_Compressed reference bases  207389                                                                                                           205288                                                                                                  
GAGE_Bad trim                    67                                                                                                               467                                                                                                     
GAGE_Avg idy                     99.97                                                                                                            99.97                                                                                                   
GAGE_SNPs                        597                                                                                                              599                                                                                                     
GAGE_Indels < 5bp                45                                                                                                               50                                                                                                      
GAGE_Indels >= 5                 10                                                                                                               28                                                                                                      
GAGE_Inversions                  0                                                                                                                6                                                                                                       
GAGE_Relocation                  4                                                                                                                14                                                                                                      
GAGE_Translocation               1                                                                                                                1                                                                                                       
GAGE_Corrected contig #          250                                                                                                              248                                                                                                     
GAGE_Corrected assembly size     5483507                                                                                                          5486246                                                                                                 
GAGE_Min correct contig          202                                                                                                              202                                                                                                     
GAGE_Max correct contig          228653                                                                                                           245373                                                                                                  
GAGE_Corrected N50               94374 COUNT: 20                                                                                                  100105 COUNT: 19                                                                                        
