Assembly	GAGE_Contigs #	GAGE_Min contig	GAGE_Max contig	GAGE_N50	GAGE_Genome size	GAGE_Assembly size	GAGE_Chaff bases	GAGE_Missing reference bases	GAGE_Missing assembly bases	GAGE_Missing assembly contigs	GAGE_Duplicated reference bases	GAGE_Compressed reference bases	GAGE_Bad trim	GAGE_Avg idy	GAGE_SNPs	GAGE_Indels < 5bp	GAGE_Indels >= 5	GAGE_Inversions	GAGE_Relocation	GAGE_Translocation	GAGE_Corrected contig #	GAGE_Corrected assembly size	GAGE_Min correct contig	GAGE_Max correct contig	GAGE_Corrected N50
ABYSS_PE_MIS_PE_sakai_mis-1_bi_2x150bp_default__sakai_mis-2_bi_2x150bp_default.0.826percent_70-scaffolds_broken	260	200	292288	100154 COUNT: 17	5594470	5499236	0	30497(0.55%)	1187(0.02%)	0(0.00%)	18154	207389	67	99.97	597	45	10	0	4	1	250	5483507	202	228653	94374 COUNT: 20
ABYSS_PE_MIS_PE_sakai_mis-1_bi_2x150bp_default__sakai_mis-2_bi_2x150bp_default.0.826percent_70-scaffolds	208	200	376756	148489 COUNT: 13	5594470	5502234	0	30309(0.54%)	3778(0.07%)	0(0.00%)	15817	205288	467	99.97	599	50	28	6	14	1	248	5486246	202	245373	100105 COUNT: 19
