Assembly	ABYSS_PE_MIS_PE_mtbh37-1_mis_2x250bp_nextera_default__mtbh37-2_mis_2x250bp_nextera_default_96-scaffolds_broken	ABYSS_PE_MIS_PE_mtbh37-1_mis_2x250bp_nextera_default__mtbh37-2_mis_2x250bp_nextera_default_96-scaffolds
GAGE_Contigs #	195	146
GAGE_Min contig	223	223
GAGE_Max contig	148590	207936
GAGE_N50	58184 COUNT: 25	83745 COUNT: 17
GAGE_Genome size	4411532	4411532
GAGE_Assembly size	4418825	4421164
GAGE_Chaff bases	0	0
GAGE_Missing reference bases	29583(0.67%)	29232(0.66%)
GAGE_Missing assembly bases	957(0.02%)	2939(0.07%)
GAGE_Missing assembly contigs	0(0.00%)	0(0.00%)
GAGE_Duplicated reference bases	9045	9140
GAGE_Compressed reference bases	14760	13427
GAGE_Bad trim	908	906
GAGE_Avg idy	99.98	99.98
GAGE_SNPs	274	274
GAGE_Indels < 5bp	56	88
GAGE_Indels >= 5	33	68
GAGE_Inversions	1	0
GAGE_Relocation	1	4
GAGE_Translocation	0	0
GAGE_Corrected contig #	224	213
GAGE_Corrected assembly size	4412658	4413009
GAGE_Min correct contig	223	223
GAGE_Max correct contig	145399	188085
GAGE_Corrected N50	41654 COUNT: 34	46910 COUNT: 29
