1: PREPARING DATA
2,3: RUNNING mummer AND CREATING CLUSTERS
# reading input file "/vol/codine-tmp/juene/tmp.AENKjbkw4n/quast/gage/tmp/SOAP2_MIS_PE_mrsa_mis-1_bi_2x250bp_default.0.460percent_117.final.scaf_broken.ntref" of length 2813864
# construct suffix tree for sequence of length 2813864
# (maximum reference length is 536870908)
# (maximum query length is 4294967295)
# process 28138 characters per dot
#....................................................................................................
# CONSTRUCTIONTIME /vol/ngscomparison/software/analysis/quast-2.1/libs/MUMmer3.23-linux/mummer /vol/codine-tmp/juene/tmp.AENKjbkw4n/quast/gage/tmp/SOAP2_MIS_PE_mrsa_mis-1_bi_2x250bp_default.0.460percent_117.final.scaf_broken.ntref 1.26
# reading input file "/vol/codine-tmp/juene/tmp.AENKjbkw4n/quast/corrected_input/SOAP2_MIS_PE_mrsa_mis-1_bi_2x250bp_default.0.460percent_117.final.scaf_broken" of length 2915560
# matching query-file "/vol/codine-tmp/juene/tmp.AENKjbkw4n/quast/corrected_input/SOAP2_MIS_PE_mrsa_mis-1_bi_2x250bp_default.0.460percent_117.final.scaf_broken"
# against subject-file "/vol/codine-tmp/juene/tmp.AENKjbkw4n/quast/gage/tmp/SOAP2_MIS_PE_mrsa_mis-1_bi_2x250bp_default.0.460percent_117.final.scaf_broken.ntref"
# COMPLETETIME /vol/ngscomparison/software/analysis/quast-2.1/libs/MUMmer3.23-linux/mummer /vol/codine-tmp/juene/tmp.AENKjbkw4n/quast/gage/tmp/SOAP2_MIS_PE_mrsa_mis-1_bi_2x250bp_default.0.460percent_117.final.scaf_broken.ntref 3.89
# SPACE /vol/ngscomparison/software/analysis/quast-2.1/libs/MUMmer3.23-linux/mummer /vol/codine-tmp/juene/tmp.AENKjbkw4n/quast/gage/tmp/SOAP2_MIS_PE_mrsa_mis-1_bi_2x250bp_default.0.460percent_117.final.scaf_broken.ntref 5.56
4: FINISHING DATA
Filtering alignments
Extracting alignment coordinates
Analyzing SNPs
Extracting alignment breakpoints
Generating report file
Found genome size at position 4 with value 2813862 aka 2813862
Calculating point at 0 and the sum is 1026446 and i is303 and lens is 315 and length is 51672
Calculating point at 1 and the sum is 2018608 and i is270 and lens is 315 and length is 21782
