All statistics are based on contigs of size >= 200 bp, unless otherwise noted (e.g., "# contigs (>= 0 bp)" and "Total length (>= 0 bp)" include all contigs).

Assembly                                                                                                            GAGE_Contigs #  GAGE_Min contig  GAGE_Max contig  GAGE_N50          GAGE_Genome size  GAGE_Assembly size  GAGE_Chaff bases  GAGE_Missing reference bases  GAGE_Missing assembly bases  GAGE_Missing assembly contigs  GAGE_Duplicated reference bases  GAGE_Compressed reference bases  GAGE_Bad trim  GAGE_Avg idy  GAGE_SNPs  GAGE_Indels < 5bp  GAGE_Indels >= 5  GAGE_Inversions  GAGE_Relocation  GAGE_Translocation  GAGE_Corrected contig #  GAGE_Corrected assembly size  GAGE_Min correct contig  GAGE_Max correct contig  GAGE_Corrected N50
VELVET_MIS_PE_sakai_mis-1_bi_2x150bp_default__sakai_mis-2_bi_2x150bp_default.0.826percent_109.final.contigs_broken  635             217              113523           31970 COUNT: 53   5594470           5453934             0                 5847(0.10%)                   5470(0.10%)                  1(0.16%)                       18423                            240668                           85             100.00        57         16                 2                 0                3                0                   587                      5430329                       217                      113523                   31970 COUNT: 53   
VELVET_MIS_PE_sakai_mis-1_bi_2x150bp_default__sakai_mis-2_bi_2x150bp_default.0.826percent_109.final.contigs         400             217              375732           148460 COUNT: 12  5594470           5471411             0                 5747(0.10%)                   22036(0.40%)                 1(0.25%)                       18643                            239510                           1240           100.00        56         37                 188               12               8                0                   582                      5431451                       217                      113523                   32085 COUNT: 53   
