Assembly	ABYSS_PE_PGM_mrsa_pgm_400bp_es_318_IKA_ts3.2_morestringent.0.165percent_32-unitigs
#Contigs (>= 0 bp)	9867
#Contigs (>= 1000 bp)	486
Total length (>= 0 bp)	3155021
Total length (>= 1000 bp)	2578239
#Contigs	741
Largest contig	61822
Total length	2699814
Reference length	2813862
GC (%)	32.58
Reference GC (%)	32.81
N50	7629
NG50	7230
N75	3623
NG75	3316
#misassemblies	1
#local misassemblies	1
#unaligned contigs	0 + 0 part
Unaligned contigs length	0
Genome fraction (%)	95.813
Duplication ratio	1.001
#N's per 100 kbp	0.00
#mismatches per 100 kbp	1.52
#indels per 100 kbp	2.93
#genes	2177 + 432 part
#predicted genes (unique)	2972
#predicted genes (>= 0 bp)	2972
#predicted genes (>= 300 bp)	2400
#predicted genes (>= 1500 bp)	238
#predicted genes (>= 3000 bp)	16
Largest alignment	61822
NA50	7629
NGA50	7230
NA75	3585
NGA75	3316
