All statistics are based on contigs of size >= 200 bp, unless otherwise noted (e.g., "# contigs (>= 0 bp)" and "Total length (>= 0 bp)" include all contigs).

Assembly                                   VELVET_MIS_PE_sakai_mis-both_bi_2x250bp_SI_default.0.64percent_67.final.contigs_broken  VELVET_MIS_PE_sakai_mis-both_bi_2x250bp_SI_default.0.64percent_67.final.contigs
#Contigs                                   604                                                                                     405                                                                            
#Contigs (>= 0 bp)                         764                                                                                     558                                                                            
#Contigs (>= 1000 bp)                      348                                                                                     180                                                                            
Largest contig                             100681                                                                                  231082                                                                         
Total length                               5366008                                                                                 5380952                                                                        
Total length (>= 0 bp)                     5392302                                                                                 5406334                                                                        
Total length (>= 1000 bp)                  5261269                                                                                 5292352                                                                        
Reference length                           5594470                                                                                 5594470                                                                        
N50                                        29486                                                                                   75660                                                                          
NG50                                       28635                                                                                   74149                                                                          
N75                                        15572                                                                                   40861                                                                          
NG75                                       13713                                                                                   34801                                                                          
L50                                        57                                                                                      22                                                                             
LG50                                       61                                                                                      24                                                                             
L75                                        119                                                                                     46                                                                             
LG75                                       131                                                                                     51                                                                             
#local misassemblies                       12                                                                                      122                                                                            
#misassemblies                             6                                                                                       17                                                                             
#misassembled contigs                      6                                                                                       13                                                                             
Misassembled contigs length                172661                                                                                  507261                                                                         
Misassemblies inter-contig overlap         3818                                                                                    3949                                                                           
#unaligned contigs                         1 + 0 part                                                                              1 + 0 part                                                                     
Unaligned contigs length                   5452                                                                                    5452                                                                           
#ambiguously mapped contigs                163                                                                                     161                                                                            
Extra bases in ambiguously mapped contigs  -94997                                                                                  -88619                                                                         
#N's                                       0                                                                                       14032                                                                          
#N's per 100 kbp                           0.00                                                                                    260.77                                                                         
Genome fraction (%)                        94.064                                                                                  94.273                                                                         
Duplication ratio                          1.001                                                                                   1.003                                                                          
#genes                                     4790 + 342 part                                                                         4870 + 270 part                                                                
#predicted genes (unique)                  5516                                                                                    5463                                                                           
#predicted genes (>= 0 bp)                 5518                                                                                    5465                                                                           
#predicted genes (>= 300 bp)               4532                                                                                    4519                                                                           
#predicted genes (>= 1500 bp)              645                                                                                     646                                                                            
#predicted genes (>= 3000 bp)              62                                                                                      62                                                                             
#mismatches                                436                                                                                     462                                                                            
#indels                                    45                                                                                      594                                                                            
Indels length                              60                                                                                      1753                                                                           
#mismatches per 100 kbp                    8.29                                                                                    8.76                                                                           
#indels per 100 kbp                        0.86                                                                                    11.26                                                                          
GC (%)                                     50.29                                                                                   50.29                                                                          
Reference GC (%)                           50.48                                                                                   50.48                                                                          
Average %IDY                               99.034                                                                                  98.999                                                                         
Largest alignment                          100681                                                                                  230839                                                                         
NA50                                       29078                                                                                   74055                                                                          
NGA50                                      28530                                                                                   70768                                                                          
NA75                                       15408                                                                                   37097                                                                          
NGA75                                      13086                                                                                   33020                                                                          
LA50                                       58                                                                                      22                                                                             
LGA50                                      62                                                                                      24                                                                             
LA75                                       121                                                                                     48                                                                             
LGA75                                      133                                                                                     53                                                                             
#Mis_misassemblies                         6                                                                                       17                                                                             
#Mis_relocations                           6                                                                                       17                                                                             
#Mis_translocations                        0                                                                                       0                                                                              
#Mis_inversions                            0                                                                                       0                                                                              
#Mis_misassembled contigs                  6                                                                                       13                                                                             
Mis_Misassembled contigs length            172661                                                                                  507261                                                                         
#Mis_local misassemblies                   12                                                                                      122                                                                            
#Mis_short indels (<= 5 bp)                43                                                                                      541                                                                            
#Mis_long indels (> 5 bp)                  2                                                                                       53                                                                             
#Una_fully unaligned contigs               1                                                                                       1                                                                              
Una_Fully unaligned length                 5452                                                                                    5452                                                                           
#Una_partially unaligned contigs           0                                                                                       0                                                                              
#Una_with misassembly                      0                                                                                       0                                                                              
#Una_both parts are significant            0                                                                                       0                                                                              
Una_Partially unaligned length             0                                                                                       0                                                                              
GAGE_Contigs #                             604                                                                                     405                                                                            
GAGE_Min contig                            200                                                                                     200                                                                            
GAGE_Max contig                            100681                                                                                  231082                                                                         
GAGE_N50                                   28635 COUNT: 61                                                                         74149 COUNT: 24                                                                
GAGE_Genome size                           5594470                                                                                 5594470                                                                        
GAGE_Assembly size                         5366008                                                                                 5380952                                                                        
GAGE_Chaff bases                           0                                                                                       0                                                                              
GAGE_Missing reference bases               31445(0.56%)                                                                            30645(0.55%)                                                                   
GAGE_Missing assembly bases                5498(0.10%)                                                                             18937(0.35%)                                                                   
GAGE_Missing assembly contigs              1(0.17%)                                                                                1(0.25%)                                                                       
GAGE_Duplicated reference bases            10864                                                                                   10666                                                                          
GAGE_Compressed reference bases            266072                                                                                  264503                                                                         
GAGE_Bad trim                              46                                                                                      117                                                                            
GAGE_Avg idy                               99.99                                                                                   99.98                                                                          
GAGE_SNPs                                  307                                                                                     305                                                                            
GAGE_Indels < 5bp                          28                                                                                      72                                                                             
GAGE_Indels >= 5                           8                                                                                       154                                                                            
GAGE_Inversions                            0                                                                                       7                                                                              
GAGE_Relocation                            8                                                                                       19                                                                             
GAGE_Translocation                         0                                                                                       0                                                                              
GAGE_Corrected contig #                    582                                                                                     565                                                                            
GAGE_Corrected assembly size               5353081                                                                                 5354656                                                                        
GAGE_Min correct contig                    200                                                                                     200                                                                            
GAGE_Max correct contig                    100682                                                                                  106657                                                                         
GAGE_Corrected N50                         26927 COUNT: 63                                                                         28530 COUNT: 61                                                                
