All statistics are based on contigs of size >= 200 bp, unless otherwise noted (e.g., "# contigs (>= 0 bp)" and "Total length (>= 0 bp)" include all contigs).

Assembly                       ABYSS_PE_MIS_PE_sakai_mis-1_bi_2x150bp_default__sakai_mis-2_bi_2x150bp_default.0.826percent_50-scaffolds_broken  ABYSS_PE_MIS_PE_sakai_mis-1_bi_2x150bp_default__sakai_mis-2_bi_2x150bp_default.0.826percent_50-scaffolds
#Contigs (>= 0 bp)             1237                                                                                                             1180                                                                                                    
#Contigs (>= 1000 bp)          188                                                                                                              160                                                                                                     
Total length (>= 0 bp)         5539776                                                                                                          5545942                                                                                                 
Total length (>= 1000 bp)      5402902                                                                                                          5421842                                                                                                 
#Contigs                       267                                                                                                              212                                                                                                     
Largest contig                 292286                                                                                                           376925                                                                                                  
Total length                   5445840                                                                                                          5452265                                                                                                 
Reference length               5594470                                                                                                          5594470                                                                                                 
GC (%)                         50.38                                                                                                            50.38                                                                                                   
Reference GC (%)               50.48                                                                                                            50.48                                                                                                   
N50                            94121                                                                                                            148449                                                                                                  
NG50                           88195                                                                                                            147244                                                                                                  
N75                            41777                                                                                                            46754                                                                                                   
NG75                           41207                                                                                                            44053                                                                                                   
#misassemblies                 3                                                                                                                12                                                                                                      
#local misassemblies           7                                                                                                                31                                                                                                      
#unaligned contigs             0 + 0 part                                                                                                       1 + 0 part                                                                                              
Unaligned contigs length       0                                                                                                                1085                                                                                                    
Genome fraction (%)            95.402                                                                                                           95.677                                                                                                  
Duplication ratio              1.012                                                                                                            1.013                                                                                                   
#N's per 100 kbp               0.83                                                                                                             113.92                                                                                                  
#mismatches per 100 kbp        20.40                                                                                                            20.85                                                                                                   
#indels per 100 kbp            0.90                                                                                                             2.50                                                                                                    
#genes                         5011 + 165 part                                                                                                  5034 + 161 part                                                                                         
#predicted genes (unique)      5207                                                                                                             5196                                                                                                    
#predicted genes (>= 0 bp)     5314                                                                                                             5304                                                                                                    
#predicted genes (>= 300 bp)   4485                                                                                                             4488                                                                                                    
#predicted genes (>= 1500 bp)  679                                                                                                              679                                                                                                     
#predicted genes (>= 3000 bp)  71                                                                                                               70                                                                                                      
Largest alignment              228649                                                                                                           271013                                                                                                  
NA50                           88195                                                                                                            148276                                                                                                  
NGA50                          87549                                                                                                            147244                                                                                                  
NA75                           41364                                                                                                            46754                                                                                                   
NGA75                          41057                                                                                                            44053                                                                                                   
