Assembly	VELVET_PGM_mrsa_pgm_400bp_es_318_IKA_ts3.2_morestringent.0.165percent_225.final.contigs
#Mis_misassemblies	1
#Mis_relocations	1
#Mis_translocations	0
#Mis_inversions	0
#Mis_misassembled contigs	1
Mis_Misassembled contigs length	4232
#Mis_local misassemblies	0
#mismatches	114
#indels	893
#Mis_short indels (<= 5 bp)	893
#Mis_long indels (> 5 bp)	0
Indels length	921
