Assembly	CLC_MIS_PE_mrsa_mis-1_bi_2x250bp_default__mrsa_mis-2_bi_2x250bp_default.0.050percent.result_broken	CLC_MIS_PE_mrsa_mis-1_bi_2x250bp_default__mrsa_mis-2_bi_2x250bp_default.0.050percent.result
#Una_fully unaligned contigs	31	31
Una_Fully unaligned length	14478	14478
#Una_partially unaligned contigs	12	12
#Una_with misassembly	0	0
#Una_both parts are significant	2	2
Una_Partially unaligned length	1664	1664
#N's	84	84
