calling: java -cp /vol/ngscomparison/software/analysis/quast-2.1/libs/gage:. SizeFasta /vol/codine-tmp/juene/tmp.S6YnVKF17s/quast/corrected_input/MRSA_COL_Plasmid.fasta |awk '{SUM+=; print SUM}'|tail -n 1
Contig Stats
Total units: 257
Reference: 2813862
BasesInFasta: 2738297
Min: 203
Max: 66867
N10: 58136 COUNT: 5
N25: 38353 COUNT: 14
N50: 25330 COUNT: 36
N75: 12169 COUNT: 75
E-size:28073.46

Genome Size: 2813862
Assembly Size: 2738297
Chaff bases: 0
Missing Reference Bases: 45799(1.63%)
Missing Assembly Bases: 5364(0.20%)
Missing Assembly Contigs: 4(1.56%)
Duplicated Reference Bases: 544
Compressed Reference Bases: 37518
Bad Trim: 388
Avg Idy: 99.98
SNPs: 368
Indels < 5bp: 69
Indels >= 5: 18
Inversions: 0
Relocation: 5
Translocation: 0

Corrected Contig Stats
calling: java -cp /vol/ngscomparison/software/analysis/quast-2.1/libs/gage:.:. GetFastaStats -o -min 199 -genomeSize 2813862 /vol/codine-tmp/juene/tmp.S6YnVKF17s/quast/gage/tmp/VELVET_MIS_PE_mrsa_mis-1_bi_2x250bp_default__mrsa_mis-2_bi_2x250bp_default.0.460percent_25.final.contigs_broken.matches.lens 2> /dev/null
Total units: 272
Reference: 2813862
BasesInFasta: 2733252
Min: 203
Max: 66867
N10: 52468 COUNT: 5
N25: 36740 COUNT: 15
N50: 22873 COUNT: 39
N75: 10925 COUNT: 83
E-size:25935.04

Done
