All statistics are based on contigs of size >= 200 bp, unless otherwise noted (e.g., "# contigs (>= 0 bp)" and "Total length (>= 0 bp)" include all contigs).

Assembly                                   SOAP2_MIS_PE_sakai_mis-1_bi_2x250bp_SI_default.0.64percent_75.final.scaf_broken  SOAP2_MIS_PE_sakai_mis-1_bi_2x250bp_SI_default.0.64percent_75.final.scaf
#Contigs                                   70715                                                                            70697                                                                   
#Contigs (>= 0 bp)                         83032                                                                            82972                                                                   
#Contigs (>= 1000 bp)                      1352                                                                             1357                                                                    
Largest contig                             5919                                                                             5919                                                                    
Total length                               20736882                                                                         20748184                                                                
Total length (>= 0 bp)                     22483138                                                                         22487661                                                                
Total length (>= 1000 bp)                  2046160                                                                          2052599                                                                 
Reference length                           5594470                                                                          5594470                                                                 
N50                                        251                                                                              251                                                                     
NG50                                       764                                                                              766                                                                     
N75                                        247                                                                              247                                                                     
NG75                                       446                                                                              452                                                                     
L50                                        28137                                                                            28099                                                                   
LG50                                       2215                                                                             2211                                                                    
L75                                        48875                                                                            48848                                                                   
LG75                                       4615                                                                             4595                                                                    
#local misassemblies                       3                                                                                25                                                                      
#misassemblies                             6                                                                                6                                                                       
#misassembled contigs                      6                                                                                6                                                                       
Misassembled contigs length                3002                                                                             3002                                                                    
Misassemblies inter-contig overlap         120                                                                              120                                                                     
#unaligned contigs                         50010 + 2920 part                                                                50030 + 2924 part                                                       
Unaligned contigs length                   12710192                                                                         12726036                                                                
#ambiguously mapped contigs                519                                                                              519                                                                     
Extra bases in ambiguously mapped contigs  -138128                                                                          -138128                                                                 
#N's                                       1                                                                                4524                                                                    
#N's per 100 kbp                           0.00                                                                             21.80                                                                   
Genome fraction (%)                        93.412                                                                           93.336                                                                  
Duplication ratio                          1.510                                                                            1.510                                                                   
#genes                                     1392 + 3762 part                                                                 1391 + 3761 part                                                        
#predicted genes (unique)                  66095                                                                            66118                                                                   
#predicted genes (>= 0 bp)                 66244                                                                            66269                                                                   
#predicted genes (>= 300 bp)               6380                                                                             6385                                                                    
#predicted genes (>= 1500 bp)              70                                                                               70                                                                      
#predicted genes (>= 3000 bp)              1                                                                                1                                                                       
#mismatches                                20490                                                                            20481                                                                   
#indels                                    192                                                                              262                                                                     
Indels length                              196                                                                              311                                                                     
#mismatches per 100 kbp                    392.09                                                                           392.24                                                                  
#indels per 100 kbp                        3.67                                                                             5.02                                                                    
GC (%)                                     53.65                                                                            53.65                                                                   
Reference GC (%)                           50.48                                                                            50.48                                                                   
Average %IDY                               98.255                                                                           98.253                                                                  
Largest alignment                          5919                                                                             5919                                                                    
NA50                                       None                                                                             None                                                                    
NGA50                                      763                                                                              763                                                                     
NA75                                       None                                                                             None                                                                    
NGA75                                      442                                                                              443                                                                     
LA50                                       None                                                                             None                                                                    
LGA50                                      2216                                                                             2215                                                                    
LA75                                       None                                                                             None                                                                    
LGA75                                      4628                                                                             4623                                                                    
#Mis_misassemblies                         6                                                                                6                                                                       
#Mis_relocations                           4                                                                                4                                                                       
#Mis_translocations                        0                                                                                0                                                                       
#Mis_inversions                            2                                                                                2                                                                       
#Mis_misassembled contigs                  6                                                                                6                                                                       
Mis_Misassembled contigs length            3002                                                                             3002                                                                    
#Mis_local misassemblies                   3                                                                                25                                                                      
#Mis_short indels (<= 5 bp)                192                                                                              260                                                                     
#Mis_long indels (> 5 bp)                  0                                                                                2                                                                       
#Una_fully unaligned contigs               50010                                                                            50030                                                                   
Una_Fully unaligned length                 12397581                                                                         12411090                                                                
#Una_partially unaligned contigs           2920                                                                             2924                                                                    
#Una_with misassembly                      0                                                                                0                                                                       
#Una_both parts are significant            0                                                                                1                                                                       
Una_Partially unaligned length             312611                                                                           314946                                                                  
GAGE_Contigs #                             70715                                                                            70697                                                                   
GAGE_Min contig                            200                                                                              200                                                                     
GAGE_Max contig                            5919                                                                             5919                                                                    
GAGE_N50                                   764 COUNT: 2215                                                                  766 COUNT: 2211                                                         
GAGE_Genome size                           5594470                                                                          5594470                                                                 
GAGE_Assembly size                         20736882                                                                         20748184                                                                
GAGE_Chaff bases                           0                                                                                0                                                                       
GAGE_Missing reference bases               81744(1.46%)                                                                     81068(1.45%)                                                            
GAGE_Missing assembly bases                11558377(55.74%)                                                                 11563598(55.73%)                                                        
GAGE_Missing assembly contigs              45091(63.76%)                                                                    45090(63.78%)                                                           
GAGE_Duplicated reference bases            3257571                                                                          3261388                                                                 
GAGE_Compressed reference bases            295288                                                                           295204                                                                  
GAGE_Bad trim                              384502                                                                           386555                                                                  
GAGE_Avg idy                               99.74                                                                            99.74                                                                   
GAGE_SNPs                                  7228                                                                             7153                                                                    
GAGE_Indels < 5bp                          73                                                                               76                                                                      
GAGE_Indels >= 5                           2                                                                                26                                                                      
GAGE_Inversions                            0                                                                                0                                                                       
GAGE_Relocation                            3                                                                                3                                                                       
GAGE_Translocation                         0                                                                                0                                                                       
GAGE_Corrected contig #                    10474                                                                            10461                                                                   
GAGE_Corrected assembly size               5856113                                                                          5853508                                                                 
GAGE_Min correct contig                    200                                                                              200                                                                     
GAGE_Max correct contig                    5919                                                                             5919                                                                    
GAGE_Corrected N50                         763 COUNT: 2216                                                                  763 COUNT: 2215                                                         
