All statistics are based on contigs of size >= 200 bp, unless otherwise noted (e.g., "# contigs (>= 0 bp)" and "Total length (>= 0 bp)" include all contigs).

Assembly                                                                                                           GAGE_Contigs #  GAGE_Min contig  GAGE_Max contig  GAGE_N50          GAGE_Genome size  GAGE_Assembly size  GAGE_Chaff bases  GAGE_Missing reference bases  GAGE_Missing assembly bases  GAGE_Missing assembly contigs  GAGE_Duplicated reference bases  GAGE_Compressed reference bases  GAGE_Bad trim  GAGE_Avg idy  GAGE_SNPs  GAGE_Indels < 5bp  GAGE_Indels >= 5  GAGE_Inversions  GAGE_Relocation  GAGE_Translocation  GAGE_Corrected contig #  GAGE_Corrected assembly size  GAGE_Min correct contig  GAGE_Max correct contig  GAGE_Corrected N50
VELVET_MIS_PE_mtbh37-1_mis_2x250bp_nextera_default__mtbh37-2_mis_2x250bp_nextera_default_103.final.contigs_broken  630             205              48876            11471 COUNT: 118  4411532           4220065             0                 155540(3.53%)                 891(0.02%)                   0(0.00%)                       2558                             57568                            891            99.99         146        27                 15                0                4                0                   644                      4220908                       205                      36141                    10573 COUNT: 124  
VELVET_MIS_PE_mtbh37-1_mis_2x250bp_nextera_default__mtbh37-2_mis_2x250bp_nextera_default_103.final.contigs         277             205              102238           32174 COUNT: 40   4411532           4262240             0                 155207(3.52%)                 42525(1.00%)                 0(0.00%)                       2751                             57568                            869            99.98         146        48                 354               0                11               0                   637                      4221241                       205                      46515                    10885 COUNT: 121  
