Assembly	VELVET_PGM_sakai_pgm_mu_200bp_IO_TS3.0Disabled_stringent.0.34percent_167.final.contigs
#Mis_misassemblies	4
#Mis_relocations	2
#Mis_translocations	0
#Mis_inversions	2
#Mis_misassembled contigs	4
Mis_Misassembled contigs length	5457
#Mis_local misassemblies	1
#mismatches	268
#indels	2135
#Mis_short indels (<= 5 bp)	2135
#Mis_long indels (> 5 bp)	0
Indels length	2166
