Assembly	ABYSS_PE_MIS_PE_mrsa_mis-1_bi_2x150bp_default__mrsa_mis-2_bi_2x150bp_default.0.527percent_60-scaffolds_broken	ABYSS_PE_MIS_PE_mrsa_mis-1_bi_2x150bp_default__mrsa_mis-2_bi_2x150bp_default.0.527percent_60-scaffolds
#Contigs (>= 0 bp)	295	270
#Contigs (>= 1000 bp)	62	45
Total length (>= 0 bp)	2809456	2810779
Total length (>= 1000 bp)	2776862	2781285
#Contigs	83	58
Largest contig	255832	272493
Total length	2786773	2788096
Reference length	2813862	2813862
GC (%)	32.67	32.67
Reference GC (%)	32.81	32.81
N50	101673	144773
NG50	101673	144773
N75	40140	73755
NG75	38028	73755
#misassemblies	2	6
#local misassemblies	7	17
#unaligned contigs	0 + 0 part	0 + 0 part
Unaligned contigs length	0	0
Genome fraction (%)	98.463	98.790
Duplication ratio	1.005	1.004
#N's per 100 kbp	0.29	47.74
#mismatches per 100 kbp	9.13	9.28
#indels per 100 kbp	0.54	4.57
#genes	2643 + 34 part	2656 + 32 part
#predicted genes (unique)	2646	2639
#predicted genes (>= 0 bp)	2663	2656
#predicted genes (>= 300 bp)	2294	2294
#predicted genes (>= 1500 bp)	301	301
#predicted genes (>= 3000 bp)	28	28
Largest alignment	255832	272493
NA50	101673	144723
NGA50	101673	144723
NA75	40140	64261
NGA75	38028	64261
