All statistics are based on contigs of size >= 200 bp, unless otherwise noted (e.g., "# contigs (>= 0 bp)" and "Total length (>= 0 bp)" include all contigs).

Assembly                         ABYSS_PE_MIS_PE_mtbh37-1_mis_2x250bp_nextera_default__mtbh37-2_mis_2x250bp_nextera_default_110-scaffolds_broken  ABYSS_PE_MIS_PE_mtbh37-1_mis_2x250bp_nextera_default__mtbh37-2_mis_2x250bp_nextera_default_110-scaffolds
GAGE_Contigs #                   217                                                                                                              164                                                                                                     
GAGE_Min contig                  209                                                                                                              209                                                                                                     
GAGE_Max contig                  148593                                                                                                           163027                                                                                                  
GAGE_N50                         50363 COUNT: 28                                                                                                  69274 COUNT: 20                                                                                         
GAGE_Genome size                 4411532                                                                                                          4411532                                                                                                 
GAGE_Assembly size               4417364                                                                                                          4419969                                                                                                 
GAGE_Chaff bases                 0                                                                                                                0                                                                                                       
GAGE_Missing reference bases     31581(0.72%)                                                                                                     31318(0.71%)                                                                                            
GAGE_Missing assembly bases      955(0.02%)                                                                                                       3244(0.07%)                                                                                             
GAGE_Missing assembly contigs    0(0.00%)                                                                                                         0(0.00%)                                                                                                
GAGE_Duplicated reference bases  12491                                                                                                            13058                                                                                                   
GAGE_Compressed reference bases  22507                                                                                                            22946                                                                                                   
GAGE_Bad trim                    923                                                                                                              971                                                                                                     
GAGE_Avg idy                     99.98                                                                                                            99.98                                                                                                   
GAGE_SNPs                        208                                                                                                              207                                                                                                     
GAGE_Indels < 5bp                80                                                                                                               101                                                                                                     
GAGE_Indels >= 5                 22                                                                                                               65                                                                                                      
GAGE_Inversions                  0                                                                                                                0                                                                                                       
GAGE_Relocation                  2                                                                                                                3                                                                                                       
GAGE_Translocation               0                                                                                                                0                                                                                                       
GAGE_Corrected contig #          231                                                                                                              222                                                                                                     
GAGE_Corrected assembly size     4407650                                                                                                          4407569                                                                                                 
GAGE_Min correct contig          209                                                                                                              209                                                                                                     
GAGE_Max correct contig          145399                                                                                                           145399                                                                                                  
GAGE_Corrected N50               41715 COUNT: 33                                                                                                  44308 COUNT: 31                                                                                         
