All statistics are based on contigs of size >= 200 bp, unless otherwise noted (e.g., "# contigs (>= 0 bp)" and "Total length (>= 0 bp)" include all contigs).

Assembly                                                                                #Mis_misassemblies  #Mis_relocations  #Mis_translocations  #Mis_inversions  #Mis_misassembled contigs  Mis_Misassembled contigs length  #Mis_local misassemblies  #mismatches  #indels  #Mis_short indels (<= 5 bp)  #Mis_long indels (> 5 bp)  Indels length
VELVET_MIS_PE_sakai_mis-both_bi_2x250bp_SI_default.0.64percent_93.final.contigs_broken  3                   3                 0                    0                3                          105471                           7                         157          23       21                           2                          59           
VELVET_MIS_PE_sakai_mis-both_bi_2x250bp_SI_default.0.64percent_93.final.contigs         22                  22                0                    0                16                         473456                           105                       191          277      248                          29                         1079         
