1: PREPARING DATA
2,3: RUNNING mummer AND CREATING CLUSTERS
# reading input file "/vol/codine-tmp/juene/tmp.mHzFMhJyuc/quast/contigs_reports/nucmer_output/ABYSS_PE_PGM_mrsa_pgm_400bp_es_318_IKA_ts3.2_morestringent.0.165percent_118-unitigs.ntref" of length 2813864
# construct suffix tree for sequence of length 2813864
# (maximum reference length is 536870908)
# (maximum query length is 4294967295)
# process 28138 characters per dot
#....................................................................................................
# CONSTRUCTIONTIME /vol/ngscomparison/software/analysis/quast-2.1/libs/MUMmer3.23-linux/mummer /vol/codine-tmp/juene/tmp.mHzFMhJyuc/quast/contigs_reports/nucmer_output/ABYSS_PE_PGM_mrsa_pgm_400bp_es_318_IKA_ts3.2_morestringent.0.165percent_118-unitigs.ntref 1.19
# reading input file "/vol/codine-tmp/juene/tmp.mHzFMhJyuc/quast/corrected_input/ABYSS_PE_PGM_mrsa_pgm_400bp_es_318_IKA_ts3.2_morestringent.0.165percent_118-unitigs" of length 2954695
# matching query-file "/vol/codine-tmp/juene/tmp.mHzFMhJyuc/quast/corrected_input/ABYSS_PE_PGM_mrsa_pgm_400bp_es_318_IKA_ts3.2_morestringent.0.165percent_118-unitigs"
# against subject-file "/vol/codine-tmp/juene/tmp.mHzFMhJyuc/quast/contigs_reports/nucmer_output/ABYSS_PE_PGM_mrsa_pgm_400bp_es_318_IKA_ts3.2_morestringent.0.165percent_118-unitigs.ntref"
# COMPLETETIME /vol/ngscomparison/software/analysis/quast-2.1/libs/MUMmer3.23-linux/mummer /vol/codine-tmp/juene/tmp.mHzFMhJyuc/quast/contigs_reports/nucmer_output/ABYSS_PE_PGM_mrsa_pgm_400bp_es_318_IKA_ts3.2_morestringent.0.165percent_118-unitigs.ntref 5.23
# SPACE /vol/ngscomparison/software/analysis/quast-2.1/libs/MUMmer3.23-linux/mummer /vol/codine-tmp/juene/tmp.mHzFMhJyuc/quast/contigs_reports/nucmer_output/ABYSS_PE_PGM_mrsa_pgm_400bp_es_318_IKA_ts3.2_morestringent.0.165percent_118-unitigs.ntref 5.62
4: FINISHING DATA
