calling: java -cp /vol/ngscomparison/software/analysis/quast-2.1/libs/gage:. SizeFasta /vol/codine-tmp/juene/tmp.dd6khG52hh/quast/corrected_input/Mycobacterium_tuberculosis_H37Rv.fasta |awk '{SUM+=; print SUM}'|tail -n 1
Contig Stats
Total units: 1824
Reference: 4411532
BasesInFasta: 4160787
Min: 421
Max: 16415
N10: 7163 COUNT: 47
N25: 4758 COUNT: 162
N50: 2852 COUNT: 472
N75: 1575 COUNT: 984
E-size:3540.47

Genome Size: 4411532
Assembly Size: 4160787
Chaff bases: 0
Missing Reference Bases: 455335(10.32%)
Missing Assembly Bases: 145345(3.49%)
Missing Assembly Contigs: 0(0.00%)
Duplicated Reference Bases: 376
Compressed Reference Bases: 53168
Bad Trim: 1525
Avg Idy: 99.99
SNPs: 295
Indels < 5bp: 31
Indels >= 5: 850
Inversions: 2
Relocation: 6
Translocation: 0

Corrected Contig Stats
calling: java -cp /vol/ngscomparison/software/analysis/quast-2.1/libs/gage:.:. GetFastaStats -o -min 199 -genomeSize 4411532 /vol/codine-tmp/juene/tmp.dd6khG52hh/quast/gage/tmp/VELVET_MIS_PE_mtbh37-1_mis_2x250bp_nextera_default__mtbh37-2_mis_2x250bp_nextera_default_211.final.contigs.matches.lens 2> /dev/null
Total units: 2684
Reference: 4411532
BasesInFasta: 4016458
Min: 240
Max: 8186
N10: 3652 COUNT: 95
N25: 2626 COUNT: 313
N50: 1636 COUNT: 851
N75: 965 COUNT: 1718
E-size:1916.42

Done
