Assembly	#Mis_misassemblies	#Mis_relocations	#Mis_translocations	#Mis_inversions	#Mis_misassembled contigs	Mis_Misassembled contigs length	#Mis_local misassemblies	#mismatches	#indels	#Mis_short indels (<= 5 bp)	#Mis_long indels (> 5 bp)	Indels length
SOAP2_MIS_PE_mrsa_mis-1_bi_2x250bp_default.0.460percent_69.final.scaf_broken	3	3	0	0	3	5156	17	3815	373	306	67	3495
SOAP2_MIS_PE_mrsa_mis-1_bi_2x250bp_default.0.460percent_69.final.scaf	5	5	0	0	5	8977	91	3617	2904	2659	245	12374
