All statistics are based on contigs of size >= 200 bp, unless otherwise noted (e.g., "# contigs (>= 0 bp)" and "Total length (>= 0 bp)" include all contigs).

Assembly                                                                             #Contigs (>= 0 bp)  #Contigs (>= 1000 bp)  Total length (>= 0 bp)  Total length (>= 1000 bp)  #Contigs  Largest contig  Total length  Reference length  GC (%)  Reference GC (%)  N50    NG50   N75    NG75   #misassemblies  #local misassemblies  #unaligned contigs  Unaligned contigs length  Genome fraction (%)  Duplication ratio  #N's per 100 kbp  #mismatches per 100 kbp  #indels per 100 kbp  #genes           #predicted genes (unique)  #predicted genes (>= 0 bp)  #predicted genes (>= 300 bp)  #predicted genes (>= 1500 bp)  #predicted genes (>= 3000 bp)  Largest alignment  NA50   NGA50  NA75   NGA75
NEWBLER_PGM_mtbh37_pgm_400bp_es_318v2_OT2_tsv3.6_morestringent.0.650percent.contigs  244                 151                    4293849                 4258268                    213       182923          4289355       4411532           65.38   65.61             61074  58056  31361  27316  0               16                    0 + 2 part          1613                      96.783               1.000              0.00              3.19                     19.56                3929 + 120 part  4362                       4362                        3693                          493                            61                             182923             61071  58056  31361  27316
