calling: java -cp /vol/ngscomparison/software/analysis/quast-2.1/libs/gage:. SizeFasta /vol/codine-tmp/juene/tmp.Qby9p7zj4y/quast/corrected_input/Ecoli_Sakai_editedNew_plasmids.fasta |awk '{SUM+=; print SUM}'|tail -n 1
Contig Stats
Total units: 1344
Reference: 5594470
BasesInFasta: 5306402
Min: 200
Max: 46063
N10: 24703 COUNT: 18
N25: 17043 COUNT: 58
N50: 8675 COUNT: 175
N75: 4167 COUNT: 401
E-size:11636.11

Genome Size: 5594470
Assembly Size: 5306402
Chaff bases: 0
Missing Reference Bases: 154059(2.75%)
Missing Assembly Bases: 48(0.00%)
Missing Assembly Contigs: 0(0.00%)
Duplicated Reference Bases: 6209
Compressed Reference Bases: 188591
Bad Trim: 48
Avg Idy: 99.97
SNPs: 56
Indels < 5bp: 1480
Indels >= 5: 3
Inversions: 0
Relocation: 3
Translocation: 0

Corrected Contig Stats
calling: java -cp /vol/ngscomparison/software/analysis/quast-2.1/libs/gage:.:. GetFastaStats -o -min 199 -genomeSize 5594470 /vol/codine-tmp/juene/tmp.Qby9p7zj4y/quast/gage/tmp/ABYSS_PE_PGM_sakai_pgm_mu_200bp_IO_TS3.0Disabled_stringent.0.34percent_80-unitigs.matches.lens 2> /dev/null
Total units: 1323
Reference: 5594470
BasesInFasta: 5301981
Min: 200
Max: 46082
N10: 24712 COUNT: 18
N25: 17048 COUNT: 58
N50: 8640 COUNT: 176
N75: 4169 COUNT: 403
E-size:11579.69

Done
