Assembly	GAGE_Contigs #	GAGE_Min contig	GAGE_Max contig	GAGE_N50	GAGE_Genome size	GAGE_Assembly size	GAGE_Chaff bases	GAGE_Missing reference bases	GAGE_Missing assembly bases	GAGE_Missing assembly contigs	GAGE_Duplicated reference bases	GAGE_Compressed reference bases	GAGE_Bad trim	GAGE_Avg idy	GAGE_SNPs	GAGE_Indels < 5bp	GAGE_Indels >= 5	GAGE_Inversions	GAGE_Relocation	GAGE_Translocation	GAGE_Corrected contig #	GAGE_Corrected assembly size	GAGE_Min correct contig	GAGE_Max correct contig	GAGE_Corrected N50
NEWBLER_MIS_PE_mrsa_mis-1_bi_2x150bp_default__mrsa_mis-2_bi_2x150bp_default.0.450percent.contigs_broken	59	751	326015	87672 COUNT: 9	2813862	2764507	0	23993(0.85%)	5386(0.19%)	1(1.69%)	0	31266	0	99.99	30	9	2	0	2	0	62	2759703	695	326016	80091 COUNT: 10
NEWBLER_MIS_PE_mrsa_mis-1_bi_2x150bp_default__mrsa_mis-2_bi_2x150bp_default.0.450percent.contigs	25	4434	802369	158372 COUNT: 4	2813862	2790482	0	24254(0.86%)	31361(1.12%)	1(4.00%)	0	31005	0	99.99	30	9	26	1	6	0	62	2759703	695	326016	80091 COUNT: 10
