calling: java -cp /vol/ngscomparison/software/analysis/quast-2.1/libs/gage:. SizeFasta /vol/codine-tmp/juene/tmp.pARmjyTlr3/quast/corrected_input/MRSA_COL_Plasmid.fasta |awk '{SUM+=; print SUM}'|tail -n 1
Contig Stats
Total units: 10723
Reference: 2813862
BasesInFasta: 4655065
Min: 200
Max: 7932
N10: 3690 COUNT: 58
N25: 2529 COUNT: 198
N50: 1539 COUNT: 556
N75: 829 COUNT: 1175
E-size:2039.39

Genome Size: 2813862
Assembly Size: 4655065
Chaff bases: 0
Missing Reference Bases: 53874(1.91%)
Missing Assembly Bases: 1319122(28.34%)
Missing Assembly Contigs: 5321(49.62%)
Duplicated Reference Bases: 463554
Compressed Reference Bases: 50652
Bad Trim: 44695
Avg Idy: 99.88
SNPs: 1706
Indels < 5bp: 227
Indels >= 5: 87
Inversions: 0
Relocation: 2
Translocation: 0

Corrected Contig Stats
calling: java -cp /vol/ngscomparison/software/analysis/quast-2.1/libs/gage:.:. GetFastaStats -o -min 199 -genomeSize 2813862 /vol/codine-tmp/juene/tmp.pARmjyTlr3/quast/gage/tmp/SOAP2_MIS_PE_mrsa_mis-1_bi_2x250bp_default.0.460percent_65.final.scaf_broken.matches.lens 2> /dev/null
Total units: 3195
Reference: 2813862
BasesInFasta: 2851765
Min: 200
Max: 7834
N10: 3533 COUNT: 63
N25: 2389 COUNT: 209
N50: 1440 COUNT: 589
N75: 783 COUNT: 1243
E-size:1778.79

Done
