Assembly	#Contigs (>= 0 bp)	#Contigs (>= 1000 bp)	Total length (>= 0 bp)	Total length (>= 1000 bp)	#Contigs	Largest contig	Total length	Reference length	GC (%)	Reference GC (%)	N50	NG50	N75	NG75	#misassemblies	#local misassemblies	#unaligned contigs	Unaligned contigs length	Genome fraction (%)	Duplication ratio	#N's per 100 kbp	#mismatches per 100 kbp	#indels per 100 kbp	#genes	#predicted genes (unique)	#predicted genes (>= 0 bp)	#predicted genes (>= 300 bp)	#predicted genes (>= 1500 bp)	#predicted genes (>= 3000 bp)	Largest alignment	NA50	NGA50	NA75	NGA75
SOAP2_MIS_PE_mrsa_mis-1_bi_2x150bp_default.0.527percent_121.final.scaf_broken	1300	740	2781598	2504932	1207	30046	2767579	2813862	32.81	32.81	3847	3751	2045	1913	3	6	5 + 0 part	7912	96.870	1.006	29.77	1.76	8.07	1958 + 738 part	3347	3353	2521	213	15	30046	3815	3729	2034	1898
SOAP2_MIS_PE_mrsa_mis-1_bi_2x150bp_default.0.527percent_121.final.scaf	554	348	2802745	2733514	463	62662	2789059	2813862	32.81	32.81	12988	12887	6280	6012	9	60	3 + 1 part	7519	97.267	1.011	787.76	2.19	185.53	2378 + 319 part	3100	3106	2465	224	19	57782	12968	12887	6248	6003
