All statistics are based on contigs of size >= 200 bp, unless otherwise noted (e.g., "# contigs (>= 0 bp)" and "Total length (>= 0 bp)" include all contigs).

Assembly                         NEWBLER_MIS_PE_sakai_mis-2_bi_2x150bp_default__sakai_mis-1_bi_2x150bp_default.1.000percent.contigs_broken  NEWBLER_MIS_PE_sakai_mis-2_bi_2x150bp_default__sakai_mis-1_bi_2x150bp_default.1.000percent.contigs
GAGE_Contigs #                   175                                                                                                        92                                                                                                
GAGE_Min contig                  508                                                                                                        2315                                                                                              
GAGE_Max contig                  259768                                                                                                     375259                                                                                            
GAGE_N50                         96027 COUNT: 18                                                                                            148126 COUNT: 12                                                                                  
GAGE_Genome size                 5594470                                                                                                    5594470                                                                                           
GAGE_Assembly size               5233924                                                                                                    5300693                                                                                           
GAGE_Chaff bases                 0                                                                                                          0                                                                                                 
GAGE_Missing reference bases     242738(4.34%)                                                                                              242740(4.34%)                                                                                     
GAGE_Missing assembly bases      5391(0.10%)                                                                                                72160(1.36%)                                                                                      
GAGE_Missing assembly contigs    1(0.57%)                                                                                                   1(1.09%)                                                                                          
GAGE_Duplicated reference bases  0                                                                                                          0                                                                                                 
GAGE_Compressed reference bases  126555                                                                                                     126460                                                                                            
GAGE_Bad trim                    2                                                                                                          1                                                                                                 
GAGE_Avg idy                     100.00                                                                                                     100.00                                                                                            
GAGE_SNPs                        83                                                                                                         83                                                                                                
GAGE_Indels < 5bp                11                                                                                                         11                                                                                                
GAGE_Indels >= 5                 2                                                                                                          65                                                                                                
GAGE_Inversions                  0                                                                                                          4                                                                                                 
GAGE_Relocation                  4                                                                                                          11                                                                                                
GAGE_Translocation               0                                                                                                          1                                                                                                 
GAGE_Corrected contig #          180                                                                                                        180                                                                                               
GAGE_Corrected assembly size     5228846                                                                                                    5228846                                                                                           
GAGE_Min correct contig          473                                                                                                        473                                                                                               
GAGE_Max correct contig          259768                                                                                                     259768                                                                                            
GAGE_Corrected N50               96027 COUNT: 18                                                                                            96027 COUNT: 18                                                                                   
