All statistics are based on contigs of size >= 200 bp, unless otherwise noted (e.g., "# contigs (>= 0 bp)" and "Total length (>= 0 bp)" include all contigs).

Assembly                                                                                                   #Contigs (>= 0 bp)  #Contigs (>= 1000 bp)  Total length (>= 0 bp)  Total length (>= 1000 bp)  #Contigs  Largest contig  Total length  Reference length  GC (%)  Reference GC (%)  N50     NG50    N75    NG75   #misassemblies  #local misassemblies  #unaligned contigs  Unaligned contigs length  Genome fraction (%)  Duplication ratio  #N's per 100 kbp  #mismatches per 100 kbp  #indels per 100 kbp  #genes           #predicted genes (unique)  #predicted genes (>= 0 bp)  #predicted genes (>= 300 bp)  #predicted genes (>= 1500 bp)  #predicted genes (>= 3000 bp)  Largest alignment  NA50    NGA50   NA75   NGA75
NEWBLER_MIS_PE_sakai_mis-2_bi_2x150bp_default__sakai_mis-1_bi_2x150bp_default.1.000percent.contigs_broken  175                 142                    5233924                 5211595                    175       259768          5233924       5594470           50.23   50.48             117543  96027   46285  42806  3               2                     1 + 0 part          5386                      92.559               1.000              0.00              0.87                     0.21                 4872 + 112 part  5043                       5043                        4323                          665                            68                             259768             117543  96027   46285  40880
NEWBLER_MIS_PE_sakai_mis-2_bi_2x150bp_default__sakai_mis-1_bi_2x150bp_default.1.000percent.contigs         92                  92                     5300693                 5300693                    92        375259          5300693       5594470           50.23   50.48             149161  148126  78242  74412  12              76                    1 + 0 part          5386                      93.278               1.013              1259.63           2.22                     0.36                 4905 + 125 part  5021                       5021                        4323                          664                            67                             352958             147877  145292  76121  68805
