Assembly	NEWBLER_PGM_mrsa_pgm_200bp_es_316_IonOnev2_ts3.0_morestringent.0.700percent.contigs
#Contigs (>= 0 bp)	632
#Contigs (>= 1000 bp)	272
Total length (>= 0 bp)	2778970
Total length (>= 1000 bp)	2710785
#Contigs	350
Largest contig	67923
Total length	2743706
Reference length	2813862
GC (%)	32.65
Reference GC (%)	32.81
N50	13990
NG50	13837
N75	8557
NG75	7868
#misassemblies	14
#local misassemblies	5
#unaligned contigs	0 + 4 part
Unaligned contigs length	183
Genome fraction (%)	97.191
Duplication ratio	1.001
#N's per 100 kbp	0.00
#mismatches per 100 kbp	2.89
#indels per 100 kbp	10.97
#genes	2462 + 226 part
#predicted genes (unique)	2854
#predicted genes (>= 0 bp)	2854
#predicted genes (>= 300 bp)	2365
#predicted genes (>= 1500 bp)	267
#predicted genes (>= 3000 bp)	26
Largest alignment	67923
NA50	13990
NGA50	13837
NA75	8207
NGA75	7648
