1: PREPARING DATA
2,3: RUNNING mummer AND CREATING CLUSTERS
# reading input file "/vol/codine-tmp/juene/tmp.Q9sHmcDXWv/quast/gage/tmp/VELVET_MIS_PE_sakai_mis-both_bi_2x250bp_SI_default.0.64percent_43.final.contigs_broken.ntref" of length 5594473
# construct suffix tree for sequence of length 5594473
# (maximum reference length is 536870908)
# (maximum query length is 4294967295)
# process 55944 characters per dot
#....................................................................................................
# CONSTRUCTIONTIME /vol/ngscomparison/software/analysis/quast-2.1/libs/MUMmer3.23-linux/mummer /vol/codine-tmp/juene/tmp.Q9sHmcDXWv/quast/gage/tmp/VELVET_MIS_PE_sakai_mis-both_bi_2x250bp_SI_default.0.64percent_43.final.contigs_broken.ntref 3.09
# reading input file "/vol/codine-tmp/juene/tmp.Q9sHmcDXWv/quast/corrected_input/VELVET_MIS_PE_sakai_mis-both_bi_2x250bp_SI_default.0.64percent_43.final.contigs_broken" of length 5308550
# matching query-file "/vol/codine-tmp/juene/tmp.Q9sHmcDXWv/quast/corrected_input/VELVET_MIS_PE_sakai_mis-both_bi_2x250bp_SI_default.0.64percent_43.final.contigs_broken"
# against subject-file "/vol/codine-tmp/juene/tmp.Q9sHmcDXWv/quast/gage/tmp/VELVET_MIS_PE_sakai_mis-both_bi_2x250bp_SI_default.0.64percent_43.final.contigs_broken.ntref"
# COMPLETETIME /vol/ngscomparison/software/analysis/quast-2.1/libs/MUMmer3.23-linux/mummer /vol/codine-tmp/juene/tmp.Q9sHmcDXWv/quast/gage/tmp/VELVET_MIS_PE_sakai_mis-both_bi_2x250bp_SI_default.0.64percent_43.final.contigs_broken.ntref 8.44
# SPACE /vol/ngscomparison/software/analysis/quast-2.1/libs/MUMmer3.23-linux/mummer /vol/codine-tmp/juene/tmp.Q9sHmcDXWv/quast/gage/tmp/VELVET_MIS_PE_sakai_mis-both_bi_2x250bp_SI_default.0.64percent_43.final.contigs_broken.ntref 10.59
4: FINISHING DATA
Filtering alignments
Extracting alignment coordinates
Analyzing SNPs
Extracting alignment breakpoints
Generating report file
Found genome size at position 4 with value 5594470 aka 5594470
Calculating point at 0 and the sum is 1029757 and i is611 and lens is 626 and length is 53568
Calculating point at 1 and the sum is 2005252 and i is587 and lens is 626 and length is 33856
Calculating point at 2 and the sum is 3015392 and i is548 and lens is 626 and length is 21225
Calculating point at 3 and the sum is 4002185 and i is487 and lens is 626 and length is 12151
Calculating point at 4 and the sum is 5000662 and i is348 and lens is 626 and length is 3145
