calling: java -cp /vol/ngscomparison/software/analysis/quast-2.1/libs/gage:. SizeFasta /vol/codine-tmp/juene/tmp.fWqI21qYGB/quast/corrected_input/Ecoli_Sakai_editedNew_plasmids.fasta |awk '{SUM+=; print SUM}'|tail -n 1
Contig Stats
Total units: 7298
Reference: 5594470
BasesInFasta: 2668057
Min: 200
Max: 2253
N10: 602 COUNT: 693
N25: 369 COUNT: 2519
N50: 0 COUNT: 0
N75: 0 COUNT: 0
E-size:219.04

Genome Size: 5594470
Assembly Size: 2668057
Chaff bases: 0
Missing Reference Bases: 3134514(56.03%)
Missing Assembly Bases: 205531(7.70%)
Missing Assembly Contigs: 768(10.52%)
Duplicated Reference Bases: 0
Compressed Reference Bases: 4973
Bad Trim: 36
Avg Idy: 100.00
SNPs: 28
Indels < 5bp: 11
Indels >= 5: 0
Inversions: 0
Relocation: 0
Translocation: 0

Corrected Contig Stats
calling: java -cp /vol/ngscomparison/software/analysis/quast-2.1/libs/gage:.:. GetFastaStats -o -min 199 -genomeSize 5594470 /vol/codine-tmp/juene/tmp.fWqI21qYGB/quast/gage/tmp/VELVET_MIS_PE_sakai_mis-both_bi_2x250bp_SI_default.0.64percent_21.final.contigs.matches.lens 2> /dev/null
Total units: 6530
Reference: 5594470
BasesInFasta: 2462525
Min: 200
Max: 2253
N10: 601 COUNT: 693
N25: 360 COUNT: 2535
N50: 0 COUNT: 0
N75: 0 COUNT: 0
E-size:208.39

Done
