Assembly	ABYSS_PE_PGM_sakai_pgm_mu_200bp_IO_TS3.0Disabled_stringent.0.34percent_92-unitigs
#Contigs (>= 0 bp)	4252
#Contigs (>= 1000 bp)	768
Total length (>= 0 bp)	5776997
Total length (>= 1000 bp)	5087533
#Contigs	1385
Largest contig	49767
Total length	5341204
Reference length	5594470
GC (%)	50.27
Reference GC (%)	50.48
N50	9639
NG50	9295
N75	4983
NG75	4387
#misassemblies	5
#local misassemblies	4
#unaligned contigs	0 + 1 part
Unaligned contigs length	30
Genome fraction (%)	93.779
Duplication ratio	1.003
#N's per 100 kbp	0.00
#mismatches per 100 kbp	1.47
#indels per 100 kbp	29.96
#genes	4354 + 773 part
#predicted genes (unique)	6632
#predicted genes (>= 0 bp)	6639
#predicted genes (>= 300 bp)	4959
#predicted genes (>= 1500 bp)	469
#predicted genes (>= 3000 bp)	27
Largest alignment	49767
NA50	9639
NGA50	9295
NA75	4983
NGA75	4387
