Assembly	ABYSS_PE_PGM_mrsa_pgm_200bp_es_316_IonOnev2_ts3.0_morestringent.0.230percent_82-unitigs
GAGE_Contigs #	607
GAGE_Min contig	203
GAGE_Max contig	60714
GAGE_N50	9143 COUNT: 95
GAGE_Genome size	2813862
GAGE_Assembly size	2763968
GAGE_Chaff bases	0
GAGE_Missing reference bases	40092(1.42%)
GAGE_Missing assembly bases	352(0.01%)
GAGE_Missing assembly contigs	0(0.00%)
GAGE_Duplicated reference bases	1929
GAGE_Compressed reference bases	27612
GAGE_Bad trim	352
GAGE_Avg idy	99.98
GAGE_SNPs	74
GAGE_Indels < 5bp	454
GAGE_Indels >= 5	2
GAGE_Inversions	1
GAGE_Relocation	1
GAGE_Translocation	0
GAGE_Corrected contig #	607
GAGE_Corrected assembly size	2762169
GAGE_Min correct contig	203
GAGE_Max correct contig	60718
GAGE_Corrected N50	9116 COUNT: 96
