Assembly	NEWBLER_MIS_PE_mrsa_mis-1_bi_2x250bp_default__mrsa_mis-2_bi_2x250bp_default.61coverage.contigs
#Contigs (>= 0 bp)	70
#Contigs (>= 1000 bp)	42
Total length (>= 0 bp)	2780877
Total length (>= 1000 bp)	2773886
#Contigs	54
Largest contig	592668
Total length	2778644
Reference length	2813862
GC (%)	32.69
Reference GC (%)	32.81
N50	146050
NG50	146050
N75	75429
NG75	74451
#misassemblies	2
#local misassemblies	1
#unaligned contigs	2 + 0 part
Unaligned contigs length	5669
Genome fraction (%)	98.249
Duplication ratio	1.000
#N's per 100 kbp	0.00
#mismatches per 100 kbp	1.59
#indels per 100 kbp	0.33
#genes	2677 + 23 part
#predicted genes (unique)	2627
#predicted genes (>= 0 bp)	2627
#predicted genes (>= 300 bp)	2286
#predicted genes (>= 1500 bp)	299
#predicted genes (>= 3000 bp)	29
Largest alignment	592668
NA50	145111
NGA50	145111
NA75	74451
NGA75	69028
