Assembly	VELVET_PGM_mrsa_pgm_200bp_es_316_IonOnev2_ts3.0_morestringent.0.230percent_45.final.contigs
#Mis_misassemblies	0
#Mis_relocations	0
#Mis_translocations	0
#Mis_inversions	0
#Mis_misassembled contigs	0
Mis_Misassembled contigs length	0
#Mis_local misassemblies	2
#mismatches	112
#indels	700
#Mis_short indels (<= 5 bp)	700
#Mis_long indels (> 5 bp)	0
Indels length	784
