calling: java -cp /vol/ngscomparison/software/analysis/quast-2.1/libs/gage:. SizeFasta /vol/codine-tmp/juene/tmp.N3yGcuQ0X6/quast/corrected_input/MRSA_COL_Plasmid.fasta |awk '{SUM+=; print SUM}'|tail -n 1
Contig Stats
Total units: 1006
Reference: 2813862
BasesInFasta: 2963645
Min: 200
Max: 85252
N10: 49368 COUNT: 5
N25: 35682 COUNT: 15
N50: 20894 COUNT: 41
N75: 12611 COUNT: 85
E-size:25436.54

Genome Size: 2813862
Assembly Size: 2963645
Chaff bases: 0
Missing Reference Bases: 18259(0.65%)
Missing Assembly Bases: 13250(0.45%)
Missing Assembly Contigs: 39(3.88%)
Duplicated Reference Bases: 180174
Compressed Reference Bases: 46781
Bad Trim: 2045
Avg Idy: 99.98
SNPs: 74
Indels < 5bp: 310
Indels >= 5: 2
Inversions: 0
Relocation: 2
Translocation: 0

Corrected Contig Stats
calling: java -cp /vol/ngscomparison/software/analysis/quast-2.1/libs/gage:.:. GetFastaStats -o -min 199 -genomeSize 2813862 /vol/codine-tmp/juene/tmp.N3yGcuQ0X6/quast/gage/tmp/CLC_PGM_mrsa_pgm_400bp_es_318_IKA_ts3.2_morestringent.0.600percent.result.matches.lens 2> /dev/null
Total units: 366
Reference: 2813862
BasesInFasta: 2771278
Min: 203
Max: 85266
N10: 49372 COUNT: 5
N25: 35683 COUNT: 15
N50: 20897 COUNT: 41
N75: 12372 COUNT: 86
E-size:25351.44

Done
