All statistics are based on contigs of size >= 200 bp, unless otherwise noted (e.g., "# contigs (>= 0 bp)" and "Total length (>= 0 bp)" include all contigs).

Assembly                                                                                                          GAGE_Contigs #  GAGE_Min contig  GAGE_Max contig  GAGE_N50    GAGE_Genome size  GAGE_Assembly size  GAGE_Chaff bases  GAGE_Missing reference bases  GAGE_Missing assembly bases  GAGE_Missing assembly contigs  GAGE_Duplicated reference bases  GAGE_Compressed reference bases  GAGE_Bad trim  GAGE_Avg idy  GAGE_SNPs  GAGE_Indels < 5bp  GAGE_Indels >= 5  GAGE_Inversions  GAGE_Relocation  GAGE_Translocation  GAGE_Corrected contig #  GAGE_Corrected assembly size  GAGE_Min correct contig  GAGE_Max correct contig  GAGE_Corrected N50
VELVET_MIS_PE_mrsa_mis-1_bi_2x150bp_default__mrsa_mis-2_bi_2x150bp_default.0.527percent_137.final.contigs_broken  1558            273              4576             0 COUNT: 0  2813862           827357              0                 1960406(69.67%)               994(0.12%)                   2(0.13%)                       1042                             45471                            27             100.00        25         2                  0                 0                1                0                   1554                     825409                        273                      3278                     0 COUNT: 0        
VELVET_MIS_PE_mrsa_mis-1_bi_2x150bp_default__mrsa_mis-2_bi_2x150bp_default.0.527percent_137.final.contigs         1222            273              4576             0 COUNT: 0  2813862           859509              0                 1961367(69.70%)               34114(3.97%)                 2(0.16%)                       1042                             45380                            1309           99.99         24         5                  332               0                1                0                   1551                     824444                        273                      3278                     0 COUNT: 0        
