1: PREPARING DATA
2,3: RUNNING mummer AND CREATING CLUSTERS
# reading input file "/vol/codine-tmp/juene/tmp.w2tVWwLHms/quast/gage/tmp/CLC_MIS_PE_sakai_mis-1_bi_2x250bp_SI_default__sakai_mis-2_bi_2x250bp_SI_default.91coverage.result_broken.ntref" of length 5594473
# construct suffix tree for sequence of length 5594473
# (maximum reference length is 536870908)
# (maximum query length is 4294967295)
# process 55944 characters per dot
#....................................................................................................
# CONSTRUCTIONTIME /vol/ngscomparison/software/analysis/quast-2.1/libs/MUMmer3.23-linux/mummer /vol/codine-tmp/juene/tmp.w2tVWwLHms/quast/gage/tmp/CLC_MIS_PE_sakai_mis-1_bi_2x250bp_SI_default__sakai_mis-2_bi_2x250bp_SI_default.91coverage.result_broken.ntref 3.22
# reading input file "/vol/codine-tmp/juene/tmp.w2tVWwLHms/quast/corrected_input/CLC_MIS_PE_sakai_mis-1_bi_2x250bp_SI_default__sakai_mis-2_bi_2x250bp_SI_default.91coverage.result_broken" of length 5460270
# matching query-file "/vol/codine-tmp/juene/tmp.w2tVWwLHms/quast/corrected_input/CLC_MIS_PE_sakai_mis-1_bi_2x250bp_SI_default__sakai_mis-2_bi_2x250bp_SI_default.91coverage.result_broken"
# against subject-file "/vol/codine-tmp/juene/tmp.w2tVWwLHms/quast/gage/tmp/CLC_MIS_PE_sakai_mis-1_bi_2x250bp_SI_default__sakai_mis-2_bi_2x250bp_SI_default.91coverage.result_broken.ntref"
# COMPLETETIME /vol/ngscomparison/software/analysis/quast-2.1/libs/MUMmer3.23-linux/mummer /vol/codine-tmp/juene/tmp.w2tVWwLHms/quast/gage/tmp/CLC_MIS_PE_sakai_mis-1_bi_2x250bp_SI_default__sakai_mis-2_bi_2x250bp_SI_default.91coverage.result_broken.ntref 8.83
# SPACE /vol/ngscomparison/software/analysis/quast-2.1/libs/MUMmer3.23-linux/mummer /vol/codine-tmp/juene/tmp.w2tVWwLHms/quast/gage/tmp/CLC_MIS_PE_sakai_mis-1_bi_2x250bp_SI_default__sakai_mis-2_bi_2x250bp_SI_default.91coverage.result_broken.ntref 10.72
4: FINISHING DATA
Filtering alignments
Extracting alignment coordinates
Analyzing SNPs
Extracting alignment breakpoints
Generating report file
Found genome size at position 4 with value 5594470 aka 5594470
Calculating point at 0 and the sum is 1016792 and i is229 and lens is 232 and length is 305741
Calculating point at 1 and the sum is 2004665 and i is224 and lens is 232 and length is 147892
Calculating point at 2 and the sum is 3043702 and i is216 and lens is 232 and length is 99595
Calculating point at 3 and the sum is 4025578 and i is204 and lens is 232 and length is 64013
Calculating point at 4 and the sum is 5010953 and i is174 and lens is 232 and length is 12120
