Assembly	VELVET_PGM_sakai_pgm_mu_318_400bp_IO_TS3.4_ms_0.395percent_145.final.contigs
#Contigs	7583
#Contigs (>= 0 bp)	7583
#Contigs (>= 1000 bp)	491
Largest contig	5196
Total length	3976005
Total length (>= 0 bp)	3976005
Total length (>= 1000 bp)	651739
Reference length	5594470
N50	557
NG50	406
N75	382
NG75	None
L50	2346
LG50	4057
L75	4526
LG75	None
#local misassemblies	1
#misassemblies	147
#misassembled contigs	146
Misassembled contigs length	85244
Misassemblies inter-contig overlap	383
#unaligned contigs	0 + 1 part
Unaligned contigs length	25
#ambiguously mapped contigs	130
Extra bases in ambiguously mapped contigs	-43923
#N's	0
#N's per 100 kbp	0.00
Genome fraction (%)	64.919
Duplication ratio	1.083
#genes	695 + 3741 part
#predicted genes (unique)	9571
#predicted genes (>= 0 bp)	9627
#predicted genes (>= 300 bp)	5017
#predicted genes (>= 1500 bp)	11
#predicted genes (>= 3000 bp)	0
#mismatches	62
#indels	1301
Indels length	1319
#mismatches per 100 kbp	1.71
#indels per 100 kbp	35.82
GC (%)	49.96
Reference GC (%)	50.48
Average %IDY	99.691
Largest alignment	5196
NA50	552
NGA50	402
NA75	377
NGA75	None
LA50	2359
LGA50	4090
LA75	4565
LGA75	None
#Mis_misassemblies	147
#Mis_relocations	138
#Mis_translocations	9
#Mis_inversions	0
#Mis_misassembled contigs	146
Mis_Misassembled contigs length	85244
#Mis_local misassemblies	1
#Mis_short indels (<= 5 bp)	1301
#Mis_long indels (> 5 bp)	0
#Una_fully unaligned contigs	0
Una_Fully unaligned length	0
#Una_partially unaligned contigs	1
#Una_with misassembly	0
#Una_both parts are significant	0
Una_Partially unaligned length	25
GAGE_Contigs #	7583
GAGE_Min contig	289
GAGE_Max contig	5196
GAGE_N50	406 COUNT: 4057
GAGE_Genome size	5594470
GAGE_Assembly size	3976005
GAGE_Chaff bases	0
GAGE_Missing reference bases	1789785(31.99%)
GAGE_Missing assembly bases	35(0.00%)
GAGE_Missing assembly contigs	0(0.00%)
GAGE_Duplicated reference bases	153787
GAGE_Compressed reference bases	192996
GAGE_Bad trim	34
GAGE_Avg idy	99.96
GAGE_SNPs	53
GAGE_Indels < 5bp	1071
GAGE_Indels >= 5	1
GAGE_Inversions	34
GAGE_Relocation	9
GAGE_Translocation	8
GAGE_Corrected contig #	7145
GAGE_Corrected assembly size	3807793
GAGE_Min correct contig	200
GAGE_Max correct contig	5194
GAGE_Corrected N50	400 COUNT: 4091
