All statistics are based on contigs of size >= 200 bp, unless otherwise noted (e.g., "# contigs (>= 0 bp)" and "Total length (>= 0 bp)" include all contigs).

Assembly                                                                                                          GAGE_Contigs #  GAGE_Min contig  GAGE_Max contig  GAGE_N50         GAGE_Genome size  GAGE_Assembly size  GAGE_Chaff bases  GAGE_Missing reference bases  GAGE_Missing assembly bases  GAGE_Missing assembly contigs  GAGE_Duplicated reference bases  GAGE_Compressed reference bases  GAGE_Bad trim  GAGE_Avg idy  GAGE_SNPs  GAGE_Indels < 5bp  GAGE_Indels >= 5  GAGE_Inversions  GAGE_Relocation  GAGE_Translocation  GAGE_Corrected contig #  GAGE_Corrected assembly size  GAGE_Min correct contig  GAGE_Max correct contig  GAGE_Corrected N50
VELVET_MIS_PE_mrsa_mis-1_bi_2x250bp_default__mrsa_mis-2_bi_2x250bp_default.0.460percent_115.final.contigs_broken  178             229              148909           44768 COUNT: 16  2813862           2786860             0                 10474(0.37%)                  4077(0.15%)                  3(1.69%)                       1374                             43107                            3              100.00        39         9                  1                 0                2                0                   172                      2781565                       229                      148909                   44768 COUNT: 17   
VELVET_MIS_PE_mrsa_mis-1_bi_2x250bp_default__mrsa_mis-2_bi_2x250bp_default.0.460percent_115.final.contigs         165             229              148909           48338 COUNT: 16  2813862           2787662             0                 10474(0.37%)                  4869(0.17%)                  3(1.82%)                       1374                             43107                            2              99.99         39         13                 10                1                4                0                   171                      2781571                       229                      148909                   44768 COUNT: 17   
