Assembly	VELVET_PGM_mrsa_pgm_400bp_es_318_IKA_ts3.2_morestringent.0.165percent_95.final.contigs
#Contigs (>= 0 bp)	46973
#Contigs (>= 1000 bp)	0
Total length (>= 0 bp)	11031871
Total length (>= 1000 bp)	0
#Contigs	38691
Largest contig	637
Total length	9425647
Reference length	2813862
GC (%)	32.58
Reference GC (%)	32.81
N50	239
NG50	295
N75	216
NG75	277
#misassemblies	487
#local misassemblies	3
#unaligned contigs	627 + 135 part
Unaligned contigs length	169022
Genome fraction (%)	93.343
Duplication ratio	3.484
#N's per 100 kbp	0.00
#mismatches per 100 kbp	77.33
#indels per 100 kbp	1233.26
#genes	195 + 2461 part
#predicted genes (unique)	36553
#predicted genes (>= 0 bp)	36764
#predicted genes (>= 300 bp)	34
#predicted genes (>= 1500 bp)	0
#predicted genes (>= 3000 bp)	0
Largest alignment	637
NA50	237
NGA50	292
NA75	214
NGA75	275
