All statistics are based on contigs of size >= 200 bp, unless otherwise noted (e.g., "# contigs (>= 0 bp)" and "Total length (>= 0 bp)" include all contigs).

Assembly                                                                                                         #Contigs (>= 0 bp)  #Contigs (>= 1000 bp)  Total length (>= 0 bp)  Total length (>= 1000 bp)  #Contigs  Largest contig  Total length  Reference length  GC (%)  Reference GC (%)  N50     NG50    N75    NG75   #misassemblies  #local misassemblies  #unaligned contigs  Unaligned contigs length  Genome fraction (%)  Duplication ratio  #N's per 100 kbp  #mismatches per 100 kbp  #indels per 100 kbp  #genes          #predicted genes (unique)  #predicted genes (>= 0 bp)  #predicted genes (>= 300 bp)  #predicted genes (>= 1500 bp)  #predicted genes (>= 3000 bp)  Largest alignment  NA50    NGA50   NA75   NGA75
VELVET_MIS_PE_mrsa_mis-1_bi_2x250bp_default__mrsa_mis-2_bi_2x250bp_default.0.460percent_93.final.contigs_broken  95                  58                     2789677                 2778878                    85        263365          2787931       2813862           32.70   32.81             116322  109293  46057  46057  2               3                     1 + 0 part          5189                      98.513               1.000              0.00              2.06                     0.47                 2665 + 36 part  2649                       2651                        2293                          297                            29                             263365             116322  109293  46057  46057
VELVET_MIS_PE_mrsa_mis-1_bi_2x250bp_default__mrsa_mis-2_bi_2x250bp_default.0.460percent_93.final.contigs         82                  51                     2790123                 2781240                    75        305404          2788792       2813862           32.70   32.81             116992  116992  56447  56447  4               7                     1 + 0 part          5189                      98.543               1.001              15.99             2.16                     0.65                 2670 + 32 part  2646                       2648                        2293                          297                            29                             263365             116322  116322  56447  50166
