Assembly	GAGE_Contigs #	GAGE_Min contig	GAGE_Max contig	GAGE_N50	GAGE_Genome size	GAGE_Assembly size	GAGE_Chaff bases	GAGE_Missing reference bases	GAGE_Missing assembly bases	GAGE_Missing assembly contigs	GAGE_Duplicated reference bases	GAGE_Compressed reference bases	GAGE_Bad trim	GAGE_Avg idy	GAGE_SNPs	GAGE_Indels < 5bp	GAGE_Indels >= 5	GAGE_Inversions	GAGE_Relocation	GAGE_Translocation	GAGE_Corrected contig #	GAGE_Corrected assembly size	GAGE_Min correct contig	GAGE_Max correct contig	GAGE_Corrected N50
NEWBLER_MIS_PE_sakai_mis-1_bi_2x250bp_SI_default__sakai_mis-2_bi_2x250bp_SI_default.0.025percent.contigs_broken	84	500	7207	0 COUNT: 0	5594470	181471	0	5256219(93.95%)	12(0.01%)	0(0.00%)	0	149179	1	99.77	261	16	0	3	3	0	91	189275	219	7207	0 COUNT: 0
NEWBLER_MIS_PE_sakai_mis-1_bi_2x250bp_SI_default__sakai_mis-2_bi_2x250bp_SI_default.0.025percent.contigs	66	2012	8029	0 COUNT: 0	5594470	185054	0	5256218(93.95%)	3570(1.93%)	0(0.00%)	0	147661	1	99.73	198	17	13	4	8	0	92	190794	219	7207	0 COUNT: 0
