calling: java -cp /vol/ngscomparison/software/analysis/quast-2.1/libs/gage:. SizeFasta /vol/codine-tmp/juene/tmp.s5yaTBZO1i/quast/corrected_input/Mycobacterium_tuberculosis_H37Rv.fasta |awk '{SUM+=; print SUM}'|tail -n 1
Contig Stats
Total units: 162
Reference: 4411532
BasesInFasta: 4403883
Min: 200
Max: 192181
N10: 162935 COUNT: 3
N25: 122179 COUNT: 8
N50: 74990 COUNT: 19
N75: 37968 COUNT: 39
E-size:83453.87

Genome Size: 4411532
Assembly Size: 4403883
Chaff bases: 0
Missing Reference Bases: 34580(0.78%)
Missing Assembly Bases: 7352(0.17%)
Missing Assembly Contigs: 0(0.00%)
Duplicated Reference Bases: 6665
Compressed Reference Bases: 34671
Bad Trim: 2110
Avg Idy: 99.95
SNPs: 281
Indels < 5bp: 129
Indels >= 5: 112
Inversions: 0
Relocation: 7
Translocation: 0

Corrected Contig Stats
calling: java -cp /vol/ngscomparison/software/analysis/quast-2.1/libs/gage:.:. GetFastaStats -o -min 199 -genomeSize 4411532 /vol/codine-tmp/juene/tmp.s5yaTBZO1i/quast/gage/tmp/ABYSS_PE_MIS_PE_mtbh37-1_mis_2x250bp_nextera_default__mtbh37-2_mis_2x250bp_nextera_default_32-scaffolds.matches.lens 2> /dev/null
Total units: 275
Reference: 4411532
BasesInFasta: 4392948
Min: 200
Max: 135688
N10: 90534 COUNT: 4
N25: 68144 COUNT: 13
N50: 40315 COUNT: 33
N75: 20725 COUNT: 72
E-size:48540.99

Done
