Assembly	NEWBLER_PGM_sakai_pgm_mu_318_400bp_IO_TS3.4_ms.91coverage.contigs
GAGE_Contigs #	282
GAGE_Min contig	200
GAGE_Max contig	327107
GAGE_N50	100505 COUNT: 16
GAGE_Genome size	5594470
GAGE_Assembly size	5349374
GAGE_Chaff bases	0
GAGE_Missing reference bases	35383(0.63%)
GAGE_Missing assembly bases	17(0.00%)
GAGE_Missing assembly contigs	0(0.00%)
GAGE_Duplicated reference bases	7220
GAGE_Compressed reference bases	229141
GAGE_Bad trim	17
GAGE_Avg idy	99.99
GAGE_SNPs	92
GAGE_Indels < 5bp	200
GAGE_Indels >= 5	6
GAGE_Inversions	0
GAGE_Relocation	6
GAGE_Translocation	0
GAGE_Corrected contig #	271
GAGE_Corrected assembly size	5343843
GAGE_Min correct contig	200
GAGE_Max correct contig	313770
GAGE_Corrected N50	99573 COUNT: 19
