All statistics are based on contigs of size >= 200 bp, unless otherwise noted (e.g., "# contigs (>= 0 bp)" and "Total length (>= 0 bp)" include all contigs).

Assembly                         VELVET_PGM_mrsa_pgm_400bp_es_318_IKA_ts3.2_morestringent.0.165percent_173.final.contigs
#Mis_misassemblies               30                                                                                     
#Mis_relocations                 28                                                                                     
#Mis_translocations              2                                                                                      
#Mis_inversions                  0                                                                                      
#Mis_misassembled contigs        30                                                                                     
Mis_Misassembled contigs length  50383                                                                                  
#Mis_local misassemblies         1                                                                                      
#mismatches                      56                                                                                     
#indels                          491                                                                                    
#Mis_short indels (<= 5 bp)      491                                                                                    
#Mis_long indels (> 5 bp)        0                                                                                      
Indels length                    509                                                                                    
