All statistics are based on contigs of size >= 200 bp, unless otherwise noted (e.g., "# contigs (>= 0 bp)" and "Total length (>= 0 bp)" include all contigs).

Assembly                       VELVET_MIS_PE_mrsa_mis-1_bi_2x250bp_default__mrsa_mis-2_bi_2x250bp_default.0.460percent_39.final.contigs_broken  VELVET_MIS_PE_mrsa_mis-1_bi_2x250bp_default__mrsa_mis-2_bi_2x250bp_default.0.460percent_39.final.contigs
#Contigs (>= 0 bp)             345                                                                                                              301                                                                                                     
#Contigs (>= 1000 bp)          131                                                                                                              103                                                                                                     
Total length (>= 0 bp)         2777255                                                                                                          2778505                                                                                                 
Total length (>= 1000 bp)      2737764                                                                                                          2746879                                                                                                 
#Contigs                       182                                                                                                              140                                                                                                     
Largest contig                 129066                                                                                                           144443                                                                                                  
Total length                   2759907                                                                                                          2761319                                                                                                 
Reference length               2813862                                                                                                          2813862                                                                                                 
GC (%)                         32.67                                                                                                            32.67                                                                                                   
Reference GC (%)               32.81                                                                                                            32.81                                                                                                   
N50                            31375                                                                                                            49341                                                                                                   
NG50                           31066                                                                                                            49341                                                                                                   
N75                            19979                                                                                                            24792                                                                                                   
NG75                           19593                                                                                                            23933                                                                                                   
#misassemblies                 5                                                                                                                6                                                                                                       
#local misassemblies           13                                                                                                               28                                                                                                      
#unaligned contigs             5 + 3 part                                                                                                       4 + 2 part                                                                                              
Unaligned contigs length       5721                                                                                                             5726                                                                                                    
Genome fraction (%)            97.503                                                                                                           97.463                                                                                                  
Duplication ratio              1.001                                                                                                            1.006                                                                                                   
#N's per 100 kbp               0.00                                                                                                             45.27                                                                                                   
#mismatches per 100 kbp        11.04                                                                                                            10.87                                                                                                   
#indels per 100 kbp            1.75                                                                                                             10.03                                                                                                   
#genes                         2570 + 88 part                                                                                                   2583 + 72 part                                                                                          
#predicted genes (unique)      2676                                                                                                             2660                                                                                                    
#predicted genes (>= 0 bp)     2676                                                                                                             2660                                                                                                    
#predicted genes (>= 300 bp)   2287                                                                                                             2284                                                                                                    
#predicted genes (>= 1500 bp)  293                                                                                                              295                                                                                                     
#predicted genes (>= 3000 bp)  26                                                                                                               26                                                                                                      
Largest alignment              129066                                                                                                           134331                                                                                                  
NA50                           31066                                                                                                            45892                                                                                                   
NGA50                          30755                                                                                                            45789                                                                                                   
NA75                           19671                                                                                                            24215                                                                                                   
NGA75                          19280                                                                                                            23411                                                                                                   
