Assembly	CLC_MIS_PE_mrsa_mis-1_bi_2x150bp_default__mrsa_mis-2_bi_2x150bp_default.66coverage.result_broken	CLC_MIS_PE_mrsa_mis-1_bi_2x150bp_default__mrsa_mis-2_bi_2x150bp_default.66coverage.result
#Una_fully unaligned contigs	1	1
Una_Fully unaligned length	5386	5386
#Una_partially unaligned contigs	0	0
#Una_with misassembly	0	0
#Una_both parts are significant	0	0
Una_Partially unaligned length	0	0
#N's	21	220
