Assembly	VELVET_PGM_mtbh37_pgm_400bp_es_318v2_OT2_tsv3.6_morestringent_103.final.contigs
GAGE_Contigs #	23299
GAGE_Min contig	205
GAGE_Max contig	725
GAGE_N50	226 COUNT: 8266
GAGE_Genome size	4411532
GAGE_Assembly size	5347709
GAGE_Chaff bases	0
GAGE_Missing reference bases	1560923(35.38%)
GAGE_Missing assembly bases	2430(0.05%)
GAGE_Missing assembly contigs	3(0.01%)
GAGE_Duplicated reference bases	1823434
GAGE_Compressed reference bases	54722
GAGE_Bad trim	1485
GAGE_Avg idy	99.06
GAGE_SNPs	3950
GAGE_Indels < 5bp	18879
GAGE_Indels >= 5	16
GAGE_Inversions	63
GAGE_Relocation	31
GAGE_Translocation	0
GAGE_Corrected contig #	15007
GAGE_Corrected assembly size	3457628
GAGE_Min correct contig	200
GAGE_Max correct contig	726
GAGE_Corrected N50	206 COUNT: 8895
