Assembly	GAGE_Contigs #	GAGE_Min contig	GAGE_Max contig	GAGE_N50	GAGE_Genome size	GAGE_Assembly size	GAGE_Chaff bases	GAGE_Missing reference bases	GAGE_Missing assembly bases	GAGE_Missing assembly contigs	GAGE_Duplicated reference bases	GAGE_Compressed reference bases	GAGE_Bad trim	GAGE_Avg idy	GAGE_SNPs	GAGE_Indels < 5bp	GAGE_Indels >= 5	GAGE_Inversions	GAGE_Relocation	GAGE_Translocation	GAGE_Corrected contig #	GAGE_Corrected assembly size	GAGE_Min correct contig	GAGE_Max correct contig	GAGE_Corrected N50
ABYSS_PE_MIS_PE_sakai_mis-both_bi_2x250bp_SI_default.0.64percent.NEWBLER_62-scaffolds_broken	309	200	236679	99813 COUNT: 17	5594470	5429244	0	56111(1.00%)	18(0.00%)	0(0.00%)	18171	219043	12	99.97	773	34	11	1	4	0	301	5415620	200	224162	86325 COUNT: 20
ABYSS_PE_MIS_PE_sakai_mis-both_bi_2x250bp_SI_default.0.64percent.NEWBLER_62-scaffolds	262	201	376783	99813 COUNT: 16	5594470	5431930	0	56602(1.01%)	3219(0.06%)	1(0.38%)	17967	217726	262	99.97	773	42	35	5	12	0	297	5415142	200	224162	86325 COUNT: 20
