1: PREPARING DATA
2,3: RUNNING mummer AND CREATING CLUSTERS
# reading input file "/vol/codine-tmp/juene/tmp.WQ8ohhBhR3/quast/gage/tmp/ABYSS_PE_PGM_mtbh37_pgm_400bp_es_318v2_OT2_tsv3.6_morestringent_108-unitigs.ntref" of length 4411533
# construct suffix tree for sequence of length 4411533
# (maximum reference length is 536870908)
# (maximum query length is 4294967295)
# process 44115 characters per dot
#....................................................................................................
# CONSTRUCTIONTIME /vol/ngscomparison/software/analysis/quast-2.1/libs/MUMmer3.23-linux/mummer /vol/codine-tmp/juene/tmp.WQ8ohhBhR3/quast/gage/tmp/ABYSS_PE_PGM_mtbh37_pgm_400bp_es_318v2_OT2_tsv3.6_morestringent_108-unitigs.ntref 2.72
# reading input file "/vol/codine-tmp/juene/tmp.WQ8ohhBhR3/quast/corrected_input/ABYSS_PE_PGM_mtbh37_pgm_400bp_es_318v2_OT2_tsv3.6_morestringent_108-unitigs" of length 5029297
# matching query-file "/vol/codine-tmp/juene/tmp.WQ8ohhBhR3/quast/corrected_input/ABYSS_PE_PGM_mtbh37_pgm_400bp_es_318v2_OT2_tsv3.6_morestringent_108-unitigs"
# against subject-file "/vol/codine-tmp/juene/tmp.WQ8ohhBhR3/quast/gage/tmp/ABYSS_PE_PGM_mtbh37_pgm_400bp_es_318v2_OT2_tsv3.6_morestringent_108-unitigs.ntref"
# COMPLETETIME /vol/ngscomparison/software/analysis/quast-2.1/libs/MUMmer3.23-linux/mummer /vol/codine-tmp/juene/tmp.WQ8ohhBhR3/quast/gage/tmp/ABYSS_PE_PGM_mtbh37_pgm_400bp_es_318v2_OT2_tsv3.6_morestringent_108-unitigs.ntref 9.25
# SPACE /vol/ngscomparison/software/analysis/quast-2.1/libs/MUMmer3.23-linux/mummer /vol/codine-tmp/juene/tmp.WQ8ohhBhR3/quast/gage/tmp/ABYSS_PE_PGM_mtbh37_pgm_400bp_es_318v2_OT2_tsv3.6_morestringent_108-unitigs.ntref 9.28
4: FINISHING DATA
Filtering alignments
Extracting alignment coordinates
Analyzing SNPs
Extracting alignment breakpoints
Generating report file
Found genome size at position 4 with value 4411532 aka 4411532
Calculating point at 0 and the sum is 1001169 and i is3847 and lens is 4012 and length is 4515
Calculating point at 1 and the sum is 2002675 and i is3563 and lens is 4012 and length is 2803
Calculating point at 2 and the sum is 3001072 and i is3100 and lens is 4012 and length is 1668
Calculating point at 3 and the sum is 4000286 and i is2061 and lens is 4012 and length is 429
