All statistics are based on contigs of size >= 200 bp, unless otherwise noted (e.g., "# contigs (>= 0 bp)" and "Total length (>= 0 bp)" include all contigs).

Assembly                       SOAP2_MIS_PE_mrsa_mis-1_bi_2x150bp_default.0.527percent_89.final.scaf_broken  SOAP2_MIS_PE_mrsa_mis-1_bi_2x150bp_default.0.527percent_89.final.scaf
#Contigs (>= 0 bp)             573                                                                           473                                                                  
#Contigs (>= 1000 bp)          87                                                                            36                                                                   
Total length (>= 0 bp)         2839032                                                                       2842321                                                              
Total length (>= 1000 bp)      2754892                                                                       2775109                                                              
#Contigs                       137                                                                           55                                                                   
Largest contig                 207784                                                                        473783                                                               
Total length                   2776964                                                                       2782705                                                              
Reference length               2813862                                                                       2813862                                                              
GC (%)                         32.69                                                                         32.69                                                                
Reference GC (%)               32.81                                                                         32.81                                                                
N50                            57378                                                                         178999                                                               
NG50                           57378                                                                         178999                                                               
N75                            34251                                                                         81917                                                                
NG75                           33696                                                                         81917                                                                
#misassemblies                 2                                                                             4                                                                    
#local misassemblies           1                                                                             25                                                                   
#unaligned contigs             1 + 0 part                                                                    1 + 0 part                                                           
Unaligned contigs length       5385                                                                          5385                                                                 
Genome fraction (%)            98.156                                                                        98.324                                                               
Duplication ratio              1.000                                                                         1.001                                                                
#N's per 100 kbp               0.54                                                                          118.73                                                               
#mismatches per 100 kbp        1.16                                                                          1.30                                                                 
#indels per 100 kbp            0.62                                                                          23.57                                                                
#genes                         2637 + 54 part                                                                2673 + 20 part                                                       
#predicted genes (unique)      2671                                                                          2643                                                                 
#predicted genes (>= 0 bp)     2673                                                                          2644                                                                 
#predicted genes (>= 300 bp)   2284                                                                          2285                                                                 
#predicted genes (>= 1500 bp)  299                                                                           299                                                                  
#predicted genes (>= 3000 bp)  27                                                                            29                                                                   
Largest alignment              207784                                                                        473705                                                               
NA50                           57378                                                                         178960                                                               
NGA50                          57378                                                                         178960                                                               
NA75                           34251                                                                         81917                                                                
NGA75                          33696                                                                         80257                                                                
