Assembly	SOAP2_PGM_mrsa_pgm_200bp_es_316_IonOnev2_ts3.0_morestringent.0.230percent_93.final.contig
#Mis_misassemblies	12
#Mis_relocations	6
#Mis_translocations	1
#Mis_inversions	5
#Mis_misassembled contigs	12
Mis_Misassembled contigs length	17348
#Mis_local misassemblies	3
#mismatches	68
#indels	899
#Mis_short indels (<= 5 bp)	899
#Mis_long indels (> 5 bp)	0
Indels length	930
