Assembly	GAGE_Contigs #	GAGE_Min contig	GAGE_Max contig	GAGE_N50	GAGE_Genome size	GAGE_Assembly size	GAGE_Chaff bases	GAGE_Missing reference bases	GAGE_Missing assembly bases	GAGE_Missing assembly contigs	GAGE_Duplicated reference bases	GAGE_Compressed reference bases	GAGE_Bad trim	GAGE_Avg idy	GAGE_SNPs	GAGE_Indels < 5bp	GAGE_Indels >= 5	GAGE_Inversions	GAGE_Relocation	GAGE_Translocation	GAGE_Corrected contig #	GAGE_Corrected assembly size	GAGE_Min correct contig	GAGE_Max correct contig	GAGE_Corrected N50
ABYSS_PE_MIS_PE_sakai_mis-1_bi_2x150bp_default__sakai_mis-2_bi_2x150bp_default.0.826percent_98-scaffolds_broken	288	204	292286	88594 COUNT: 20	5594470	5569118	0	12499(0.22%)	7(0.00%)	0(0.00%)	31302	199124	0	99.98	338	34	13	1	2	0	279	5545764	208	228653	78840 COUNT: 23
ABYSS_PE_MIS_PE_sakai_mis-1_bi_2x150bp_default__sakai_mis-2_bi_2x150bp_default.0.826percent_98-scaffolds	226	204	376908	127633 COUNT: 14	5594470	5573588	0	12430(0.22%)	4380(0.08%)	0(0.00%)	29010	199221	369	99.98	330	37	49	12	9	0	279	5548941	208	228653	78926 COUNT: 23
