Assembly	ABYSS_PE_MIS_PE_sakai_mis-1_bi_2x150bp_default__sakai_mis-2_bi_2x150bp_default.0.826percent_98-scaffolds_broken	ABYSS_PE_MIS_PE_sakai_mis-1_bi_2x150bp_default__sakai_mis-2_bi_2x150bp_default.0.826percent_98-scaffolds
#Contigs (>= 0 bp)	523	461
#Contigs (>= 1000 bp)	204	178
Total length (>= 0 bp)	5605520	5609990
Total length (>= 1000 bp)	5521351	5546696
#Contigs	288	226
Largest contig	292286	376908
Total length	5569118	5573588
Reference length	5594470	5594470
GC (%)	50.43	50.43
Reference GC (%)	50.48	50.48
N50	88594	127633
NG50	88594	127633
N75	45958	61773
NG75	44627	61773
#misassemblies	5	20
#local misassemblies	7	31
#unaligned contigs	0 + 0 part	1 + 0 part
Unaligned contigs length	0	1126
Genome fraction (%)	96.969	97.290
Duplication ratio	1.015	1.017
#N's per 100 kbp	0.29	80.49
#mismatches per 100 kbp	12.41	13.17
#indels per 100 kbp	0.77	6.78
#genes	5121 + 182 part	5150 + 176 part
#predicted genes (unique)	5352	5342
#predicted genes (>= 0 bp)	5508	5493
#predicted genes (>= 300 bp)	4598	4600
#predicted genes (>= 1500 bp)	694	694
#predicted genes (>= 3000 bp)	75	74
Largest alignment	228649	353740
NA50	81437	127633
NGA50	81437	127633
NA75	45958	61773
NGA75	44627	61773
