All statistics are based on contigs of size >= 200 bp, unless otherwise noted (e.g., "# contigs (>= 0 bp)" and "Total length (>= 0 bp)" include all contigs).

Assembly                                   SOAP2_MIS_PE_sakai_mis-1_bi_2x250bp_SI_default.0.64percent_123.final.scaf_broken  SOAP2_MIS_PE_sakai_mis-1_bi_2x250bp_SI_default.0.64percent_123.final.scaf
#Contigs                                   1984                                                                              1545                                                                     
#Contigs (>= 0 bp)                         2593                                                                              2120                                                                     
#Contigs (>= 1000 bp)                      507                                                                               244                                                                      
Largest contig                             93718                                                                             174622                                                                   
Total length                               5633950                                                                           5660888                                                                  
Total length (>= 0 bp)                     5726615                                                                           5748174                                                                  
Total length (>= 1000 bp)                  5202411                                                                           5302832                                                                  
Reference length                           5594470                                                                           5594470                                                                  
N50                                        17175                                                                             50958                                                                    
NG50                                       17249                                                                             51762                                                                    
N75                                        7703                                                                              23712                                                                    
NG75                                       7844                                                                              25559                                                                    
L50                                        99                                                                                34                                                                       
LG50                                       98                                                                                33                                                                       
L75                                        223                                                                               74                                                                       
LG75                                       219                                                                               72                                                                       
#local misassemblies                       18                                                                                310                                                                      
#misassemblies                             8                                                                                 18                                                                       
#misassembled contigs                      8                                                                                 15                                                                       
Misassembled contigs length                56400                                                                             78503                                                                    
Misassemblies inter-contig overlap         85                                                                                85                                                                       
#unaligned contigs                         6 + 0 part                                                                        18 + 10 part                                                             
Unaligned contigs length                   7637                                                                              31199                                                                    
#ambiguously mapped contigs                516                                                                               458                                                                      
Extra bases in ambiguously mapped contigs  -170898                                                                           -145166                                                                  
#N's                                       166                                                                               21725                                                                    
#N's per 100 kbp                           2.95                                                                              383.77                                                                   
Genome fraction (%)                        94.861                                                                            94.850                                                                   
Duplication ratio                          1.028                                                                             1.034                                                                    
#genes                                     4605 + 597 part                                                                   4652 + 537 part                                                          
#predicted genes (unique)                  6764                                                                              6633                                                                     
#predicted genes (>= 0 bp)                 6839                                                                              6703                                                                     
#predicted genes (>= 300 bp)               4612                                                                              4604                                                                     
#predicted genes (>= 1500 bp)              617                                                                               624                                                                      
#predicted genes (>= 3000 bp)              51                                                                                53                                                                       
#mismatches                                302                                                                               379                                                                      
#indels                                    49                                                                                811                                                                      
Indels length                              484                                                                               2737                                                                     
#mismatches per 100 kbp                    5.69                                                                              7.14                                                                     
#indels per 100 kbp                        0.92                                                                              15.28                                                                    
GC (%)                                     50.45                                                                             50.45                                                                    
Reference GC (%)                           50.48                                                                             50.48                                                                    
Average %IDY                               99.178                                                                            99.168                                                                   
Largest alignment                          93718                                                                             172809                                                                   
NA50                                       17097                                                                             50858                                                                    
NGA50                                      17175                                                                             51687                                                                    
NA75                                       7634                                                                              23460                                                                    
NGA75                                      7812                                                                              23712                                                                    
LA50                                       99                                                                                34                                                                       
LGA50                                      98                                                                                33                                                                       
LA75                                       224                                                                               75                                                                       
LGA75                                      220                                                                               73                                                                       
#Mis_misassemblies                         8                                                                                 18                                                                       
#Mis_relocations                           8                                                                                 18                                                                       
#Mis_translocations                        0                                                                                 0                                                                        
#Mis_inversions                            0                                                                                 0                                                                        
#Mis_misassembled contigs                  8                                                                                 15                                                                       
Mis_Misassembled contigs length            56400                                                                             78503                                                                    
#Mis_local misassemblies                   18                                                                                310                                                                      
#Mis_short indels (<= 5 bp)                36                                                                                733                                                                      
#Mis_long indels (> 5 bp)                  13                                                                                78                                                                       
#Una_fully unaligned contigs               6                                                                                 18                                                                       
Una_Fully unaligned length                 7637                                                                              18984                                                                    
#Una_partially unaligned contigs           0                                                                                 10                                                                       
#Una_with misassembly                      0                                                                                 0                                                                        
#Una_both parts are significant            0                                                                                 8                                                                        
Una_Partially unaligned length             0                                                                                 12215                                                                    
GAGE_Contigs #                             1984                                                                              1545                                                                     
GAGE_Min contig                            200                                                                               200                                                                      
GAGE_Max contig                            93718                                                                             174622                                                                   
GAGE_N50                                   17249 COUNT: 98                                                                   51762 COUNT: 33                                                          
GAGE_Genome size                           5594470                                                                           5594470                                                                  
GAGE_Assembly size                         5633950                                                                           5660888                                                                  
GAGE_Chaff bases                           0                                                                                 0                                                                        
GAGE_Missing reference bases               6246(0.11%)                                                                       6404(0.11%)                                                              
GAGE_Missing assembly bases                6507(0.12%)                                                                       31030(0.55%)                                                             
GAGE_Missing assembly contigs              4(0.20%)                                                                          6(0.39%)                                                                 
GAGE_Duplicated reference bases            130093                                                                            126429                                                                   
GAGE_Compressed reference bases            270637                                                                            259483                                                                   
GAGE_Bad trim                              81                                                                                3586                                                                     
GAGE_Avg idy                               100.00                                                                            99.99                                                                    
GAGE_SNPs                                  107                                                                               109                                                                      
GAGE_Indels < 5bp                          41                                                                                82                                                                       
GAGE_Indels >= 5                           7                                                                                 112                                                                      
GAGE_Inversions                            1                                                                                 4                                                                        
GAGE_Relocation                            4                                                                                 6                                                                        
GAGE_Translocation                         0                                                                                 0                                                                        
GAGE_Corrected contig #                    1498                                                                              1478                                                                     
GAGE_Corrected assembly size               5496315                                                                           5498704                                                                  
GAGE_Min correct contig                    200                                                                               200                                                                      
GAGE_Max correct contig                    93718                                                                             93718                                                                    
GAGE_Corrected N50                         16556 COUNT: 100                                                                  16753 COUNT: 100                                                         
