Assembly	SOAP2_MIS_PE_sakai_mis-1_bi_2x250bp_SI_default.0.64percent_123.final.scaf_broken	SOAP2_MIS_PE_sakai_mis-1_bi_2x250bp_SI_default.0.64percent_123.final.scaf
#Contigs (>= 0 bp)	2593	2120
#Contigs (>= 1000 bp)	507	244
Total length (>= 0 bp)	5726615	5748174
Total length (>= 1000 bp)	5202411	5302832
#Contigs	1984	1545
Largest contig	93718	174622
Total length	5633950	5660888
Reference length	5594470	5594470
GC (%)	50.45	50.45
Reference GC (%)	50.48	50.48
N50	17175	50958
NG50	17249	51762
N75	7703	23712
NG75	7844	25559
#misassemblies	8	18
#local misassemblies	18	310
#unaligned contigs	6 + 0 part	18 + 10 part
Unaligned contigs length	7637	31199
Genome fraction (%)	94.861	94.850
Duplication ratio	1.028	1.034
#N's per 100 kbp	2.95	383.77
#mismatches per 100 kbp	5.69	7.14
#indels per 100 kbp	0.92	15.28
#genes	4605 + 597 part	4652 + 537 part
#predicted genes (unique)	6764	6633
#predicted genes (>= 0 bp)	6839	6703
#predicted genes (>= 300 bp)	4612	4604
#predicted genes (>= 1500 bp)	617	624
#predicted genes (>= 3000 bp)	51	53
Largest alignment	93718	172809
NA50	17097	50858
NGA50	17175	51687
NA75	7634	23460
NGA75	7812	23712
