Assembly	CLC_MIS_PE_mrsa_mis-1_bi_2x250bp_default__mrsa_mis-2_bi_2x250bp_default.0.460percent.result_broken	CLC_MIS_PE_mrsa_mis-1_bi_2x250bp_default__mrsa_mis-2_bi_2x250bp_default.0.460percent.result
GAGE_Contigs #	272	274
GAGE_Min contig	200	200
GAGE_Max contig	354902	354902
GAGE_N50	214785 COUNT: 5	214785 COUNT: 5
GAGE_Genome size	2813862	2813862
GAGE_Assembly size	2844626	2845607
GAGE_Chaff bases	0	0
GAGE_Missing reference bases	4911(0.17%)	4911(0.17%)
GAGE_Missing assembly bases	66858(2.35%)	67839(2.38%)
GAGE_Missing assembly contigs	230(84.56%)	233(85.04%)
GAGE_Duplicated reference bases	0	0
GAGE_Compressed reference bases	33217	33217
GAGE_Bad trim	1	247
GAGE_Avg idy	99.99	99.99
GAGE_SNPs	40	40
GAGE_Indels < 5bp	9	9
GAGE_Indels >= 5	5	6
GAGE_Inversions	0	0
GAGE_Relocation	2	2
GAGE_Translocation	0	0
GAGE_Corrected contig #	49	49
GAGE_Corrected assembly size	2778605	2778605
GAGE_Min correct contig	206	206
GAGE_Max correct contig	354902	354902
GAGE_Corrected N50	148941 COUNT: 6	148941 COUNT: 6
