Assembly	#Contigs (>= 0 bp)	#Contigs (>= 1000 bp)	Total length (>= 0 bp)	Total length (>= 1000 bp)	#Contigs	Largest contig	Total length	Reference length	GC (%)	Reference GC (%)	N50	NG50	N75	NG75	#misassemblies	#local misassemblies	#unaligned contigs	Unaligned contigs length	Genome fraction (%)	Duplication ratio	#N's per 100 kbp	#mismatches per 100 kbp	#indels per 100 kbp	#genes	#predicted genes (unique)	#predicted genes (>= 0 bp)	#predicted genes (>= 300 bp)	#predicted genes (>= 1500 bp)	#predicted genes (>= 3000 bp)	Largest alignment	NA50	NGA50	NA75	NGA75
CLC_MIS_PE_mrsa_mis-1_bi_2x250bp_default__mrsa_mis-2_bi_2x250bp_default.0.460percent.result_broken	280	33	2845208	2778623	272	354902	2844626	2813862	33.13	32.81	214785	214785	109149	109149	2	4	230 + 0 part	66840	98.526	1.011	0.39	2.20	1.37	2686 + 19 part	2862	2863	2303	298	29	354902	214785	214785	68444	97468
CLC_MIS_PE_mrsa_mis-1_bi_2x250bp_default__mrsa_mis-2_bi_2x250bp_default.0.460percent.result	274	32	2845607	2778893	274	354902	2845607	2813862	33.13	32.81	214785	214785	109149	109149	2	4	233 + 0 part	67551	98.536	1.011	14.65	2.20	1.44	2687 + 18 part	2867	2868	2303	298	29	354902	214785	214785	68444	97468
