1: PREPARING DATA
2,3: RUNNING mummer AND CREATING CLUSTERS
# reading input file "/vol/codine-tmp/juene/tmp.ZIObIuYyV6/quast/gage/tmp/VELVET_MIS_PE_mtbh37-1_mis_2x250bp_nextera_default__mtbh37-2_mis_2x250bp_nextera_default_213.final.contigs.ntref" of length 4411533
# construct suffix tree for sequence of length 4411533
# (maximum reference length is 536870908)
# (maximum query length is 4294967295)
# process 44115 characters per dot
#....................................................................................................
# CONSTRUCTIONTIME /vol/ngscomparison/software/analysis/quast-2.1/libs/MUMmer3.23-linux/mummer /vol/codine-tmp/juene/tmp.ZIObIuYyV6/quast/gage/tmp/VELVET_MIS_PE_mtbh37-1_mis_2x250bp_nextera_default__mtbh37-2_mis_2x250bp_nextera_default_213.final.contigs.ntref 2.72
# reading input file "/vol/codine-tmp/juene/tmp.ZIObIuYyV6/quast/corrected_input/VELVET_MIS_PE_mtbh37-1_mis_2x250bp_nextera_default__mtbh37-2_mis_2x250bp_nextera_default_213.final.contigs" of length 4049924
# matching query-file "/vol/codine-tmp/juene/tmp.ZIObIuYyV6/quast/corrected_input/VELVET_MIS_PE_mtbh37-1_mis_2x250bp_nextera_default__mtbh37-2_mis_2x250bp_nextera_default_213.final.contigs"
# against subject-file "/vol/codine-tmp/juene/tmp.ZIObIuYyV6/quast/gage/tmp/VELVET_MIS_PE_mtbh37-1_mis_2x250bp_nextera_default__mtbh37-2_mis_2x250bp_nextera_default_213.final.contigs.ntref"
# COMPLETETIME /vol/ngscomparison/software/analysis/quast-2.1/libs/MUMmer3.23-linux/mummer /vol/codine-tmp/juene/tmp.ZIObIuYyV6/quast/gage/tmp/VELVET_MIS_PE_mtbh37-1_mis_2x250bp_nextera_default__mtbh37-2_mis_2x250bp_nextera_default_213.final.contigs.ntref 8.13
# SPACE /vol/ngscomparison/software/analysis/quast-2.1/libs/MUMmer3.23-linux/mummer /vol/codine-tmp/juene/tmp.ZIObIuYyV6/quast/gage/tmp/VELVET_MIS_PE_mtbh37-1_mis_2x250bp_nextera_default__mtbh37-2_mis_2x250bp_nextera_default_213.final.contigs.ntref 8.27
4: FINISHING DATA
Filtering alignments
Extracting alignment coordinates
Analyzing SNPs
Extracting alignment breakpoints
Generating report file
Found genome size at position 4 with value 4411532 aka 4411532
Calculating point at 0 and the sum is 1001660 and i is2539 and lens is 2856 and length is 2355
Calculating point at 1 and the sum is 2001018 and i is2008 and lens is 2856 and length is 1543
Calculating point at 2 and the sum is 3000767 and i is1202 and lens is 2856 and length is 998
