All statistics are based on contigs of size >= 200 bp, unless otherwise noted (e.g., "# contigs (>= 0 bp)" and "Total length (>= 0 bp)" include all contigs).

Assembly                                                                                            GAGE_Contigs #  GAGE_Min contig  GAGE_Max contig  GAGE_N50         GAGE_Genome size  GAGE_Assembly size  GAGE_Chaff bases  GAGE_Missing reference bases  GAGE_Missing assembly bases  GAGE_Missing assembly contigs  GAGE_Duplicated reference bases  GAGE_Compressed reference bases  GAGE_Bad trim  GAGE_Avg idy  GAGE_SNPs  GAGE_Indels < 5bp  GAGE_Indels >= 5  GAGE_Inversions  GAGE_Relocation  GAGE_Translocation  GAGE_Corrected contig #  GAGE_Corrected assembly size  GAGE_Min correct contig  GAGE_Max correct contig  GAGE_Corrected N50
CLC_MIS_PE_sakai_mis-1_bi_2x150bp_default__sakai_mis-2_bi_2x150bp_default.16coverage.result_broken  363             204              259705           73053 COUNT: 23  5594470           5341443             0                 33886(0.61%)                  5554(0.10%)                  1(0.28%)                       4816                             256407                           40             99.99         216        57                 23                1                6                0                   382                      5335298                       201                      220120                   65445 COUNT: 28   
CLC_MIS_PE_sakai_mis-1_bi_2x150bp_default__sakai_mis-2_bi_2x150bp_default.16coverage.result         341             204              259705           89352 COUNT: 21  5594470           5345407             0                 31743(0.57%)                  7879(0.15%)                  1(0.29%)                       5695                             257969                           651            99.99         218        62                 38                2                7                0                   379                      5335285                       201                      220120                   65445 COUNT: 28   
