Assembly	CLC_MIS_PE_sakai_mis-1_bi_2x150bp_default__sakai_mis-2_bi_2x150bp_default.16coverage.result_broken	CLC_MIS_PE_sakai_mis-1_bi_2x150bp_default__sakai_mis-2_bi_2x150bp_default.16coverage.result
#Contigs (>= 0 bp)	373	341
#Contigs (>= 1000 bp)	200	192
Total length (>= 0 bp)	5343037	5345407
Total length (>= 1000 bp)	5269099	5276805
#Contigs	363	341
Largest contig	259705	259705
Total length	5341443	5345407
Reference length	5594470	5594470
GC (%)	50.28	50.28
Reference GC (%)	50.48	50.48
N50	78442	90568
NG50	73053	89352
N75	33084	40896
NG75	30546	33084
#misassemblies	6	7
#local misassemblies	7	28
#unaligned contigs	1 + 1 part	1 + 1 part
Unaligned contigs length	6684	6684
Genome fraction (%)	93.953	94.098
Duplication ratio	1.005	1.005
#N's per 100 kbp	2.94	47.27
#mismatches per 100 kbp	5.16	5.20
#indels per 100 kbp	1.77	2.09
#genes	4926 + 189 part	4933 + 193 part
#predicted genes (unique)	5302	5305
#predicted genes (>= 0 bp)	5302	5305
#predicted genes (>= 300 bp)	4434	4433
#predicted genes (>= 1500 bp)	663	664
#predicted genes (>= 3000 bp)	65	65
Largest alignment	259701	259701
NA50	78442	90568
NGA50	73052	79827
NA75	32509	37546
NGA75	29827	31576
