Assembly	NEWBLER_MIS_PE_mtbh37-1_mis_2x250bp_nextera_default__mtbh37-2_mis_2x250bp_nextera_default.contigs_broken	NEWBLER_MIS_PE_mtbh37-1_mis_2x250bp_nextera_default__mtbh37-2_mis_2x250bp_nextera_default.contigs
GAGE_Contigs #	130	56
GAGE_Min contig	536	2578
GAGE_Max contig	195863	438772
GAGE_N50	64342 COUNT: 21	137811 COUNT: 11
GAGE_Genome size	4411532	4411532
GAGE_Assembly size	4327156	4367156
GAGE_Chaff bases	0	0
GAGE_Missing reference bases	74661(1.69%)	74661(1.69%)
GAGE_Missing assembly bases	411(0.01%)	40427(0.93%)
GAGE_Missing assembly contigs	0(0.00%)	0(0.00%)
GAGE_Duplicated reference bases	0	0
GAGE_Compressed reference bases	11860	11860
GAGE_Bad trim	411	148
GAGE_Avg idy	99.99	99.99
GAGE_SNPs	125	126
GAGE_Indels < 5bp	34	33
GAGE_Indels >= 5	6	72
GAGE_Inversions	0	0
GAGE_Relocation	1	7
GAGE_Translocation	0	0
GAGE_Corrected contig #	137	137
GAGE_Corrected assembly size	4327244	4327227
GAGE_Min correct contig	536	536
GAGE_Max correct contig	187140	187140
GAGE_Corrected N50	64008 COUNT: 23	64008 COUNT: 23
