1: PREPARING DATA
2,3: RUNNING mummer AND CREATING CLUSTERS
# reading input file "/vol/codine-tmp/juene/tmp.JxHoraPp3e/quast/gage/tmp/NEWBLER_PGM_sakai_pgm_mu_318_400bp_IO_TS3.4_ms.0.15percent.contigs.ntref" of length 5594473
# construct suffix tree for sequence of length 5594473
# (maximum reference length is 536870908)
# (maximum query length is 4294967295)
# process 55944 characters per dot
#....................................................................................................
# CONSTRUCTIONTIME /vol/ngscomparison/software/analysis/quast-2.1/libs/MUMmer3.23-linux/mummer /vol/codine-tmp/juene/tmp.JxHoraPp3e/quast/gage/tmp/NEWBLER_PGM_sakai_pgm_mu_318_400bp_IO_TS3.4_ms.0.15percent.contigs.ntref 4.21
# reading input file "/vol/codine-tmp/juene/tmp.JxHoraPp3e/quast/corrected_input/NEWBLER_PGM_sakai_pgm_mu_318_400bp_IO_TS3.4_ms.0.15percent.contigs" of length 5346647
# matching query-file "/vol/codine-tmp/juene/tmp.JxHoraPp3e/quast/corrected_input/NEWBLER_PGM_sakai_pgm_mu_318_400bp_IO_TS3.4_ms.0.15percent.contigs"
# against subject-file "/vol/codine-tmp/juene/tmp.JxHoraPp3e/quast/gage/tmp/NEWBLER_PGM_sakai_pgm_mu_318_400bp_IO_TS3.4_ms.0.15percent.contigs.ntref"
# COMPLETETIME /vol/ngscomparison/software/analysis/quast-2.1/libs/MUMmer3.23-linux/mummer /vol/codine-tmp/juene/tmp.JxHoraPp3e/quast/gage/tmp/NEWBLER_PGM_sakai_pgm_mu_318_400bp_IO_TS3.4_ms.0.15percent.contigs.ntref 12.22
# SPACE /vol/ngscomparison/software/analysis/quast-2.1/libs/MUMmer3.23-linux/mummer /vol/codine-tmp/juene/tmp.JxHoraPp3e/quast/gage/tmp/NEWBLER_PGM_sakai_pgm_mu_318_400bp_IO_TS3.4_ms.0.15percent.contigs.ntref 10.62
4: FINISHING DATA
Filtering alignments
Extracting alignment coordinates
Analyzing SNPs
Extracting alignment breakpoints
Generating report file
Found genome size at position 4 with value 5594470 aka 5594470
Calculating point at 0 and the sum is 1047744 and i is325 and lens is 330 and length is 168895
Calculating point at 1 and the sum is 2040979 and i is318 and lens is 330 and length is 127630
Calculating point at 2 and the sum is 3048838 and i is308 and lens is 330 and length is 90206
Calculating point at 3 and the sum is 4025350 and i is292 and lens is 330 and length is 46443
Calculating point at 4 and the sum is 5004284 and i is254 and lens is 330 and length is 8945
