Assembly	CLC_PGM_mrsa_pgm_400bp_es_318_IKA_ts3.2_morestringent.6coverage.result
GAGE_Contigs #	1768
GAGE_Min contig	200
GAGE_Max contig	18859
GAGE_N50	2961 COUNT: 258
GAGE_Genome size	2813862
GAGE_Assembly size	2707947
GAGE_Chaff bases	0
GAGE_Missing reference bases	235829(8.38%)
GAGE_Missing assembly bases	5702(0.21%)
GAGE_Missing assembly contigs	3(0.17%)
GAGE_Duplicated reference bases	77084
GAGE_Compressed reference bases	42768
GAGE_Bad trim	4751
GAGE_Avg idy	99.60
GAGE_SNPs	1731
GAGE_Indels < 5bp	6833
GAGE_Indels >= 5	18
GAGE_Inversions	39
GAGE_Relocation	18
GAGE_Translocation	0
GAGE_Corrected contig #	1669
GAGE_Corrected assembly size	2630198
GAGE_Min correct contig	200
GAGE_Max correct contig	18880
GAGE_Corrected N50	2710 COUNT: 289
