1: PREPARING DATA
2,3: RUNNING mummer AND CREATING CLUSTERS
# reading input file "/vol/codine-tmp/juene/tmp.zNS5bEXvkH/quast/gage/tmp/CLC_MIS_PE_mtbh37-1_mis_2x250bp_nextera_default__mtbh37-2_mis_2x250bp_nextera_default.0.950percent.result_broken.ntref" of length 4411533
# construct suffix tree for sequence of length 4411533
# (maximum reference length is 536870908)
# (maximum query length is 4294967295)
# process 44115 characters per dot
#....................................................................................................
# CONSTRUCTIONTIME /vol/ngscomparison/software/analysis/quast-2.1/libs/MUMmer3.23-linux/mummer /vol/codine-tmp/juene/tmp.zNS5bEXvkH/quast/gage/tmp/CLC_MIS_PE_mtbh37-1_mis_2x250bp_nextera_default__mtbh37-2_mis_2x250bp_nextera_default.0.950percent.result_broken.ntref 2.25
# reading input file "/vol/codine-tmp/juene/tmp.zNS5bEXvkH/quast/corrected_input/CLC_MIS_PE_mtbh37-1_mis_2x250bp_nextera_default__mtbh37-2_mis_2x250bp_nextera_default.0.950percent.result_broken" of length 4415467
# matching query-file "/vol/codine-tmp/juene/tmp.zNS5bEXvkH/quast/corrected_input/CLC_MIS_PE_mtbh37-1_mis_2x250bp_nextera_default__mtbh37-2_mis_2x250bp_nextera_default.0.950percent.result_broken"
# against subject-file "/vol/codine-tmp/juene/tmp.zNS5bEXvkH/quast/gage/tmp/CLC_MIS_PE_mtbh37-1_mis_2x250bp_nextera_default__mtbh37-2_mis_2x250bp_nextera_default.0.950percent.result_broken.ntref"
# COMPLETETIME /vol/ngscomparison/software/analysis/quast-2.1/libs/MUMmer3.23-linux/mummer /vol/codine-tmp/juene/tmp.zNS5bEXvkH/quast/gage/tmp/CLC_MIS_PE_mtbh37-1_mis_2x250bp_nextera_default__mtbh37-2_mis_2x250bp_nextera_default.0.950percent.result_broken.ntref 6.46
# SPACE /vol/ngscomparison/software/analysis/quast-2.1/libs/MUMmer3.23-linux/mummer /vol/codine-tmp/juene/tmp.zNS5bEXvkH/quast/gage/tmp/CLC_MIS_PE_mtbh37-1_mis_2x250bp_nextera_default__mtbh37-2_mis_2x250bp_nextera_default.0.950percent.result_broken.ntref 8.56
4: FINISHING DATA
Filtering alignments
Extracting alignment coordinates
Analyzing SNPs
Extracting alignment breakpoints
Generating report file
Found genome size at position 4 with value 4411532 aka 4411532
Calculating point at 0 and the sum is 1095359 and i is202 and lens is 209 and length is 109697
Calculating point at 1 and the sum is 2022960 and i is192 and lens is 209 and length is 74594
Calculating point at 2 and the sum is 3013592 and i is176 and lens is 209 and length is 48011
Calculating point at 3 and the sum is 4012234 and i is136 and lens is 209 and length is 14457
