Assembly	#Una_fully unaligned contigs	Una_Fully unaligned length	#Una_partially unaligned contigs	#Una_with misassembly	#Una_both parts are significant	Una_Partially unaligned length	#N's
SOAP2_MIS_PE_mrsa_mis-1_bi_2x250bp_default.0.460percent_113.final.scaf_broken	5	6644	8	0	0	309	64
SOAP2_MIS_PE_mrsa_mis-1_bi_2x250bp_default.0.460percent_113.final.scaf	5	6644	8	0	0	309	682
