Assembly	SOAP2_PGM_sakai_pgm_mu_318_400bp_IO_TS3.4_ms_0.395percent_69.final.contig
GAGE_Contigs #	10925
GAGE_Min contig	200
GAGE_Max contig	936
GAGE_N50	0 COUNT: 0
GAGE_Genome size	5594470
GAGE_Assembly size	2765009
GAGE_Chaff bases	0
GAGE_Missing reference bases	3203041(57.25%)
GAGE_Missing assembly bases	79850(2.89%)
GAGE_Missing assembly contigs	220(2.01%)
GAGE_Duplicated reference bases	178868
GAGE_Compressed reference bases	111045
GAGE_Bad trim	25544
GAGE_Avg idy	98.85
GAGE_SNPs	782
GAGE_Indels < 5bp	22015
GAGE_Indels >= 5	14
GAGE_Inversions	56
GAGE_Relocation	27
GAGE_Translocation	9
GAGE_Corrected contig #	9519
GAGE_Corrected assembly size	2421690
GAGE_Min correct contig	200
GAGE_Max correct contig	936
GAGE_Corrected N50	0 COUNT: 0
