All statistics are based on contigs of size >= 200 bp, unless otherwise noted (e.g., "# contigs (>= 0 bp)" and "Total length (>= 0 bp)" include all contigs).

Assembly                                                                      GAGE_Contigs #  GAGE_Min contig  GAGE_Max contig  GAGE_N50         GAGE_Genome size  GAGE_Assembly size  GAGE_Chaff bases  GAGE_Missing reference bases  GAGE_Missing assembly bases  GAGE_Missing assembly contigs  GAGE_Duplicated reference bases  GAGE_Compressed reference bases  GAGE_Bad trim  GAGE_Avg idy  GAGE_SNPs  GAGE_Indels < 5bp  GAGE_Indels >= 5  GAGE_Inversions  GAGE_Relocation  GAGE_Translocation  GAGE_Corrected contig #  GAGE_Corrected assembly size  GAGE_Min correct contig  GAGE_Max correct contig  GAGE_Corrected N50
SOAP2_MIS_PE_mrsa_mis-1_bi_2x250bp_default.0.460percent_43.final.scaf_broken  7233            200              4859             883 COUNT: 930   2813862           3415979             0                 338874(12.04%)                869187(25.44%)               3638(50.30%)                   23995                            6688                             2564           99.95         529        376                243               0                0                0                   3620                     2507145                       200                      4754                     815 COUNT: 1003   
SOAP2_MIS_PE_mrsa_mis-1_bi_2x250bp_default.0.460percent_43.final.scaf         6633            200              7936             1286 COUNT: 645  2813862           3501592             0                 302225(10.74%)                913101(26.08%)               3643(54.92%)                   24702                            8109                             8293           99.89         516        481                1077              0                1                0                   3572                     2503307                       200                      5875                     827 COUNT: 982    
