1: PREPARING DATA
2,3: RUNNING mummer AND CREATING CLUSTERS
# reading input file "/vol/codine-tmp/juene/tmp.htjTrAiO33/quast/contigs_reports/nucmer_output/SOAP2_PGM_sakai_pgm_mu_318_400bp_IO_TS3.4_ms_0.395percent_47.final.contig.ntref" of length 5594473
# construct suffix tree for sequence of length 5594473
# (maximum reference length is 536870908)
# (maximum query length is 4294967295)
# process 55944 characters per dot
#....................................................................................................
# CONSTRUCTIONTIME /vol/ngscomparison/software/analysis/quast-2.1/libs/MUMmer3.23-linux/mummer /vol/codine-tmp/juene/tmp.htjTrAiO33/quast/contigs_reports/nucmer_output/SOAP2_PGM_sakai_pgm_mu_318_400bp_IO_TS3.4_ms_0.395percent_47.final.contig.ntref 4.60
# reading input file "/vol/codine-tmp/juene/tmp.htjTrAiO33/quast/corrected_input/SOAP2_PGM_sakai_pgm_mu_318_400bp_IO_TS3.4_ms_0.395percent_47.final.contig" of length 573865
# matching query-file "/vol/codine-tmp/juene/tmp.htjTrAiO33/quast/corrected_input/SOAP2_PGM_sakai_pgm_mu_318_400bp_IO_TS3.4_ms_0.395percent_47.final.contig"
# against subject-file "/vol/codine-tmp/juene/tmp.htjTrAiO33/quast/contigs_reports/nucmer_output/SOAP2_PGM_sakai_pgm_mu_318_400bp_IO_TS3.4_ms_0.395percent_47.final.contig.ntref"
# COMPLETETIME /vol/ngscomparison/software/analysis/quast-2.1/libs/MUMmer3.23-linux/mummer /vol/codine-tmp/juene/tmp.htjTrAiO33/quast/contigs_reports/nucmer_output/SOAP2_PGM_sakai_pgm_mu_318_400bp_IO_TS3.4_ms_0.395percent_47.final.contig.ntref 5.39
# SPACE /vol/ngscomparison/software/analysis/quast-2.1/libs/MUMmer3.23-linux/mummer /vol/codine-tmp/juene/tmp.htjTrAiO33/quast/contigs_reports/nucmer_output/SOAP2_PGM_sakai_pgm_mu_318_400bp_IO_TS3.4_ms_0.395percent_47.final.contig.ntref 6.05
4: FINISHING DATA
