calling: java -cp /vol/ngscomparison/software/analysis/quast-2.1/libs/gage:. SizeFasta /vol/codine-tmp/juene/tmp.BZ9ke6G1Vx/quast/corrected_input/MRSA_COL_Plasmid.fasta |awk '{SUM+=; print SUM}'|tail -n 1
Contig Stats
Total units: 506
Reference: 2813862
BasesInFasta: 2880747
Min: 202
Max: 237900
N10: 228427 COUNT: 2
N25: 129362 COUNT: 4
N50: 74179 COUNT: 12
N75: 31474 COUNT: 27
E-size:90768.39

Genome Size: 2813862
Assembly Size: 2880747
Chaff bases: 0
Missing Reference Bases: 479(0.02%)
Missing Assembly Bases: 6211(0.22%)
Missing Assembly Contigs: 3(0.59%)
Duplicated Reference Bases: 73881
Compressed Reference Bases: 40247
Bad Trim: 319
Avg Idy: 99.99
SNPs: 51
Indels < 5bp: 13
Indels >= 5: 0
Inversions: 0
Relocation: 1
Translocation: 0

Corrected Contig Stats
calling: java -cp /vol/ngscomparison/software/analysis/quast-2.1/libs/gage:.:. GetFastaStats -o -min 199 -genomeSize 2813862 /vol/codine-tmp/juene/tmp.BZ9ke6G1Vx/quast/gage/tmp/SOAP2_MIS_PE_mrsa_mis-1_bi_2x250bp_default.0.460percent_123.final.scaf_broken.matches.lens 2> /dev/null
Total units: 205
Reference: 2813862
BasesInFasta: 2800454
Min: 209
Max: 228427
N10: 148284 COUNT: 2
N25: 119565 COUNT: 5
N50: 74179 COUNT: 13
N75: 31360 COUNT: 29
E-size:80123.15

Done
