All statistics are based on contigs of size >= 200 bp, unless otherwise noted (e.g., "# contigs (>= 0 bp)" and "Total length (>= 0 bp)" include all contigs).

Assembly                         ABYSS_PE_MIS_PE_sakai_mis-both_bi_2x250bp_SI_default.0.64percent.NEWBLER_116-scaffolds_broken  ABYSS_PE_MIS_PE_sakai_mis-both_bi_2x250bp_SI_default.0.64percent.NEWBLER_116-scaffolds
GAGE_Contigs #                   355                                                                                            320                                                                                   
GAGE_Min contig                  201                                                                                            201                                                                                   
GAGE_Max contig                  238060                                                                                         249654                                                                                
GAGE_N50                         98723 COUNT: 19                                                                                122025 COUNT: 18                                                                      
GAGE_Genome size                 5594470                                                                                        5594470                                                                               
GAGE_Assembly size               5626713                                                                                        5628534                                                                               
GAGE_Chaff bases                 0                                                                                              0                                                                                     
GAGE_Missing reference bases     6417(0.11%)                                                                                    6416(0.11%)                                                                           
GAGE_Missing assembly bases      13(0.00%)                                                                                      1784(0.03%)                                                                           
GAGE_Missing assembly contigs    0(0.00%)                                                                                       0(0.00%)                                                                              
GAGE_Duplicated reference bases  122903                                                                                         123907                                                                                
GAGE_Compressed reference bases  199247                                                                                         199205                                                                                
GAGE_Bad trim                    0                                                                                              150                                                                                   
GAGE_Avg idy                     99.98                                                                                          99.98                                                                                 
GAGE_SNPs                        437                                                                                            435                                                                                   
GAGE_Indels < 5bp                32                                                                                             35                                                                                    
GAGE_Indels >= 5                 9                                                                                              25                                                                                    
GAGE_Inversions                  1                                                                                              5                                                                                     
GAGE_Relocation                  4                                                                                              14                                                                                    
GAGE_Translocation               0                                                                                              0                                                                                     
GAGE_Corrected contig #          326                                                                                            326                                                                                   
GAGE_Corrected assembly size     5513427                                                                                        5513565                                                                               
GAGE_Min correct contig          213                                                                                            206                                                                                   
GAGE_Max correct contig          238055                                                                                         238055                                                                                
GAGE_Corrected N50               76954 COUNT: 22                                                                                76954 COUNT: 22                                                                       
