Assembly	#Contigs	#Contigs (>= 0 bp)	#Contigs (>= 1000 bp)	Largest contig	Total length	Total length (>= 0 bp)	Total length (>= 1000 bp)	Reference length	N50	NG50	N75	NG75	L50	LG50	L75	LG75	#local misassemblies	#misassemblies	#misassembled contigs	Misassembled contigs length	Misassemblies inter-contig overlap	#unaligned contigs	Unaligned contigs length	#ambiguously mapped contigs	Extra bases in ambiguously mapped contigs	#N's	#N's per 100 kbp	Genome fraction (%)	Duplication ratio	#genes	#predicted genes (unique)	#predicted genes (>= 0 bp)	#predicted genes (>= 300 bp)	#predicted genes (>= 1500 bp)	#predicted genes (>= 3000 bp)	#mismatches	#indels	Indels length	#mismatches per 100 kbp	#indels per 100 kbp	GC (%)	Reference GC (%)	Average %IDY	Largest alignment	NA50	NGA50	NA75	NGA75	LA50	LGA50	LA75	LGA75	#Mis_misassemblies	#Mis_relocations	#Mis_translocations	#Mis_inversions	#Mis_misassembled contigs	Mis_Misassembled contigs length	#Mis_local misassemblies	#Mis_short indels (<= 5 bp)	#Mis_long indels (> 5 bp)	#Una_fully unaligned contigs	Una_Fully unaligned length	#Una_partially unaligned contigs	#Una_with misassembly	#Una_both parts are significant	Una_Partially unaligned length	GAGE_Contigs #	GAGE_Min contig	GAGE_Max contig	GAGE_N50	GAGE_Genome size	GAGE_Assembly size	GAGE_Chaff bases	GAGE_Missing reference bases	GAGE_Missing assembly bases	GAGE_Missing assembly contigs	GAGE_Duplicated reference bases	GAGE_Compressed reference bases	GAGE_Bad trim	GAGE_Avg idy	GAGE_SNPs	GAGE_Indels < 5bp	GAGE_Indels >= 5	GAGE_Inversions	GAGE_Relocation	GAGE_Translocation	GAGE_Corrected contig #	GAGE_Corrected assembly size	GAGE_Min correct contig	GAGE_Max correct contig	GAGE_Corrected N50
ABYSS_PE_MIS_PE_sakai_mis-both_bi_2x250bp_SI_default.0.64percent.NEWBLER_116-scaffolds_broken	355	464	205	238060	5626713	5643415	5556352	5594470	98723	98723	51000	51000	19	19	39	39	4	9	9	514767	8417	0 + 0 part	0	81	-78888	20	0.36	96.995	1.024	5119 + 202 part	5413	5641	4662	695	68	642	43	259	11.83	0.79	50.36	50.48	98.630	238060	90843	90843	46382	46382	20	20	42	42	9	8	1	0	9	514767	4	35	8	0	0	0	0	0	0	355	201	238060	98723 COUNT: 19	5594470	5626713	0	6417(0.11%)	13(0.00%)	0(0.00%)	122903	199247	0	99.98	437	32	9	1	4	0	326	5513427	213	238055	76954 COUNT: 22
ABYSS_PE_MIS_PE_sakai_mis-both_bi_2x250bp_SI_default.0.64percent.NEWBLER_116-scaffolds	320	429	202	249654	5628534	5645236	5574443	5594470	122025	122025	51000	51000	18	18	36	36	22	18	16	571515	8417	0 + 1 part	281	59	-64376	1841	32.71	97.214	1.025	5129 + 201 part	5408	5634	4665	695	68	663	165	447	12.19	3.03	50.36	50.48	98.640	249470	108918	108918	46382	47048	18	18	39	38	18	17	1	0	16	571515	22	154	11	0	0	1	0	1	281	320	201	249654	122025 COUNT: 18	5594470	5628534	0	6416(0.11%)	1784(0.03%)	0(0.00%)	123907	199205	150	99.98	435	35	25	5	14	0	326	5513565	206	238055	76954 COUNT: 22
