calling: java -cp /vol/ngscomparison/software/analysis/quast-2.1/libs/gage:. SizeFasta /vol/codine-tmp/juene/tmp.YMy1DFg6M8/quast/corrected_input/Ecoli_Sakai_editedNew_plasmids.fasta |awk '{SUM+=; print SUM}'|tail -n 1
Contig Stats
Total units: 281
Reference: 5594470
BasesInFasta: 5353401
Min: 200
Max: 377171
N10: 316777 COUNT: 2
N25: 204031 COUNT: 5
N50: 142755 COUNT: 14
N75: 44835 COUNT: 33
E-size:141466.18

Genome Size: 5594470
Assembly Size: 5353401
Chaff bases: 0
Missing Reference Bases: 37009(0.66%)
Missing Assembly Bases: 120(0.00%)
Missing Assembly Contigs: 0(0.00%)
Duplicated Reference Bases: 2505
Compressed Reference Bases: 225245
Bad Trim: 120
Avg Idy: 99.99
SNPs: 67
Indels < 5bp: 214
Indels >= 5: 9
Inversions: 0
Relocation: 6
Translocation: 0

Corrected Contig Stats
calling: java -cp /vol/ngscomparison/software/analysis/quast-2.1/libs/gage:.:. GetFastaStats -o -min 199 -genomeSize 5594470 /vol/codine-tmp/juene/tmp.YMy1DFg6M8/quast/gage/tmp/NEWBLER_PGM_sakai_pgm_mu_318_400bp_IO_TS3.4_ms.0.35percent.contigs.matches.lens 2> /dev/null
Total units: 286
Reference: 5594470
BasesInFasta: 5353747
Min: 201
Max: 313770
N10: 196564 COUNT: 3
N25: 147162 COUNT: 8
N50: 95955 COUNT: 19
N75: 44836 COUNT: 39
E-size:107234.55

Done
