All statistics are based on contigs of size >= 200 bp, unless otherwise noted (e.g., "# contigs (>= 0 bp)" and "Total length (>= 0 bp)" include all contigs).

Assembly                         CLC_MIS_PE_sakai_mis-1_bi_2x250bp_SI_default__sakai_mis-2_bi_2x250bp_SI_default.0.025percent.result_broken  CLC_MIS_PE_sakai_mis-1_bi_2x250bp_SI_default__sakai_mis-2_bi_2x250bp_SI_default.0.025percent.result
GAGE_Contigs #                   5217                                                                                                        5210                                                                                               
GAGE_Min contig                  200                                                                                                         200                                                                                                
GAGE_Max contig                  8822                                                                                                        8822                                                                                               
GAGE_N50                         825 COUNT: 1812                                                                                             826 COUNT: 1806                                                                                    
GAGE_Genome size                 5594470                                                                                                     5594470                                                                                            
GAGE_Assembly size               4412632                                                                                                     4415251                                                                                            
GAGE_Chaff bases                 0                                                                                                           0                                                                                                  
GAGE_Missing reference bases     989490(17.69%)                                                                                              990642(17.71%)                                                                                     
GAGE_Missing assembly bases      26943(0.61%)                                                                                                30556(0.69%)                                                                                       
GAGE_Missing assembly contigs    30(0.58%)                                                                                                   34(0.65%)                                                                                          
GAGE_Duplicated reference bases  11518                                                                                                       11863                                                                                              
GAGE_Compressed reference bases  279097                                                                                                      279288                                                                                             
GAGE_Bad trim                    11486                                                                                                       12043                                                                                              
GAGE_Avg idy                     99.79                                                                                                       99.79                                                                                              
GAGE_SNPs                        6588                                                                                                        6563                                                                                               
GAGE_Indels < 5bp                227                                                                                                         227                                                                                                
GAGE_Indels >= 5                 11                                                                                                          17                                                                                                 
GAGE_Inversions                  67                                                                                                          68                                                                                                 
GAGE_Relocation                  39                                                                                                          41                                                                                                 
GAGE_Translocation               3                                                                                                           3                                                                                                  
GAGE_Corrected contig #          5297                                                                                                        5290                                                                                               
GAGE_Corrected assembly size     4387164                                                                                                     4385235                                                                                            
GAGE_Min correct contig          200                                                                                                         200                                                                                                
GAGE_Max correct contig          8822                                                                                                        8822                                                                                               
GAGE_Corrected N50               807 COUNT: 1891                                                                                             807 COUNT: 1890                                                                                    
