All statistics are based on contigs of size >= 200 bp, unless otherwise noted (e.g., "# contigs (>= 0 bp)" and "Total length (>= 0 bp)" include all contigs).

Assembly                         ABYSS_PE_MIS_PE_mtbh37-1_mis_2x250bp_nextera_default__mtbh37-2_mis_2x250bp_nextera_default_120-scaffolds_broken  ABYSS_PE_MIS_PE_mtbh37-1_mis_2x250bp_nextera_default__mtbh37-2_mis_2x250bp_nextera_default_120-scaffolds
#Mis_misassemblies               5                                                                                                                6                                                                                                       
#Mis_relocations                 5                                                                                                                6                                                                                                       
#Mis_translocations              0                                                                                                                0                                                                                                       
#Mis_inversions                  0                                                                                                                0                                                                                                       
#Mis_misassembled contigs        5                                                                                                                6                                                                                                       
Mis_Misassembled contigs length  12161                                                                                                            36098                                                                                                   
#Mis_local misassemblies         15                                                                                                               21                                                                                                      
#mismatches                      259                                                                                                              254                                                                                                     
#indels                          90                                                                                                               420                                                                                                     
#Mis_short indels (<= 5 bp)      73                                                                                                               380                                                                                                     
#Mis_long indels (> 5 bp)        17                                                                                                               40                                                                                                      
Indels length                    481                                                                                                              1348                                                                                                    
