Assembly	CLC_MIS_PE_sakai_mis-2_bi_2x150bp_default__sakai_mis-1_bi_2x150bp_default.0.750percent.result_broken	CLC_MIS_PE_sakai_mis-2_bi_2x150bp_default__sakai_mis-1_bi_2x150bp_default.0.750percent.result
#Contigs	278	254
#Contigs (>= 0 bp)	288	254
#Contigs (>= 1000 bp)	145	139
Largest contig	374831	374831
Total length	5354232	5358922
Total length (>= 0 bp)	5355807	5358922
Total length (>= 1000 bp)	5295059	5306824
Reference length	5594470	5594470
N50	141495	148175
NG50	141495	146396
N75	66151	75268
NG75	56865	71497
L50	14	13
LG50	14	14
L75	28	25
LG75	31	28
#local misassemblies	9	38
#misassemblies	3	3
#misassembled contigs	3	3
Misassembled contigs length	420969	420969
Misassemblies inter-contig overlap	20821	20821
#unaligned contigs	3 + 1 part	3 + 1 part
Unaligned contigs length	6087	6087
#ambiguously mapped contigs	81	68
Extra bases in ambiguously mapped contigs	-59400	-47966
#N's	62	3177
#N's per 100 kbp	1.16	59.28
Genome fraction (%)	94.514	94.747
Duplication ratio	1.004	1.005
#genes	5003 + 141 part	5008 + 146 part
#predicted genes (unique)	5258	5258
#predicted genes (>= 0 bp)	5258	5258
#predicted genes (>= 300 bp)	4426	4426
#predicted genes (>= 1500 bp)	674	675
#predicted genes (>= 3000 bp)	66	66
#mismatches	115	132
#indels	108	149
Indels length	244	353
#mismatches per 100 kbp	2.17	2.49
#indels per 100 kbp	2.04	2.81
GC (%)	50.28	50.28
Reference GC (%)	50.48	50.48
Average %IDY	98.734	98.745
Largest alignment	313825	313825
NA50	141495	147892
NGA50	141495	145472
NA75	66151	75268
NGA75	56865	71436
LA50	15	14
LGA50	15	15
LA75	29	26
LGA75	32	29
#Mis_misassemblies	3	3
#Mis_relocations	3	3
#Mis_translocations	0	0
#Mis_inversions	0	0
#Mis_misassembled contigs	3	3
Mis_Misassembled contigs length	420969	420969
#Mis_local misassemblies	9	38
#Mis_short indels (<= 5 bp)	105	142
#Mis_long indels (> 5 bp)	3	7
#Una_fully unaligned contigs	3	3
Una_Fully unaligned length	5981	5981
#Una_partially unaligned contigs	1	1
#Una_with misassembly	0	0
#Una_both parts are significant	0	0
Una_Partially unaligned length	106	106
GAGE_Contigs #	278	254
GAGE_Min contig	201	201
GAGE_Max contig	374831	374831
GAGE_N50	141495 COUNT: 14	146396 COUNT: 14
GAGE_Genome size	5594470	5594470
GAGE_Assembly size	5354232	5358922
GAGE_Chaff bases	0	0
GAGE_Missing reference bases	29272(0.52%)	27812(0.50%)
GAGE_Missing assembly bases	6165(0.12%)	9280(0.17%)
GAGE_Missing assembly contigs	3(1.08%)	3(1.18%)
GAGE_Duplicated reference bases	9383	8807
GAGE_Compressed reference bases	248055	248758
GAGE_Bad trim	108	713
GAGE_Avg idy	99.99	99.99
GAGE_SNPs	127	127
GAGE_Indels < 5bp	14	14
GAGE_Indels >= 5	14	23
GAGE_Inversions	1	1
GAGE_Relocation	4	6
GAGE_Translocation	0	0
GAGE_Corrected contig #	276	279
GAGE_Corrected assembly size	5339555	5340414
GAGE_Min correct contig	201	201
GAGE_Max correct contig	287259	287259
GAGE_Corrected N50	106682 COUNT: 17	106682 COUNT: 17
