All statistics are based on contigs of size >= 200 bp, unless otherwise noted (e.g., "# contigs (>= 0 bp)" and "Total length (>= 0 bp)" include all contigs).

Assembly                                                                                                       GAGE_Contigs #  GAGE_Min contig  GAGE_Max contig  GAGE_N50         GAGE_Genome size  GAGE_Assembly size  GAGE_Chaff bases  GAGE_Missing reference bases  GAGE_Missing assembly bases  GAGE_Missing assembly contigs  GAGE_Duplicated reference bases  GAGE_Compressed reference bases  GAGE_Bad trim  GAGE_Avg idy  GAGE_SNPs  GAGE_Indels < 5bp  GAGE_Indels >= 5  GAGE_Inversions  GAGE_Relocation  GAGE_Translocation  GAGE_Corrected contig #  GAGE_Corrected assembly size  GAGE_Min correct contig  GAGE_Max correct contig  GAGE_Corrected N50
ABYSS_PE_MIS_PE_mrsa_mis-1_bi_2x250bp_default__mrsa_mis-2_bi_2x250bp_default.0.460percent_60-scaffolds_broken  154             202              148087           51321 COUNT: 17  2813862           2767282             0                 15185(0.54%)                  60(0.00%)                    0(0.00%)                       717                              39674                            59             99.99         86         7                  3                 0                1                0                   155                      2767305                       204                      148087                   51321 COUNT: 17   
ABYSS_PE_MIS_PE_mrsa_mis-1_bi_2x250bp_default__mrsa_mis-2_bi_2x250bp_default.0.460percent_60-scaffolds         134             202              148955           52784 COUNT: 15  2813862           2768251             0                 15375(0.55%)                  1350(0.05%)                  0(0.00%)                       827                              39848                            421            99.99         86         10                 17                0                3                0                   152                      2766767                       204                      148087                   51321 COUNT: 17   
