All statistics are based on contigs of size >= 200 bp, unless otherwise noted (e.g., "# contigs (>= 0 bp)" and "Total length (>= 0 bp)" include all contigs).

Assembly                                                                                                          GAGE_Contigs #  GAGE_Min contig  GAGE_Max contig  GAGE_N50         GAGE_Genome size  GAGE_Assembly size  GAGE_Chaff bases  GAGE_Missing reference bases  GAGE_Missing assembly bases  GAGE_Missing assembly contigs  GAGE_Duplicated reference bases  GAGE_Compressed reference bases  GAGE_Bad trim  GAGE_Avg idy  GAGE_SNPs  GAGE_Indels < 5bp  GAGE_Indels >= 5  GAGE_Inversions  GAGE_Relocation  GAGE_Translocation  GAGE_Corrected contig #  GAGE_Corrected assembly size  GAGE_Min correct contig  GAGE_Max correct contig  GAGE_Corrected N50
VELVET_MIS_PE_mrsa_mis-1_bi_2x250bp_default__mrsa_mis-2_bi_2x250bp_default.0.460percent_193.final.contigs_broken  932             341              38741            4598 COUNT: 174  2813862           2802043             0                 77853(2.77%)                  5281(0.19%)                  1(0.11%)                       2744                             40114                            74             100.00        44         7                  1                 1                2                0                   928                      2795922                       341                      38741                    4572 COUNT: 175   
VELVET_MIS_PE_mrsa_mis-1_bi_2x250bp_default__mrsa_mis-2_bi_2x250bp_default.0.460percent_193.final.contigs         770             385              38741            5976 COUNT: 134  2813862           2814326             0                 77832(2.77%)                  17538(0.62%)                 1(0.13%)                       2744                             40198                            171            99.99         44         12                 159               1                2                0                   927                      2795943                       341                      38741                    4572 COUNT: 175   
