calling: java -cp /vol/ngscomparison/software/analysis/quast-2.1/libs/gage:. SizeFasta /vol/codine-tmp/juene/tmp.KacxkELq0s/quast/corrected_input/Ecoli_Sakai_editedNew_plasmids.fasta |awk '{SUM+=; print SUM}'|tail -n 1
Contig Stats
Total units: 434
Reference: 5594470
BasesInFasta: 5368779
Min: 200
Max: 251826
N10: 173341 COUNT: 3
N25: 132645 COUNT: 9
N50: 78006 COUNT: 23
N75: 32631 COUNT: 52
E-size:84733.38

Genome Size: 5594470
Assembly Size: 5368779
Chaff bases: 0
Missing Reference Bases: 36238(0.65%)
Missing Assembly Bases: 5486(0.10%)
Missing Assembly Contigs: 1(0.23%)
Duplicated Reference Bases: 15773
Compressed Reference Bases: 246406
Bad Trim: 42
Avg Idy: 99.99
SNPs: 253
Indels < 5bp: 26
Indels >= 5: 9
Inversions: 1
Relocation: 4
Translocation: 0

Corrected Contig Stats
calling: java -cp /vol/ngscomparison/software/analysis/quast-2.1/libs/gage:.:. GetFastaStats -o -min 199 -genomeSize 5594470 /vol/codine-tmp/juene/tmp.KacxkELq0s/quast/gage/tmp/VELVET_MIS_PE_sakai_mis-1_bi_2x150bp_default__sakai_mis-2_bi_2x150bp_default.0.826percent_59.final.contigs_broken.matches.lens 2> /dev/null
Total units: 402
Reference: 5594470
BasesInFasta: 5351162
Min: 200
Max: 173874
N10: 152978 COUNT: 4
N25: 124266 COUNT: 10
N50: 71098 COUNT: 25
N75: 28642 COUNT: 58
E-size:75830.63

Done
