All statistics are based on contigs of size >= 200 bp, unless otherwise noted (e.g., "# contigs (>= 0 bp)" and "Total length (>= 0 bp)" include all contigs).

Assembly                                                                                                       GAGE_Contigs #  GAGE_Min contig  GAGE_Max contig  GAGE_N50         GAGE_Genome size  GAGE_Assembly size  GAGE_Chaff bases  GAGE_Missing reference bases  GAGE_Missing assembly bases  GAGE_Missing assembly contigs  GAGE_Duplicated reference bases  GAGE_Compressed reference bases  GAGE_Bad trim  GAGE_Avg idy  GAGE_SNPs  GAGE_Indels < 5bp  GAGE_Indels >= 5  GAGE_Inversions  GAGE_Relocation  GAGE_Translocation  GAGE_Corrected contig #  GAGE_Corrected assembly size  GAGE_Min correct contig  GAGE_Max correct contig  GAGE_Corrected N50
ABYSS_PE_MIS_PE_mrsa_mis-1_bi_2x250bp_default__mrsa_mis-2_bi_2x250bp_default.0.460percent_52-scaffolds_broken  159             203              208034           46973 COUNT: 17  2813862           2760255             0                 21632(0.77%)                  18(0.00%)                    0(0.00%)                       0                                38071                            17             99.98         75         11                 4                 1                2                0                   166                      2762783                       203                      208034                   46973 COUNT: 17   
ABYSS_PE_MIS_PE_mrsa_mis-1_bi_2x250bp_default__mrsa_mis-2_bi_2x250bp_default.0.460percent_52-scaffolds         145             203              208034           48683 COUNT: 16  2813862           2761127             0                 22241(0.79%)                  1580(0.06%)                  0(0.00%)                       0                                38129                            3              99.98         75         11                 13                1                4                0                   164                      2761946                       203                      208034                   46973 COUNT: 17   
