All statistics are based on contigs of size >= 200 bp, unless otherwise noted (e.g., "# contigs (>= 0 bp)" and "Total length (>= 0 bp)" include all contigs).

Assembly                       ABYSS_PE_MIS_PE_mrsa_mis-1_bi_2x250bp_default__mrsa_mis-2_bi_2x250bp_default.0.460percent_52-scaffolds_broken  ABYSS_PE_MIS_PE_mrsa_mis-1_bi_2x250bp_default__mrsa_mis-2_bi_2x250bp_default.0.460percent_52-scaffolds
#Contigs (>= 0 bp)             729                                                                                                            714                                                                                                   
#Contigs (>= 1000 bp)          98                                                                                                             97                                                                                                    
Total length (>= 0 bp)         2812284                                                                                                        2813009                                                                                               
Total length (>= 1000 bp)      2732486                                                                                                        2737983                                                                                               
#Contigs                       159                                                                                                            145                                                                                                   
Largest contig                 208034                                                                                                         208034                                                                                                
Total length                   2760255                                                                                                        2761127                                                                                               
Reference length               2813862                                                                                                        2813862                                                                                               
GC (%)                         32.64                                                                                                          32.64                                                                                                 
Reference GC (%)               32.81                                                                                                          32.81                                                                                                 
N50                            48683                                                                                                          48683                                                                                                 
NG50                           46973                                                                                                          48683                                                                                                 
N75                            28246                                                                                                          30267                                                                                                 
NG75                           26092                                                                                                          28962                                                                                                 
#misassemblies                 3                                                                                                              4                                                                                                     
#local misassemblies           2                                                                                                              8                                                                                                     
#unaligned contigs             0 + 2 part                                                                                                     1 + 1 part                                                                                            
Unaligned contigs length       419                                                                                                            1012                                                                                                  
Genome fraction (%)            97.841                                                                                                         97.875                                                                                                
Duplication ratio              1.009                                                                                                          1.010                                                                                                 
#N's per 100 kbp               0.25                                                                                                           26.51                                                                                                 
#mismatches per 100 kbp        3.74                                                                                                           3.78                                                                                                  
#indels per 100 kbp            0.44                                                                                                           0.98                                                                                                  
#genes                         2590 + 67 part                                                                                                 2590 + 67 part                                                                                        
#predicted genes (unique)      2673                                                                                                           2670                                                                                                  
#predicted genes (>= 0 bp)     2675                                                                                                           2672                                                                                                  
#predicted genes (>= 300 bp)   2278                                                                                                           2281                                                                                                  
#predicted genes (>= 1500 bp)  298                                                                                                            298                                                                                                   
#predicted genes (>= 3000 bp)  28                                                                                                             28                                                                                                    
Largest alignment              208034                                                                                                         208034                                                                                                
NA50                           48683                                                                                                          48683                                                                                                 
NGA50                          46973                                                                                                          48683                                                                                                 
NA75                           27709                                                                                                          28962                                                                                                 
NGA75                          25406                                                                                                          27709                                                                                                 
