Assembly	SOAP2_PGM_mtbh37_pgm_400bp_es_318v2_OT2_tsv3.6_morestringent_53.final.contig
GAGE_Contigs #	3144
GAGE_Min contig	200
GAGE_Max contig	1319
GAGE_N50	0 COUNT: 0
GAGE_Genome size	4411532
GAGE_Assembly size	837433
GAGE_Chaff bases	0
GAGE_Missing reference bases	3640064(82.51%)
GAGE_Missing assembly bases	50622(6.04%)
GAGE_Missing assembly contigs	196(6.23%)
GAGE_Duplicated reference bases	8973
GAGE_Compressed reference bases	2616
GAGE_Bad trim	5991
GAGE_Avg idy	99.40
GAGE_SNPs	178
GAGE_Indels < 5bp	4283
GAGE_Indels >= 5	2
GAGE_Inversions	0
GAGE_Relocation	0
GAGE_Translocation	0
GAGE_Corrected contig #	2730
GAGE_Corrected assembly size	745073
GAGE_Min correct contig	200
GAGE_Max correct contig	1319
GAGE_Corrected N50	0 COUNT: 0
