Assembly	NEWBLER_MIS_PE_sakai_mis-1_bi_2x250bp_SI_default__sakai_mis-2_bi_2x250bp_SI_default.100coverage.contigs
#Contigs	323
#Contigs (>= 0 bp)	402
#Contigs (>= 1000 bp)	151
Largest contig	271745
Total length	5342755
Total length (>= 0 bp)	5354195
Total length (>= 1000 bp)	5267528
Reference length	5594470
N50	116968
NG50	102649
N75	63940
NG75	44514
L50	15
LG50	16
L75	31
LG75	35
#local misassemblies	3
#misassemblies	3
#misassembled contigs	3
Misassembled contigs length	317853
Misassemblies inter-contig overlap	551
#unaligned contigs	6 + 0 part
Unaligned contigs length	7345
#ambiguously mapped contigs	107
Extra bases in ambiguously mapped contigs	-82812
#N's	0
#N's per 100 kbp	0.00
Genome fraction (%)	93.883
Duplication ratio	1.000
#genes	4953 + 165 part
#predicted genes (unique)	5287
#predicted genes (>= 0 bp)	5288
#predicted genes (>= 300 bp)	4444
#predicted genes (>= 1500 bp)	665
#predicted genes (>= 3000 bp)	67
#mismatches	69
#indels	17
Indels length	17
#mismatches per 100 kbp	1.31
#indels per 100 kbp	0.32
GC (%)	50.28
Reference GC (%)	50.48
Average %IDY	98.917
Largest alignment	260902
NA50	116968
NGA50	102649
NA75	63940
NGA75	44514
LA50	16
LGA50	17
LA75	32
LGA75	36
#Mis_misassemblies	3
#Mis_relocations	3
#Mis_translocations	0
#Mis_inversions	0
#Mis_misassembled contigs	3
Mis_Misassembled contigs length	317853
#Mis_local misassemblies	3
#Mis_short indels (<= 5 bp)	17
#Mis_long indels (> 5 bp)	0
#Una_fully unaligned contigs	6
Una_Fully unaligned length	7345
#Una_partially unaligned contigs	0
#Una_with misassembly	0
#Una_both parts are significant	0
Una_Partially unaligned length	0
GAGE_Contigs #	323
GAGE_Min contig	200
GAGE_Max contig	271745
GAGE_N50	102649 COUNT: 16
GAGE_Genome size	5594470
GAGE_Assembly size	5342755
GAGE_Chaff bases	0
GAGE_Missing reference bases	48092(0.86%)
GAGE_Missing assembly bases	7350(0.14%)
GAGE_Missing assembly contigs	6(1.86%)
GAGE_Duplicated reference bases	2563
GAGE_Compressed reference bases	229254
GAGE_Bad trim	5
GAGE_Avg idy	99.99
GAGE_SNPs	102
GAGE_Indels < 5bp	19
GAGE_Indels >= 5	3
GAGE_Inversions	0
GAGE_Relocation	3
GAGE_Translocation	0
GAGE_Corrected contig #	316
GAGE_Corrected assembly size	5333395
GAGE_Min correct contig	200
GAGE_Max correct contig	260902
GAGE_Corrected N50	102649 COUNT: 17
