1: PREPARING DATA
2,3: RUNNING mummer AND CREATING CLUSTERS
# reading input file "/vol/codine-tmp/juene/tmp.vloFonb2lP/quast/gage/tmp/VELVET_MIS_PE_sakai_mis-1_bi_2x150bp_default__sakai_mis-2_bi_2x150bp_default.0.826percent_49.final.contigs_broken.ntref" of length 5594473
# construct suffix tree for sequence of length 5594473
# (maximum reference length is 536870908)
# (maximum query length is 4294967295)
# process 55944 characters per dot
#....................................................................................................
# CONSTRUCTIONTIME /vol/ngscomparison/software/analysis/quast-2.1/libs/MUMmer3.23-linux/mummer /vol/codine-tmp/juene/tmp.vloFonb2lP/quast/gage/tmp/VELVET_MIS_PE_sakai_mis-1_bi_2x150bp_default__sakai_mis-2_bi_2x150bp_default.0.826percent_49.final.contigs_broken.ntref 3.37
# reading input file "/vol/codine-tmp/juene/tmp.vloFonb2lP/quast/corrected_input/VELVET_MIS_PE_sakai_mis-1_bi_2x150bp_default__sakai_mis-2_bi_2x150bp_default.0.826percent_49.final.contigs_broken" of length 5343413
# matching query-file "/vol/codine-tmp/juene/tmp.vloFonb2lP/quast/corrected_input/VELVET_MIS_PE_sakai_mis-1_bi_2x150bp_default__sakai_mis-2_bi_2x150bp_default.0.826percent_49.final.contigs_broken"
# against subject-file "/vol/codine-tmp/juene/tmp.vloFonb2lP/quast/gage/tmp/VELVET_MIS_PE_sakai_mis-1_bi_2x150bp_default__sakai_mis-2_bi_2x150bp_default.0.826percent_49.final.contigs_broken.ntref"
# COMPLETETIME /vol/ngscomparison/software/analysis/quast-2.1/libs/MUMmer3.23-linux/mummer /vol/codine-tmp/juene/tmp.vloFonb2lP/quast/gage/tmp/VELVET_MIS_PE_sakai_mis-1_bi_2x150bp_default__sakai_mis-2_bi_2x150bp_default.0.826percent_49.final.contigs_broken.ntref 9.36
# SPACE /vol/ngscomparison/software/analysis/quast-2.1/libs/MUMmer3.23-linux/mummer /vol/codine-tmp/juene/tmp.vloFonb2lP/quast/gage/tmp/VELVET_MIS_PE_sakai_mis-1_bi_2x150bp_default__sakai_mis-2_bi_2x150bp_default.0.826percent_49.final.contigs_broken.ntref 10.62
4: FINISHING DATA
Filtering alignments
Extracting alignment coordinates
Analyzing SNPs
Extracting alignment breakpoints
Generating report file
Found genome size at position 4 with value 5594470 aka 5594470
Calculating point at 0 and the sum is 1063015 and i is432 and lens is 442 and length is 91332
Calculating point at 1 and the sum is 2016055 and i is418 and lens is 442 and length is 55984
Calculating point at 2 and the sum is 3035398 and i is396 and lens is 442 and length is 41374
Calculating point at 3 and the sum is 4027929 and i is367 and lens is 442 and length is 28179
Calculating point at 4 and the sum is 5001416 and i is303 and lens is 442 and length is 6148
