Assembly	GAGE_Contigs #	GAGE_Min contig	GAGE_Max contig	GAGE_N50	GAGE_Genome size	GAGE_Assembly size	GAGE_Chaff bases	GAGE_Missing reference bases	GAGE_Missing assembly bases	GAGE_Missing assembly contigs	GAGE_Duplicated reference bases	GAGE_Compressed reference bases	GAGE_Bad trim	GAGE_Avg idy	GAGE_SNPs	GAGE_Indels < 5bp	GAGE_Indels >= 5	GAGE_Inversions	GAGE_Relocation	GAGE_Translocation	GAGE_Corrected contig #	GAGE_Corrected assembly size	GAGE_Min correct contig	GAGE_Max correct contig	GAGE_Corrected N50
SOAP2_MIS_PE_mrsa_mis-1_bi_2x250bp_default.0.460percent_93.final.scaf_broken	273	200	71692	24435 COUNT: 39	2813862	2782410	0	23297(0.83%)	8037(0.29%)	8(2.93%)	1316	29383	10	100.00	51	18	22	0	1	0	283	2772890	200	71692	24137 COUNT: 40
SOAP2_MIS_PE_mrsa_mis-1_bi_2x250bp_default.0.460percent_93.final.scaf	233	201	78142	28268 COUNT: 33	2813862	2785106	0	22795(0.81%)	9374(0.34%)	8(3.43%)	1607	28712	90	99.99	51	33	54	0	3	0	281	2773127	200	71692	24137 COUNT: 40
