Assembly	ABYSS_PE_MIS_PE_mrsa_mis-1_bi_2x250bp_default__mrsa_mis-2_bi_2x250bp_default.0.150percent_46.final_broken	ABYSS_PE_MIS_PE_mrsa_mis-1_bi_2x250bp_default__mrsa_mis-2_bi_2x250bp_default.0.150percent_46.final
#Contigs	290	290
#Contigs (>= 0 bp)	945	945
#Contigs (>= 1000 bp)	211	211
Largest contig	148059	148059
Total length	2750974	2750974
Total length (>= 0 bp)	2805958	2805958
Total length (>= 1000 bp)	2716001	2716001
Reference length	2813862	2813862
N50	23437	23437
NG50	22484	22484
N75	11382	11382
NG75	10414	10414
L50	36	36
LG50	37	37
L75	76	76
LG75	81	81
#local misassemblies	0	0
#misassemblies	2	2
#misassembled contigs	2	2
Misassembled contigs length	10550	10550
Misassemblies inter-contig overlap	0	0
#unaligned contigs	1 + 0 part	1 + 0 part
Unaligned contigs length	5423	5423
#ambiguously mapped contigs	9	9
Extra bases in ambiguously mapped contigs	-9102	-9102
#N's	0	0
#N's per 100 kbp	0.00	0.00
Genome fraction (%)	97.159	97.159
Duplication ratio	1.001	1.001
#genes	2495 + 138 part	2495 + 138 part
#predicted genes (unique)	2721	2721
#predicted genes (>= 0 bp)	2721	2721
#predicted genes (>= 300 bp)	2292	2292
#predicted genes (>= 1500 bp)	290	290
#predicted genes (>= 3000 bp)	26	26
#mismatches	50	50
#indels	10	10
Indels length	10	10
#mismatches per 100 kbp	1.83	1.83
#indels per 100 kbp	0.37	0.37
GC (%)	32.66	32.66
Reference GC (%)	32.81	32.81
Average %IDY	99.922	99.922
Largest alignment	148059	148059
NA50	23437	23437
NGA50	22484	22484
NA75	11382	11382
NGA75	10414	10414
LA50	36	36
LGA50	37	37
LA75	76	76
LGA75	81	81
#Mis_misassemblies	2	2
#Mis_relocations	2	2
#Mis_translocations	0	0
#Mis_inversions	0	0
#Mis_misassembled contigs	2	2
Mis_Misassembled contigs length	10550	10550
#Mis_local misassemblies	0	0
#Mis_short indels (<= 5 bp)	10	10
#Mis_long indels (> 5 bp)	0	0
#Una_fully unaligned contigs	1	1
Una_Fully unaligned length	5423	5423
#Una_partially unaligned contigs	0	0
#Una_with misassembly	0	0
#Una_both parts are significant	0	0
Una_Partially unaligned length	0	0
GAGE_Contigs #	290	290
GAGE_Min contig	207	207
GAGE_Max contig	148059	148059
GAGE_N50	22484 COUNT: 37	22484 COUNT: 37
GAGE_Genome size	2813862	2813862
GAGE_Assembly size	2750974	2750974
GAGE_Chaff bases	0	0
GAGE_Missing reference bases	38075(1.35%)	38075(1.35%)
GAGE_Missing assembly bases	5423(0.20%)	5423(0.20%)
GAGE_Missing assembly contigs	1(0.34%)	1(0.34%)
GAGE_Duplicated reference bases	0	0
GAGE_Compressed reference bases	34922	34922
GAGE_Bad trim	0	0
GAGE_Avg idy	100.00	100.00
GAGE_SNPs	59	59
GAGE_Indels < 5bp	10	10
GAGE_Indels >= 5	0	0
GAGE_Inversions	0	0
GAGE_Relocation	2	2
GAGE_Translocation	0	0
GAGE_Corrected contig #	291	291
GAGE_Corrected assembly size	2745553	2745553
GAGE_Min correct contig	207	207
GAGE_Max correct contig	148059	148059
GAGE_Corrected N50	22484 COUNT: 37	22484 COUNT: 37
