Assembly	CLC_PGM_sakai_pgm_mu_200bp_IO_TS3.0Disabled_stringent.0.99percent.result
GAGE_Contigs #	863
GAGE_Min contig	200
GAGE_Max contig	204611
GAGE_N50	31693 COUNT: 49
GAGE_Genome size	5594470
GAGE_Assembly size	5386310
GAGE_Chaff bases	0
GAGE_Missing reference bases	56808(1.02%)
GAGE_Missing assembly bases	1490(0.03%)
GAGE_Missing assembly contigs	3(0.35%)
GAGE_Duplicated reference bases	60331
GAGE_Compressed reference bases	246721
GAGE_Bad trim	726
GAGE_Avg idy	99.98
GAGE_SNPs	117
GAGE_Indels < 5bp	1077
GAGE_Indels >= 5	4
GAGE_Inversions	1
GAGE_Relocation	4
GAGE_Translocation	0
GAGE_Corrected contig #	638
GAGE_Corrected assembly size	5326986
GAGE_Min correct contig	201
GAGE_Max correct contig	204645
GAGE_Corrected N50	30775 COUNT: 51
