Assembly	SOAP2_PGM_mtbh37_pgm_400bp_es_318v2_OT2_tsv3.6_morestringent_81.final.contig
#Mis_misassemblies	29
#Mis_relocations	29
#Mis_translocations	0
#Mis_inversions	0
#Mis_misassembled contigs	29
Mis_Misassembled contigs length	8003
#Mis_local misassemblies	6
#mismatches	630
#indels	14596
#Mis_short indels (<= 5 bp)	14596
#Mis_long indels (> 5 bp)	0
Indels length	15043
