Assembly	VELVET_MIS_PE_mtbh37-1_mis_2x250bp_nextera_default__mtbh37-2_mis_2x250bp_nextera_default_21.final.contigs_broken	VELVET_MIS_PE_mtbh37-1_mis_2x250bp_nextera_default__mtbh37-2_mis_2x250bp_nextera_default_21.final.contigs
#Contigs	3537	3537
#Contigs (>= 0 bp)	194089	194089
#Contigs (>= 1000 bp)	2	2
Largest contig	1033	1033
Total length	1030638	1030638
Total length (>= 0 bp)	13589036	13589036
Total length (>= 1000 bp)	2052	2052
Reference length	4411532	4411532
N50	286	286
NG50	None	None
N75	234	234
NG75	None	None
L50	1337	1337
LG50	None	None
L75	2342	2342
LG75	None	None
#local misassemblies	0	0
#misassemblies	0	0
#misassembled contigs	0	0
Misassembled contigs length	0	0
Misassemblies inter-contig overlap	0	0
#unaligned contigs	342 + 0 part	342 + 0 part
Unaligned contigs length	80239	80239
#ambiguously mapped contigs	2	2
Extra bases in ambiguously mapped contigs	-466	-466
#N's	0	0
#N's per 100 kbp	0.00	0.00
Genome fraction (%)	21.492	21.492
Duplication ratio	1.002	1.002
#genes	35 + 2193 part	35 + 2193 part
#predicted genes (unique)	3505	3505
#predicted genes (>= 0 bp)	3505	3505
#predicted genes (>= 300 bp)	800	800
#predicted genes (>= 1500 bp)	0	0
#predicted genes (>= 3000 bp)	0	0
#mismatches	34	34
#indels	7	7
Indels length	7	7
#mismatches per 100 kbp	3.59	3.59
#indels per 100 kbp	0.74	0.74
GC (%)	63.88	63.88
Reference GC (%)	65.61	65.61
Average %IDY	99.996	99.996
Largest alignment	1033	1033
NA50	283	283
NGA50	None	None
NA75	228	228
NGA75	None	None
LA50	1344	1344
LGA50	None	None
LA75	2363	2363
LGA75	None	None
#Mis_misassemblies	0	0
#Mis_relocations	0	0
#Mis_translocations	0	0
#Mis_inversions	0	0
#Mis_misassembled contigs	0	0
Mis_Misassembled contigs length	0	0
#Mis_local misassemblies	0	0
#Mis_short indels (<= 5 bp)	7	7
#Mis_long indels (> 5 bp)	0	0
#Una_fully unaligned contigs	342	342
Una_Fully unaligned length	80239	80239
#Una_partially unaligned contigs	0	0
#Una_with misassembly	0	0
#Una_both parts are significant	0	0
Una_Partially unaligned length	0	0
GAGE_Contigs #	3537	3537
GAGE_Min contig	200	200
GAGE_Max contig	1033	1033
GAGE_N50	0 COUNT: 0	0 COUNT: 0
GAGE_Genome size	4411532	4411532
GAGE_Assembly size	1030638	1030638
GAGE_Chaff bases	0	0
GAGE_Missing reference bases	3462455(78.49%)	3462455(78.49%)
GAGE_Missing assembly bases	80241(7.79%)	80241(7.79%)
GAGE_Missing assembly contigs	342(9.67%)	342(9.67%)
GAGE_Duplicated reference bases	0	0
GAGE_Compressed reference bases	466	466
GAGE_Bad trim	2	2
GAGE_Avg idy	100.00	100.00
GAGE_SNPs	34	34
GAGE_Indels < 5bp	7	7
GAGE_Indels >= 5	0	0
GAGE_Inversions	0	0
GAGE_Relocation	0	0
GAGE_Translocation	0	0
GAGE_Corrected contig #	3195	3195
GAGE_Corrected assembly size	950396	950396
GAGE_Min correct contig	200	200
GAGE_Max correct contig	1033	1033
GAGE_Corrected N50	0 COUNT: 0	0 COUNT: 0
