All statistics are based on contigs of size >= 200 bp, unless otherwise noted (e.g., "# contigs (>= 0 bp)" and "Total length (>= 0 bp)" include all contigs).

Assembly                                                                         #Contigs  #Contigs (>= 0 bp)  #Contigs (>= 1000 bp)  Largest contig  Total length  Total length (>= 0 bp)  Total length (>= 1000 bp)  Reference length  N50    NG50   N75    NG75   L50  LG50  L75  LG75  #local misassemblies  #misassemblies  #misassembled contigs  Misassembled contigs length  Misassemblies inter-contig overlap  #unaligned contigs  Unaligned contigs length  #ambiguously mapped contigs  Extra bases in ambiguously mapped contigs  #N's   #N's per 100 kbp  Genome fraction (%)  Duplication ratio  #genes           #predicted genes (unique)  #predicted genes (>= 0 bp)  #predicted genes (>= 300 bp)  #predicted genes (>= 1500 bp)  #predicted genes (>= 3000 bp)  #mismatches  #indels  Indels length  #mismatches per 100 kbp  #indels per 100 kbp  GC (%)  Reference GC (%)  Average %IDY  Largest alignment  NA50   NGA50  NA75   NGA75  LA50  LGA50  LA75  LGA75  #Mis_misassemblies  #Mis_relocations  #Mis_translocations  #Mis_inversions  #Mis_misassembled contigs  Mis_Misassembled contigs length  #Mis_local misassemblies  #Mis_short indels (<= 5 bp)  #Mis_long indels (> 5 bp)  #Una_fully unaligned contigs  Una_Fully unaligned length  #Una_partially unaligned contigs  #Una_with misassembly  #Una_both parts are significant  Una_Partially unaligned length  GAGE_Contigs #  GAGE_Min contig  GAGE_Max contig  GAGE_N50         GAGE_Genome size  GAGE_Assembly size  GAGE_Chaff bases  GAGE_Missing reference bases  GAGE_Missing assembly bases  GAGE_Missing assembly contigs  GAGE_Duplicated reference bases  GAGE_Compressed reference bases  GAGE_Bad trim  GAGE_Avg idy  GAGE_SNPs  GAGE_Indels < 5bp  GAGE_Indels >= 5  GAGE_Inversions  GAGE_Relocation  GAGE_Translocation  GAGE_Corrected contig #  GAGE_Corrected assembly size  GAGE_Min correct contig  GAGE_Max correct contig  GAGE_Corrected N50
SOAP2_MIS_PE_sakai_mis-1_bi_2x250bp_SI_default.0.64percent_97.final.scaf_broken  1272      4441                707                    51793           5322971       5848621                 5106170                    5594470           10176  9720   5654   4774   148  161   318  357   33                    6               6                      20905                        5                                   6 + 1 part          7476                      229                          -88654                                     301    5.65              93.319               1.001              4320 + 829 part  5986                       6000                        4641                          577                            48                             148          71       462            2.83                     1.36                 50.26   50.48             99.108        51793              10132  9681   5654   4731   148   162    319   359    6                   6                 0                    0                6                          20905                            33                        55                           16                         6                             7458                        1                                 0                      0                                18                              1272            200              51793            9720 COUNT: 161  5594470           5322971             0                 120397(2.15%)                 7276(0.14%)                  5(0.39%)                       13592                            234922                           158            100.00        138        43                 42                2                4                0                   1261                     5300573                       200                      51793                    9497 COUNT: 167   
SOAP2_MIS_PE_sakai_mis-1_bi_2x250bp_SI_default.0.64percent_97.final.scaf         587       3662                252                    141335          5374164       5886169                 5252335                    5594470           43598  43110  27375  25066  36   39    74   81    571                   25              19                     146562                       5                                   12 + 8 part         17111                     191                          -72427                                     37849  704.28            93.444               1.011              4396 + 751 part  5834                       5845                        4627                          588                            51                             246          2263     4445           4.71                     43.29                50.27   50.48             99.056        140338             43083  42096  26803  23320  37    40     76    83     25                  25                0                    0                19                         146562                           571                       2173                         90                         12                            12191                       8                                 0                      7                                4920                            587             200              141335           43110 COUNT: 39  5594470           5374164             0                 112219(2.01%)                 45983(0.86%)                 6(1.02%)                       17939                            235358                           5355           99.98         117        82                 677               4                15               0                   1234                     5299537                       200                      51793                    9571 COUNT: 166   
