All statistics are based on contigs of size >= 200 bp, unless otherwise noted (e.g., "# contigs (>= 0 bp)" and "Total length (>= 0 bp)" include all contigs).

Assembly                       VELVET_MIS_PE_mtbh37-1_mis_2x250bp_nextera_default__mtbh37-2_mis_2x250bp_nextera_default_95.final.contigs_broken  VELVET_MIS_PE_mtbh37-1_mis_2x250bp_nextera_default__mtbh37-2_mis_2x250bp_nextera_default_95.final.contigs
#Contigs (>= 0 bp)             298                                                                                                               159                                                                                                      
#Contigs (>= 1000 bp)          246                                                                                                               120                                                                                                      
Total length (>= 0 bp)         4293961                                                                                                           4310861                                                                                                  
Total length (>= 1000 bp)      4267094                                                                                                           4291899                                                                                                  
#Contigs                       295                                                                                                               156                                                                                                      
Largest contig                 103741                                                                                                            202132                                                                                                   
Total length                   4293387                                                                                                           4310287                                                                                                  
Reference length               4411532                                                                                                           4411532                                                                                                  
GC (%)                         65.47                                                                                                             65.47                                                                                                    
Reference GC (%)               65.61                                                                                                             65.61                                                                                                    
N50                            29916                                                                                                             84086                                                                                                    
NG50                           29465                                                                                                             84086                                                                                                    
N75                            16876                                                                                                             42273                                                                                                    
NG75                           16459                                                                                                             35559                                                                                                    
#misassemblies                 8                                                                                                                 15                                                                                                       
#local misassemblies           18                                                                                                                131                                                                                                      
#unaligned contigs             0 + 0 part                                                                                                        0 + 0 part                                                                                               
Unaligned contigs length       0                                                                                                                 0                                                                                                        
Genome fraction (%)            96.966                                                                                                            96.982                                                                                                   
Duplication ratio              1.006                                                                                                             1.009                                                                                                    
#N's per 100 kbp               0.00                                                                                                              392.09                                                                                                   
#mismatches per 100 kbp        5.35                                                                                                              5.42                                                                                                     
#indels per 100 kbp            1.10                                                                                                              8.98                                                                                                     
#genes                         3817 + 227 part                                                                                                   3837 + 208 part                                                                                          
#predicted genes (unique)      4132                                                                                                              4114                                                                                                     
#predicted genes (>= 0 bp)     4136                                                                                                              4118                                                                                                     
#predicted genes (>= 300 bp)   3590                                                                                                              3584                                                                                                     
#predicted genes (>= 1500 bp)  558                                                                                                               557                                                                                                      
#predicted genes (>= 3000 bp)  67                                                                                                                67                                                                                                       
Largest alignment              103066                                                                                                            201161                                                                                                   
NA50                           29710                                                                                                             78750                                                                                                    
NGA50                          29288                                                                                                             73598                                                                                                    
NA75                           16876                                                                                                             39537                                                                                                    
NGA75                          16459                                                                                                             32867                                                                                                    
