All statistics are based on contigs of size >= 200 bp, unless otherwise noted (e.g., "# contigs (>= 0 bp)" and "Total length (>= 0 bp)" include all contigs).

Assembly                         VELVET_MIS_PE_mrsa_mis-1_bi_2x250bp_default__mrsa_mis-2_bi_2x250bp_default.0.460percent_85.final.contigs_broken  VELVET_MIS_PE_mrsa_mis-1_bi_2x250bp_default__mrsa_mis-2_bi_2x250bp_default.0.460percent_85.final.contigs
#Mis_misassemblies               5                                                                                                                5                                                                                                       
#Mis_relocations                 5                                                                                                                5                                                                                                       
#Mis_translocations              0                                                                                                                0                                                                                                       
#Mis_inversions                  0                                                                                                                0                                                                                                       
#Mis_misassembled contigs        5                                                                                                                5                                                                                                       
Mis_Misassembled contigs length  220874                                                                                                           459812                                                                                                  
#Mis_local misassemblies         4                                                                                                                10                                                                                                      
#mismatches                      59                                                                                                               59                                                                                                      
#indels                          71                                                                                                               143                                                                                                     
#Mis_short indels (<= 5 bp)      71                                                                                                               139                                                                                                     
#Mis_long indels (> 5 bp)        0                                                                                                                4                                                                                                       
Indels length                    71                                                                                                               292                                                                                                     
