1: PREPARING DATA
2,3: RUNNING mummer AND CREATING CLUSTERS
# reading input file "/vol/codine-tmp/juene/tmp.2r4Pctp1lz/quast/contigs_reports/nucmer_output/SOAP2_MIS_PE_sakai_mis-1_bi_2x150bp_default.0.826percent_93.final.scaf_broken.ntref" of length 5594473
# construct suffix tree for sequence of length 5594473
# (maximum reference length is 536870908)
# (maximum query length is 4294967295)
# process 55944 characters per dot
#....................................................................................................
# CONSTRUCTIONTIME /vol/ngscomparison/software/analysis/quast-2.1/libs/MUMmer3.23-linux/mummer /vol/codine-tmp/juene/tmp.2r4Pctp1lz/quast/contigs_reports/nucmer_output/SOAP2_MIS_PE_sakai_mis-1_bi_2x150bp_default.0.826percent_93.final.scaf_broken.ntref 3.06
# reading input file "/vol/codine-tmp/juene/tmp.2r4Pctp1lz/quast/corrected_input/SOAP2_MIS_PE_sakai_mis-1_bi_2x150bp_default.0.826percent_93.final.scaf_broken" of length 5384295
# matching query-file "/vol/codine-tmp/juene/tmp.2r4Pctp1lz/quast/corrected_input/SOAP2_MIS_PE_sakai_mis-1_bi_2x150bp_default.0.826percent_93.final.scaf_broken"
# against subject-file "/vol/codine-tmp/juene/tmp.2r4Pctp1lz/quast/contigs_reports/nucmer_output/SOAP2_MIS_PE_sakai_mis-1_bi_2x150bp_default.0.826percent_93.final.scaf_broken.ntref"
# COMPLETETIME /vol/ngscomparison/software/analysis/quast-2.1/libs/MUMmer3.23-linux/mummer /vol/codine-tmp/juene/tmp.2r4Pctp1lz/quast/contigs_reports/nucmer_output/SOAP2_MIS_PE_sakai_mis-1_bi_2x150bp_default.0.826percent_93.final.scaf_broken.ntref 11.80
# SPACE /vol/ngscomparison/software/analysis/quast-2.1/libs/MUMmer3.23-linux/mummer /vol/codine-tmp/juene/tmp.2r4Pctp1lz/quast/contigs_reports/nucmer_output/SOAP2_MIS_PE_sakai_mis-1_bi_2x150bp_default.0.826percent_93.final.scaf_broken.ntref 10.65
4: FINISHING DATA
