Assembly	GAGE_Contigs #	GAGE_Min contig	GAGE_Max contig	GAGE_N50	GAGE_Genome size	GAGE_Assembly size	GAGE_Chaff bases	GAGE_Missing reference bases	GAGE_Missing assembly bases	GAGE_Missing assembly contigs	GAGE_Duplicated reference bases	GAGE_Compressed reference bases	GAGE_Bad trim	GAGE_Avg idy	GAGE_SNPs	GAGE_Indels < 5bp	GAGE_Indels >= 5	GAGE_Inversions	GAGE_Relocation	GAGE_Translocation	GAGE_Corrected contig #	GAGE_Corrected assembly size	GAGE_Min correct contig	GAGE_Max correct contig	GAGE_Corrected N50
VELVET_MIS_PE_sakai_mis-both_bi_2x250bp_SI_default.0.64percent_155.final.contigs_broken	499	211	150463	36681 COUNT: 41	5594470	5457751	0	9954(0.18%)	5728(0.10%)	1(0.20%)	7013	241201	188	100.00	109	15	2	0	3	0	485	5445248	309	150463	36639 COUNT: 43
VELVET_MIS_PE_sakai_mis-both_bi_2x250bp_SI_default.0.64percent_155.final.contigs	391	309	245387	72545 COUNT: 25	5594470	5470435	0	9947(0.18%)	18305(0.33%)	1(0.26%)	6449	240277	117	100.00	114	18	87	4	10	0	486	5445916	309	150463	36639 COUNT: 43
