Assembly	CLC_MIS_PE_sakai_mis-2_bi_2x150bp_default__sakai_mis-1_bi_2x150bp_default.0.400percent.result_broken	CLC_MIS_PE_sakai_mis-2_bi_2x150bp_default__sakai_mis-1_bi_2x150bp_default.0.400percent.result
#Mis_misassemblies	4	7
#Mis_relocations	4	7
#Mis_translocations	0	0
#Mis_inversions	0	0
#Mis_misassembled contigs	4	7
Mis_Misassembled contigs length	425365	432797
#Mis_local misassemblies	10	38
#mismatches	99	106
#indels	76	93
#Mis_short indels (<= 5 bp)	70	86
#Mis_long indels (> 5 bp)	6	7
Indels length	198	254
