Assembly	SOAP2_PGM_sakai_pgm_mu_200bp_IO_TS3.0Disabled_stringent.0.34percent_55.final.contig
GAGE_Contigs #	9495
GAGE_Min contig	200
GAGE_Max contig	1406
GAGE_N50	216 COUNT: 8038
GAGE_Genome size	5594470
GAGE_Assembly size	3098991
GAGE_Chaff bases	0
GAGE_Missing reference bases	2549933(45.58%)
GAGE_Missing assembly bases	22457(0.72%)
GAGE_Missing assembly contigs	78(0.82%)
GAGE_Duplicated reference bases	27441
GAGE_Compressed reference bases	29464
GAGE_Bad trim	5711
GAGE_Avg idy	99.92
GAGE_SNPs	167
GAGE_Indels < 5bp	1794
GAGE_Indels >= 5	1
GAGE_Inversions	3
GAGE_Relocation	1
GAGE_Translocation	1
GAGE_Corrected contig #	9172
GAGE_Corrected assembly size	3030201
GAGE_Min correct contig	200
GAGE_Max correct contig	1406
GAGE_Corrected N50	214 COUNT: 8044
