calling: java -cp /vol/ngscomparison/software/analysis/quast-2.1/libs/gage:. SizeFasta /vol/codine-tmp/juene/tmp.C7xk41vVyN/quast/corrected_input/Ecoli_Sakai_editedNew_plasmids.fasta |awk '{SUM+=; print SUM}'|tail -n 1
Contig Stats
Total units: 4446
Reference: 5594470
BasesInFasta: 1227743
Min: 200
Max: 1261
N10: 276 COUNT: 1556
N25: 0 COUNT: 0
N50: 0 COUNT: 0
N75: 0 COUNT: 0
E-size:66.02

Genome Size: 5594470
Assembly Size: 1227743
Chaff bases: 0
Missing Reference Bases: 4364611(78.02%)
Missing Assembly Bases: 76(0.01%)
Missing Assembly Contigs: 0(0.00%)
Duplicated Reference Bases: 0
Compressed Reference Bases: 5650
Bad Trim: 76
Avg Idy: 99.98
SNPs: 31
Indels < 5bp: 272
Indels >= 5: 0
Inversions: 0
Relocation: 0
Translocation: 0

Corrected Contig Stats
calling: java -cp /vol/ngscomparison/software/analysis/quast-2.1/libs/gage:.:. GetFastaStats -o -min 199 -genomeSize 5594470 /vol/codine-tmp/juene/tmp.C7xk41vVyN/quast/gage/tmp/VELVET_PGM_sakai_pgm_mu_318_400bp_IO_TS3.4_ms_0.395percent_41.final.contigs.matches.lens 2> /dev/null
Total units: 4445
Reference: 5594470
BasesInFasta: 1227539
Min: 200
Max: 1261
N10: 276 COUNT: 1556
N25: 0 COUNT: 0
N50: 0 COUNT: 0
N75: 0 COUNT: 0
E-size:66.01

Done
