1: PREPARING DATA
2,3: RUNNING mummer AND CREATING CLUSTERS
# reading input file "/vol/codine-tmp/juene/tmp.ORSMbq2rDA/quast/gage/tmp/NEWBLER_MIS_PE_sakai_mis-1_bi_2x250bp_SI_default__sakai_mis-2_bi_2x250bp_SI_default.0.075percent.contigs_broken.ntref" of length 5594473
# construct suffix tree for sequence of length 5594473
# (maximum reference length is 536870908)
# (maximum query length is 4294967295)
# process 55944 characters per dot
#....................................................................................................
# CONSTRUCTIONTIME /vol/ngscomparison/software/analysis/quast-2.1/libs/MUMmer3.23-linux/mummer /vol/codine-tmp/juene/tmp.ORSMbq2rDA/quast/gage/tmp/NEWBLER_MIS_PE_sakai_mis-1_bi_2x250bp_SI_default__sakai_mis-2_bi_2x250bp_SI_default.0.075percent.contigs_broken.ntref 3.40
# reading input file "/vol/codine-tmp/juene/tmp.ORSMbq2rDA/quast/corrected_input/NEWBLER_MIS_PE_sakai_mis-1_bi_2x250bp_SI_default__sakai_mis-2_bi_2x250bp_SI_default.0.075percent.contigs_broken" of length 4808572
# matching query-file "/vol/codine-tmp/juene/tmp.ORSMbq2rDA/quast/corrected_input/NEWBLER_MIS_PE_sakai_mis-1_bi_2x250bp_SI_default__sakai_mis-2_bi_2x250bp_SI_default.0.075percent.contigs_broken"
# against subject-file "/vol/codine-tmp/juene/tmp.ORSMbq2rDA/quast/gage/tmp/NEWBLER_MIS_PE_sakai_mis-1_bi_2x250bp_SI_default__sakai_mis-2_bi_2x250bp_SI_default.0.075percent.contigs_broken.ntref"
# COMPLETETIME /vol/ngscomparison/software/analysis/quast-2.1/libs/MUMmer3.23-linux/mummer /vol/codine-tmp/juene/tmp.ORSMbq2rDA/quast/gage/tmp/NEWBLER_MIS_PE_sakai_mis-1_bi_2x250bp_SI_default__sakai_mis-2_bi_2x250bp_SI_default.0.075percent.contigs_broken.ntref 8.48
# SPACE /vol/ngscomparison/software/analysis/quast-2.1/libs/MUMmer3.23-linux/mummer /vol/codine-tmp/juene/tmp.ORSMbq2rDA/quast/gage/tmp/NEWBLER_MIS_PE_sakai_mis-1_bi_2x250bp_SI_default__sakai_mis-2_bi_2x250bp_SI_default.0.075percent.contigs_broken.ntref 10.10
4: FINISHING DATA
Filtering alignments
Extracting alignment coordinates
Analyzing SNPs
Extracting alignment breakpoints
Generating report file
Found genome size at position 4 with value 5594470 aka 5594470
Calculating point at 0 and the sum is 1001603 and i is772 and lens is 826 and length is 14443
Calculating point at 1 and the sum is 2006898 and i is687 and lens is 826 and length is 9843
Calculating point at 2 and the sum is 3005533 and i is559 and lens is 826 and length is 6424
Calculating point at 3 and the sum is 4002699 and i is358 and lens is 826 and length is 3835
