Assembly	#Contigs	#Contigs (>= 0 bp)	#Contigs (>= 1000 bp)	Largest contig	Total length	Total length (>= 0 bp)	Total length (>= 1000 bp)	Reference length	N50	NG50	N75	NG75	L50	LG50	L75	LG75	#local misassemblies	#misassemblies	#misassembled contigs	Misassembled contigs length	Misassemblies inter-contig overlap	#unaligned contigs	Unaligned contigs length	#ambiguously mapped contigs	Extra bases in ambiguously mapped contigs	#N's	#N's per 100 kbp	Genome fraction (%)	Duplication ratio	#genes	#predicted genes (unique)	#predicted genes (>= 0 bp)	#predicted genes (>= 300 bp)	#predicted genes (>= 1500 bp)	#predicted genes (>= 3000 bp)	#mismatches	#indels	Indels length	#mismatches per 100 kbp	#indels per 100 kbp	GC (%)	Reference GC (%)	Average %IDY	Largest alignment	NA50	NGA50	NA75	NGA75	LA50	LGA50	LA75	LGA75	#Mis_misassemblies	#Mis_relocations	#Mis_translocations	#Mis_inversions	#Mis_misassembled contigs	Mis_Misassembled contigs length	#Mis_local misassemblies	#Mis_short indels (<= 5 bp)	#Mis_long indels (> 5 bp)	#Una_fully unaligned contigs	Una_Fully unaligned length	#Una_partially unaligned contigs	#Una_with misassembly	#Una_both parts are significant	Una_Partially unaligned length	GAGE_Contigs #	GAGE_Min contig	GAGE_Max contig	GAGE_N50	GAGE_Genome size	GAGE_Assembly size	GAGE_Chaff bases	GAGE_Missing reference bases	GAGE_Missing assembly bases	GAGE_Missing assembly contigs	GAGE_Duplicated reference bases	GAGE_Compressed reference bases	GAGE_Bad trim	GAGE_Avg idy	GAGE_SNPs	GAGE_Indels < 5bp	GAGE_Indels >= 5	GAGE_Inversions	GAGE_Relocation	GAGE_Translocation	GAGE_Corrected contig #	GAGE_Corrected assembly size	GAGE_Min correct contig	GAGE_Max correct contig	GAGE_Corrected N50
VELVET_MIS_PE_sakai_mis-1_bi_2x150bp_default__sakai_mis-2_bi_2x150bp_default.0.826percent_127.final.contigs_broken	3529	3531	1815	11231	5294820	5295135	4326848	5594470	2257	2125	1254	1082	717	785	1497	1690	0	6	6	21706	3471	2 + 1 part	5389	213	-107379	0	0.00	92.536	1.002	2918 + 2260 part	7532	7548	5339	357	20	265	25	25	5.12	0.48	50.47	50.48	99.422	11231	2230	2108	1230	1062	723	792	1516	1713	6	6	0	0	6	21706	0	25	0	2	5375	1	0	0	14	3529	206	11231	2125 COUNT: 785	5594470	5294820	0	149921(2.68%)	5559(0.10%)	2(0.06%)	16452	269905	184	99.99	195	22	0	3	4	0	3494	5278652	247	11231	2120 COUNT: 788
VELVET_MIS_PE_sakai_mis-1_bi_2x150bp_default__sakai_mis-2_bi_2x150bp_default.0.826percent_127.final.contigs	748	748	467	77768	5553115	5553115	5429419	5594470	21070	21028	10423	10253	81	82	173	176	1502	35	29	403846	3029	6 + 9 part	33450	200	-100054	257980	4645.68	89.650	1.081	3493 + 1557 part	7130	7145	5418	372	21	274	29036	61132	5.46	578.93	50.47	50.48	98.902	72062	18766	18754	7994	7567	92	93	206	210	35	33	2	0	29	403846	1502	28500	536	6	14771	9	0	9	18679	748	253	77768	21028 COUNT: 82	5594470	5553115	0	149711(2.68%)	263013(4.74%)	1(0.13%)	16676	268269	1451	99.98	195	57	2718	17	18	0	3483	5279265	247	11231	2124 COUNT: 784
