1: PREPARING DATA
2,3: RUNNING mummer AND CREATING CLUSTERS
# reading input file "/vol/codine-tmp/juene/tmp.5AZ6RZCAB6/quast/gage/tmp/CLC_PGM_sakai_pgm_mu_318_400bp_IO_TS3.4_ms.0.7percent.result.ntref" of length 5594473
# construct suffix tree for sequence of length 5594473
# (maximum reference length is 536870908)
# (maximum query length is 4294967295)
# process 55944 characters per dot
#....................................................................................................
# CONSTRUCTIONTIME /vol/ngscomparison/software/analysis/quast-2.1/libs/MUMmer3.23-linux/mummer /vol/codine-tmp/juene/tmp.5AZ6RZCAB6/quast/gage/tmp/CLC_PGM_sakai_pgm_mu_318_400bp_IO_TS3.4_ms.0.7percent.result.ntref 4.10
# reading input file "/vol/codine-tmp/juene/tmp.5AZ6RZCAB6/quast/corrected_input/CLC_PGM_sakai_pgm_mu_318_400bp_IO_TS3.4_ms.0.7percent.result" of length 5490687
# matching query-file "/vol/codine-tmp/juene/tmp.5AZ6RZCAB6/quast/corrected_input/CLC_PGM_sakai_pgm_mu_318_400bp_IO_TS3.4_ms.0.7percent.result"
# against subject-file "/vol/codine-tmp/juene/tmp.5AZ6RZCAB6/quast/gage/tmp/CLC_PGM_sakai_pgm_mu_318_400bp_IO_TS3.4_ms.0.7percent.result.ntref"
# COMPLETETIME /vol/ngscomparison/software/analysis/quast-2.1/libs/MUMmer3.23-linux/mummer /vol/codine-tmp/juene/tmp.5AZ6RZCAB6/quast/gage/tmp/CLC_PGM_sakai_pgm_mu_318_400bp_IO_TS3.4_ms.0.7percent.result.ntref 11.83
# SPACE /vol/ngscomparison/software/analysis/quast-2.1/libs/MUMmer3.23-linux/mummer /vol/codine-tmp/juene/tmp.5AZ6RZCAB6/quast/gage/tmp/CLC_PGM_sakai_pgm_mu_318_400bp_IO_TS3.4_ms.0.7percent.result.ntref 10.76
4: FINISHING DATA
Filtering alignments
Extracting alignment coordinates
Analyzing SNPs
Extracting alignment breakpoints
Generating report file
Found genome size at position 4 with value 5594470 aka 5594470
Calculating point at 0 and the sum is 1062066 and i is568 and lens is 579 and length is 73585
Calculating point at 1 and the sum is 2036355 and i is552 and lens is 579 and length is 50795
Calculating point at 2 and the sum is 3018892 and i is530 and lens is 579 and length is 36208
Calculating point at 3 and the sum is 4010355 and i is495 and lens is 579 and length is 21714
Calculating point at 4 and the sum is 5000233 and i is410 and lens is 579 and length is 5282
