calling: java -cp /vol/ngscomparison/software/analysis/quast-2.1/libs/gage:. SizeFasta /vol/codine-tmp/juene/tmp.B51ZfoDxK2/quast/corrected_input/Ecoli_Sakai_editedNew_plasmids.fasta |awk '{SUM+=; print SUM}'|tail -n 1
Contig Stats
Total units: 331
Reference: 5594470
BasesInFasta: 5652104
Min: 200
Max: 244764
N10: 172557 COUNT: 3
N25: 147150 COUNT: 9
N50: 108918 COUNT: 19
N75: 47689 COUNT: 39
E-size:102138.21

Genome Size: 5594470
Assembly Size: 5652104
Chaff bases: 0
Missing Reference Bases: 6804(0.12%)
Missing Assembly Bases: 2095(0.04%)
Missing Assembly Contigs: 0(0.00%)
Duplicated Reference Bases: 130647
Compressed Reference Bases: 192875
Bad Trim: 151
Avg Idy: 99.98
SNPs: 420
Indels < 5bp: 30
Indels >= 5: 26
Inversions: 8
Relocation: 14
Translocation: 0

Corrected Contig Stats
calling: java -cp /vol/ngscomparison/software/analysis/quast-2.1/libs/gage:.:. GetFastaStats -o -min 199 -genomeSize 5594470 /vol/codine-tmp/juene/tmp.B51ZfoDxK2/quast/gage/tmp/ABYSS_PE_MIS_PE_sakai_mis-both_bi_2x250bp_SI_default.0.64percent.NEWBLER_126-scaffolds.matches.lens 2> /dev/null
Total units: 332
Reference: 5594470
BasesInFasta: 5528147
Min: 200
Max: 203548
N10: 149407 COUNT: 4
N25: 142889 COUNT: 9
N50: 76908 COUNT: 23
N75: 36387 COUNT: 49
E-size:85314.91

Done
