Assembly	VELVET_PGM_sakai_pgm_mu_318_400bp_IO_TS3.4_ms_0.395percent_95.final.contigs
#Contigs (>= 0 bp)	34501
#Contigs (>= 1000 bp)	0
Total length (>= 0 bp)	7872242
Total length (>= 1000 bp)	0
#Contigs	27299
Largest contig	732
Total length	6476659
Reference length	5594470
GC (%)	49.75
Reference GC (%)	50.48
N50	233
NG50	239
N75	214
NG75	220
#misassemblies	893
#local misassemblies	6
#unaligned contigs	318 + 120 part
Unaligned contigs length	89069
Genome fraction (%)	66.842
Duplication ratio	1.666
#N's per 100 kbp	0.00
#mismatches per 100 kbp	41.02
#indels per 100 kbp	1099.67
#genes	123 + 4695 part
#predicted genes (unique)	23638
#predicted genes (>= 0 bp)	23689
#predicted genes (>= 300 bp)	291
#predicted genes (>= 1500 bp)	0
#predicted genes (>= 3000 bp)	0
Largest alignment	732
NA50	229
NGA50	236
NA75	210
NGA75	217
