Assembly	CLC_PGM_mrsa_pgm_200bp_es_316_IonOnev2_ts3.0_morestringent.1coverage.result
GAGE_Contigs #	1202
GAGE_Min contig	201
GAGE_Max contig	4439
GAGE_N50	0 COUNT: 0
GAGE_Genome size	2813862
GAGE_Assembly size	564328
GAGE_Chaff bases	0
GAGE_Missing reference bases	2251690(80.02%)
GAGE_Missing assembly bases	17210(3.05%)
GAGE_Missing assembly contigs	8(0.67%)
GAGE_Duplicated reference bases	13102
GAGE_Compressed reference bases	33608
GAGE_Bad trim	12916
GAGE_Avg idy	98.87
GAGE_SNPs	1130
GAGE_Indels < 5bp	4556
GAGE_Indels >= 5	2
GAGE_Inversions	148
GAGE_Relocation	33
GAGE_Translocation	0
GAGE_Corrected contig #	1211
GAGE_Corrected assembly size	515397
GAGE_Min correct contig	200
GAGE_Max correct contig	2573
GAGE_Corrected N50	0 COUNT: 0
