Assembly	GAGE_Contigs #	GAGE_Min contig	GAGE_Max contig	GAGE_N50	GAGE_Genome size	GAGE_Assembly size	GAGE_Chaff bases	GAGE_Missing reference bases	GAGE_Missing assembly bases	GAGE_Missing assembly contigs	GAGE_Duplicated reference bases	GAGE_Compressed reference bases	GAGE_Bad trim	GAGE_Avg idy	GAGE_SNPs	GAGE_Indels < 5bp	GAGE_Indels >= 5	GAGE_Inversions	GAGE_Relocation	GAGE_Translocation	GAGE_Corrected contig #	GAGE_Corrected assembly size	GAGE_Min correct contig	GAGE_Max correct contig	GAGE_Corrected N50
ABYSS_PE_MIS_PE_mtbh37-1_mis_2x250bp_nextera_default__mtbh37-2_mis_2x250bp_nextera_default.0.300percent_76.final_broken	449	206	85496	19171 COUNT: 61	4411532	4306612	0	70200(1.59%)	1161(0.03%)	0(0.00%)	709	56407	1149	99.99	161	43	18	0	3	0	468	4306410	206	85496	18369 COUNT: 66
ABYSS_PE_MIS_PE_mtbh37-1_mis_2x250bp_nextera_default__mtbh37-2_mis_2x250bp_nextera_default.0.300percent_76.final	424	206	85496	21689 COUNT: 58	4411532	4307948	0	69981(1.59%)	2283(0.05%)	0(0.00%)	709	56407	1149	99.99	161	54	38	0	3	0	463	4306629	206	85496	18760 COUNT: 65
