Assembly	SOAP2_PGM_mtbh37_pgm_400bp_es_318v2_OT2_tsv3.6_morestringent_73.final.contig
#Una_fully unaligned contigs	588
Una_Fully unaligned length	151221
#Una_partially unaligned contigs	28
#Una_with misassembly	0
#Una_both parts are significant	0
Una_Partially unaligned length	2573
#N's	0
