Assembly	CLC_PGM_sakai_pgm_mu_200bp_IO_TS3.0Disabled_stringent.6coverage.result
GAGE_Contigs #	3381
GAGE_Min contig	200
GAGE_Max contig	13860
GAGE_N50	2740 COUNT: 619
GAGE_Genome size	5594470
GAGE_Assembly size	5303964
GAGE_Chaff bases	0
GAGE_Missing reference bases	264666(4.73%)
GAGE_Missing assembly bases	14068(0.27%)
GAGE_Missing assembly contigs	3(0.09%)
GAGE_Duplicated reference bases	41442
GAGE_Compressed reference bases	249121
GAGE_Bad trim	12896
GAGE_Avg idy	99.76
GAGE_SNPs	2174
GAGE_Indels < 5bp	7619
GAGE_Indels >= 5	14
GAGE_Inversions	90
GAGE_Relocation	29
GAGE_Translocation	2
GAGE_Corrected contig #	3422
GAGE_Corrected assembly size	5252904
GAGE_Min correct contig	200
GAGE_Max correct contig	12680
GAGE_Corrected N50	2624 COUNT: 653
