calling: java -cp /vol/ngscomparison/software/analysis/quast-2.1/libs/gage:. SizeFasta /vol/codine-tmp/juene/tmp.SVah9Ji9UD/quast/corrected_input/Ecoli_Sakai_editedNew_plasmids.fasta |awk '{SUM+=; print SUM}'|tail -n 1
Contig Stats
Total units: 330
Reference: 5594470
BasesInFasta: 5490372
Min: 200
Max: 227348
N10: 213204 COUNT: 3
N25: 149692 COUNT: 8
N50: 99841 COUNT: 19
N75: 41161 COUNT: 41
E-size:102868.79

Genome Size: 5594470
Assembly Size: 5490372
Chaff bases: 0
Missing Reference Bases: 21571(0.39%)
Missing Assembly Bases: 34(0.00%)
Missing Assembly Contigs: 0(0.00%)
Duplicated Reference Bases: 25622
Compressed Reference Bases: 216917
Bad Trim: 0
Avg Idy: 99.98
SNPs: 536
Indels < 5bp: 36
Indels >= 5: 11
Inversions: 3
Relocation: 2
Translocation: 0

Corrected Contig Stats
calling: java -cp /vol/ngscomparison/software/analysis/quast-2.1/libs/gage:.:. GetFastaStats -o -min 199 -genomeSize 5594470 /vol/codine-tmp/juene/tmp.SVah9Ji9UD/quast/gage/tmp/ABYSS_PE_MIS_PE_sakai_mis-both_bi_2x250bp_SI_default.0.64percent.NEWBLER_78-scaffolds_broken.matches.lens 2> /dev/null
Total units: 323
Reference: 5594470
BasesInFasta: 5469564
Min: 200
Max: 227348
N10: 199598 COUNT: 3
N25: 132924 COUNT: 8
N50: 72537 COUNT: 23
N75: 35683 COUNT: 49
E-size:88067.27

Done
