1: PREPARING DATA
2,3: RUNNING mummer AND CREATING CLUSTERS
# reading input file "/vol/codine-tmp/juene/tmp.zN6yjdP5l4/quast/gage/tmp/SOAP2_PGM_sakai_pgm_mu_318_400bp_IO_TS3.4_ms_0.395percent_89.final.contig.ntref" of length 5594473
# construct suffix tree for sequence of length 5594473
# (maximum reference length is 536870908)
# (maximum query length is 4294967295)
# process 55944 characters per dot
#....................................................................................................
# CONSTRUCTIONTIME /vol/ngscomparison/software/analysis/quast-2.1/libs/MUMmer3.23-linux/mummer /vol/codine-tmp/juene/tmp.zN6yjdP5l4/quast/gage/tmp/SOAP2_PGM_sakai_pgm_mu_318_400bp_IO_TS3.4_ms_0.395percent_89.final.contig.ntref 3.47
# reading input file "/vol/codine-tmp/juene/tmp.zN6yjdP5l4/quast/corrected_input/SOAP2_PGM_sakai_pgm_mu_318_400bp_IO_TS3.4_ms_0.395percent_89.final.contig" of length 4019902
# matching query-file "/vol/codine-tmp/juene/tmp.zN6yjdP5l4/quast/corrected_input/SOAP2_PGM_sakai_pgm_mu_318_400bp_IO_TS3.4_ms_0.395percent_89.final.contig"
# against subject-file "/vol/codine-tmp/juene/tmp.zN6yjdP5l4/quast/gage/tmp/SOAP2_PGM_sakai_pgm_mu_318_400bp_IO_TS3.4_ms_0.395percent_89.final.contig.ntref"
# COMPLETETIME /vol/ngscomparison/software/analysis/quast-2.1/libs/MUMmer3.23-linux/mummer /vol/codine-tmp/juene/tmp.zN6yjdP5l4/quast/gage/tmp/SOAP2_PGM_sakai_pgm_mu_318_400bp_IO_TS3.4_ms_0.395percent_89.final.contig.ntref 8.39
# SPACE /vol/ngscomparison/software/analysis/quast-2.1/libs/MUMmer3.23-linux/mummer /vol/codine-tmp/juene/tmp.zN6yjdP5l4/quast/gage/tmp/SOAP2_PGM_sakai_pgm_mu_318_400bp_IO_TS3.4_ms_0.395percent_89.final.contig.ntref 9.75
4: FINISHING DATA
Filtering alignments
Extracting alignment coordinates
Analyzing SNPs
Extracting alignment breakpoints
Generating report file
Found genome size at position 4 with value 5594470 aka 5594470
Calculating point at 0 and the sum is 1000226 and i is9629 and lens is 11877 and length is 341
Calculating point at 1 and the sum is 2000090 and i is6364 and lens is 11877 and length is 282
Calculating point at 2 and the sum is 3000040 and i is2529 and lens is 11877 and length is 230
