All statistics are based on contigs of size >= 200 bp, unless otherwise noted (e.g., "# contigs (>= 0 bp)" and "Total length (>= 0 bp)" include all contigs).

Assembly                                   VELVET_MIS_PE_sakai_mis-1_bi_2x150bp_default__sakai_mis-2_bi_2x150bp_default.0.826percent_51.final.contigs_broken  VELVET_MIS_PE_sakai_mis-1_bi_2x150bp_default__sakai_mis-2_bi_2x150bp_default.0.826percent_51.final.contigs
#Contigs                                   454                                                                                                                330                                                                                                       
#Contigs (>= 0 bp)                         720                                                                                                                589                                                                                                       
#Contigs (>= 1000 bp)                      212                                                                                                                126                                                                                                       
Largest contig                             323919                                                                                                             374723                                                                                                    
Total length                               5351340                                                                                                            5358141                                                                                                   
Total length (>= 0 bp)                     5388701                                                                                                            5394644                                                                                                   
Total length (>= 1000 bp)                  5243823                                                                                                            5270262                                                                                                   
Reference length                           5594470                                                                                                            5594470                                                                                                   
N50                                        52949                                                                                                              148237                                                                                                    
NG50                                       47319                                                                                                              145115                                                                                                    
N75                                        31190                                                                                                              71610                                                                                                     
NG75                                       29032                                                                                                              56428                                                                                                     
L50                                        28                                                                                                                 12                                                                                                        
LG50                                       31                                                                                                                 13                                                                                                        
L75                                        61                                                                                                                 26                                                                                                        
LG75                                       67                                                                                                                 29                                                                                                        
#local misassemblies                       14                                                                                                                 55                                                                                                        
#misassemblies                             3                                                                                                                  9                                                                                                         
#misassembled contigs                      3                                                                                                                  7                                                                                                         
Misassembled contigs length                113684                                                                                                             575542                                                                                                    
Misassemblies inter-contig overlap         3225                                                                                                               2919                                                                                                      
#unaligned contigs                         1 + 0 part                                                                                                         2 + 1 part                                                                                                
Unaligned contigs length                   5436                                                                                                               7773                                                                                                      
#ambiguously mapped contigs                148                                                                                                                147                                                                                                       
Extra bases in ambiguously mapped contigs  -92609                                                                                                             -92204                                                                                                    
#N's                                       0                                                                                                                  5943                                                                                                      
#N's per 100 kbp                           0.00                                                                                                               110.92                                                                                                    
Genome fraction (%)                        93.890                                                                                                             93.890                                                                                                    
Duplication ratio                          1.001                                                                                                              1.002                                                                                                     
#genes                                     4899 + 216 part                                                                                                    4956 + 156 part                                                                                           
#predicted genes (unique)                  5366                                                                                                               5342                                                                                                      
#predicted genes (>= 0 bp)                 5369                                                                                                               5346                                                                                                      
#predicted genes (>= 300 bp)               4468                                                                                                               4459                                                                                                      
#predicted genes (>= 1500 bp)              652                                                                                                                655                                                                                                       
#predicted genes (>= 3000 bp)              67                                                                                                                 66                                                                                                        
#mismatches                                380                                                                                                                416                                                                                                       
#indels                                    45                                                                                                                 310                                                                                                       
Indels length                              108                                                                                                                1757                                                                                                      
#mismatches per 100 kbp                    7.23                                                                                                               7.92                                                                                                      
#indels per 100 kbp                        0.86                                                                                                               5.90                                                                                                      
GC (%)                                     50.29                                                                                                              50.29                                                                                                     
Reference GC (%)                           50.48                                                                                                              50.48                                                                                                     
Average %IDY                               99.104                                                                                                             99.046                                                                                                    
Largest alignment                          323919                                                                                                             352098                                                                                                    
NA50                                       52949                                                                                                              147869                                                                                                    
NGA50                                      47319                                                                                                              144114                                                                                                    
NA75                                       30741                                                                                                              71610                                                                                                     
NGA75                                      28889                                                                                                              55968                                                                                                     
LA50                                       28                                                                                                                 13                                                                                                        
LGA50                                      31                                                                                                                 14                                                                                                        
LA75                                       62                                                                                                                 27                                                                                                        
LGA75                                      68                                                                                                                 30                                                                                                        
#Mis_misassemblies                         3                                                                                                                  9                                                                                                         
#Mis_relocations                           3                                                                                                                  9                                                                                                         
#Mis_translocations                        0                                                                                                                  0                                                                                                         
#Mis_inversions                            0                                                                                                                  0                                                                                                         
#Mis_misassembled contigs                  3                                                                                                                  7                                                                                                         
Mis_Misassembled contigs length            113684                                                                                                             575542                                                                                                    
#Mis_local misassemblies                   14                                                                                                                 55                                                                                                        
#Mis_short indels (<= 5 bp)                41                                                                                                                 251                                                                                                       
#Mis_long indels (> 5 bp)                  4                                                                                                                  59                                                                                                        
#Una_fully unaligned contigs               1                                                                                                                  2                                                                                                         
Una_Fully unaligned length                 5436                                                                                                               6765                                                                                                      
#Una_partially unaligned contigs           0                                                                                                                  1                                                                                                         
#Una_with misassembly                      0                                                                                                                  0                                                                                                         
#Una_both parts are significant            0                                                                                                                  1                                                                                                         
Una_Partially unaligned length             0                                                                                                                  1008                                                                                                      
GAGE_Contigs #                             454                                                                                                                330                                                                                                       
GAGE_Min contig                            200                                                                                                                200                                                                                                       
GAGE_Max contig                            323919                                                                                                             374723                                                                                                    
GAGE_N50                                   47319 COUNT: 31                                                                                                    145115 COUNT: 13                                                                                          
GAGE_Genome size                           5594470                                                                                                            5594470                                                                                                   
GAGE_Assembly size                         5351340                                                                                                            5358141                                                                                                   
GAGE_Chaff bases                           0                                                                                                                  0                                                                                                         
GAGE_Missing reference bases               45900(0.82%)                                                                                                       45129(0.81%)                                                                                              
GAGE_Missing assembly bases                5450(0.10%)                                                                                                        10893(0.20%)                                                                                              
GAGE_Missing assembly contigs              1(0.22%)                                                                                                           1(0.30%)                                                                                                  
GAGE_Duplicated reference bases            12185                                                                                                              13065                                                                                                     
GAGE_Compressed reference bases            246670                                                                                                             247303                                                                                                    
GAGE_Bad trim                              14                                                                                                                 476                                                                                                       
GAGE_Avg idy                               99.99                                                                                                              99.98                                                                                                     
GAGE_SNPs                                  347                                                                                                                349                                                                                                       
GAGE_Indels < 5bp                          22                                                                                                                 80                                                                                                        
GAGE_Indels >= 5                           11                                                                                                                 84                                                                                                        
GAGE_Inversions                            0                                                                                                                  6                                                                                                         
GAGE_Relocation                            6                                                                                                                  13                                                                                                        
GAGE_Translocation                         0                                                                                                                  0                                                                                                         
GAGE_Corrected contig #                    431                                                                                                                412                                                                                                       
GAGE_Corrected assembly size               5337124                                                                                                            5337454                                                                                                   
GAGE_Min correct contig                    200                                                                                                                200                                                                                                       
GAGE_Max correct contig                    185009                                                                                                             185009                                                                                                    
GAGE_Corrected N50                         43702 COUNT: 36                                                                                                    52507 COUNT: 31                                                                                           
