Assembly	CLC_MIS_PE_sakai_mis-1_bi_2x250bp_SI_default__sakai_mis-2_bi_2x250bp_SI_default.0.3percent.result_broken	CLC_MIS_PE_sakai_mis-1_bi_2x250bp_SI_default__sakai_mis-2_bi_2x250bp_SI_default.0.3percent.result
#Mis_misassemblies	3	4
#Mis_relocations	3	4
#Mis_translocations	0	0
#Mis_inversions	0	0
#Mis_misassembled contigs	3	4
Mis_Misassembled contigs length	209645	211028
#Mis_local misassemblies	2	8
#mismatches	143	162
#indels	85	93
#Mis_short indels (<= 5 bp)	79	79
#Mis_long indels (> 5 bp)	6	14
Indels length	399	634
