Assembly	NEWBLER_MIS_PE_mtbh37-1_mis_2x250bp_nextera_default__mtbh37-2_mis_2x250bp_nextera_default.0.200percent.contigs_broken	NEWBLER_MIS_PE_mtbh37-1_mis_2x250bp_nextera_default__mtbh37-2_mis_2x250bp_nextera_default.0.200percent.contigs
GAGE_Contigs #	311	141
GAGE_Min contig	523	2101
GAGE_Max contig	87275	164689
GAGE_N50	24014 COUNT: 56	54448 COUNT: 28
GAGE_Genome size	4411532	4411532
GAGE_Assembly size	4229450	4318440
GAGE_Chaff bases	0	0
GAGE_Missing reference bases	177460(4.02%)	177460(4.02%)
GAGE_Missing assembly bases	909(0.02%)	89899(2.08%)
GAGE_Missing assembly contigs	1(0.32%)	0(0.00%)
GAGE_Duplicated reference bases	0	0
GAGE_Compressed reference bases	6030	6104
GAGE_Bad trim	58	1576
GAGE_Avg idy	99.99	99.99
GAGE_SNPs	101	101
GAGE_Indels < 5bp	45	45
GAGE_Indels >= 5	5	172
GAGE_Inversions	0	0
GAGE_Relocation	2	4
GAGE_Translocation	0	0
GAGE_Corrected contig #	317	317
GAGE_Corrected assembly size	4229508	4229508
GAGE_Min correct contig	523	523
GAGE_Max correct contig	70129	70129
GAGE_Corrected N50	23332 COUNT: 58	23332 COUNT: 58
