All statistics are based on contigs of size >= 200 bp, unless otherwise noted (e.g., "# contigs (>= 0 bp)" and "Total length (>= 0 bp)" include all contigs).

Assembly                       NEWBLER_MIS_PE_mtbh37-1_mis_2x250bp_nextera_default__mtbh37-2_mis_2x250bp_nextera_default.0.200percent.contigs_broken  NEWBLER_MIS_PE_mtbh37-1_mis_2x250bp_nextera_default__mtbh37-2_mis_2x250bp_nextera_default.0.200percent.contigs
#Contigs (>= 0 bp)             311                                                                                                                    141                                                                                                           
#Contigs (>= 1000 bp)          281                                                                                                                    141                                                                                                           
Total length (>= 0 bp)         4229450                                                                                                                4318440                                                                                                       
Total length (>= 1000 bp)      4207246                                                                                                                4318440                                                                                                       
#Contigs                       311                                                                                                                    141                                                                                                           
Largest contig                 87275                                                                                                                  164689                                                                                                        
Total length                   4229450                                                                                                                4318440                                                                                                       
Reference length               4411532                                                                                                                4411532                                                                                                       
GC (%)                         65.42                                                                                                                  65.42                                                                                                         
Reference GC (%)               65.61                                                                                                                  65.61                                                                                                         
N50                            24345                                                                                                                  56578                                                                                                         
NG50                           24014                                                                                                                  54448                                                                                                         
N75                            14625                                                                                                                  31478                                                                                                         
NG75                           12589                                                                                                                  30336                                                                                                         
#misassemblies                 1                                                                                                                      2                                                                                                             
#local misassemblies           5                                                                                                                      172                                                                                                           
#unaligned contigs             1 + 0 part                                                                                                             0 + 0 part                                                                                                    
Unaligned contigs length       851                                                                                                                    0                                                                                                             
Genome fraction (%)            95.772                                                                                                                 95.847                                                                                                        
Duplication ratio              1.005                                                                                                                  1.026                                                                                                         
#N's per 100 kbp               0.00                                                                                                                   2060.70                                                                                                       
#mismatches per 100 kbp        2.72                                                                                                                   2.72                                                                                                          
#indels per 100 kbp            0.90                                                                                                                   0.92                                                                                                          
#genes                         3751 + 251 part                                                                                                        3753 + 251 part                                                                                               
#predicted genes (unique)      4079                                                                                                                   4062                                                                                                          
#predicted genes (>= 0 bp)     4079                                                                                                                   4062                                                                                                          
#predicted genes (>= 300 bp)   3567                                                                                                                   3570                                                                                                          
#predicted genes (>= 1500 bp)  540                                                                                                                    540                                                                                                           
#predicted genes (>= 3000 bp)  64                                                                                                                     64                                                                                                            
Largest alignment              87275                                                                                                                  161427                                                                                                        
NA50                           24345                                                                                                                  53389                                                                                                         
NGA50                          24014                                                                                                                  53389                                                                                                         
NA75                           14625                                                                                                                  28691                                                                                                         
NGA75                          12589                                                                                                                  28201                                                                                                         
