Assembly	ABYSS_PE_MIS_PE_sakai_mis-both_bi_2x250bp_SI_default.0.64percent.NEWBLER_108-scaffolds_broken	ABYSS_PE_MIS_PE_sakai_mis-both_bi_2x250bp_SI_default.0.64percent.NEWBLER_108-scaffolds
#Contigs	368	328
#Contigs (>= 0 bp)	514	474
#Contigs (>= 1000 bp)	200	193
Largest contig	363126	363126
Total length	5613078	5615167
Total length (>= 0 bp)	5634497	5636586
Total length (>= 1000 bp)	5538794	5557394
Reference length	5594470	5594470
N50	95375	122009
NG50	95375	122009
N75	50567	57329
NG75	50567	57329
L50	18	17
LG50	18	17
L75	38	34
LG75	38	34
#local misassemblies	4	20
#misassemblies	7	18
#misassembled contigs	7	17
Misassembled contigs length	408807	465115
Misassemblies inter-contig overlap	6743	6743
#unaligned contigs	0 + 0 part	1 + 0 part
Unaligned contigs length	0	874
#ambiguously mapped contigs	93	64
Extra bases in ambiguously mapped contigs	-78727	-56266
#N's	25	2114
#N's per 100 kbp	0.45	37.65
Genome fraction (%)	96.754	96.998
Duplication ratio	1.024	1.025
#genes	5103 + 210 part	5120 + 208 part
#predicted genes (unique)	5420	5406
#predicted genes (>= 0 bp)	5631	5617
#predicted genes (>= 300 bp)	4643	4646
#predicted genes (>= 1500 bp)	699	699
#predicted genes (>= 3000 bp)	68	68
#mismatches	617	642
#indels	62	220
Indels length	420	707
#mismatches per 100 kbp	11.40	11.83
#indels per 100 kbp	1.15	4.05
GC (%)	50.36	50.36
Reference GC (%)	50.48	50.48
Average %IDY	98.616	98.610
Largest alignment	362286	362286
NA50	93866	117566
NGA50	93866	117566
NA75	47040	47985
NGA75	47040	47985
LA50	19	17
LGA50	19	17
LA75	40	35
LGA75	40	35
#Mis_misassemblies	7	18
#Mis_relocations	6	17
#Mis_translocations	1	1
#Mis_inversions	0	0
#Mis_misassembled contigs	7	17
Mis_Misassembled contigs length	408807	465115
#Mis_local misassemblies	4	20
#Mis_short indels (<= 5 bp)	52	206
#Mis_long indels (> 5 bp)	10	14
#Una_fully unaligned contigs	0	1
Una_Fully unaligned length	0	874
#Una_partially unaligned contigs	0	0
#Una_with misassembly	0	0
#Una_both parts are significant	0	0
Una_Partially unaligned length	0	0
GAGE_Contigs #	368	328
GAGE_Min contig	203	203
GAGE_Max contig	363126	363126
GAGE_N50	95375 COUNT: 18	122009 COUNT: 17
GAGE_Genome size	5594470	5594470
GAGE_Assembly size	5613078	5615167
GAGE_Chaff bases	0	0
GAGE_Missing reference bases	6194(0.11%)	6115(0.11%)
GAGE_Missing assembly bases	16(0.00%)	2022(0.04%)
GAGE_Missing assembly contigs	0(0.00%)	0(0.00%)
GAGE_Duplicated reference bases	122234	122406
GAGE_Compressed reference bases	209278	209626
GAGE_Bad trim	1	301
GAGE_Avg idy	99.98	99.98
GAGE_SNPs	459	459
GAGE_Indels < 5bp	31	32
GAGE_Indels >= 5	12	30
GAGE_Inversions	1	8
GAGE_Relocation	3	10
GAGE_Translocation	0	0
GAGE_Corrected contig #	338	337
GAGE_Corrected assembly size	5499354	5499159
GAGE_Min correct contig	208	208
GAGE_Max correct contig	245378	245378
GAGE_Corrected N50	77765 COUNT: 22	77765 COUNT: 22
