Assembly	#Contigs	#Contigs (>= 0 bp)	#Contigs (>= 1000 bp)	Largest contig	Total length	Total length (>= 0 bp)	Total length (>= 1000 bp)	Reference length	N50	NG50	N75	NG75	L50	LG50	L75	LG75	#local misassemblies	#misassemblies	#misassembled contigs	Misassembled contigs length	Misassemblies inter-contig overlap	#unaligned contigs	Unaligned contigs length	#ambiguously mapped contigs	Extra bases in ambiguously mapped contigs	#N's	#N's per 100 kbp	Genome fraction (%)	Duplication ratio	#genes	#predicted genes (unique)	#predicted genes (>= 0 bp)	#predicted genes (>= 300 bp)	#predicted genes (>= 1500 bp)	#predicted genes (>= 3000 bp)	#mismatches	#indels	Indels length	#mismatches per 100 kbp	#indels per 100 kbp	GC (%)	Reference GC (%)	Average %IDY	Largest alignment	NA50	NGA50	NA75	NGA75	LA50	LGA50	LA75	LGA75	#Mis_misassemblies	#Mis_relocations	#Mis_translocations	#Mis_inversions	#Mis_misassembled contigs	Mis_Misassembled contigs length	#Mis_local misassemblies	#Mis_short indels (<= 5 bp)	#Mis_long indels (> 5 bp)	#Una_fully unaligned contigs	Una_Fully unaligned length	#Una_partially unaligned contigs	#Una_with misassembly	#Una_both parts are significant	Una_Partially unaligned length	GAGE_Contigs #	GAGE_Min contig	GAGE_Max contig	GAGE_N50	GAGE_Genome size	GAGE_Assembly size	GAGE_Chaff bases	GAGE_Missing reference bases	GAGE_Missing assembly bases	GAGE_Missing assembly contigs	GAGE_Duplicated reference bases	GAGE_Compressed reference bases	GAGE_Bad trim	GAGE_Avg idy	GAGE_SNPs	GAGE_Indels < 5bp	GAGE_Indels >= 5	GAGE_Inversions	GAGE_Relocation	GAGE_Translocation	GAGE_Corrected contig #	GAGE_Corrected assembly size	GAGE_Min correct contig	GAGE_Max correct contig	GAGE_Corrected N50
VELVET_MIS_PE_sakai_mis-both_bi_2x250bp_SI_default.0.64percent_87.final.contigs_broken	553	603	281	118357	5396768	5405755	5280819	5594470	34847	32167	19130	16818	43	46	97	105	6	5	5	105503	2236	1 + 0 part	5472	174	-101158	0	0.00	94.502	1.001	4873 + 298 part	5515	5520	4537	650	67	193	22	24	3.65	0.42	50.31	50.48	98.915	118357	34847	32167	19130	16818	43	46	97	105	5	5	0	0	5	105503	6	22	0	1	5472	0	0	0	0	553	200	118357	32167 COUNT: 46	5594470	5396768	0	17476(0.31%)	5491(0.10%)	1(0.18%)	5275	258234	19	99.99	183	21	5	0	5	0	545	5387859	200	118357	32050 COUNT: 47
VELVET_MIS_PE_sakai_mis-both_bi_2x250bp_SI_default.0.64percent_87.final.contigs	407	451	166	436458	5409994	5418222	5310718	5594470	82484	81198	37422	34145	20	22	44	48	109	19	16	807624	1539	1 + 1 part	6572	172	-100073	12467	230.44	94.552	1.003	4904 + 273 part	5473	5478	4519	652	67	232	525	1242	4.39	9.93	50.31	50.48	98.897	259450	74315	73334	37213	32548	22	23	47	51	19	19	0	0	16	807624	109	508	17	1	5472	1	0	1	1100	407	200	436458	81198 COUNT: 22	5594470	5409994	0	17095(0.31%)	17655(0.33%)	1(0.25%)	5858	258240	392	99.99	184	42	108	8	22	0	536	5387902	200	118357	32167 COUNT: 47
