All statistics are based on contigs of size >= 200 bp, unless otherwise noted (e.g., "# contigs (>= 0 bp)" and "Total length (>= 0 bp)" include all contigs).

Assembly                                                                                                          #Contigs (>= 0 bp)  #Contigs (>= 1000 bp)  Total length (>= 0 bp)  Total length (>= 1000 bp)  #Contigs  Largest contig  Total length  Reference length  GC (%)  Reference GC (%)  N50   NG50  N75   NG75  #misassemblies  #local misassemblies  #unaligned contigs  Unaligned contigs length  Genome fraction (%)  Duplication ratio  #N's per 100 kbp  #mismatches per 100 kbp  #indels per 100 kbp  #genes           #predicted genes (unique)  #predicted genes (>= 0 bp)  #predicted genes (>= 300 bp)  #predicted genes (>= 1500 bp)  #predicted genes (>= 3000 bp)  Largest alignment  NA50  NGA50  NA75  NGA75
CLC_MIS_PE_mtbh37-1_mis_2x250bp_nextera_default__mtbh37-2_mis_2x250bp_nextera_default.0.100percent.result_broken  1708                747                    4244385                 3872583                    1534      37094           4230221       4411532           65.52   65.61             7203  6860  3339  2947  65              10                    41 + 115 part       27091                     94.023               1.014              5.89              100.44                   8.12                 3086 + 949 part  4995                       4996                        3917                          418                            47                             25825              6835  6428   3147  2811 
CLC_MIS_PE_mtbh37-1_mis_2x250bp_nextera_default__mtbh37-2_mis_2x250bp_nextera_default.0.100percent.result         1496                729                    4256313                 3914256                    1496      41718           4256313       4411532           65.58   65.61             7495  7299  3534  3123  69              57                    70 + 143 part       42741                     94.071               1.016              287.67            101.35                   17.23                3108 + 927 part  4987                       4988                        3909                          420                            48                             33462              7203  6835   3355  3016 
