calling: java -cp /vol/ngscomparison/software/analysis/quast-2.1/libs/gage:. SizeFasta /vol/codine-tmp/juene/tmp.FD66jvJcEO/quast/corrected_input/Ecoli_Sakai_editedNew_plasmids.fasta |awk '{SUM+=; print SUM}'|tail -n 1
Contig Stats
Total units: 4174
Reference: 5594470
BasesInFasta: 945650
Min: 200
Max: 569
N10: 215 COUNT: 2305
N25: 0 COUNT: 0
N50: 0 COUNT: 0
N75: 0 COUNT: 0
E-size:38.95

Genome Size: 5594470
Assembly Size: 945650
Chaff bases: 0
Missing Reference Bases: 4679560(83.65%)
Missing Assembly Bases: 22329(2.36%)
Missing Assembly Contigs: 61(1.46%)
Duplicated Reference Bases: 19384
Compressed Reference Bases: 65981
Bad Trim: 8469
Avg Idy: 98.19
SNPs: 501
Indels < 5bp: 14247
Indels >= 5: 5
Inversions: 57
Relocation: 25
Translocation: 3

Corrected Contig Stats
calling: java -cp /vol/ngscomparison/software/analysis/quast-2.1/libs/gage:.:. GetFastaStats -o -min 199 -genomeSize 5594470 /vol/codine-tmp/juene/tmp.FD66jvJcEO/quast/gage/tmp/VELVET_PGM_sakai_pgm_mu_318_400bp_IO_TS3.4_ms_0.395percent_67.final.contigs.matches.lens 2> /dev/null
Total units: 3521
Reference: 5594470
BasesInFasta: 800124
Min: 200
Max: 568
N10: 211 COUNT: 2348
N25: 0 COUNT: 0
N50: 0 COUNT: 0
N75: 0 COUNT: 0
E-size:33.07

Done
