All statistics are based on contigs of size >= 200 bp, unless otherwise noted (e.g., "# contigs (>= 0 bp)" and "Total length (>= 0 bp)" include all contigs).

Assembly                                                                                                         GAGE_Contigs #  GAGE_Min contig  GAGE_Max contig  GAGE_N50          GAGE_Genome size  GAGE_Assembly size  GAGE_Chaff bases  GAGE_Missing reference bases  GAGE_Missing assembly bases  GAGE_Missing assembly contigs  GAGE_Duplicated reference bases  GAGE_Compressed reference bases  GAGE_Bad trim  GAGE_Avg idy  GAGE_SNPs  GAGE_Indels < 5bp  GAGE_Indels >= 5  GAGE_Inversions  GAGE_Relocation  GAGE_Translocation  GAGE_Corrected contig #  GAGE_Corrected assembly size  GAGE_Min correct contig  GAGE_Max correct contig  GAGE_Corrected N50
ABYSS_PE_MIS_PE_sakai_mis-1_bi_2x150bp_default__sakai_mis-2_bi_2x150bp_default.0.826percent_58-scaffolds_broken  259             202              292286           98911 COUNT: 17   5594470           5465950             0                 61642(1.10%)                  1117(0.02%)                  0(0.00%)                       16492                            204303                           2              99.97         674        31                 10                1                4                1                   257                      5452019                       202                      264620                   95727 COUNT: 19   
ABYSS_PE_MIS_PE_sakai_mis-1_bi_2x150bp_default__sakai_mis-2_bi_2x150bp_default.0.826percent_58-scaffolds         203             203              376925           148465 COUNT: 13  5594470           5469113             0                 63434(1.13%)                  4662(0.09%)                  0(0.00%)                       15207                            201493                           265            99.96         668        38                 36                6                16               3                   255                      5452994                       202                      264620                   100154 COUNT: 18  
