Assembly	SOAP2_PGM_mtbh37_pgm_400bp_es_318v2_OT2_tsv3.6_morestringent_69.final.contig
#Contigs	7307
#Contigs (>= 0 bp)	211819
#Contigs (>= 1000 bp)	3
Largest contig	1144
Total length	1931623
Total length (>= 0 bp)	23959956
Total length (>= 1000 bp)	3239
Reference length	4411532
N50	249
NG50	None
N75	222
NG75	None
L50	2969
LG50	None
L75	5034
LG75	None
#local misassemblies	4
#misassemblies	20
#misassembled contigs	20
Misassembled contigs length	4788
Misassemblies inter-contig overlap	417
#unaligned contigs	733 + 35 part
Unaligned contigs length	180828
#ambiguously mapped contigs	23
Extra bases in ambiguously mapped contigs	-5351
#N's	0
#N's per 100 kbp	0.00
Genome fraction (%)	35.752
Duplication ratio	1.107
#genes	43 + 2946 part
#predicted genes (unique)	5699
#predicted genes (>= 0 bp)	5701
#predicted genes (>= 300 bp)	778
#predicted genes (>= 1500 bp)	0
#predicted genes (>= 3000 bp)	0
#mismatches	637
#indels	14270
Indels length	14744
#mismatches per 100 kbp	40.39
#indels per 100 kbp	904.75
GC (%)	66.15
Reference GC (%)	65.61
Average %IDY	98.850
Largest alignment	1144
NA50	243
NGA50	None
NA75	216
NGA75	None
LA50	3006
LGA50	None
LA75	5125
LGA75	None
#Mis_misassemblies	20
#Mis_relocations	20
#Mis_translocations	0
#Mis_inversions	0
#Mis_misassembled contigs	20
Mis_Misassembled contigs length	4788
#Mis_local misassemblies	4
#Mis_short indels (<= 5 bp)	14270
#Mis_long indels (> 5 bp)	0
#Una_fully unaligned contigs	733
Una_Fully unaligned length	177330
#Una_partially unaligned contigs	35
#Una_with misassembly	0
#Una_both parts are significant	0
Una_Partially unaligned length	3498
GAGE_Contigs #	7307
GAGE_Min contig	200
GAGE_Max contig	1144
GAGE_N50	0 COUNT: 0
GAGE_Genome size	4411532
GAGE_Assembly size	1931623
GAGE_Chaff bases	0
GAGE_Missing reference bases	2727216(61.82%)
GAGE_Missing assembly bases	57048(2.95%)
GAGE_Missing assembly contigs	175(2.39%)
GAGE_Duplicated reference bases	85557
GAGE_Compressed reference bases	17335
GAGE_Bad trim	14803
GAGE_Avg idy	98.88
GAGE_SNPs	634
GAGE_Indels < 5bp	15667
GAGE_Indels >= 5	21
GAGE_Inversions	15
GAGE_Relocation	9
GAGE_Translocation	0
GAGE_Corrected contig #	6573
GAGE_Corrected assembly size	1750384
GAGE_Min correct contig	200
GAGE_Max correct contig	1144
GAGE_Corrected N50	0 COUNT: 0
