Assembly	SOAP2_PGM_mrsa_pgm_200bp_es_316_IonOnev2_ts3.0_morestringent.0.230percent_117.final.contig
#Contigs	3431
#Contigs (>= 0 bp)	4250
#Contigs (>= 1000 bp)	891
Largest contig	5055
Total length	2711738
Total length (>= 0 bp)	2822960
Total length (>= 1000 bp)	1403414
Reference length	2813862
N50	1031
NG50	996
N75	625
NG75	584
L50	845
LG50	895
L75	1685
LG75	1812
#local misassemblies	0
#misassemblies	12
#misassembled contigs	12
Misassembled contigs length	7847
Misassemblies inter-contig overlap	35
#unaligned contigs	0 + 10 part
Unaligned contigs length	267
#ambiguously mapped contigs	87
Extra bases in ambiguously mapped contigs	-21446
#N's	0
#N's per 100 kbp	0.00
Genome fraction (%)	87.750
Duplication ratio	1.089
#genes	969 + 1603 part
#predicted genes (unique)	4846
#predicted genes (>= 0 bp)	4872
#predicted genes (>= 300 bp)	2914
#predicted genes (>= 1500 bp)	67
#predicted genes (>= 3000 bp)	6
#mismatches	78
#indels	1411
Indels length	1435
#mismatches per 100 kbp	3.16
#indels per 100 kbp	57.14
GC (%)	32.95
Reference GC (%)	32.81
Average %IDY	99.735
Largest alignment	5055
NA50	1031
NGA50	994
NA75	624
NGA75	583
LA50	845
LGA50	895
LA75	1687
LGA75	1813
#Mis_misassemblies	12
#Mis_relocations	8
#Mis_translocations	0
#Mis_inversions	4
#Mis_misassembled contigs	12
Mis_Misassembled contigs length	7847
#Mis_local misassemblies	0
#Mis_short indels (<= 5 bp)	1411
#Mis_long indels (> 5 bp)	0
#Una_fully unaligned contigs	0
Una_Fully unaligned length	0
#Una_partially unaligned contigs	10
#Una_with misassembly	0
#Una_both parts are significant	0
Una_Partially unaligned length	267
GAGE_Contigs #	3431
GAGE_Min contig	200
GAGE_Max contig	5055
GAGE_N50	996 COUNT: 895
GAGE_Genome size	2813862
GAGE_Assembly size	2711738
GAGE_Chaff bases	0
GAGE_Missing reference bases	300355(10.67%)
GAGE_Missing assembly bases	1007(0.04%)
GAGE_Missing assembly contigs	0(0.00%)
GAGE_Duplicated reference bases	121366
GAGE_Compressed reference bases	51902
GAGE_Bad trim	1007
GAGE_Avg idy	99.93
GAGE_SNPs	56
GAGE_Indels < 5bp	1111
GAGE_Indels >= 5	1
GAGE_Inversions	2
GAGE_Relocation	0
GAGE_Translocation	0
GAGE_Corrected contig #	2902
GAGE_Corrected assembly size	2589506
GAGE_Min correct contig	200
GAGE_Max correct contig	5055
GAGE_Corrected N50	994 COUNT: 895
