All statistics are based on contigs of size >= 200 bp, unless otherwise noted (e.g., "# contigs (>= 0 bp)" and "Total length (>= 0 bp)" include all contigs).

Assembly                                                                                                  #Contigs (>= 0 bp)  #Contigs (>= 1000 bp)  Total length (>= 0 bp)  Total length (>= 1000 bp)  #Contigs  Largest contig  Total length  Reference length  GC (%)  Reference GC (%)  N50    NG50   N75    NG75   #misassemblies  #local misassemblies  #unaligned contigs  Unaligned contigs length  Genome fraction (%)  Duplication ratio  #N's per 100 kbp  #mismatches per 100 kbp  #indels per 100 kbp  #genes          #predicted genes (unique)  #predicted genes (>= 0 bp)  #predicted genes (>= 300 bp)  #predicted genes (>= 1500 bp)  #predicted genes (>= 3000 bp)  Largest alignment  NA50   NGA50  NA75   NGA75
ABYSS_PE_MIS_PE_mrsa_mis-1_bi_2x250bp_default__mrsa_mis-2_bi_2x250bp_default.61coverage_122.final_broken  188                 76                     2813188                 2784452                    138       181699          2805508       2813862           32.74   32.81             76051  76051  49603  49603  3               0                     0 + 0 part          0                         99.030               1.003              0.00              1.36                     0.32                 2666 + 52 part  2884                       2886                        2292                          295                            28                             181699             76051  76051  49603  49603
ABYSS_PE_MIS_PE_mrsa_mis-1_bi_2x250bp_default__mrsa_mis-2_bi_2x250bp_default.61coverage_122.final         187                 75                     2813238                 2784502                    137       181699          2805558       2813862           32.74   32.81             76051  76051  49603  49603  4               0                     0 + 0 part          0                         99.030               1.003              1.78              1.36                     0.32                 2666 + 52 part  2884                       2886                        2292                          295                            28                             181699             76051  76051  49603  49603
