calling: java -cp /vol/ngscomparison/software/analysis/quast-2.1/libs/gage:. SizeFasta /vol/codine-tmp/juene/tmp.8ZlGF63PCv/quast/corrected_input/Ecoli_Sakai_editedNew_plasmids.fasta |awk '{SUM+=; print SUM}'|tail -n 1
Contig Stats
Total units: 12922
Reference: 5594470
BasesInFasta: 3751279
Min: 200
Max: 1382
N10: 389 COUNT: 1131
N25: 302 COUNT: 3644
N50: 258 COUNT: 8709
N75: 0 COUNT: 0
E-size:210.33

Genome Size: 5594470
Assembly Size: 3751279
Chaff bases: 0
Missing Reference Bases: 2441836(43.65%)
Missing Assembly Bases: 38561(1.03%)
Missing Assembly Contigs: 78(0.60%)
Duplicated Reference Bases: 380508
Compressed Reference Bases: 151654
Bad Trim: 14992
Avg Idy: 99.25
SNPs: 688
Indels < 5bp: 17983
Indels >= 5: 10
Inversions: 42
Relocation: 20
Translocation: 8

Corrected Contig Stats
calling: java -cp /vol/ngscomparison/software/analysis/quast-2.1/libs/gage:.:. GetFastaStats -o -min 199 -genomeSize 5594470 /vol/codine-tmp/juene/tmp.8ZlGF63PCv/quast/gage/tmp/SOAP2_PGM_sakai_pgm_mu_318_400bp_IO_TS3.4_ms_0.395percent_85.final.contig.matches.lens 2> /dev/null
Total units: 11197
Reference: 5594470
BasesInFasta: 3274365
Min: 200
Max: 1382
N10: 387 COUNT: 1132
N25: 295 COUNT: 3690
N50: 231 COUNT: 8970
N75: 0 COUNT: 0
E-size:186.2

Done
