calling: java -cp /vol/ngscomparison/software/analysis/quast-2.1/libs/gage:. SizeFasta /vol/codine-tmp/juene/tmp.uyR4dZfPrM/quast/corrected_input/Mycobacterium_tuberculosis_H37Rv.fasta |awk '{SUM+=; print SUM}'|tail -n 1
Contig Stats
Total units: 631
Reference: 4411532
BasesInFasta: 160677
Min: 200
Max: 853
N10: 0 COUNT: 0
N25: 0 COUNT: 0
N50: 0 COUNT: 0
N75: 0 COUNT: 0
E-size:9.88

Genome Size: 4411532
Assembly Size: 160677
Chaff bases: 0
Missing Reference Bases: 4252772(96.40%)
Missing Assembly Bases: 1945(1.21%)
Missing Assembly Contigs: 7(1.11%)
Duplicated Reference Bases: 0
Compressed Reference Bases: 0
Bad Trim: 47
Avg Idy: 99.94
SNPs: 11
Indels < 5bp: 71
Indels >= 5: 2
Inversions: 1
Relocation: 0
Translocation: 0

Corrected Contig Stats
calling: java -cp /vol/ngscomparison/software/analysis/quast-2.1/libs/gage:.:. GetFastaStats -o -min 199 -genomeSize 4411532 /vol/codine-tmp/juene/tmp.uyR4dZfPrM/quast/gage/tmp/SOAP2_PGM_mtbh37_pgm_400bp_es_318v2_OT2_tsv3.6_morestringent_19.final.contig.matches.lens 2> /dev/null
Total units: 620
Reference: 4411532
BasesInFasta: 157775
Min: 200
Max: 853
N10: 0 COUNT: 0
N25: 0 COUNT: 0
N50: 0 COUNT: 0
N75: 0 COUNT: 0
E-size:9.7

Done
