All statistics are based on contigs of size >= 200 bp, unless otherwise noted (e.g., "# contigs (>= 0 bp)" and "Total length (>= 0 bp)" include all contigs).

Assembly                                                                                                       GAGE_Contigs #  GAGE_Min contig  GAGE_Max contig  GAGE_N50         GAGE_Genome size  GAGE_Assembly size  GAGE_Chaff bases  GAGE_Missing reference bases  GAGE_Missing assembly bases  GAGE_Missing assembly contigs  GAGE_Duplicated reference bases  GAGE_Compressed reference bases  GAGE_Bad trim  GAGE_Avg idy  GAGE_SNPs  GAGE_Indels < 5bp  GAGE_Indels >= 5  GAGE_Inversions  GAGE_Relocation  GAGE_Translocation  GAGE_Corrected contig #  GAGE_Corrected assembly size  GAGE_Min correct contig  GAGE_Max correct contig  GAGE_Corrected N50
ABYSS_PE_MIS_PE_mrsa_mis-1_bi_2x150bp_default__mrsa_mis-2_bi_2x150bp_default.0.527percent_88-scaffolds_broken  59              214              324549           155192 COUNT: 7  2813862           2798042             0                 656(0.02%)                    3(0.00%)                     0(0.00%)                       1727                             32707                            0              99.99         58         15                 5                 0                2                0                   63                       2796992                       214                      324550                   135164 COUNT: 8   
ABYSS_PE_MIS_PE_mrsa_mis-1_bi_2x150bp_default__mrsa_mis-2_bi_2x150bp_default.0.527percent_88-scaffolds         50              214              467228           192319 COUNT: 5  2813862           2798581             0                 656(0.02%)                    542(0.02%)                   0(0.00%)                       1727                             32707                            0              99.99         58         15                 10                0                5                0                   63                       2796992                       214                      324550                   135164 COUNT: 8   
