Assembly	NEWBLER_MIS_PE_mrsa_mis-1_bi_2x150bp_default__mrsa_mis-2_bi_2x150bp_default.91coverage.contigs
#Contigs (>= 0 bp)	116
#Contigs (>= 1000 bp)	63
Total length (>= 0 bp)	2774555
Total length (>= 1000 bp)	2762202
#Contigs	81
Largest contig	300744
Total length	2769465
Reference length	2813862
GC (%)	32.67
Reference GC (%)	32.81
N50	112274
NG50	112274
N75	51793
NG75	50346
#misassemblies	2
#local misassemblies	4
#unaligned contigs	1 + 0 part
Unaligned contigs length	5386
Genome fraction (%)	97.929
Duplication ratio	1.000
#N's per 100 kbp	0.00
#mismatches per 100 kbp	1.42
#indels per 100 kbp	0.40
#genes	2648 + 41 part
#predicted genes (unique)	2635
#predicted genes (>= 0 bp)	2635
#predicted genes (>= 300 bp)	2282
#predicted genes (>= 1500 bp)	298
#predicted genes (>= 3000 bp)	28
Largest alignment	300744
NA50	112274
NGA50	112274
NA75	51793
NGA75	50346
