1: PREPARING DATA
2,3: RUNNING mummer AND CREATING CLUSTERS
# reading input file "/vol/codine-tmp/juene/tmp.Ot5p234TSB/quast/gage/tmp/SOAP2_MIS_PE_mtbh37-1_mis_2x250bp_nextera_default_47.final.scaf_broken.ntref" of length 4411533
# construct suffix tree for sequence of length 4411533
# (maximum reference length is 536870908)
# (maximum query length is 4294967295)
# process 44115 characters per dot
#....................................................................................................
# CONSTRUCTIONTIME /vol/ngscomparison/software/analysis/quast-2.1/libs/MUMmer3.23-linux/mummer /vol/codine-tmp/juene/tmp.Ot5p234TSB/quast/gage/tmp/SOAP2_MIS_PE_mtbh37-1_mis_2x250bp_nextera_default_47.final.scaf_broken.ntref 2.18
# reading input file "/vol/codine-tmp/juene/tmp.Ot5p234TSB/quast/corrected_input/SOAP2_MIS_PE_mtbh37-1_mis_2x250bp_nextera_default_47.final.scaf_broken" of length 16254852
# matching query-file "/vol/codine-tmp/juene/tmp.Ot5p234TSB/quast/corrected_input/SOAP2_MIS_PE_mtbh37-1_mis_2x250bp_nextera_default_47.final.scaf_broken"
# against subject-file "/vol/codine-tmp/juene/tmp.Ot5p234TSB/quast/gage/tmp/SOAP2_MIS_PE_mtbh37-1_mis_2x250bp_nextera_default_47.final.scaf_broken.ntref"
# COMPLETETIME /vol/ngscomparison/software/analysis/quast-2.1/libs/MUMmer3.23-linux/mummer /vol/codine-tmp/juene/tmp.Ot5p234TSB/quast/gage/tmp/SOAP2_MIS_PE_mtbh37-1_mis_2x250bp_nextera_default_47.final.scaf_broken.ntref 18.23
# SPACE /vol/ngscomparison/software/analysis/quast-2.1/libs/MUMmer3.23-linux/mummer /vol/codine-tmp/juene/tmp.Ot5p234TSB/quast/gage/tmp/SOAP2_MIS_PE_mtbh37-1_mis_2x250bp_nextera_default_47.final.scaf_broken.ntref 20.72
4: FINISHING DATA
Filtering alignments
Extracting alignment coordinates
Analyzing SNPs
Extracting alignment breakpoints
Generating report file
Found genome size at position 4 with value 4411532 aka 4411532
Calculating point at 0 and the sum is 1000231 and i is5981 and lens is 8460 and length is 299
Calculating point at 1 and the sum is 2000147 and i is1904 and lens is 8460 and length is 212
