Assembly	CLC_MIS_PE_mtbh37-1_mis_2x250bp_nextera_default__mtbh37-2_mis_2x250bp_nextera_default.0.600percent.result_broken	CLC_MIS_PE_mtbh37-1_mis_2x250bp_nextera_default__mtbh37-2_mis_2x250bp_nextera_default.0.600percent.result
#Contigs (>= 0 bp)	640	385
#Contigs (>= 1000 bp)	132	103
Total length (>= 0 bp)	4410479	4421507
Total length (>= 1000 bp)	4330309	4336897
#Contigs	317	385
Largest contig	195886	215109
Total length	4386622	4421507
Reference length	4411532	4411532
GC (%)	65.70	65.83
Reference GC (%)	65.61	65.61
N50	74594	98601
NG50	74594	98601
N75	35667	53025
NG75	34528	53025
#misassemblies	1	2
#local misassemblies	8	21
#unaligned contigs	61 + 45 part	143 + 73 part
Unaligned contigs length	22050	50531
Genome fraction (%)	98.107	98.117
Duplication ratio	1.014	1.020
#N's per 100 kbp	7.07	261.70
#mismatches per 100 kbp	6.98	7.58
#indels per 100 kbp	2.10	3.77
#genes	3960 + 92 part	3975 + 75 part
#predicted genes (unique)	4119	4099
#predicted genes (>= 0 bp)	4120	4101
#predicted genes (>= 300 bp)	3556	3550
#predicted genes (>= 1500 bp)	579	580
#predicted genes (>= 3000 bp)	76	78
Largest alignment	195832	207647
NA50	74594	98601
NGA50	74594	98601
NA75	35666	53025
NGA75	34528	53025
