Assembly	SOAP2_PGM_mrsa_pgm_200bp_es_316_IonOnev2_ts3.0_morestringent.0.230percent_113.final.contig
GAGE_Contigs #	3562
GAGE_Min contig	200
GAGE_Max contig	7866
GAGE_N50	1149 COUNT: 771
GAGE_Genome size	2813862
GAGE_Assembly size	2853638
GAGE_Chaff bases	0
GAGE_Missing reference bases	211977(7.53%)
GAGE_Missing assembly bases	1274(0.04%)
GAGE_Missing assembly contigs	0(0.00%)
GAGE_Duplicated reference bases	166422
GAGE_Compressed reference bases	47890
GAGE_Bad trim	1274
GAGE_Avg idy	99.93
GAGE_SNPs	58
GAGE_Indels < 5bp	1055
GAGE_Indels >= 5	1
GAGE_Inversions	1
GAGE_Relocation	0
GAGE_Translocation	0
GAGE_Corrected contig #	2817
GAGE_Corrected assembly size	2686511
GAGE_Min correct contig	202
GAGE_Max correct contig	7867
GAGE_Corrected N50	1148 COUNT: 771
