1: PREPARING DATA
2,3: RUNNING mummer AND CREATING CLUSTERS
# reading input file "/vol/codine-tmp/juene/tmp.wPsQYHMHYc/quast/contigs_reports/nucmer_output/NEWBLER_MIS_PE_mrsa_mis-1_bi_2x150bp_default__mrsa_mis-2_bi_2x150bp_default.0.300percent.contigs.ntref" of length 2813864
# construct suffix tree for sequence of length 2813864
# (maximum reference length is 536870908)
# (maximum query length is 4294967295)
# process 28138 characters per dot
#....................................................................................................
# CONSTRUCTIONTIME /vol/ngscomparison/software/analysis/quast-2.1/libs/MUMmer3.23-linux/mummer /vol/codine-tmp/juene/tmp.wPsQYHMHYc/quast/contigs_reports/nucmer_output/NEWBLER_MIS_PE_mrsa_mis-1_bi_2x150bp_default__mrsa_mis-2_bi_2x150bp_default.0.300percent.contigs.ntref 1.72
# reading input file "/vol/codine-tmp/juene/tmp.wPsQYHMHYc/quast/corrected_input/NEWBLER_MIS_PE_mrsa_mis-1_bi_2x150bp_default__mrsa_mis-2_bi_2x150bp_default.0.300percent.contigs" of length 2800941
# matching query-file "/vol/codine-tmp/juene/tmp.wPsQYHMHYc/quast/corrected_input/NEWBLER_MIS_PE_mrsa_mis-1_bi_2x150bp_default__mrsa_mis-2_bi_2x150bp_default.0.300percent.contigs"
# against subject-file "/vol/codine-tmp/juene/tmp.wPsQYHMHYc/quast/contigs_reports/nucmer_output/NEWBLER_MIS_PE_mrsa_mis-1_bi_2x150bp_default__mrsa_mis-2_bi_2x150bp_default.0.300percent.contigs.ntref"
# COMPLETETIME /vol/ngscomparison/software/analysis/quast-2.1/libs/MUMmer3.23-linux/mummer /vol/codine-tmp/juene/tmp.wPsQYHMHYc/quast/contigs_reports/nucmer_output/NEWBLER_MIS_PE_mrsa_mis-1_bi_2x150bp_default__mrsa_mis-2_bi_2x150bp_default.0.300percent.contigs.ntref 4.79
# SPACE /vol/ngscomparison/software/analysis/quast-2.1/libs/MUMmer3.23-linux/mummer /vol/codine-tmp/juene/tmp.wPsQYHMHYc/quast/contigs_reports/nucmer_output/NEWBLER_MIS_PE_mrsa_mis-1_bi_2x150bp_default__mrsa_mis-2_bi_2x150bp_default.0.300percent.contigs.ntref 5.44
4: FINISHING DATA
