Assembly	SOAP2_MIS_PE_mrsa_mis-1_bi_2x250bp_default.0.460percent_15.final.scaf_broken	SOAP2_MIS_PE_mrsa_mis-1_bi_2x250bp_default.0.460percent_15.final.scaf
GAGE_Contigs #	2759	3824
GAGE_Min contig	200	200
GAGE_Max contig	976	2401
GAGE_N50	0 COUNT: 0	267 COUNT: 2732
GAGE_Genome size	2813862	2813862
GAGE_Assembly size	780335	1660068
GAGE_Chaff bases	0	0
GAGE_Missing reference bases	2149074(76.37%)	1618649(57.52%)
GAGE_Missing assembly bases	114839(14.72%)	459381(27.67%)
GAGE_Missing assembly contigs	399(14.46%)	434(11.35%)
GAGE_Duplicated reference bases	0	0
GAGE_Compressed reference bases	878	1191
GAGE_Bad trim	5386	103017
GAGE_Avg idy	99.85	99.88
GAGE_SNPs	121	193
GAGE_Indels < 5bp	435	554
GAGE_Indels >= 5	577	4121
GAGE_Inversions	0	1
GAGE_Relocation	0	9
GAGE_Translocation	0	0
GAGE_Corrected contig #	2004	1958
GAGE_Corrected assembly size	548046	537453
GAGE_Min correct contig	200	200
GAGE_Max correct contig	746	746
GAGE_Corrected N50	0 COUNT: 0	0 COUNT: 0
