1: PREPARING DATA
2,3: RUNNING mummer AND CREATING CLUSTERS
# reading input file "/vol/codine-tmp/juene/tmp.ZCvwiKYL8w/quast/gage/tmp/VELVET_PGM_sakai_pgm_mu_200bp_IO_TS3.0Disabled_stringent.0.34percent_141.final.contigs.ntref" of length 5594473
# construct suffix tree for sequence of length 5594473
# (maximum reference length is 536870908)
# (maximum query length is 4294967295)
# process 55944 characters per dot
#....................................................................................................
# CONSTRUCTIONTIME /vol/ngscomparison/software/analysis/quast-2.1/libs/MUMmer3.23-linux/mummer /vol/codine-tmp/juene/tmp.ZCvwiKYL8w/quast/gage/tmp/VELVET_PGM_sakai_pgm_mu_200bp_IO_TS3.0Disabled_stringent.0.34percent_141.final.contigs.ntref 3.51
# reading input file "/vol/codine-tmp/juene/tmp.ZCvwiKYL8w/quast/corrected_input/VELVET_PGM_sakai_pgm_mu_200bp_IO_TS3.0Disabled_stringent.0.34percent_141.final.contigs" of length 4881785
# matching query-file "/vol/codine-tmp/juene/tmp.ZCvwiKYL8w/quast/corrected_input/VELVET_PGM_sakai_pgm_mu_200bp_IO_TS3.0Disabled_stringent.0.34percent_141.final.contigs"
# against subject-file "/vol/codine-tmp/juene/tmp.ZCvwiKYL8w/quast/gage/tmp/VELVET_PGM_sakai_pgm_mu_200bp_IO_TS3.0Disabled_stringent.0.34percent_141.final.contigs.ntref"
# COMPLETETIME /vol/ngscomparison/software/analysis/quast-2.1/libs/MUMmer3.23-linux/mummer /vol/codine-tmp/juene/tmp.ZCvwiKYL8w/quast/gage/tmp/VELVET_PGM_sakai_pgm_mu_200bp_IO_TS3.0Disabled_stringent.0.34percent_141.final.contigs.ntref 9.86
# SPACE /vol/ngscomparison/software/analysis/quast-2.1/libs/MUMmer3.23-linux/mummer /vol/codine-tmp/juene/tmp.ZCvwiKYL8w/quast/gage/tmp/VELVET_PGM_sakai_pgm_mu_200bp_IO_TS3.0Disabled_stringent.0.34percent_141.final.contigs.ntref 10.28
4: FINISHING DATA
Filtering alignments
Extracting alignment coordinates
Analyzing SNPs
Extracting alignment breakpoints
Generating report file
Found genome size at position 4 with value 5594470 aka 5594470
Calculating point at 0 and the sum is 1002223 and i is3305 and lens is 3534 and length is 3210
Calculating point at 1 and the sum is 2001124 and i is2910 and lens is 3534 and length is 2063
Calculating point at 2 and the sum is 3000645 and i is2321 and lens is 3534 and length is 1389
Calculating point at 3 and the sum is 4000081 and i is1415 and lens is 3534 and length is 860
