calling: java -cp /vol/ngscomparison/software/analysis/quast-2.1/libs/gage:. SizeFasta /vol/codine-tmp/juene/tmp.ZCvwiKYL8w/quast/corrected_input/Ecoli_Sakai_editedNew_plasmids.fasta |awk '{SUM+=; print SUM}'|tail -n 1
Contig Stats
Total units: 3563
Reference: 5594470
BasesInFasta: 4878223
Min: 281
Max: 11255
N10: 4100 COUNT: 105
N25: 2657 COUNT: 363
N50: 1533 COUNT: 1065
N75: 765 COUNT: 2340
E-size:1936.28

Genome Size: 5594470
Assembly Size: 4878223
Chaff bases: 0
Missing Reference Bases: 702512(12.56%)
Missing Assembly Bases: 3652(0.07%)
Missing Assembly Contigs: 0(0.00%)
Duplicated Reference Bases: 28570
Compressed Reference Bases: 265491
Bad Trim: 3502
Avg Idy: 99.92
SNPs: 187
Indels < 5bp: 2540
Indels >= 5: 10
Inversions: 4
Relocation: 6
Translocation: 0

Corrected Contig Stats
calling: java -cp /vol/ngscomparison/software/analysis/quast-2.1/libs/gage:.:. GetFastaStats -o -min 199 -genomeSize 5594470 /vol/codine-tmp/juene/tmp.ZCvwiKYL8w/quast/gage/tmp/VELVET_PGM_sakai_pgm_mu_200bp_IO_TS3.0Disabled_stringent.0.34percent_141.final.contigs.matches.lens 2> /dev/null
Total units: 3533
Reference: 5594470
BasesInFasta: 4850349
Min: 264
Max: 11260
N10: 4059 COUNT: 106
N25: 2642 COUNT: 366
N50: 1517 COUNT: 1073
N75: 754 COUNT: 2363
E-size:1916.35

Done
