Assembly	VELVET_PGM_mrsa_pgm_400bp_es_318_IKA_ts3.2_morestringent.0.165percent_61.final.contigs
GAGE_Contigs #	6437
GAGE_Min contig	200
GAGE_Max contig	396
GAGE_N50	201 COUNT: 6167
GAGE_Genome size	2813862
GAGE_Assembly size	1461082
GAGE_Chaff bases	0
GAGE_Missing reference bases	1787248(63.52%)
GAGE_Missing assembly bases	183071(12.53%)
GAGE_Missing assembly contigs	709(11.01%)
GAGE_Duplicated reference bases	120940
GAGE_Compressed reference bases	22943
GAGE_Bad trim	18731
GAGE_Avg idy	97.16
GAGE_SNPs	1599
GAGE_Indels < 5bp	23636
GAGE_Indels >= 5	6
GAGE_Inversions	4
GAGE_Relocation	2
GAGE_Translocation	1
GAGE_Corrected contig #	4666
GAGE_Corrected assembly size	1059899
GAGE_Min correct contig	200
GAGE_Max correct contig	403
GAGE_Corrected N50	0 COUNT: 0
