All statistics are based on contigs of size >= 200 bp, unless otherwise noted (e.g., "# contigs (>= 0 bp)" and "Total length (>= 0 bp)" include all contigs).

Assembly                                   NEWBLER_MIS_PE_mrsa_mis-1_bi_2x250bp_default__mrsa_mis-2_bi_2x250bp_default.0.600percent.contigs_broken  NEWBLER_MIS_PE_mrsa_mis-1_bi_2x250bp_default__mrsa_mis-2_bi_2x250bp_default.0.600percent.contigs
#Contigs                                   42                                                                                                       20                                                                                              
#Contigs (>= 0 bp)                         42                                                                                                       20                                                                                              
#Contigs (>= 1000 bp)                      36                                                                                                       20                                                                                              
Largest contig                             643875                                                                                                   1137766                                                                                         
Total length                               2776610                                                                                                  2787911                                                                                         
Total length (>= 0 bp)                     2776610                                                                                                  2787911                                                                                         
Total length (>= 1000 bp)                  2772303                                                                                                  2787911                                                                                         
Reference length                           2813862                                                                                                  2813862                                                                                         
N50                                        192081                                                                                                   416288                                                                                          
NG50                                       179274                                                                                                   416288                                                                                          
N75                                        109110                                                                                                   304599                                                                                          
NG75                                       87613                                                                                                    304599                                                                                          
L50                                        4                                                                                                        2                                                                                               
LG50                                       5                                                                                                        2                                                                                               
L75                                        9                                                                                                        4                                                                                               
LG75                                       10                                                                                                       4                                                                                               
#local misassemblies                       0                                                                                                        21                                                                                              
#misassemblies                             1                                                                                                        2                                                                                               
#misassembled contigs                      1                                                                                                        2                                                                                               
Misassembled contigs length                157169                                                                                                   312573                                                                                          
Misassemblies inter-contig overlap         0                                                                                                        0                                                                                               
#unaligned contigs                         1 + 0 part                                                                                               1 + 0 part                                                                                      
Unaligned contigs length                   5386                                                                                                     5386                                                                                            
#ambiguously mapped contigs                5                                                                                                        0                                                                                               
Extra bases in ambiguously mapped contigs  -6429                                                                                                    0                                                                                               
#N's                                       0                                                                                                        11301                                                                                           
#N's per 100 kbp                           0.00                                                                                                     405.36                                                                                          
Genome fraction (%)                        98.254                                                                                                   98.483                                                                                          
Duplication ratio                          1.000                                                                                                    1.004                                                                                           
#genes                                     2681 + 22 part                                                                                           2682 + 23 part                                                                                  
#predicted genes (unique)                  2618                                                                                                     2618                                                                                            
#predicted genes (>= 0 bp)                 2619                                                                                                     2619                                                                                            
#predicted genes (>= 300 bp)               2288                                                                                                     2286                                                                                            
#predicted genes (>= 1500 bp)              297                                                                                                      297                                                                                             
#predicted genes (>= 3000 bp)              29                                                                                                       29                                                                                              
#mismatches                                30                                                                                                       33                                                                                              
#indels                                    9                                                                                                        9                                                                                               
Indels length                              9                                                                                                        9                                                                                               
#mismatches per 100 kbp                    1.09                                                                                                     1.19                                                                                            
#indels per 100 kbp                        0.33                                                                                                     0.32                                                                                            
GC (%)                                     32.68                                                                                                    32.68                                                                                           
Reference GC (%)                           32.81                                                                                                    32.81                                                                                           
Average %IDY                               98.562                                                                                                   98.569                                                                                          
Largest alignment                          643875                                                                                                   1135356                                                                                         
NA50                                       192081                                                                                                   415765                                                                                          
NGA50                                      179274                                                                                                   415765                                                                                          
NA75                                       87613                                                                                                    247799                                                                                          
NGA75                                      87613                                                                                                    129756                                                                                          
LA50                                       4                                                                                                        2                                                                                               
LGA50                                      5                                                                                                        2                                                                                               
LA75                                       10                                                                                                       4                                                                                               
LGA75                                      10                                                                                                       5                                                                                               
#Mis_misassemblies                         1                                                                                                        2                                                                                               
#Mis_relocations                           1                                                                                                        2                                                                                               
#Mis_translocations                        0                                                                                                        0                                                                                               
#Mis_inversions                            0                                                                                                        0                                                                                               
#Mis_misassembled contigs                  1                                                                                                        2                                                                                               
Mis_Misassembled contigs length            157169                                                                                                   312573                                                                                          
#Mis_local misassemblies                   0                                                                                                        21                                                                                              
#Mis_short indels (<= 5 bp)                9                                                                                                        9                                                                                               
#Mis_long indels (> 5 bp)                  0                                                                                                        0                                                                                               
#Una_fully unaligned contigs               1                                                                                                        1                                                                                               
Una_Fully unaligned length                 5386                                                                                                     5386                                                                                            
#Una_partially unaligned contigs           0                                                                                                        0                                                                                               
#Una_with misassembly                      0                                                                                                        0                                                                                               
#Una_both parts are significant            0                                                                                                        0                                                                                               
Una_Partially unaligned length             0                                                                                                        0                                                                                               
GAGE_Contigs #                             42                                                                                                       20                                                                                              
GAGE_Min contig                            514                                                                                                      2285                                                                                            
GAGE_Max contig                            643875                                                                                                   1137766                                                                                         
GAGE_N50                                   179274 COUNT: 5                                                                                          416288 COUNT: 2                                                                                 
GAGE_Genome size                           2813862                                                                                                  2813862                                                                                         
GAGE_Assembly size                         2776610                                                                                                  2787911                                                                                         
GAGE_Chaff bases                           0                                                                                                        0                                                                                               
GAGE_Missing reference bases               9577(0.34%)                                                                                              9577(0.34%)                                                                                     
GAGE_Missing assembly bases                5418(0.20%)                                                                                              16719(0.60%)                                                                                    
GAGE_Missing assembly contigs              1(2.38%)                                                                                                 1(5.00%)                                                                                        
GAGE_Duplicated reference bases            0                                                                                                        0                                                                                               
GAGE_Compressed reference bases            34770                                                                                                    34875                                                                                           
GAGE_Bad trim                              32                                                                                                       1                                                                                               
GAGE_Avg idy                               99.99                                                                                                    99.99                                                                                           
GAGE_SNPs                                  31                                                                                                       31                                                                                              
GAGE_Indels < 5bp                          9                                                                                                        9                                                                                               
GAGE_Indels >= 5                           0                                                                                                        13                                                                                              
GAGE_Inversions                            0                                                                                                        0                                                                                               
GAGE_Relocation                            1                                                                                                        5                                                                                               
GAGE_Translocation                         0                                                                                                        0                                                                                               
GAGE_Corrected contig #                    42                                                                                                       42                                                                                              
GAGE_Corrected assembly size               2771197                                                                                                  2771197                                                                                         
GAGE_Min correct contig                    514                                                                                                      514                                                                                             
GAGE_Max correct contig                    643874                                                                                                   643874                                                                                          
GAGE_Corrected N50                         179273 COUNT: 5                                                                                          179273 COUNT: 5                                                                                 
