Assembly	NEWBLER_MIS_PE_mrsa_mis-1_bi_2x250bp_default__mrsa_mis-2_bi_2x250bp_default.0.600percent.contigs_broken	NEWBLER_MIS_PE_mrsa_mis-1_bi_2x250bp_default__mrsa_mis-2_bi_2x250bp_default.0.600percent.contigs
GAGE_Contigs #	42	20
GAGE_Min contig	514	2285
GAGE_Max contig	643875	1137766
GAGE_N50	179274 COUNT: 5	416288 COUNT: 2
GAGE_Genome size	2813862	2813862
GAGE_Assembly size	2776610	2787911
GAGE_Chaff bases	0	0
GAGE_Missing reference bases	9577(0.34%)	9577(0.34%)
GAGE_Missing assembly bases	5418(0.20%)	16719(0.60%)
GAGE_Missing assembly contigs	1(2.38%)	1(5.00%)
GAGE_Duplicated reference bases	0	0
GAGE_Compressed reference bases	34770	34875
GAGE_Bad trim	32	1
GAGE_Avg idy	99.99	99.99
GAGE_SNPs	31	31
GAGE_Indels < 5bp	9	9
GAGE_Indels >= 5	0	13
GAGE_Inversions	0	0
GAGE_Relocation	1	5
GAGE_Translocation	0	0
GAGE_Corrected contig #	42	42
GAGE_Corrected assembly size	2771197	2771197
GAGE_Min correct contig	514	514
GAGE_Max correct contig	643874	643874
GAGE_Corrected N50	179273 COUNT: 5	179273 COUNT: 5
