Assembly	SOAP2_MIS_PE_mtbh37-1_mis_2x250bp_nextera_default_39.final.scaf_broken	SOAP2_MIS_PE_mtbh37-1_mis_2x250bp_nextera_default_39.final.scaf
#Una_fully unaligned contigs	45091	45091
Una_Fully unaligned length	10441328	10441328
#Una_partially unaligned contigs	10	10
#Una_with misassembly	0	0
#Una_both parts are significant	0	0
Una_Partially unaligned length	894	894
#N's	1	98
