All statistics are based on contigs of size >= 200 bp, unless otherwise noted (e.g., "# contigs (>= 0 bp)" and "Total length (>= 0 bp)" include all contigs).

Assembly                                                                                                          GAGE_Contigs #  GAGE_Min contig  GAGE_Max contig  GAGE_N50         GAGE_Genome size  GAGE_Assembly size  GAGE_Chaff bases  GAGE_Missing reference bases  GAGE_Missing assembly bases  GAGE_Missing assembly contigs  GAGE_Duplicated reference bases  GAGE_Compressed reference bases  GAGE_Bad trim  GAGE_Avg idy  GAGE_SNPs  GAGE_Indels < 5bp  GAGE_Indels >= 5  GAGE_Inversions  GAGE_Relocation  GAGE_Translocation  GAGE_Corrected contig #  GAGE_Corrected assembly size  GAGE_Min correct contig  GAGE_Max correct contig  GAGE_Corrected N50
VELVET_MIS_PE_mtbh37-1_mis_2x250bp_nextera_default__mtbh37-2_mis_2x250bp_nextera_default_51.final.contigs_broken  527             201              52911            15431 COUNT: 90  4411532           4245775             0                 120057(2.72%)                 1207(0.03%)                  0(0.00%)                       1817                             54673                            1207           99.98         473        65                 21                0                18               0                   563                      4247678                       201                      52911                    13640 COUNT: 100  
VELVET_MIS_PE_mtbh37-1_mis_2x250bp_nextera_default__mtbh37-2_mis_2x250bp_nextera_default_51.final.contigs         198             201              155893           62710 COUNT: 24  4411532           4269055             0                 117567(2.66%)                 22179(0.52%)                 0(0.00%)                       1549                             54683                            1103           99.95         473        145                311               0                26               0                   531                      4249396                       201                      58111                    14969 COUNT: 95   
