All statistics are based on contigs of size >= 200 bp, unless otherwise noted (e.g., "# contigs (>= 0 bp)" and "Total length (>= 0 bp)" include all contigs).

Assembly                                   ABYSS_PE_MIS_PE_mrsa_mis-1_bi_2x150bp_default__mrsa_mis-2_bi_2x150bp_default.71coverage_84.final_broken  ABYSS_PE_MIS_PE_mrsa_mis-1_bi_2x150bp_default__mrsa_mis-2_bi_2x150bp_default.71coverage_84.final
#Contigs                                   73                                                                                                       55                                                                                              
#Contigs (>= 0 bp)                         160                                                                                                      142                                                                                             
#Contigs (>= 1000 bp)                      56                                                                                                       44                                                                                              
Largest contig                             289084                                                                                                   426517                                                                                          
Total length                               2793563                                                                                                  2794517                                                                                         
Total length (>= 0 bp)                     2805002                                                                                                  2805956                                                                                         
Total length (>= 1000 bp)                  2787261                                                                                                  2789944                                                                                         
Reference length                           2813862                                                                                                  2813862                                                                                         
N50                                        107119                                                                                                   133710                                                                                          
NG50                                       107119                                                                                                   112429                                                                                          
N75                                        46970                                                                                                    73649                                                                                           
NG75                                       46970                                                                                                    73649                                                                                           
L50                                        9                                                                                                        7                                                                                               
LG50                                       9                                                                                                        8                                                                                               
L75                                        19                                                                                                       15                                                                                              
LG75                                       19                                                                                                       15                                                                                              
#local misassemblies                       4                                                                                                        12                                                                                              
#misassemblies                             2                                                                                                        5                                                                                               
#misassembled contigs                      2                                                                                                        4                                                                                               
Misassembled contigs length                149197                                                                                                   239785                                                                                          
Misassemblies inter-contig overlap         1367                                                                                                     3029                                                                                            
#unaligned contigs                         0 + 0 part                                                                                               0 + 0 part                                                                                      
Unaligned contigs length                   0                                                                                                        0                                                                                               
#ambiguously mapped contigs                7                                                                                                        1                                                                                               
Extra bases in ambiguously mapped contigs  -7792                                                                                                    -257                                                                                            
#N's                                       5                                                                                                        959                                                                                             
#N's per 100 kbp                           0.18                                                                                                     34.32                                                                                           
Genome fraction (%)                        98.750                                                                                                   99.059                                                                                          
Duplication ratio                          1.003                                                                                                    1.004                                                                                           
#genes                                     2681 + 28 part                                                                                           2687 + 25 part                                                                                  
#predicted genes (unique)                  2629                                                                                                     2629                                                                                            
#predicted genes (>= 0 bp)                 2641                                                                                                     2641                                                                                            
#predicted genes (>= 300 bp)               2293                                                                                                     2292                                                                                            
#predicted genes (>= 1500 bp)              300                                                                                                      301                                                                                             
#predicted genes (>= 3000 bp)              29                                                                                                       30                                                                                              
#mismatches                                85                                                                                                       96                                                                                              
#indels                                    15                                                                                                       44                                                                                              
Indels length                              17                                                                                                       139                                                                                             
#mismatches per 100 kbp                    3.06                                                                                                     3.44                                                                                            
#indels per 100 kbp                        0.54                                                                                                     1.58                                                                                            
GC (%)                                     32.69                                                                                                    32.69                                                                                           
Reference GC (%)                           32.81                                                                                                    32.81                                                                                           
Average %IDY                               98.639                                                                                                   98.568                                                                                          
Largest alignment                          289084                                                                                                   426417                                                                                          
NA50                                       107119                                                                                                   112429                                                                                          
NGA50                                      107119                                                                                                   112429                                                                                          
NA75                                       46970                                                                                                    73649                                                                                           
NGA75                                      46970                                                                                                    73649                                                                                           
LA50                                       9                                                                                                        8                                                                                               
LGA50                                      9                                                                                                        8                                                                                               
LA75                                       19                                                                                                       15                                                                                              
LGA75                                      19                                                                                                       15                                                                                              
#Mis_misassemblies                         2                                                                                                        5                                                                                               
#Mis_relocations                           2                                                                                                        5                                                                                               
#Mis_translocations                        0                                                                                                        0                                                                                               
#Mis_inversions                            0                                                                                                        0                                                                                               
#Mis_misassembled contigs                  2                                                                                                        4                                                                                               
Mis_Misassembled contigs length            149197                                                                                                   239785                                                                                          
#Mis_local misassemblies                   4                                                                                                        12                                                                                              
#Mis_short indels (<= 5 bp)                15                                                                                                       39                                                                                              
#Mis_long indels (> 5 bp)                  0                                                                                                        5                                                                                               
#Una_fully unaligned contigs               0                                                                                                        0                                                                                               
Una_Fully unaligned length                 0                                                                                                        0                                                                                               
#Una_partially unaligned contigs           0                                                                                                        0                                                                                               
#Una_with misassembly                      0                                                                                                        0                                                                                               
#Una_both parts are significant            0                                                                                                        0                                                                                               
Una_Partially unaligned length             0                                                                                                        0                                                                                               
GAGE_Contigs #                             73                                                                                                       55                                                                                              
GAGE_Min contig                            206                                                                                                      206                                                                                             
GAGE_Max contig                            289084                                                                                                   426517                                                                                          
GAGE_N50                                   107119 COUNT: 9                                                                                          112429 COUNT: 8                                                                                 
GAGE_Genome size                           2813862                                                                                                  2813862                                                                                         
GAGE_Assembly size                         2793563                                                                                                  2794517                                                                                         
GAGE_Chaff bases                           0                                                                                                        0                                                                                               
GAGE_Missing reference bases               1784(0.06%)                                                                                              1709(0.06%)                                                                                     
GAGE_Missing assembly bases                0(0.00%)                                                                                                 915(0.03%)                                                                                      
GAGE_Missing assembly contigs              0(0.00%)                                                                                                 0(0.00%)                                                                                        
GAGE_Duplicated reference bases            2231                                                                                                     257                                                                                             
GAGE_Compressed reference bases            31401                                                                                                    37127                                                                                           
GAGE_Bad trim                              0                                                                                                        0                                                                                               
GAGE_Avg idy                               99.99                                                                                                    99.99                                                                                           
GAGE_SNPs                                  44                                                                                                       44                                                                                              
GAGE_Indels < 5bp                          14                                                                                                       14                                                                                              
GAGE_Indels >= 5                           4                                                                                                        15                                                                                              
GAGE_Inversions                            0                                                                                                        2                                                                                               
GAGE_Relocation                            2                                                                                                        4                                                                                               
GAGE_Translocation                         0                                                                                                        0                                                                                               
GAGE_Corrected contig #                    77                                                                                                       76                                                                                              
GAGE_Corrected assembly size               2792412                                                                                                  2794425                                                                                         
GAGE_Min correct contig                    206                                                                                                      206                                                                                             
GAGE_Max correct contig                    289083                                                                                                   289083                                                                                          
GAGE_Corrected N50                         87522 COUNT: 10                                                                                          87522 COUNT: 10                                                                                 
