1: PREPARING DATA
2,3: RUNNING mummer AND CREATING CLUSTERS
# reading input file "/vol/codine-tmp/juene/tmp.N5RW3xX5rR/quast/contigs_reports/nucmer_output/VELVET_PGM_mtbh37_pgm_400bp_es_318v2_OT2_tsv3.6_morestringent_65.final.contigs.ntref" of length 4411533
# construct suffix tree for sequence of length 4411533
# (maximum reference length is 536870908)
# (maximum query length is 4294967295)
# process 44115 characters per dot
#....................................................................................................
# CONSTRUCTIONTIME /vol/ngscomparison/software/analysis/quast-2.1/libs/MUMmer3.23-linux/mummer /vol/codine-tmp/juene/tmp.N5RW3xX5rR/quast/contigs_reports/nucmer_output/VELVET_PGM_mtbh37_pgm_400bp_es_318v2_OT2_tsv3.6_morestringent_65.final.contigs.ntref 2.47
# reading input file "/vol/codine-tmp/juene/tmp.N5RW3xX5rR/quast/corrected_input/VELVET_PGM_mtbh37_pgm_400bp_es_318v2_OT2_tsv3.6_morestringent_65.final.contigs" of length 2373078
# matching query-file "/vol/codine-tmp/juene/tmp.N5RW3xX5rR/quast/corrected_input/VELVET_PGM_mtbh37_pgm_400bp_es_318v2_OT2_tsv3.6_morestringent_65.final.contigs"
# against subject-file "/vol/codine-tmp/juene/tmp.N5RW3xX5rR/quast/contigs_reports/nucmer_output/VELVET_PGM_mtbh37_pgm_400bp_es_318v2_OT2_tsv3.6_morestringent_65.final.contigs.ntref"
# COMPLETETIME /vol/ngscomparison/software/analysis/quast-2.1/libs/MUMmer3.23-linux/mummer /vol/codine-tmp/juene/tmp.N5RW3xX5rR/quast/contigs_reports/nucmer_output/VELVET_PGM_mtbh37_pgm_400bp_es_318v2_OT2_tsv3.6_morestringent_65.final.contigs.ntref 4.87
# SPACE /vol/ngscomparison/software/analysis/quast-2.1/libs/MUMmer3.23-linux/mummer /vol/codine-tmp/juene/tmp.N5RW3xX5rR/quast/contigs_reports/nucmer_output/VELVET_PGM_mtbh37_pgm_400bp_es_318v2_OT2_tsv3.6_morestringent_65.final.contigs.ntref 6.81
4: FINISHING DATA
