Assembly	VELVET_PGM_sakai_pgm_mu_200bp_IO_TS3.0Disabled_stringent.0.34percent_51.final.contigs
#Contigs	1422
#Contigs (>= 0 bp)	1894
#Contigs (>= 1000 bp)	823
Largest contig	40918
Total length	5291507
Total length (>= 0 bp)	5360220
Total length (>= 1000 bp)	5019115
Reference length	5594470
N50	8857
NG50	8321
N75	4792
NG75	3887
L50	184
LG50	202
L75	383
LG75	435
#local misassemblies	10
#misassemblies	4
#misassembled contigs	4
Misassembled contigs length	39227
Misassemblies inter-contig overlap	1260
#unaligned contigs	1 + 0 part
Unaligned contigs length	827
#ambiguously mapped contigs	167
Extra bases in ambiguously mapped contigs	-79372
#N's	10
#N's per 100 kbp	0.19
Genome fraction (%)	92.880
Duplication ratio	1.003
#genes	4271 + 749 part
#predicted genes (unique)	6737
#predicted genes (>= 0 bp)	6740
#predicted genes (>= 300 bp)	4998
#predicted genes (>= 1500 bp)	423
#predicted genes (>= 3000 bp)	23
#mismatches	214
#indels	2486
Indels length	2649
#mismatches per 100 kbp	4.12
#indels per 100 kbp	47.84
GC (%)	50.26
Reference GC (%)	50.48
Average %IDY	99.720
Largest alignment	40918
NA50	8754
NGA50	8321
NA75	4782
NGA75	3875
LA50	185
LGA50	202
LA75	384
LGA75	436
#Mis_misassemblies	4
#Mis_relocations	4
#Mis_translocations	0
#Mis_inversions	0
#Mis_misassembled contigs	4
Mis_Misassembled contigs length	39227
#Mis_local misassemblies	10
#Mis_short indels (<= 5 bp)	2484
#Mis_long indels (> 5 bp)	2
#Una_fully unaligned contigs	1
Una_Fully unaligned length	827
#Una_partially unaligned contigs	0
#Una_with misassembly	0
#Una_both parts are significant	0
Una_Partially unaligned length	0
GAGE_Contigs #	1422
GAGE_Min contig	200
GAGE_Max contig	40918
GAGE_N50	8321 COUNT: 202
GAGE_Genome size	5594470
GAGE_Assembly size	5291507
GAGE_Chaff bases	0
GAGE_Missing reference bases	149506(2.67%)
GAGE_Missing assembly bases	79(0.00%)
GAGE_Missing assembly contigs	0(0.00%)
GAGE_Duplicated reference bases	2430
GAGE_Compressed reference bases	189430
GAGE_Bad trim	69
GAGE_Avg idy	99.94
GAGE_SNPs	197
GAGE_Indels < 5bp	2671
GAGE_Indels >= 5	8
GAGE_Inversions	2
GAGE_Relocation	6
GAGE_Translocation	0
GAGE_Corrected contig #	1429
GAGE_Corrected assembly size	5292374
GAGE_Min correct contig	200
GAGE_Max correct contig	40934
GAGE_Corrected N50	8246 COUNT: 204
