Assembly	CLC_PGM_sakai_pgm_mu_318_400bp_IO_TS3.4_ms.0.25percent.result
GAGE_Contigs #	629
GAGE_Min contig	201
GAGE_Max contig	235458
GAGE_N50	49362 COUNT: 36
GAGE_Genome size	5594470
GAGE_Assembly size	5427993
GAGE_Chaff bases	0
GAGE_Missing reference bases	23534(0.42%)
GAGE_Missing assembly bases	1225(0.02%)
GAGE_Missing assembly contigs	3(0.48%)
GAGE_Duplicated reference bases	56324
GAGE_Compressed reference bases	236634
GAGE_Bad trim	186
GAGE_Avg idy	99.99
GAGE_SNPs	107
GAGE_Indels < 5bp	509
GAGE_Indels >= 5	5
GAGE_Inversions	1
GAGE_Relocation	5
GAGE_Translocation	0
GAGE_Corrected contig #	459
GAGE_Corrected assembly size	5371437
GAGE_Min correct contig	203
GAGE_Max correct contig	235473
GAGE_Corrected N50	47327 COUNT: 37
