Assembly	ABYSS_PE_MIS_PE_sakai_mis-both_bi_2x250bp_SI_default.0.64percent.NEWBLER_122-scaffolds_broken	ABYSS_PE_MIS_PE_sakai_mis-both_bi_2x250bp_SI_default.0.64percent.NEWBLER_122-scaffolds
#Mis_misassemblies	10	21
#Mis_relocations	9	20
#Mis_translocations	1	1
#Mis_inversions	0	0
#Mis_misassembled contigs	10	20
Mis_Misassembled contigs length	364994	457127
#Mis_local misassemblies	4	16
#mismatches	561	570
#indels	48	143
#Mis_short indels (<= 5 bp)	38	131
#Mis_long indels (> 5 bp)	10	12
Indels length	288	429
