All statistics are based on contigs of size >= 200 bp, unless otherwise noted (e.g., "# contigs (>= 0 bp)" and "Total length (>= 0 bp)" include all contigs).

Assembly                                   ABYSS_PE_MIS_PE_sakai_mis-1_bi_2x250bp_SI_default__sakai_mis-2_bi_2x250bp_SI_default.61coverage_84.final_broken  ABYSS_PE_MIS_PE_sakai_mis-1_bi_2x250bp_SI_default__sakai_mis-2_bi_2x250bp_SI_default.61coverage_84.final
#Contigs                                   379                                                                                                              352                                                                                                     
#Contigs (>= 0 bp)                         804                                                                                                              777                                                                                                     
#Contigs (>= 1000 bp)                      219                                                                                                              218                                                                                                     
Largest contig                             227354                                                                                                           227354                                                                                                  
Total length                               5447322                                                                                                          5448697                                                                                                 
Total length (>= 0 bp)                     5505744                                                                                                          5507119                                                                                                 
Total length (>= 1000 bp)                  5376757                                                                                                          5392079                                                                                                 
Reference length                           5594470                                                                                                          5594470                                                                                                 
N50                                        95334                                                                                                            117701                                                                                                  
NG50                                       87520                                                                                                            117701                                                                                                  
N75                                        40822                                                                                                            40822                                                                                                   
NG75                                       36735                                                                                                            39241                                                                                                   
L50                                        19                                                                                                               18                                                                                                      
LG50                                       20                                                                                                               18                                                                                                      
L75                                        41                                                                                                               38                                                                                                      
LG75                                       44                                                                                                               40                                                                                                      
#local misassemblies                       2                                                                                                                12                                                                                                      
#misassemblies                             3                                                                                                                9                                                                                                       
#misassembled contigs                      3                                                                                                                9                                                                                                       
Misassembled contigs length                203232                                                                                                           224436                                                                                                  
Misassemblies inter-contig overlap         1080                                                                                                             2387                                                                                                    
#unaligned contigs                         0 + 0 part                                                                                                       0 + 0 part                                                                                              
Unaligned contigs length                   0                                                                                                                0                                                                                                       
#ambiguously mapped contigs                64                                                                                                               45                                                                                                      
Extra bases in ambiguously mapped contigs  -74674                                                                                                           -61220                                                                                                  
#N's                                       41                                                                                                               1416                                                                                                    
#N's per 100 kbp                           0.75                                                                                                             25.99                                                                                                   
Genome fraction (%)                        95.706                                                                                                           95.964                                                                                                  
Duplication ratio                          1.004                                                                                                            1.004                                                                                                   
#genes                                     5012 + 213 part                                                                                                  5023 + 218 part                                                                                         
#predicted genes (unique)                  5365                                                                                                             5359                                                                                                    
#predicted genes (>= 0 bp)                 5419                                                                                                             5413                                                                                                    
#predicted genes (>= 300 bp)               4496                                                                                                             4497                                                                                                    
#predicted genes (>= 1500 bp)              684                                                                                                              684                                                                                                     
#predicted genes (>= 3000 bp)              67                                                                                                               67                                                                                                      
#mismatches                                424                                                                                                              445                                                                                                     
#indels                                    39                                                                                                               229                                                                                                     
Indels length                              285                                                                                                              601                                                                                                     
#mismatches per 100 kbp                    7.92                                                                                                             8.29                                                                                                    
#indels per 100 kbp                        0.73                                                                                                             4.27                                                                                                    
GC (%)                                     50.36                                                                                                            50.36                                                                                                   
Reference GC (%)                           50.48                                                                                                            50.48                                                                                                   
Average %IDY                               98.761                                                                                                           98.738                                                                                                  
Largest alignment                          227354                                                                                                           227354                                                                                                  
NA50                                       95334                                                                                                            117701                                                                                                  
NGA50                                      87520                                                                                                            117701                                                                                                  
NA75                                       39876                                                                                                            40822                                                                                                   
NGA75                                      35893                                                                                                            36735                                                                                                   
LA50                                       19                                                                                                               18                                                                                                      
LGA50                                      20                                                                                                               18                                                                                                      
LA75                                       42                                                                                                               38                                                                                                      
LGA75                                      45                                                                                                               41                                                                                                      
#Mis_misassemblies                         3                                                                                                                9                                                                                                       
#Mis_relocations                           3                                                                                                                9                                                                                                       
#Mis_translocations                        0                                                                                                                0                                                                                                       
#Mis_inversions                            0                                                                                                                0                                                                                                       
#Mis_misassembled contigs                  3                                                                                                                9                                                                                                       
Mis_Misassembled contigs length            203232                                                                                                           224436                                                                                                  
#Mis_local misassemblies                   2                                                                                                                12                                                                                                      
#Mis_short indels (<= 5 bp)                27                                                                                                               212                                                                                                     
#Mis_long indels (> 5 bp)                  12                                                                                                               17                                                                                                      
#Una_fully unaligned contigs               0                                                                                                                0                                                                                                       
Una_Fully unaligned length                 0                                                                                                                0                                                                                                       
#Una_partially unaligned contigs           0                                                                                                                0                                                                                                       
#Una_with misassembly                      0                                                                                                                0                                                                                                       
#Una_both parts are significant            0                                                                                                                0                                                                                                       
Una_Partially unaligned length             0                                                                                                                0                                                                                                       
GAGE_Contigs #                             379                                                                                                              352                                                                                                     
GAGE_Min contig                            200                                                                                                              200                                                                                                     
GAGE_Max contig                            227354                                                                                                           227354                                                                                                  
GAGE_N50                                   87520 COUNT: 20                                                                                                  117701 COUNT: 18                                                                                        
GAGE_Genome size                           5594470                                                                                                          5594470                                                                                                 
GAGE_Assembly size                         5447322                                                                                                          5448697                                                                                                 
GAGE_Chaff bases                           0                                                                                                                0                                                                                                       
GAGE_Missing reference bases               16552(0.30%)                                                                                                     16547(0.30%)                                                                                            
GAGE_Missing assembly bases                34(0.00%)                                                                                                        1323(0.02%)                                                                                             
GAGE_Missing assembly contigs              0(0.00%)                                                                                                         0(0.00%)                                                                                                
GAGE_Duplicated reference bases            22308                                                                                                            22426                                                                                                   
GAGE_Compressed reference bases            275867                                                                                                           277258                                                                                                  
GAGE_Bad trim                              0                                                                                                                200                                                                                                     
GAGE_Avg idy                               99.99                                                                                                            99.99                                                                                                   
GAGE_SNPs                                  354                                                                                                              352                                                                                                     
GAGE_Indels < 5bp                          33                                                                                                               36                                                                                                      
GAGE_Indels >= 5                           13                                                                                                               27                                                                                                      
GAGE_Inversions                            2                                                                                                                3                                                                                                       
GAGE_Relocation                            2                                                                                                                6                                                                                                       
GAGE_Translocation                         0                                                                                                                0                                                                                                       
GAGE_Corrected contig #                    361                                                                                                              359                                                                                                     
GAGE_Corrected assembly size               5425806                                                                                                          5425777                                                                                                 
GAGE_Min correct contig                    204                                                                                                              204                                                                                                     
GAGE_Max correct contig                    227354                                                                                                           227354                                                                                                  
GAGE_Corrected N50                         72447 COUNT: 24                                                                                                  72447 COUNT: 24                                                                                         
