All statistics are based on contigs of size >= 200 bp, unless otherwise noted (e.g., "# contigs (>= 0 bp)" and "Total length (>= 0 bp)" include all contigs).

Assembly                                                                                                         #Contigs (>= 0 bp)  #Contigs (>= 1000 bp)  Total length (>= 0 bp)  Total length (>= 1000 bp)  #Contigs  Largest contig  Total length  Reference length  GC (%)  Reference GC (%)  N50     NG50    N75    NG75   #misassemblies  #local misassemblies  #unaligned contigs  Unaligned contigs length  Genome fraction (%)  Duplication ratio  #N's per 100 kbp  #mismatches per 100 kbp  #indels per 100 kbp  #genes           #predicted genes (unique)  #predicted genes (>= 0 bp)  #predicted genes (>= 300 bp)  #predicted genes (>= 1500 bp)  #predicted genes (>= 3000 bp)  Largest alignment  NA50    NGA50   NA75   NGA75
ABYSS_PE_MIS_PE_sakai_mis-1_bi_2x250bp_SI_default__sakai_mis-2_bi_2x250bp_SI_default.61coverage_84.final_broken  804                 219                    5505744                 5376757                    379       227354          5447322       5594470           50.36   50.48             95334   87520   40822  36735  3               2                     0 + 0 part          0                         95.706               1.004              0.75              7.92                     0.73                 5012 + 213 part  5365                       5419                        4496                          684                            67                             227354             95334   87520   39876  35893
ABYSS_PE_MIS_PE_sakai_mis-1_bi_2x250bp_SI_default__sakai_mis-2_bi_2x250bp_SI_default.61coverage_84.final         777                 218                    5507119                 5392079                    352       227354          5448697       5594470           50.36   50.48             117701  117701  40822  39241  9               12                    0 + 0 part          0                         95.964               1.004              25.99             8.29                     4.27                 5023 + 218 part  5359                       5413                        4497                          684                            67                             227354             117701  117701  40822  36735
