All statistics are based on contigs of size >= 200 bp, unless otherwise noted (e.g., "# contigs (>= 0 bp)" and "Total length (>= 0 bp)" include all contigs).

Assembly                                                                                                    #Contigs  #Contigs (>= 0 bp)  #Contigs (>= 1000 bp)  Largest contig  Total length  Total length (>= 0 bp)  Total length (>= 1000 bp)  Reference length  N50     NG50    N75    NG75   L50  LG50  L75  LG75  #local misassemblies  #misassemblies  #misassembled contigs  Misassembled contigs length  Misassemblies inter-contig overlap  #unaligned contigs  Unaligned contigs length  #ambiguously mapped contigs  Extra bases in ambiguously mapped contigs  #N's  #N's per 100 kbp  Genome fraction (%)  Duplication ratio  #genes          #predicted genes (unique)  #predicted genes (>= 0 bp)  #predicted genes (>= 300 bp)  #predicted genes (>= 1500 bp)  #predicted genes (>= 3000 bp)  #mismatches  #indels  Indels length  #mismatches per 100 kbp  #indels per 100 kbp  GC (%)  Reference GC (%)  Average %IDY  Largest alignment  NA50    NGA50   NA75   NGA75  LA50  LGA50  LA75  LGA75  #Mis_misassemblies  #Mis_relocations  #Mis_translocations  #Mis_inversions  #Mis_misassembled contigs  Mis_Misassembled contigs length  #Mis_local misassemblies  #Mis_short indels (<= 5 bp)  #Mis_long indels (> 5 bp)  #Una_fully unaligned contigs  Una_Fully unaligned length  #Una_partially unaligned contigs  #Una_with misassembly  #Una_both parts are significant  Una_Partially unaligned length  GAGE_Contigs #  GAGE_Min contig  GAGE_Max contig  GAGE_N50         GAGE_Genome size  GAGE_Assembly size  GAGE_Chaff bases  GAGE_Missing reference bases  GAGE_Missing assembly bases  GAGE_Missing assembly contigs  GAGE_Duplicated reference bases  GAGE_Compressed reference bases  GAGE_Bad trim  GAGE_Avg idy  GAGE_SNPs  GAGE_Indels < 5bp  GAGE_Indels >= 5  GAGE_Inversions  GAGE_Relocation  GAGE_Translocation  GAGE_Corrected contig #  GAGE_Corrected assembly size  GAGE_Min correct contig  GAGE_Max correct contig  GAGE_Corrected N50
ABYSS_PE_MIS_PE_mrsa_mis-1_bi_2x250bp_default__mrsa_mis-2_bi_2x250bp_default.0.990percent_114.final_broken  183       289                 57                     457329          2804910       2820132                 2767174                    2813862           107610  107610  47030  47030  8    8     18   18    0                     4               4                      69033                        19                                  0 + 2 part          26                        28                           -12718                                     0     0.00              98.682               1.006              2665 + 46 part  2716                       2721                        2293                          298                            30                             42           9        9              1.51                     0.32                 32.68   32.81             98.822        457329             107610  107610  47030  47030  8     8      18    18     4                   4                 0                    0                4                          69033                            0                         9                            0                          0                             0                           2                                 0                      0                                26                              183             200              457329           107610 COUNT: 8  2813862           2804910             0                 128(0.00%)                    26(0.00%)                    0(0.00%)                       10314                            32710                            26             99.99         40         6                  0                 0                2                0                   137                      2794397                       200                      457328                   107611 COUNT: 8   
ABYSS_PE_MIS_PE_mrsa_mis-1_bi_2x250bp_default__mrsa_mis-2_bi_2x250bp_default.0.990percent_114.final         183       289                 57                     457329          2804910       2820132                 2767174                    2813862           107610  107610  47030  47030  8    8     18   18    0                     4               4                      69033                        19                                  0 + 2 part          26                        28                           -12718                                     0     0.00              98.682               1.006              2665 + 46 part  2716                       2721                        2293                          298                            30                             42           9        9              1.51                     0.32                 32.68   32.81             98.822        457329             107610  107610  47030  47030  8     8      18    18     4                   4                 0                    0                4                          69033                            0                         9                            0                          0                             0                           2                                 0                      0                                26                              183             200              457329           107610 COUNT: 8  2813862           2804910             0                 128(0.00%)                    26(0.00%)                    0(0.00%)                       10314                            32710                            26             99.99         40         6                  0                 0                2                0                   137                      2794397                       200                      457328                   107611 COUNT: 8   
