Assembly	ABYSS_PE_PGM_sakai_pgm_mu_318_400bp_IO_TS3.4_ms.51coverage_64.final
GAGE_Contigs #	1089
GAGE_Min contig	200
GAGE_Max contig	54446
GAGE_N50	14328 COUNT: 111
GAGE_Genome size	5594470
GAGE_Assembly size	5276923
GAGE_Chaff bases	0
GAGE_Missing reference bases	182138(3.26%)
GAGE_Missing assembly bases	10(0.00%)
GAGE_Missing assembly contigs	0(0.00%)
GAGE_Duplicated reference bases	3420
GAGE_Compressed reference bases	166651
GAGE_Bad trim	10
GAGE_Avg idy	99.99
GAGE_SNPs	122
GAGE_Indels < 5bp	321
GAGE_Indels >= 5	5
GAGE_Inversions	0
GAGE_Relocation	5
GAGE_Translocation	0
GAGE_Corrected contig #	1084
GAGE_Corrected assembly size	5274087
GAGE_Min correct contig	200
GAGE_Max correct contig	54448
GAGE_Corrected N50	14328 COUNT: 112
