1: PREPARING DATA
2,3: RUNNING mummer AND CREATING CLUSTERS
# reading input file "/vol/codine-tmp/juene/tmp.X0iR2LdYxy/quast/contigs_reports/nucmer_output/VELVET_PGM_sakai_pgm_mu_200bp_IO_TS3.0Disabled_stringent.0.34percent_149.final.contigs.ntref" of length 5594473
# construct suffix tree for sequence of length 5594473
# (maximum reference length is 536870908)
# (maximum query length is 4294967295)
# process 55944 characters per dot
#....................................................................................................
# CONSTRUCTIONTIME /vol/ngscomparison/software/analysis/quast-2.1/libs/MUMmer3.23-linux/mummer /vol/codine-tmp/juene/tmp.X0iR2LdYxy/quast/contigs_reports/nucmer_output/VELVET_PGM_sakai_pgm_mu_200bp_IO_TS3.0Disabled_stringent.0.34percent_149.final.contigs.ntref 2.86
# reading input file "/vol/codine-tmp/juene/tmp.X0iR2LdYxy/quast/corrected_input/VELVET_PGM_sakai_pgm_mu_200bp_IO_TS3.0Disabled_stringent.0.34percent_149.final.contigs" of length 4701232
# matching query-file "/vol/codine-tmp/juene/tmp.X0iR2LdYxy/quast/corrected_input/VELVET_PGM_sakai_pgm_mu_200bp_IO_TS3.0Disabled_stringent.0.34percent_149.final.contigs"
# against subject-file "/vol/codine-tmp/juene/tmp.X0iR2LdYxy/quast/contigs_reports/nucmer_output/VELVET_PGM_sakai_pgm_mu_200bp_IO_TS3.0Disabled_stringent.0.34percent_149.final.contigs.ntref"
# COMPLETETIME /vol/ngscomparison/software/analysis/quast-2.1/libs/MUMmer3.23-linux/mummer /vol/codine-tmp/juene/tmp.X0iR2LdYxy/quast/contigs_reports/nucmer_output/VELVET_PGM_sakai_pgm_mu_200bp_IO_TS3.0Disabled_stringent.0.34percent_149.final.contigs.ntref 7.47
# SPACE /vol/ngscomparison/software/analysis/quast-2.1/libs/MUMmer3.23-linux/mummer /vol/codine-tmp/juene/tmp.X0iR2LdYxy/quast/contigs_reports/nucmer_output/VELVET_PGM_sakai_pgm_mu_200bp_IO_TS3.0Disabled_stringent.0.34percent_149.final.contigs.ntref 10.12
4: FINISHING DATA
