All statistics are based on contigs of size >= 200 bp, unless otherwise noted (e.g., "# contigs (>= 0 bp)" and "Total length (>= 0 bp)" include all contigs).

Assembly                                                                                                         #Contigs  #Contigs (>= 0 bp)  #Contigs (>= 1000 bp)  Largest contig  Total length  Total length (>= 0 bp)  Total length (>= 1000 bp)  Reference length  N50     NG50    N75    NG75   L50  LG50  L75  LG75  #local misassemblies  #misassemblies  #misassembled contigs  Misassembled contigs length  Misassemblies inter-contig overlap  #unaligned contigs  Unaligned contigs length  #ambiguously mapped contigs  Extra bases in ambiguously mapped contigs  #N's  #N's per 100 kbp  Genome fraction (%)  Duplication ratio  #genes           #predicted genes (unique)  #predicted genes (>= 0 bp)  #predicted genes (>= 300 bp)  #predicted genes (>= 1500 bp)  #predicted genes (>= 3000 bp)  #mismatches  #indels  Indels length  #mismatches per 100 kbp  #indels per 100 kbp  GC (%)  Reference GC (%)  Average %IDY  Largest alignment  NA50    NGA50   NA75   NGA75  LA50  LGA50  LA75  LGA75  #Mis_misassemblies  #Mis_relocations  #Mis_translocations  #Mis_inversions  #Mis_misassembled contigs  Mis_Misassembled contigs length  #Mis_local misassemblies  #Mis_short indels (<= 5 bp)  #Mis_long indels (> 5 bp)  #Una_fully unaligned contigs  Una_Fully unaligned length  #Una_partially unaligned contigs  #Una_with misassembly  #Una_both parts are significant  Una_Partially unaligned length  GAGE_Contigs #  GAGE_Min contig  GAGE_Max contig  GAGE_N50          GAGE_Genome size  GAGE_Assembly size  GAGE_Chaff bases  GAGE_Missing reference bases  GAGE_Missing assembly bases  GAGE_Missing assembly contigs  GAGE_Duplicated reference bases  GAGE_Compressed reference bases  GAGE_Bad trim  GAGE_Avg idy  GAGE_SNPs  GAGE_Indels < 5bp  GAGE_Indels >= 5  GAGE_Inversions  GAGE_Relocation  GAGE_Translocation  GAGE_Corrected contig #  GAGE_Corrected assembly size  GAGE_Min correct contig  GAGE_Max correct contig  GAGE_Corrected N50
ABYSS_PE_MIS_PE_sakai_mis-1_bi_2x150bp_default__sakai_mis-2_bi_2x150bp_default.0.826percent_34-scaffolds_broken  287       2044                190                    251464          5352446       5479434                 5302974                    5594470           87517   74710   41054  36530  19   21    43   47    12                    3               3                      211486                       61655                               0 + 0 part          0                         59                           -44876                                     105   1.96              94.017               1.021              4917 + 173 part  5147                       5224                        4407                          670                            71                             1026         84       246            19.51                    1.60                 50.31   50.48             99.322        251464             87517   74710   41054  33446  19    21     43    48     3                   3                 0                    0                3                          211486                           12                        77                           7                          0                             0                           0                                 0                      0                                0                               287             203              251464           74710 COUNT: 21   5594470           5352446             0                 142833(2.55%)                 45(0.00%)                    0(0.00%)                       17205                            183551                           43             99.97         708        34                 15                0                6                0                   299                      5337187                       203                      219503                   66513 COUNT: 24   
ABYSS_PE_MIS_PE_sakai_mis-1_bi_2x150bp_default__sakai_mis-2_bi_2x150bp_default.0.826percent_34-scaffolds         198       1946                145                    375067          5359744       5485842                 5331237                    5594470           145586  124517  67878  46752  12   13    27   30    55                    20              16                     822179                       62428                               2 + 2 part          1816                      30                           -22347                                     6513  121.52            94.390               1.022              4945 + 174 part  5137                       5210                        4411                          670                            70                             1045         371      815            19.79                    7.03                 50.31   50.48             99.215        352951             145437  124517  67713  46752  13    14     28    31     20                  20                0                    0                16                         822179                           55                        351                          20                         2                             1104                        2                                 0                      2                                712                             198             204              375067           124517 COUNT: 13  5594470           5359744             0                 145878(2.61%)                 6721(0.13%)                  0(0.00%)                       13437                            194338                           1575           99.96         671        46                 62                8                21               1                   291                      5341604                       204                      219503                   67098 COUNT: 24   
