Assembly	VELVET_PGM_mrsa_pgm_400bp_es_318_IKA_ts3.2_morestringent.0.165percent_59.final.contigs
#Una_fully unaligned contigs	5174
Una_Fully unaligned length	1169780
#Una_partially unaligned contigs	1
#Una_with misassembly	0
#Una_both parts are significant	0
Una_Partially unaligned length	58
#N's	0
