Assembly	GAGE_Contigs #	GAGE_Min contig	GAGE_Max contig	GAGE_N50	GAGE_Genome size	GAGE_Assembly size	GAGE_Chaff bases	GAGE_Missing reference bases	GAGE_Missing assembly bases	GAGE_Missing assembly contigs	GAGE_Duplicated reference bases	GAGE_Compressed reference bases	GAGE_Bad trim	GAGE_Avg idy	GAGE_SNPs	GAGE_Indels < 5bp	GAGE_Indels >= 5	GAGE_Inversions	GAGE_Relocation	GAGE_Translocation	GAGE_Corrected contig #	GAGE_Corrected assembly size	GAGE_Min correct contig	GAGE_Max correct contig	GAGE_Corrected N50
NEWBLER_MIS_PE_sakai_mis-1_bi_2x250bp_SI_default__sakai_mis-2_bi_2x250bp_SI_default.0.175percent.contigs_broken	190	506	238176	89343 COUNT: 20	5594470	5238244	0	188972(3.38%)	5445(0.10%)	1(0.53%)	0	175313	58	99.99	172	18	4	0	3	0	196	5233234	329	238176	84224 COUNT: 21
NEWBLER_MIS_PE_sakai_mis-1_bi_2x250bp_SI_default__sakai_mis-2_bi_2x250bp_SI_default.0.175percent.contigs	104	2010	376595	111908 COUNT: 14	5594470	5289912	0	188972(3.38%)	57111(1.08%)	1(0.96%)	0	175486	1	99.99	173	18	62	11	19	0	196	5233236	329	238176	84224 COUNT: 21
