Assembly	VELVET_PGM_mrsa_pgm_400bp_es_318_IKA_ts3.2_morestringent.0.165percent_145.final.contigs
GAGE_Contigs #	10244
GAGE_Min contig	289
GAGE_Max contig	1457
GAGE_N50	331 COUNT: 3640
GAGE_Genome size	2813862
GAGE_Assembly size	3407546
GAGE_Chaff bases	0
GAGE_Missing reference bases	990285(35.19%)
GAGE_Missing assembly bases	1607(0.05%)
GAGE_Missing assembly contigs	2(0.02%)
GAGE_Duplicated reference bases	1195819
GAGE_Compressed reference bases	51418
GAGE_Bad trim	907
GAGE_Avg idy	99.33
GAGE_SNPs	874
GAGE_Indels < 5bp	9580
GAGE_Indels >= 5	1
GAGE_Inversions	15
GAGE_Relocation	9
GAGE_Translocation	5
GAGE_Corrected contig #	6494
GAGE_Corrected assembly size	2190849
GAGE_Min correct contig	200
GAGE_Max correct contig	1202
GAGE_Corrected N50	309 COUNT: 3830
