Assembly	ABYSS_PE_MIS_PE_sakai_mis-1_bi_2x250bp_SI_default__sakai_mis-2_bi_2x250bp_SI_default.0.05percent_38.final_broken	ABYSS_PE_MIS_PE_sakai_mis-1_bi_2x250bp_SI_default__sakai_mis-2_bi_2x250bp_SI_default.0.05percent_38.final
#Contigs	3424	3424
#Contigs (>= 0 bp)	5338	5338
#Contigs (>= 1000 bp)	1665	1665
Largest contig	12620	12620
Total length	4836723	4836723
Total length (>= 0 bp)	5005600	5005600
Total length (>= 1000 bp)	3919062	3919062
Reference length	5594470	5594470
N50	2212	2212
NG50	1882	1882
N75	1224	1224
NG75	772	772
L50	679	679
LG50	864	864
L75	1404	1404
LG75	1981	1981
#local misassemblies	1	1
#misassemblies	1	1
#misassembled contigs	1	1
Misassembled contigs length	590	590
Misassemblies inter-contig overlap	5	5
#unaligned contigs	4 + 1 part	4 + 1 part
Unaligned contigs length	4203	4203
#ambiguously mapped contigs	115	115
Extra bases in ambiguously mapped contigs	-75038	-75038
#N's	0	0
#N's per 100 kbp	0.00	0.00
Genome fraction (%)	84.916	84.916
Duplication ratio	1.001	1.001
#genes	2503 + 2354 part	2503 + 2354 part
#predicted genes (unique)	6967	6967
#predicted genes (>= 0 bp)	6967	6967
#predicted genes (>= 300 bp)	4892	4892
#predicted genes (>= 1500 bp)	325	325
#predicted genes (>= 3000 bp)	15	15
#mismatches	609	609
#indels	16	16
Indels length	16	16
#mismatches per 100 kbp	12.82	12.82
#indels per 100 kbp	0.34	0.34
GC (%)	50.32	50.32
Reference GC (%)	50.48	50.48
Average %IDY	99.912	99.912
Largest alignment	12620	12620
NA50	2184	2184
NGA50	1871	1871
NA75	1207	1207
NGA75	738	738
LA50	683	683
LGA50	870	870
LA75	1417	1417
LGA75	2013	2013
#Mis_misassemblies	1	1
#Mis_relocations	1	1
#Mis_translocations	0	0
#Mis_inversions	0	0
#Mis_misassembled contigs	1	1
Mis_Misassembled contigs length	590	590
#Mis_local misassemblies	1	1
#Mis_short indels (<= 5 bp)	16	16
#Mis_long indels (> 5 bp)	0	0
#Una_fully unaligned contigs	4	4
Una_Fully unaligned length	4164	4164
#Una_partially unaligned contigs	1	1
#Una_with misassembly	0	0
#Una_both parts are significant	0	0
Una_Partially unaligned length	39	39
GAGE_Contigs #	3424	3424
GAGE_Min contig	200	200
GAGE_Max contig	12620	12620
GAGE_N50	1882 COUNT: 864	1882 COUNT: 864
GAGE_Genome size	5594470	5594470
GAGE_Assembly size	4836723	4836723
GAGE_Chaff bases	0	0
GAGE_Missing reference bases	572904(10.24%)	572904(10.24%)
GAGE_Missing assembly bases	4212(0.09%)	4212(0.09%)
GAGE_Missing assembly contigs	4(0.12%)	4(0.12%)
GAGE_Duplicated reference bases	0	0
GAGE_Compressed reference bases	203069	203069
GAGE_Bad trim	48	48
GAGE_Avg idy	99.99	99.99
GAGE_SNPs	695	695
GAGE_Indels < 5bp	18	18
GAGE_Indels >= 5	1	1
GAGE_Inversions	0	0
GAGE_Relocation	1	1
GAGE_Translocation	0	0
GAGE_Corrected contig #	3422	3422
GAGE_Corrected assembly size	4832516	4832516
GAGE_Min correct contig	200	200
GAGE_Max correct contig	12620	12620
GAGE_Corrected N50	1882 COUNT: 864	1882 COUNT: 864
