Assembly	#Contigs	#Contigs (>= 0 bp)	#Contigs (>= 1000 bp)	Largest contig	Total length	Total length (>= 0 bp)	Total length (>= 1000 bp)	Reference length	N50	NG50	N75	NG75	L50	LG50	L75	LG75	#local misassemblies	#misassemblies	#misassembled contigs	Misassembled contigs length	Misassemblies inter-contig overlap	#unaligned contigs	Unaligned contigs length	#ambiguously mapped contigs	Extra bases in ambiguously mapped contigs	#N's	#N's per 100 kbp	Genome fraction (%)	Duplication ratio	#genes	#predicted genes (unique)	#predicted genes (>= 0 bp)	#predicted genes (>= 300 bp)	#predicted genes (>= 1500 bp)	#predicted genes (>= 3000 bp)	#mismatches	#indels	Indels length	#mismatches per 100 kbp	#indels per 100 kbp	GC (%)	Reference GC (%)	Average %IDY	Largest alignment	NA50	NGA50	NA75	NGA75	LA50	LGA50	LA75	LGA75	#Mis_misassemblies	#Mis_relocations	#Mis_translocations	#Mis_inversions	#Mis_misassembled contigs	Mis_Misassembled contigs length	#Mis_local misassemblies	#Mis_short indels (<= 5 bp)	#Mis_long indels (> 5 bp)	#Una_fully unaligned contigs	Una_Fully unaligned length	#Una_partially unaligned contigs	#Una_with misassembly	#Una_both parts are significant	Una_Partially unaligned length	GAGE_Contigs #	GAGE_Min contig	GAGE_Max contig	GAGE_N50	GAGE_Genome size	GAGE_Assembly size	GAGE_Chaff bases	GAGE_Missing reference bases	GAGE_Missing assembly bases	GAGE_Missing assembly contigs	GAGE_Duplicated reference bases	GAGE_Compressed reference bases	GAGE_Bad trim	GAGE_Avg idy	GAGE_SNPs	GAGE_Indels < 5bp	GAGE_Indels >= 5	GAGE_Inversions	GAGE_Relocation	GAGE_Translocation	GAGE_Corrected contig #	GAGE_Corrected assembly size	GAGE_Min correct contig	GAGE_Max correct contig	GAGE_Corrected N50
ABYSS_PE_MIS_PE_sakai_mis-1_bi_2x250bp_SI_default__sakai_mis-2_bi_2x250bp_SI_default.0.05percent_38.final_broken	3424	5338	1665	12620	4836723	5005600	3919062	5594470	2212	1882	1224	772	679	864	1404	1981	1	1	1	590	5	4 + 1 part	4203	115	-75038	0	0.00	84.916	1.001	2503 + 2354 part	6967	6967	4892	325	15	609	16	16	12.82	0.34	50.32	50.48	99.912	12620	2184	1871	1207	738	683	870	1417	2013	1	1	0	0	1	590	1	16	0	4	4164	1	0	0	39	3424	200	12620	1882 COUNT: 864	5594470	4836723	0	572904(10.24%)	4212(0.09%)	4(0.12%)	0	203069	48	99.99	695	18	1	0	1	0	3422	4832516	200	12620	1882 COUNT: 864
ABYSS_PE_MIS_PE_sakai_mis-1_bi_2x250bp_SI_default__sakai_mis-2_bi_2x250bp_SI_default.0.05percent_38.final	3424	5338	1665	12620	4836723	5005600	3919062	5594470	2212	1882	1224	772	679	864	1404	1981	1	1	1	590	5	4 + 1 part	4203	115	-75038	0	0.00	84.916	1.001	2503 + 2354 part	6967	6967	4892	325	15	609	16	16	12.82	0.34	50.32	50.48	99.912	12620	2184	1871	1207	738	683	870	1417	2013	1	1	0	0	1	590	1	16	0	4	4164	1	0	0	39	3424	200	12620	1882 COUNT: 864	5594470	4836723	0	572904(10.24%)	4212(0.09%)	4(0.12%)	0	203069	48	99.99	695	18	1	0	1	0	3422	4832516	200	12620	1882 COUNT: 864
