Assembly	NEWBLER_MIS_PE_mrsa_mis-1_bi_2x150bp_default__mrsa_mis-2_bi_2x150bp_default.0.500percent.contigs_broken	NEWBLER_MIS_PE_mrsa_mis-1_bi_2x150bp_default__mrsa_mis-2_bi_2x150bp_default.0.500percent.contigs
#Contigs (>= 0 bp)	64	29
#Contigs (>= 1000 bp)	61	29
Total length (>= 0 bp)	2763274	2788978
Total length (>= 1000 bp)	2760970	2788978
#Contigs	64	29
Largest contig	315390	577549
Total length	2763274	2788978
Reference length	2813862	2813862
GC (%)	32.67	32.67
Reference GC (%)	32.81	32.81
N50	112274	159550
NG50	112274	159550
N75	46641	130977
NG75	46641	130977
#misassemblies	2	3
#local misassemblies	4	38
#unaligned contigs	1 + 0 part	1 + 0 part
Unaligned contigs length	5386	5386
Genome fraction (%)	97.823	98.031
Duplication ratio	1.000	1.010
#N's per 100 kbp	0.00	921.63
#mismatches per 100 kbp	1.27	1.38
#indels per 100 kbp	0.25	0.25
#genes	2646 + 30 part	2647 + 32 part
#predicted genes (unique)	2610	2606
#predicted genes (>= 0 bp)	2610	2606
#predicted genes (>= 300 bp)	2276	2276
#predicted genes (>= 1500 bp)	298	298
#predicted genes (>= 3000 bp)	28	28
Largest alignment	315390	573852
NA50	112274	149626
NGA50	112274	149626
NA75	46641	108922
NGA75	45741	108922
