1: PREPARING DATA
2,3: RUNNING mummer AND CREATING CLUSTERS
# reading input file "/vol/codine-tmp/juene/tmp.SfS6wpSgb7/quast/contigs_reports/nucmer_output/CLC_PGM_mrsa_pgm_200bp_es_316_IonOnev2_ts3.0_morestringent.0.450percent.result.ntref" of length 2813864
# construct suffix tree for sequence of length 2813864
# (maximum reference length is 536870908)
# (maximum query length is 4294967295)
# process 28138 characters per dot
#....................................................................................................
# CONSTRUCTIONTIME /vol/ngscomparison/software/analysis/quast-2.1/libs/MUMmer3.23-linux/mummer /vol/codine-tmp/juene/tmp.SfS6wpSgb7/quast/contigs_reports/nucmer_output/CLC_PGM_mrsa_pgm_200bp_es_316_IonOnev2_ts3.0_morestringent.0.450percent.result.ntref 1.50
# reading input file "/vol/codine-tmp/juene/tmp.SfS6wpSgb7/quast/corrected_input/CLC_PGM_mrsa_pgm_200bp_es_316_IonOnev2_ts3.0_morestringent.0.450percent.result" of length 2779835
# matching query-file "/vol/codine-tmp/juene/tmp.SfS6wpSgb7/quast/corrected_input/CLC_PGM_mrsa_pgm_200bp_es_316_IonOnev2_ts3.0_morestringent.0.450percent.result"
# against subject-file "/vol/codine-tmp/juene/tmp.SfS6wpSgb7/quast/contigs_reports/nucmer_output/CLC_PGM_mrsa_pgm_200bp_es_316_IonOnev2_ts3.0_morestringent.0.450percent.result.ntref"
# COMPLETETIME /vol/ngscomparison/software/analysis/quast-2.1/libs/MUMmer3.23-linux/mummer /vol/codine-tmp/juene/tmp.SfS6wpSgb7/quast/contigs_reports/nucmer_output/CLC_PGM_mrsa_pgm_200bp_es_316_IonOnev2_ts3.0_morestringent.0.450percent.result.ntref 4.42
# SPACE /vol/ngscomparison/software/analysis/quast-2.1/libs/MUMmer3.23-linux/mummer /vol/codine-tmp/juene/tmp.SfS6wpSgb7/quast/contigs_reports/nucmer_output/CLC_PGM_mrsa_pgm_200bp_es_316_IonOnev2_ts3.0_morestringent.0.450percent.result.ntref 5.43
4: FINISHING DATA
