Assembly	VELVET_MIS_PE_sakai_mis-both_bi_2x250bp_SI_default.0.64percent_215.final.contigs_broken	VELVET_MIS_PE_sakai_mis-both_bi_2x250bp_SI_default.0.64percent_215.final.contigs
#Contigs (>= 0 bp)	3812	2509
#Contigs (>= 1000 bp)	2138	1844
Total length (>= 0 bp)	5058780	5262881
Total length (>= 1000 bp)	3820391	4742637
#Contigs	3812	2509
Largest contig	8199	15029
Total length	5058780	5262881
Reference length	5594470	5594470
GC (%)	50.51	50.51
Reference GC (%)	50.48	50.48
N50	1531	2682
NG50	1405	2547
N75	1010	1654
NG75	864	1453
#misassemblies	7	16
#local misassemblies	2	1259
#unaligned contigs	1 + 3 part	1 + 3 part
Unaligned contigs length	5646	6871
Genome fraction (%)	86.235	86.287
Duplication ratio	1.031	1.073
#N's per 100 kbp	0.00	3878.12
#mismatches per 100 kbp	6.99	7.52
#indels per 100 kbp	0.37	28.11
#genes	2231 + 2808 part	2259 + 2789 part
#predicted genes (unique)	7588	7420
#predicted genes (>= 0 bp)	7604	7436
#predicted genes (>= 300 bp)	5450	5485
#predicted genes (>= 1500 bp)	207	210
#predicted genes (>= 3000 bp)	8	8
Largest alignment	8199	14293
NA50	1506	2449
NGA50	1386	2298
NA75	991	1426
NGA75	842	1213
