Assembly	#Contigs	#Contigs (>= 0 bp)	#Contigs (>= 1000 bp)	Largest contig	Total length	Total length (>= 0 bp)	Total length (>= 1000 bp)	Reference length	N50	NG50	N75	NG75	L50	LG50	L75	LG75	#local misassemblies	#misassemblies	#misassembled contigs	Misassembled contigs length	Misassemblies inter-contig overlap	#unaligned contigs	Unaligned contigs length	#ambiguously mapped contigs	Extra bases in ambiguously mapped contigs	#N's	#N's per 100 kbp	Genome fraction (%)	Duplication ratio	#genes	#predicted genes (unique)	#predicted genes (>= 0 bp)	#predicted genes (>= 300 bp)	#predicted genes (>= 1500 bp)	#predicted genes (>= 3000 bp)	#mismatches	#indels	Indels length	#mismatches per 100 kbp	#indels per 100 kbp	GC (%)	Reference GC (%)	Average %IDY	Largest alignment	NA50	NGA50	NA75	NGA75	LA50	LGA50	LA75	LGA75	#Mis_misassemblies	#Mis_relocations	#Mis_translocations	#Mis_inversions	#Mis_misassembled contigs	Mis_Misassembled contigs length	#Mis_local misassemblies	#Mis_short indels (<= 5 bp)	#Mis_long indels (> 5 bp)	#Una_fully unaligned contigs	Una_Fully unaligned length	#Una_partially unaligned contigs	#Una_with misassembly	#Una_both parts are significant	Una_Partially unaligned length	GAGE_Contigs #	GAGE_Min contig	GAGE_Max contig	GAGE_N50	GAGE_Genome size	GAGE_Assembly size	GAGE_Chaff bases	GAGE_Missing reference bases	GAGE_Missing assembly bases	GAGE_Missing assembly contigs	GAGE_Duplicated reference bases	GAGE_Compressed reference bases	GAGE_Bad trim	GAGE_Avg idy	GAGE_SNPs	GAGE_Indels < 5bp	GAGE_Indels >= 5	GAGE_Inversions	GAGE_Relocation	GAGE_Translocation	GAGE_Corrected contig #	GAGE_Corrected assembly size	GAGE_Min correct contig	GAGE_Max correct contig	GAGE_Corrected N50
VELVET_MIS_PE_mrsa_mis-1_bi_2x250bp_default__mrsa_mis-2_bi_2x250bp_default.0.460percent_155.final.contigs_broken	148	148	106	198654	2806637	2806637	2790595	2813862	46619	46619	27316	27316	19	19	38	38	0	3	3	101467	1651	1 + 0 part	5540	31	-13633	0	0.00	98.667	1.005	2651 + 62 part	2694	2697	2318	296	27	72	11	27	2.59	0.40	32.74	32.81	98.945	196935	45369	45369	25603	25552	19	19	39	40	3	3	0	0	3	101467	0	10	1	1	5540	0	0	0	0	148	225	198654	46619 COUNT: 19	2813862	2806637	0	3291(0.12%)	5544(0.20%)	1(0.68%)	3307	36429	4	99.99	52	9	1	1	2	0	140	2799392	309	196938	45369 COUNT: 19
VELVET_MIS_PE_mrsa_mis-1_bi_2x250bp_default__mrsa_mis-2_bi_2x250bp_default.0.460percent_155.final.contigs	137	137	98	198654	2807153	2807153	2792411	2813862	49479	49292	30292	30292	16	17	34	34	2	4	4	163538	1651	1 + 0 part	5540	30	-12350	516	18.38	98.709	1.005	2656 + 57 part	2692	2695	2318	296	27	87	175	282	3.13	6.30	32.74	32.81	98.930	196935	49292	49292	30292	30292	17	17	35	35	4	4	0	0	4	163538	2	171	4	1	5540	0	0	0	0	137	309	198654	49292 COUNT: 17	2813862	2807153	0	3291(0.12%)	6060(0.22%)	1(0.73%)	3307	36539	134	99.99	52	9	10	1	2	0	140	2799392	309	196938	45369 COUNT: 19
