Assembly	GAGE_Contigs #	GAGE_Min contig	GAGE_Max contig	GAGE_N50	GAGE_Genome size	GAGE_Assembly size	GAGE_Chaff bases	GAGE_Missing reference bases	GAGE_Missing assembly bases	GAGE_Missing assembly contigs	GAGE_Duplicated reference bases	GAGE_Compressed reference bases	GAGE_Bad trim	GAGE_Avg idy	GAGE_SNPs	GAGE_Indels < 5bp	GAGE_Indels >= 5	GAGE_Inversions	GAGE_Relocation	GAGE_Translocation	GAGE_Corrected contig #	GAGE_Corrected assembly size	GAGE_Min correct contig	GAGE_Max correct contig	GAGE_Corrected N50
VELVET_MIS_PE_mtbh37-1_mis_2x250bp_nextera_default__mtbh37-2_mis_2x250bp_nextera_default_141.final.contigs_broken	349	233	92958	22363 COUNT: 59	4411532	4294466	0	89784(2.04%)	1064(0.02%)	0(0.00%)	778	54818	1064	99.99	182	31	12	0	2	0	363	4294795	233	91772	21154 COUNT: 62
VELVET_MIS_PE_mtbh37-1_mis_2x250bp_nextera_default__mtbh37-2_mis_2x250bp_nextera_default_141.final.contigs	198	281	156371	48246 COUNT: 30	4411532	4317060	0	89729(2.03%)	23458(0.54%)	0(0.00%)	841	54818	940	99.99	183	35	155	1	8	0	361	4294850	233	91772	21154 COUNT: 62
