Assembly	VELVET_MIS_PE_mtbh37-1_mis_2x250bp_nextera_default__mtbh37-2_mis_2x250bp_nextera_default_141.final.contigs_broken	VELVET_MIS_PE_mtbh37-1_mis_2x250bp_nextera_default__mtbh37-2_mis_2x250bp_nextera_default_141.final.contigs
#Contigs (>= 0 bp)	350	198
#Contigs (>= 1000 bp)	309	168
Total length (>= 0 bp)	4294607	4317060
Total length (>= 1000 bp)	4271012	4300806
#Contigs	349	198
Largest contig	92958	156371
Total length	4294466	4317060
Reference length	4411532	4411532
GC (%)	65.48	65.48
Reference GC (%)	65.61	65.61
N50	23619	48969
NG50	22363	48246
N75	12451	26518
NG75	11857	26218
#misassemblies	4	7
#local misassemblies	11	146
#unaligned contigs	0 + 0 part	0 + 0 part
Unaligned contigs length	0	0
Genome fraction (%)	96.885	96.897
Duplication ratio	1.001	1.010
#N's per 100 kbp	0.00	520.10
#mismatches per 100 kbp	5.33	5.40
#indels per 100 kbp	0.91	5.10
#genes	3747 + 314 part	3761 + 300 part
#predicted genes (unique)	4165	4145
#predicted genes (>= 0 bp)	4176	4156
#predicted genes (>= 300 bp)	3603	3598
#predicted genes (>= 1500 bp)	542	543
#predicted genes (>= 3000 bp)	67	67
Largest alignment	92957	155993
NA50	23619	48704
NGA50	22363	47950
NA75	12451	26298
NGA75	11851	25640
