Assembly	CLC_PGM_mrsa_pgm_400bp_es_318_IKA_ts3.2_morestringent.0.125percent.result
GAGE_Contigs #	633
GAGE_Min contig	200
GAGE_Max contig	61031
GAGE_N50	20969 COUNT: 45
GAGE_Genome size	2813862
GAGE_Assembly size	2844875
GAGE_Chaff bases	0
GAGE_Missing reference bases	26233(0.93%)
GAGE_Missing assembly bases	2631(0.09%)
GAGE_Missing assembly contigs	6(0.95%)
GAGE_Duplicated reference bases	85002
GAGE_Compressed reference bases	40306
GAGE_Bad trim	1089
GAGE_Avg idy	99.98
GAGE_SNPs	40
GAGE_Indels < 5bp	410
GAGE_Indels >= 5	1
GAGE_Inversions	0
GAGE_Relocation	3
GAGE_Translocation	0
GAGE_Corrected contig #	365
GAGE_Corrected assembly size	2758306
GAGE_Min correct contig	201
GAGE_Max correct contig	61036
GAGE_Corrected N50	20215 COUNT: 46
