Assembly	SOAP2_MIS_PE_mtbh37-1_mis_2x250bp_nextera_default_67.final.scaf_broken	SOAP2_MIS_PE_mtbh37-1_mis_2x250bp_nextera_default_67.final.scaf
#Una_fully unaligned contigs	84786	84796
Una_Fully unaligned length	20306994	20311989
#Una_partially unaligned contigs	4596	4598
#Una_with misassembly	0	0
#Una_both parts are significant	0	1
Una_Partially unaligned length	451905	453135
#N's	3	2441
