calling: java -cp /vol/ngscomparison/software/analysis/quast-2.1/libs/gage:. SizeFasta /vol/codine-tmp/juene/tmp.vtcCKBbIAY/quast/corrected_input/MRSA_COL_Plasmid.fasta |awk '{SUM+=; print SUM}'|tail -n 1
Contig Stats
Total units: 2225
Reference: 2813862
BasesInFasta: 2789180
Min: 200
Max: 8303
N10: 4046 COUNT: 57
N25: 2965 COUNT: 179
N50: 1783 COUNT: 487
N75: 1023 COUNT: 1004
E-size:2129.46

Genome Size: 2813862
Assembly Size: 2789180
Chaff bases: 0
Missing Reference Bases: 87728(3.12%)
Missing Assembly Bases: 1906(0.07%)
Missing Assembly Contigs: 2(0.09%)
Duplicated Reference Bases: 12240
Compressed Reference Bases: 23085
Bad Trim: 1303
Avg Idy: 99.95
SNPs: 49
Indels < 5bp: 739
Indels >= 5: 2
Inversions: 3
Relocation: 2
Translocation: 0

Corrected Contig Stats
calling: java -cp /vol/ngscomparison/software/analysis/quast-2.1/libs/gage:.:. GetFastaStats -o -min 199 -genomeSize 2813862 /vol/codine-tmp/juene/tmp.vtcCKBbIAY/quast/gage/tmp/SOAP2_PGM_mrsa_pgm_200bp_es_316_IonOnev2_ts3.0_morestringent.0.230percent_97.final.contig.matches.lens 2> /dev/null
Total units: 2179
Reference: 2813862
BasesInFasta: 2775252
Min: 201
Max: 8304
N10: 4047 COUNT: 57
N25: 2962 COUNT: 179
N50: 1778 COUNT: 488
N75: 1023 COUNT: 1006
E-size:2124.72

Done
