All statistics are based on contigs of size >= 200 bp, unless otherwise noted (e.g., "# contigs (>= 0 bp)" and "Total length (>= 0 bp)" include all contigs).

Assembly                                   ABYSS_PE_MIS_PE_sakai_mis-both_bi_2x250bp_SI_default.0.64percent.NEWBLER_56-scaffolds_broken  ABYSS_PE_MIS_PE_sakai_mis-both_bi_2x250bp_SI_default.0.64percent.NEWBLER_56-scaffolds
#Contigs                                   308                                                                                           251                                                                                  
#Contigs (>= 0 bp)                         1186                                                                                          1127                                                                                 
#Contigs (>= 1000 bp)                      198                                                                                           180                                                                                  
Largest contig                             224150                                                                                        376739                                                                               
Total length                               5424696                                                                                       5427858                                                                              
Total length (>= 0 bp)                     5516586                                                                                       5519458                                                                              
Total length (>= 1000 bp)                  5369995                                                                                       5392477                                                                              
Reference length                           5594470                                                                                       5594470                                                                              
N50                                        90813                                                                                         100154                                                                               
NG50                                       88501                                                                                         99763                                                                                
N75                                        41897                                                                                         43435                                                                                
NG75                                       39785                                                                                         41897                                                                                
L50                                        18                                                                                            16                                                                                   
LG50                                       19                                                                                            17                                                                                   
L75                                        40                                                                                            35                                                                                   
LG75                                       43                                                                                            38                                                                                   
#local misassemblies                       7                                                                                             25                                                                                   
#misassemblies                             6                                                                                             15                                                                                   
#misassembled contigs                      6                                                                                             13                                                                                   
Misassembled contigs length                256129                                                                                        547073                                                                               
Misassemblies inter-contig overlap         23819                                                                                         24765                                                                                
#unaligned contigs                         0 + 0 part                                                                                    1 + 4 part                                                                           
Unaligned contigs length                   0                                                                                             4280                                                                                 
#ambiguously mapped contigs                49                                                                                            20                                                                                   
Extra bases in ambiguously mapped contigs  -45434                                                                                        -17380                                                                               
#N's                                       65                                                                                            2937                                                                                 
#N's per 100 kbp                           1.20                                                                                          54.11                                                                                
Genome fraction (%)                        95.284                                                                                        95.671                                                                               
Duplication ratio                          1.014                                                                                         1.015                                                                                
#genes                                     4986 + 184 part                                                                               5015 + 178 part                                                                      
#predicted genes (unique)                  5239                                                                                          5231                                                                                 
#predicted genes (>= 0 bp)                 5341                                                                                          5330                                                                                 
#predicted genes (>= 300 bp)               4482                                                                                          4483                                                                                 
#predicted genes (>= 1500 bp)              682                                                                                           682                                                                                  
#predicted genes (>= 3000 bp)              73                                                                                            72                                                                                   
#mismatches                                1004                                                                                          1068                                                                                 
#indels                                    68                                                                                            257                                                                                  
Indels length                              230                                                                                           710                                                                                  
#mismatches per 100 kbp                    18.83                                                                                         19.95                                                                                
#indels per 100 kbp                        1.28                                                                                          4.80                                                                                 
GC (%)                                     50.37                                                                                         50.37                                                                                
Reference GC (%)                           50.48                                                                                         50.48                                                                                
Average %IDY                               99.100                                                                                        99.041                                                                               
Largest alignment                          224150                                                                                        228602                                                                               
NA50                                       90813                                                                                         100154                                                                               
NGA50                                      88501                                                                                         99763                                                                                
NA75                                       41207                                                                                         43435                                                                                
NGA75                                      35536                                                                                         41431                                                                                
LA50                                       18                                                                                            17                                                                                   
LGA50                                      19                                                                                            18                                                                                   
LA75                                       41                                                                                            36                                                                                   
LGA75                                      44                                                                                            39                                                                                   
#Mis_misassemblies                         6                                                                                             15                                                                                   
#Mis_relocations                           6                                                                                             15                                                                                   
#Mis_translocations                        0                                                                                             0                                                                                    
#Mis_inversions                            0                                                                                             0                                                                                    
#Mis_misassembled contigs                  6                                                                                             13                                                                                   
Mis_Misassembled contigs length            256129                                                                                        547073                                                                               
#Mis_local misassemblies                   7                                                                                             25                                                                                   
#Mis_short indels (<= 5 bp)                59                                                                                            234                                                                                  
#Mis_long indels (> 5 bp)                  9                                                                                             23                                                                                   
#Una_fully unaligned contigs               0                                                                                             1                                                                                    
Una_Fully unaligned length                 0                                                                                             803                                                                                  
#Una_partially unaligned contigs           0                                                                                             4                                                                                    
#Una_with misassembly                      0                                                                                             0                                                                                    
#Una_both parts are significant            0                                                                                             4                                                                                    
Una_Partially unaligned length             0                                                                                             3477                                                                                 
GAGE_Contigs #                             308                                                                                           251                                                                                  
GAGE_Min contig                            203                                                                                           203                                                                                  
GAGE_Max contig                            224150                                                                                        376739                                                                               
GAGE_N50                                   88501 COUNT: 19                                                                               99763 COUNT: 17                                                                      
GAGE_Genome size                           5594470                                                                                       5594470                                                                              
GAGE_Assembly size                         5424696                                                                                       5427858                                                                              
GAGE_Chaff bases                           0                                                                                             0                                                                                    
GAGE_Missing reference bases               70231(1.26%)                                                                                  70001(1.25%)                                                                         
GAGE_Missing assembly bases                36(0.00%)                                                                                     2736(0.05%)                                                                          
GAGE_Missing assembly contigs              0(0.00%)                                                                                      0(0.00%)                                                                             
GAGE_Duplicated reference bases            16083                                                                                         15049                                                                                
GAGE_Compressed reference bases            210164                                                                                        209390                                                                               
GAGE_Bad trim                              21                                                                                            55                                                                                   
GAGE_Avg idy                               99.97                                                                                         99.97                                                                                
GAGE_SNPs                                  685                                                                                           682                                                                                  
GAGE_Indels < 5bp                          35                                                                                            35                                                                                   
GAGE_Indels >= 5                           14                                                                                            50                                                                                   
GAGE_Inversions                            1                                                                                             5                                                                                    
GAGE_Relocation                            4                                                                                             17                                                                                   
GAGE_Translocation                         0                                                                                             0                                                                                    
GAGE_Corrected contig #                    307                                                                                           308                                                                                  
GAGE_Corrected assembly size               5413988                                                                                       5415793                                                                              
GAGE_Min correct contig                    203                                                                                           203                                                                                  
GAGE_Max correct contig                    224150                                                                                        224150                                                                               
GAGE_Corrected N50                         67169 COUNT: 24                                                                               67169 COUNT: 24                                                                      
