All statistics are based on contigs of size >= 200 bp, unless otherwise noted (e.g., "# contigs (>= 0 bp)" and "Total length (>= 0 bp)" include all contigs).

Assembly                         ABYSS_PE_MIS_PE_sakai_mis-both_bi_2x250bp_SI_default.0.64percent.NEWBLER_56-scaffolds_broken  ABYSS_PE_MIS_PE_sakai_mis-both_bi_2x250bp_SI_default.0.64percent.NEWBLER_56-scaffolds
GAGE_Contigs #                   308                                                                                           251                                                                                  
GAGE_Min contig                  203                                                                                           203                                                                                  
GAGE_Max contig                  224150                                                                                        376739                                                                               
GAGE_N50                         88501 COUNT: 19                                                                               99763 COUNT: 17                                                                      
GAGE_Genome size                 5594470                                                                                       5594470                                                                              
GAGE_Assembly size               5424696                                                                                       5427858                                                                              
GAGE_Chaff bases                 0                                                                                             0                                                                                    
GAGE_Missing reference bases     70231(1.26%)                                                                                  70001(1.25%)                                                                         
GAGE_Missing assembly bases      36(0.00%)                                                                                     2736(0.05%)                                                                          
GAGE_Missing assembly contigs    0(0.00%)                                                                                      0(0.00%)                                                                             
GAGE_Duplicated reference bases  16083                                                                                         15049                                                                                
GAGE_Compressed reference bases  210164                                                                                        209390                                                                               
GAGE_Bad trim                    21                                                                                            55                                                                                   
GAGE_Avg idy                     99.97                                                                                         99.97                                                                                
GAGE_SNPs                        685                                                                                           682                                                                                  
GAGE_Indels < 5bp                35                                                                                            35                                                                                   
GAGE_Indels >= 5                 14                                                                                            50                                                                                   
GAGE_Inversions                  1                                                                                             5                                                                                    
GAGE_Relocation                  4                                                                                             17                                                                                   
GAGE_Translocation               0                                                                                             0                                                                                    
GAGE_Corrected contig #          307                                                                                           308                                                                                  
GAGE_Corrected assembly size     5413988                                                                                       5415793                                                                              
GAGE_Min correct contig          203                                                                                           203                                                                                  
GAGE_Max correct contig          224150                                                                                        224150                                                                               
GAGE_Corrected N50               67169 COUNT: 24                                                                               67169 COUNT: 24                                                                      
