Assembly	SEQMAN_PGM_sakai_pgm_mu_318_400bp_IO_TS3.4_ms_0.395percent
GAGE_Contigs #	672
GAGE_Min contig	200
GAGE_Max contig	368706
GAGE_N50	145839 COUNT: 14
GAGE_Genome size	5594470
GAGE_Assembly size	5818285
GAGE_Chaff bases	0
GAGE_Missing reference bases	343(0.01%)
GAGE_Missing assembly bases	2127(0.04%)
GAGE_Missing assembly contigs	0(0.00%)
GAGE_Duplicated reference bases	349244
GAGE_Compressed reference bases	211931
GAGE_Bad trim	2126
GAGE_Avg idy	99.95
GAGE_SNPs	1036
GAGE_Indels < 5bp	383
GAGE_Indels >= 5	10
GAGE_Inversions	10
GAGE_Relocation	11
GAGE_Translocation	0
GAGE_Corrected contig #	238
GAGE_Corrected assembly size	5515465
GAGE_Min correct contig	258
GAGE_Max correct contig	261892
GAGE_Corrected N50	100236 COUNT: 19
