1: PREPARING DATA
2,3: RUNNING mummer AND CREATING CLUSTERS
# reading input file "/vol/codine-tmp/juene/tmp.JnzaFKLd94/quast/gage/tmp/VELVET_MIS_PE_sakai_mis-both_bi_2x250bp_SI_default.0.64percent_31.final.contigs.ntref" of length 5594473
# construct suffix tree for sequence of length 5594473
# (maximum reference length is 536870908)
# (maximum query length is 4294967295)
# process 55944 characters per dot
#....................................................................................................
# CONSTRUCTIONTIME /vol/ngscomparison/software/analysis/quast-2.1/libs/MUMmer3.23-linux/mummer /vol/codine-tmp/juene/tmp.JnzaFKLd94/quast/gage/tmp/VELVET_MIS_PE_sakai_mis-both_bi_2x250bp_SI_default.0.64percent_31.final.contigs.ntref 3.84
# reading input file "/vol/codine-tmp/juene/tmp.JnzaFKLd94/quast/corrected_input/VELVET_MIS_PE_sakai_mis-both_bi_2x250bp_SI_default.0.64percent_31.final.contigs" of length 5270165
# matching query-file "/vol/codine-tmp/juene/tmp.JnzaFKLd94/quast/corrected_input/VELVET_MIS_PE_sakai_mis-both_bi_2x250bp_SI_default.0.64percent_31.final.contigs"
# against subject-file "/vol/codine-tmp/juene/tmp.JnzaFKLd94/quast/gage/tmp/VELVET_MIS_PE_sakai_mis-both_bi_2x250bp_SI_default.0.64percent_31.final.contigs.ntref"
# COMPLETETIME /vol/ngscomparison/software/analysis/quast-2.1/libs/MUMmer3.23-linux/mummer /vol/codine-tmp/juene/tmp.JnzaFKLd94/quast/gage/tmp/VELVET_MIS_PE_sakai_mis-both_bi_2x250bp_SI_default.0.64percent_31.final.contigs.ntref 11.28
# SPACE /vol/ngscomparison/software/analysis/quast-2.1/libs/MUMmer3.23-linux/mummer /vol/codine-tmp/juene/tmp.JnzaFKLd94/quast/gage/tmp/VELVET_MIS_PE_sakai_mis-both_bi_2x250bp_SI_default.0.64percent_31.final.contigs.ntref 10.55
4: FINISHING DATA
Filtering alignments
Extracting alignment coordinates
Analyzing SNPs
Extracting alignment breakpoints
Generating report file
Found genome size at position 4 with value 5594470 aka 5594470
Calculating point at 0 and the sum is 1051156 and i is573 and lens is 588 and length is 58880
Calculating point at 1 and the sum is 2033194 and i is553 and lens is 588 and length is 40687
Calculating point at 2 and the sum is 3005624 and i is525 and lens is 588 and length is 29580
Calculating point at 3 and the sum is 4012236 and i is478 and lens is 588 and length is 15839
Calculating point at 4 and the sum is 5002319 and i is361 and lens is 588 and length is 2972
