All statistics are based on contigs of size >= 200 bp, unless otherwise noted (e.g., "# contigs (>= 0 bp)" and "Total length (>= 0 bp)" include all contigs).

Assembly                         CLC_MIS_PE_sakai_mis-1_bi_2x150bp_default__sakai_mis-2_bi_2x150bp_default.86coverage.result_broken  CLC_MIS_PE_sakai_mis-1_bi_2x150bp_default__sakai_mis-2_bi_2x150bp_default.86coverage.result
#Mis_misassemblies               4                                                                                                   4                                                                                          
#Mis_relocations                 4                                                                                                   4                                                                                          
#Mis_translocations              0                                                                                                   0                                                                                          
#Mis_inversions                  0                                                                                                   0                                                                                          
#Mis_misassembled contigs        4                                                                                                   4                                                                                          
Mis_Misassembled contigs length  211225                                                                                              422629                                                                                     
#Mis_local misassemblies         9                                                                                                   30                                                                                         
#mismatches                      77                                                                                                  81                                                                                         
#indels                          19                                                                                                  65                                                                                         
#Mis_short indels (<= 5 bp)      16                                                                                                  62                                                                                         
#Mis_long indels (> 5 bp)        3                                                                                                   3                                                                                          
Indels length                    121                                                                                                 167                                                                                        
