All statistics are based on contigs of size >= 200 bp, unless otherwise noted (e.g., "# contigs (>= 0 bp)" and "Total length (>= 0 bp)" include all contigs).

Assembly                       CLC_MIS_PE_mrsa_mis-1_bi_2x250bp_default__mrsa_mis-2_bi_2x250bp_default.51coverage.result_broken  CLC_MIS_PE_mrsa_mis-1_bi_2x250bp_default__mrsa_mis-2_bi_2x250bp_default.51coverage.result
#Contigs (>= 0 bp)             207                                                                                               205                                                                                      
#Contigs (>= 1000 bp)          40                                                                                                39                                                                                       
Total length (>= 0 bp)         2823616                                                                                           2823866                                                                                  
Total length (>= 1000 bp)      2776736                                                                                           2777465                                                                                  
#Contigs                       207                                                                                               205                                                                                      
Largest contig                 297853                                                                                            297853                                                                                   
Total length                   2823616                                                                                           2823866                                                                                  
Reference length               2813862                                                                                           2813862                                                                                  
GC (%)                         32.98                                                                                             32.98                                                                                    
Reference GC (%)               32.81                                                                                             32.81                                                                                    
N50                            129967                                                                                            149647                                                                                   
NG50                           129967                                                                                            149647                                                                                   
N75                            86631                                                                                             87252                                                                                    
NG75                           86631                                                                                             87252                                                                                    
#misassemblies                 3                                                                                                 3                                                                                        
#local misassemblies           4                                                                                                 6                                                                                        
#unaligned contigs             152 + 2 part                                                                                      152 + 2 part                                                                             
Unaligned contigs length       46147                                                                                             46147                                                                                    
Genome fraction (%)            98.485                                                                                            98.485                                                                                   
Duplication ratio              1.008                                                                                             1.008                                                                                    
#N's per 100 kbp               0.57                                                                                              9.42                                                                                     
#mismatches per 100 kbp        4.15                                                                                              4.15                                                                                     
#indels per 100 kbp            1.52                                                                                              1.52                                                                                     
#genes                         2682 + 24 part                                                                                    2682 + 24 part                                                                           
#predicted genes (unique)      2792                                                                                              2792                                                                                     
#predicted genes (>= 0 bp)     2792                                                                                              2792                                                                                     
#predicted genes (>= 300 bp)   2302                                                                                              2302                                                                                     
#predicted genes (>= 1500 bp)  300                                                                                               300                                                                                      
#predicted genes (>= 3000 bp)  29                                                                                                29                                                                                       
Largest alignment              297853                                                                                            297853                                                                                   
NA50                           122439                                                                                            148882                                                                                   
NGA50                          122439                                                                                            148882                                                                                   
NA75                           70281                                                                                             70281                                                                                    
NGA75                          70281                                                                                             70281                                                                                    
