Assembly	#Contigs (>= 0 bp)	#Contigs (>= 1000 bp)	Total length (>= 0 bp)	Total length (>= 1000 bp)	#Contigs	Largest contig	Total length	Reference length	GC (%)	Reference GC (%)	N50	NG50	N75	NG75	#misassemblies	#local misassemblies	#unaligned contigs	Unaligned contigs length	Genome fraction (%)	Duplication ratio	#N's per 100 kbp	#mismatches per 100 kbp	#indels per 100 kbp	#genes	#predicted genes (unique)	#predicted genes (>= 0 bp)	#predicted genes (>= 300 bp)	#predicted genes (>= 1500 bp)	#predicted genes (>= 3000 bp)	Largest alignment	NA50	NGA50	NA75	NGA75
SOAP2_MIS_PE_sakai_mis-1_bi_2x250bp_SI_default.0.64percent_127.final.scaf_broken	2313	471	5698367	5210063	1844	125840	5625511	5594470	50.45	50.48	20518	20518	8463	8476	7	18	6 + 2 part	9059	94.892	1.026	2.77	4.80	0.89	4644 + 563 part	6649	6719	4608	619	54	125840	20448	20448	8436	8467
SOAP2_MIS_PE_sakai_mis-1_bi_2x250bp_SI_default.0.64percent_127.final.scaf	1893	247	5717825	5308823	1446	181136	5648466	5594470	50.45	50.48	50612	50964	22637	23375	18	272	17 + 11 part	30744	94.926	1.031	347.24	6.18	12.86	4692 + 504 part	6525	6592	4597	624	55	179170	50569	50863	21003	21299
