calling: java -cp /vol/ngscomparison/software/analysis/quast-2.1/libs/gage:. SizeFasta /vol/codine-tmp/juene/tmp.kB0J3mVRsb/quast/corrected_input/MRSA_COL_Plasmid.fasta |awk '{SUM+=; print SUM}'|tail -n 1
Contig Stats
Total units: 38059
Reference: 2813862
BasesInFasta: 11365436
Min: 200
Max: 1931
N10: 642 COUNT: 345
N25: 465 COUNT: 1138
N50: 414 COUNT: 2775
N75: 400 COUNT: 4507
E-size:1336.11

Genome Size: 2813862
Assembly Size: 11365436
Chaff bases: 0
Missing Reference Bases: 18235(0.65%)
Missing Assembly Bases: 192563(1.69%)
Missing Assembly Contigs: 290(0.76%)
Duplicated Reference Bases: 7511414
Compressed Reference Bases: 37659
Bad Trim: 79043
Avg Idy: 99.87
SNPs: 127
Indels < 5bp: 2583
Indels >= 5: 4
Inversions: 0
Relocation: 0
Translocation: 0

Corrected Contig Stats
calling: java -cp /vol/ngscomparison/software/analysis/quast-2.1/libs/gage:.:. GetFastaStats -o -min 199 -genomeSize 2813862 /vol/codine-tmp/juene/tmp.kB0J3mVRsb/quast/gage/tmp/SOAP2_PGM_mrsa_pgm_400bp_es_318_IKA_ts3.2_morestringent.0.165percent_117.final.contig.matches.lens 2> /dev/null
Total units: 12671
Reference: 2813862
BasesInFasta: 3658401
Min: 200
Max: 1931
N10: 639 COUNT: 346
N25: 449 COUNT: 1152
N50: 308 COUNT: 3057
N75: 233 COUNT: 5774
E-size:446.99

Done
