Assembly	NEWBLER_MIS_PE_sakai_mis-2_bi_2x150bp_default__sakai_mis-1_bi_2x150bp_default.0.200percent.contigs_broken	NEWBLER_MIS_PE_sakai_mis-2_bi_2x150bp_default__sakai_mis-1_bi_2x150bp_default.0.200percent.contigs
#Mis_misassemblies	2	28
#Mis_relocations	2	28
#Mis_translocations	0	0
#Mis_inversions	0	0
#Mis_misassembled contigs	2	23
Mis_Misassembled contigs length	76661	2616432
#Mis_local misassemblies	4	126
#mismatches	93	152
#indels	16	22
#Mis_short indels (<= 5 bp)	16	22
#Mis_long indels (> 5 bp)	0	0
Indels length	16	22
