Assembly	#Contigs	#Contigs (>= 0 bp)	#Contigs (>= 1000 bp)	Largest contig	Total length	Total length (>= 0 bp)	Total length (>= 1000 bp)	Reference length	N50	NG50	N75	NG75	L50	LG50	L75	LG75	#local misassemblies	#misassemblies	#misassembled contigs	Misassembled contigs length	Misassemblies inter-contig overlap	#unaligned contigs	Unaligned contigs length	#ambiguously mapped contigs	Extra bases in ambiguously mapped contigs	#N's	#N's per 100 kbp	Genome fraction (%)	Duplication ratio	#genes	#predicted genes (unique)	#predicted genes (>= 0 bp)	#predicted genes (>= 300 bp)	#predicted genes (>= 1500 bp)	#predicted genes (>= 3000 bp)	#mismatches	#indels	Indels length	#mismatches per 100 kbp	#indels per 100 kbp	GC (%)	Reference GC (%)	Average %IDY	Largest alignment	NA50	NGA50	NA75	NGA75	LA50	LGA50	LA75	LGA75	#Mis_misassemblies	#Mis_relocations	#Mis_translocations	#Mis_inversions	#Mis_misassembled contigs	Mis_Misassembled contigs length	#Mis_local misassemblies	#Mis_short indels (<= 5 bp)	#Mis_long indels (> 5 bp)	#Una_fully unaligned contigs	Una_Fully unaligned length	#Una_partially unaligned contigs	#Una_with misassembly	#Una_both parts are significant	Una_Partially unaligned length	GAGE_Contigs #	GAGE_Min contig	GAGE_Max contig	GAGE_N50	GAGE_Genome size	GAGE_Assembly size	GAGE_Chaff bases	GAGE_Missing reference bases	GAGE_Missing assembly bases	GAGE_Missing assembly contigs	GAGE_Duplicated reference bases	GAGE_Compressed reference bases	GAGE_Bad trim	GAGE_Avg idy	GAGE_SNPs	GAGE_Indels < 5bp	GAGE_Indels >= 5	GAGE_Inversions	GAGE_Relocation	GAGE_Translocation	GAGE_Corrected contig #	GAGE_Corrected assembly size	GAGE_Min correct contig	GAGE_Max correct contig	GAGE_Corrected N50
ABYSS_PE_MIS_PE_sakai_mis-1_bi_2x150bp_default__sakai_mis-2_bi_2x150bp_default.0.826percent_78-scaffolds_broken	268	706	190	292286	5532994	5591364	5488782	5594470	111727	100122	52672	50256	17	18	35	36	5	2	2	335651	702	0 + 0 part	0	50	-69336	31	0.56	96.392	1.013	5102 + 170 part	5305	5439	4554	695	77	779	42	314	14.45	0.78	50.42	50.48	98.758	228649	100122	100122	52672	50256	18	18	36	37	2	2	0	0	2	335651	5	34	8	0	0	0	0	0	0	268	200	292286	100122 COUNT: 18	5594470	5532994	0	20381(0.36%)	21(0.00%)	0(0.00%)	29463	222033	0	99.98	599	39	12	0	2	0	253	5505041	200	228653	87862 COUNT: 20
ABYSS_PE_MIS_PE_sakai_mis-1_bi_2x150bp_default__sakai_mis-2_bi_2x150bp_default.0.826percent_78-scaffolds	210	648	166	376762	5536542	5594912	5509700	5594470	143094	143094	72816	72816	13	13	28	28	23	14	13	518599	774	0 + 1 part	313	31	-42036	3579	64.64	96.778	1.015	5131 + 163 part	5289	5422	4554	696	76	960	336	923	17.73	6.21	50.42	50.48	98.734	353718	143094	143094	72816	72816	14	14	29	29	14	14	0	0	13	518599	23	317	19	0	0	1	0	1	313	210	200	376762	143094 COUNT: 13	5594470	5536542	0	19984(0.36%)	3424(0.06%)	0(0.00%)	22235	208504	518	99.97	599	45	35	9	13	0	253	5519695	200	228653	98911 COUNT: 19
