Assembly	GAGE_Contigs #	GAGE_Min contig	GAGE_Max contig	GAGE_N50	GAGE_Genome size	GAGE_Assembly size	GAGE_Chaff bases	GAGE_Missing reference bases	GAGE_Missing assembly bases	GAGE_Missing assembly contigs	GAGE_Duplicated reference bases	GAGE_Compressed reference bases	GAGE_Bad trim	GAGE_Avg idy	GAGE_SNPs	GAGE_Indels < 5bp	GAGE_Indels >= 5	GAGE_Inversions	GAGE_Relocation	GAGE_Translocation	GAGE_Corrected contig #	GAGE_Corrected assembly size	GAGE_Min correct contig	GAGE_Max correct contig	GAGE_Corrected N50
ABYSS_PE_MIS_PE_sakai_mis-1_bi_2x250bp_SI_default__sakai_mis-2_bi_2x250bp_SI_default.0.35percent_98.final_broken	609	200	259961	63915 COUNT: 27	5594470	5390519	0	13752(0.25%)	0(0.00%)	0(0.00%)	4892	270884	0	100.00	101	13	1	0	2	0	592	5385427	200	259961	63637 COUNT: 27
ABYSS_PE_MIS_PE_sakai_mis-1_bi_2x250bp_SI_default__sakai_mis-2_bi_2x250bp_SI_default.0.35percent_98.final	609	200	259961	63915 COUNT: 27	5594470	5390519	0	13752(0.25%)	0(0.00%)	0(0.00%)	4892	270884	0	100.00	101	13	1	0	2	0	592	5385427	200	259961	63637 COUNT: 27
