All statistics are based on contigs of size >= 200 bp, unless otherwise noted (e.g., "# contigs (>= 0 bp)" and "Total length (>= 0 bp)" include all contigs).

Assembly                                                                                                          #Contigs  #Contigs (>= 0 bp)  #Contigs (>= 1000 bp)  Largest contig  Total length  Total length (>= 0 bp)  Total length (>= 1000 bp)  Reference length  N50    NG50   N75    NG75   L50  LG50  L75  LG75  #local misassemblies  #misassemblies  #misassembled contigs  Misassembled contigs length  Misassemblies inter-contig overlap  #unaligned contigs  Unaligned contigs length  #ambiguously mapped contigs  Extra bases in ambiguously mapped contigs  #N's  #N's per 100 kbp  Genome fraction (%)  Duplication ratio  #genes           #predicted genes (unique)  #predicted genes (>= 0 bp)  #predicted genes (>= 300 bp)  #predicted genes (>= 1500 bp)  #predicted genes (>= 3000 bp)  #mismatches  #indels  Indels length  #mismatches per 100 kbp  #indels per 100 kbp  GC (%)  Reference GC (%)  Average %IDY  Largest alignment  NA50   NGA50  NA75   NGA75  LA50  LGA50  LA75  LGA75  #Mis_misassemblies  #Mis_relocations  #Mis_translocations  #Mis_inversions  #Mis_misassembled contigs  Mis_Misassembled contigs length  #Mis_local misassemblies  #Mis_short indels (<= 5 bp)  #Mis_long indels (> 5 bp)  #Una_fully unaligned contigs  Una_Fully unaligned length  #Una_partially unaligned contigs  #Una_with misassembly  #Una_both parts are significant  Una_Partially unaligned length  GAGE_Contigs #  GAGE_Min contig  GAGE_Max contig  GAGE_N50         GAGE_Genome size  GAGE_Assembly size  GAGE_Chaff bases  GAGE_Missing reference bases  GAGE_Missing assembly bases  GAGE_Missing assembly contigs  GAGE_Duplicated reference bases  GAGE_Compressed reference bases  GAGE_Bad trim  GAGE_Avg idy  GAGE_SNPs  GAGE_Indels < 5bp  GAGE_Indels >= 5  GAGE_Inversions  GAGE_Relocation  GAGE_Translocation  GAGE_Corrected contig #  GAGE_Corrected assembly size  GAGE_Min correct contig  GAGE_Max correct contig  GAGE_Corrected N50
ABYSS_PE_MIS_PE_sakai_mis-1_bi_2x250bp_SI_default__sakai_mis-2_bi_2x250bp_SI_default.0.35percent_98.final_broken  609       1069                229                    259961          5390519       5457310                 5246294                    5594470           64812  63915  29607  25453  25   27    56   62    1                     2               2                      122025                       5                                   0 + 0 part          0                         183                          -106230                                    0     0.00              94.293               1.002              4872 + 281 part  5529                       5546                        4488                          659                            66                             49           14       14             0.93                     0.27                 50.32   50.48             98.785        259961             64124  63637  29058  24857  25    27     57    63     2                   2                 0                    0                2                          122025                           1                         14                           0                          0                             0                           0                                 0                      0                                0                               609             200              259961           63915 COUNT: 27  5594470           5390519             0                 13752(0.25%)                  0(0.00%)                     0(0.00%)                       4892                             270884                           0              100.00        101        13                 1                 0                2                0                   592                      5385427                       200                      259961                   63637 COUNT: 27   
ABYSS_PE_MIS_PE_sakai_mis-1_bi_2x250bp_SI_default__sakai_mis-2_bi_2x250bp_SI_default.0.35percent_98.final         609       1069                229                    259961          5390519       5457310                 5246294                    5594470           64812  63915  29607  25453  25   27    56   62    1                     2               2                      122025                       5                                   0 + 0 part          0                         183                          -106230                                    0     0.00              94.293               1.002              4872 + 281 part  5529                       5546                        4488                          659                            66                             49           14       14             0.93                     0.27                 50.32   50.48             98.785        259961             64124  63637  29058  24857  25    27     57    63     2                   2                 0                    0                2                          122025                           1                         14                           0                          0                             0                           0                                 0                      0                                0                               609             200              259961           63915 COUNT: 27  5594470           5390519             0                 13752(0.25%)                  0(0.00%)                     0(0.00%)                       4892                             270884                           0              100.00        101        13                 1                 0                2                0                   592                      5385427                       200                      259961                   63637 COUNT: 27   
