Assembly	ABYSS_PE_PGM_mtbh37_pgm_400bp_es_318v2_OT2_tsv3.6_morestringent.0.075percent_32.final
#Mis_misassemblies	3
#Mis_relocations	3
#Mis_translocations	0
#Mis_inversions	0
#Mis_misassembled contigs	3
Mis_Misassembled contigs length	4873
#Mis_local misassemblies	5
#mismatches	160
#indels	2520
#Mis_short indels (<= 5 bp)	2518
#Mis_long indels (> 5 bp)	2
Indels length	2653
