All statistics are based on contigs of size >= 200 bp, unless otherwise noted (e.g., "# contigs (>= 0 bp)" and "Total length (>= 0 bp)" include all contigs).

Assembly                                                          #Contigs (>= 0 bp)  #Contigs (>= 1000 bp)  Total length (>= 0 bp)  Total length (>= 1000 bp)  #Contigs  Largest contig  Total length  Reference length  GC (%)  Reference GC (%)  N50   NG50  N75   NG75  #misassemblies  #local misassemblies  #unaligned contigs  Unaligned contigs length  Genome fraction (%)  Duplication ratio  #N's per 100 kbp  #mismatches per 100 kbp  #indels per 100 kbp  #genes            #predicted genes (unique)  #predicted genes (>= 0 bp)  #predicted genes (>= 300 bp)  #predicted genes (>= 1500 bp)  #predicted genes (>= 3000 bp)  Largest alignment  NA50  NGA50  NA75  NGA75
NEWBLER_PGM_sakai_pgm_mu_318_400bp_IO_TS3.4_ms.6coverage.contigs  2740                1538                   4980143                 4330519                    2636      28281           4964469       5594470           50.57   50.48             2960  2597  1625  1128  8               16                    1 + 2 part          383                       87.509               1.000              0.00              16.08                    49.59                3001 + 1895 part  6973                       6973                        4992                          337                            13                             27739              2926  2576   1568  1080 
