calling: java -cp /vol/ngscomparison/software/analysis/quast-2.1/libs/gage:. SizeFasta /vol/codine-tmp/juene/tmp.KGcY38bqPO/quast/corrected_input/MRSA_COL_Plasmid.fasta |awk '{SUM+=; print SUM}'|tail -n 1
Contig Stats
Total units: 42751
Reference: 2813862
BasesInFasta: 11708554
Min: 200
Max: 1118
N10: 450 COUNT: 523
N25: 408 COUNT: 1522
N50: 385 COUNT: 3301
N75: 369 COUNT: 5168
E-size:1236.2

Genome Size: 2813862
Assembly Size: 11708554
Chaff bases: 0
Missing Reference Bases: 12654(0.45%)
Missing Assembly Bases: 308760(2.64%)
Missing Assembly Contigs: 552(1.29%)
Duplicated Reference Bases: 7683446
Compressed Reference Bases: 41598
Bad Trim: 111474
Avg Idy: 99.63
SNPs: 324
Indels < 5bp: 8125
Indels >= 5: 1
Inversions: 2
Relocation: 2
Translocation: 0

Corrected Contig Stats
calling: java -cp /vol/ngscomparison/software/analysis/quast-2.1/libs/gage:.:. GetFastaStats -o -min 199 -genomeSize 2813862 /vol/codine-tmp/juene/tmp.KGcY38bqPO/quast/gage/tmp/SOAP2_PGM_mrsa_pgm_400bp_es_318_IKA_ts3.2_morestringent.0.165percent_103.final.contig.matches.lens 2> /dev/null
Total units: 14970
Reference: 2813862
BasesInFasta: 3687489
Min: 200
Max: 1118
N10: 427 COUNT: 537
N25: 341 COUNT: 1670
N50: 256 COUNT: 4009
N75: 205 COUNT: 7195
E-size:355.34

Done
