1: PREPARING DATA
2,3: RUNNING mummer AND CREATING CLUSTERS
# reading input file "/vol/codine-tmp/juene/tmp.1I1e9Ibfks/quast/contigs_reports/nucmer_output/VELVET_PGM_mrsa_pgm_200bp_es_316_IonOnev2_ts3.0_morestringent.0.230percent_127.final.contigs.ntref" of length 2813864
# construct suffix tree for sequence of length 2813864
# (maximum reference length is 536870908)
# (maximum query length is 4294967295)
# process 28138 characters per dot
#....................................................................................................
# CONSTRUCTIONTIME /vol/ngscomparison/software/analysis/quast-2.1/libs/MUMmer3.23-linux/mummer /vol/codine-tmp/juene/tmp.1I1e9Ibfks/quast/contigs_reports/nucmer_output/VELVET_PGM_mrsa_pgm_200bp_es_316_IonOnev2_ts3.0_morestringent.0.230percent_127.final.contigs.ntref 1.55
# reading input file "/vol/codine-tmp/juene/tmp.1I1e9Ibfks/quast/corrected_input/VELVET_PGM_mrsa_pgm_200bp_es_316_IonOnev2_ts3.0_morestringent.0.230percent_127.final.contigs" of length 2049524
# matching query-file "/vol/codine-tmp/juene/tmp.1I1e9Ibfks/quast/corrected_input/VELVET_PGM_mrsa_pgm_200bp_es_316_IonOnev2_ts3.0_morestringent.0.230percent_127.final.contigs"
# against subject-file "/vol/codine-tmp/juene/tmp.1I1e9Ibfks/quast/contigs_reports/nucmer_output/VELVET_PGM_mrsa_pgm_200bp_es_316_IonOnev2_ts3.0_morestringent.0.230percent_127.final.contigs.ntref"
# COMPLETETIME /vol/ngscomparison/software/analysis/quast-2.1/libs/MUMmer3.23-linux/mummer /vol/codine-tmp/juene/tmp.1I1e9Ibfks/quast/contigs_reports/nucmer_output/VELVET_PGM_mrsa_pgm_200bp_es_316_IonOnev2_ts3.0_morestringent.0.230percent_127.final.contigs.ntref 4.38
# SPACE /vol/ngscomparison/software/analysis/quast-2.1/libs/MUMmer3.23-linux/mummer /vol/codine-tmp/juene/tmp.1I1e9Ibfks/quast/contigs_reports/nucmer_output/VELVET_PGM_mrsa_pgm_200bp_es_316_IonOnev2_ts3.0_morestringent.0.230percent_127.final.contigs.ntref 4.80
4: FINISHING DATA
