Assembly	SOAP2_MIS_PE_sakai_mis-1_bi_2x250bp_SI_default.0.64percent_45.final.scaf_broken	SOAP2_MIS_PE_sakai_mis-1_bi_2x250bp_SI_default.0.64percent_45.final.scaf
#Mis_misassemblies	1	1
#Mis_relocations	1	1
#Mis_translocations	0	0
#Mis_inversions	0	0
#Mis_misassembled contigs	1	1
Mis_Misassembled contigs length	313	313
#Mis_local misassemblies	0	0
#mismatches	100	100
#indels	5	5
#Mis_short indels (<= 5 bp)	5	5
#Mis_long indels (> 5 bp)	0	0
Indels length	5	5
