Assembly	#Una_fully unaligned contigs	Una_Fully unaligned length	#Una_partially unaligned contigs	#Una_with misassembly	#Una_both parts are significant	Una_Partially unaligned length	#N's
SOAP2_MIS_PE_mrsa_mis-1_bi_2x150bp_default.0.527percent_55.final.scaf_broken	6	7076	1	0	0	63	118
SOAP2_MIS_PE_mrsa_mis-1_bi_2x150bp_default.0.527percent_55.final.scaf	6	7780	1	0	0	1934	14954
