calling: java -cp /vol/ngscomparison/software/analysis/quast-2.1/libs/gage:. SizeFasta /vol/codine-tmp/juene/tmp.goJhG9sIwD/quast/corrected_input/Ecoli_Sakai_editedNew_plasmids.fasta |awk '{SUM+=; print SUM}'|tail -n 1
Contig Stats
Total units: 333
Reference: 5594470
BasesInFasta: 5496226
Min: 200
Max: 311917
N10: 217485 COUNT: 3
N25: 157796 COUNT: 7
N50: 100193 COUNT: 17
N75: 41821 COUNT: 37
E-size:116028.67

Genome Size: 5594470
Assembly Size: 5496226
Chaff bases: 0
Missing Reference Bases: 12371(0.22%)
Missing Assembly Bases: 23(0.00%)
Missing Assembly Contigs: 0(0.00%)
Duplicated Reference Bases: 25978
Compressed Reference Bases: 235864
Bad Trim: 1
Avg Idy: 99.98
SNPs: 507
Indels < 5bp: 22
Indels >= 5: 17
Inversions: 2
Relocation: 4
Translocation: 0

Corrected Contig Stats
calling: java -cp /vol/ngscomparison/software/analysis/quast-2.1/libs/gage:.:. GetFastaStats -o -min 199 -genomeSize 5594470 /vol/codine-tmp/juene/tmp.goJhG9sIwD/quast/gage/tmp/ABYSS_PE_MIS_PE_sakai_mis-both_bi_2x250bp_SI_default.0.64percent.NEWBLER_94-scaffolds_broken.matches.lens 2> /dev/null
Total units: 317
Reference: 5594470
BasesInFasta: 5481788
Min: 200
Max: 224323
N10: 203568 COUNT: 3
N25: 142947 COUNT: 8
N50: 73086 COUNT: 22
N75: 35723 COUNT: 48
E-size:91544.19

Done
