Assembly	VELVET_MIS_PE_sakai_mis-1_bi_2x150bp_default__sakai_mis-2_bi_2x150bp_default.0.826percent_115.final.contigs_broken	VELVET_MIS_PE_sakai_mis-1_bi_2x150bp_default__sakai_mis-2_bi_2x150bp_default.0.826percent_115.final.contigs
#Contigs (>= 0 bp)	887	405
#Contigs (>= 1000 bp)	537	147
Total length (>= 0 bp)	5443982	5481720
Total length (>= 1000 bp)	5297216	5383696
#Contigs	882	405
Largest contig	81576	268754
Total length	5443275	5481720
Reference length	5594470	5594470
GC (%)	50.36	50.36
Reference GC (%)	50.48	50.48
N50	15759	104033
NG50	15191	104033
N75	8271	57515
NG75	7882	49671
#misassemblies	3	22
#local misassemblies	1	202
#unaligned contigs	1 + 1 part	1 + 0 part
Unaligned contigs length	5455	5385
Genome fraction (%)	95.127	95.344
Duplication ratio	1.001	1.008
#N's per 100 kbp	0.00	688.43
#mismatches per 100 kbp	2.05	3.15
#indels per 100 kbp	0.34	127.90
#genes	4731 + 493 part	4929 + 303 part
#predicted genes (unique)	5782	5714
#predicted genes (>= 0 bp)	5798	5730
#predicted genes (>= 300 bp)	4657	4655
#predicted genes (>= 1500 bp)	629	636
#predicted genes (>= 3000 bp)	55	55
Largest alignment	81576	267655
NA50	15759	102715
NGA50	15191	102715
NA75	8250	46677
NGA75	7790	46092
