Assembly	NEWBLER_MIS_PE_mrsa_mis-1_bi_2x250bp_default__mrsa_mis-2_bi_2x250bp_default.0.900percent.contigs_broken	NEWBLER_MIS_PE_mrsa_mis-1_bi_2x250bp_default__mrsa_mis-2_bi_2x250bp_default.0.900percent.contigs
GAGE_Contigs #	47	22
GAGE_Min contig	605	2234
GAGE_Max contig	713104	810095
GAGE_N50	144866 COUNT: 5	326453 COUNT: 3
GAGE_Genome size	2813862	2813862
GAGE_Assembly size	2775316	2787473
GAGE_Chaff bases	0	0
GAGE_Missing reference bases	11817(0.42%)	11817(0.42%)
GAGE_Missing assembly bases	5386(0.19%)	17543(0.63%)
GAGE_Missing assembly contigs	1(2.13%)	1(4.55%)
GAGE_Duplicated reference bases	0	0
GAGE_Compressed reference bases	33989	33884
GAGE_Bad trim	0	0
GAGE_Avg idy	99.99	99.99
GAGE_SNPs	30	30
GAGE_Indels < 5bp	9	9
GAGE_Indels >= 5	0	16
GAGE_Inversions	0	1
GAGE_Relocation	2	6
GAGE_Translocation	0	0
GAGE_Corrected contig #	48	48
GAGE_Corrected assembly size	2769935	2769935
GAGE_Min correct contig	338	338
GAGE_Max correct contig	713103	713103
GAGE_Corrected N50	109112 COUNT: 5	109112 COUNT: 5
