Assembly	CLC_PGM_mrsa_pgm_400bp_es_318_IKA_ts3.2_morestringent.0.350percent.result
#Contigs	862
#Contigs (>= 0 bp)	862
#Contigs (>= 1000 bp)	203
Largest contig	85851
Total length	2908846
Total length (>= 0 bp)	2908846
Total length (>= 1000 bp)	2706779
Reference length	2813862
N50	23924
NG50	24979
N75	10654
NG75	12145
L50	38
LG50	36
L75	83
LG75	77
#local misassemblies	2
#misassemblies	3
#misassembled contigs	3
Misassembled contigs length	9071
Misassemblies inter-contig overlap	561
#unaligned contigs	13 + 19 part
Unaligned contigs length	5585
#ambiguously mapped contigs	22
Extra bases in ambiguously mapped contigs	-11983
#N's	1803
#N's per 100 kbp	61.98
Genome fraction (%)	97.808
Duplication ratio	1.051
#genes	2530 + 165 part
#predicted genes (unique)	3289
#predicted genes (>= 0 bp)	3304
#predicted genes (>= 300 bp)	2390
#predicted genes (>= 1500 bp)	269
#predicted genes (>= 3000 bp)	24
#mismatches	61
#indels	547
Indels length	564
#mismatches per 100 kbp	2.22
#indels per 100 kbp	19.87
GC (%)	32.64
Reference GC (%)	32.81
Average %IDY	99.223
Largest alignment	85851
NA50	23924
NGA50	24979
NA75	10654
NGA75	12145
LA50	38
LGA50	36
LA75	83
LGA75	77
#Mis_misassemblies	3
#Mis_relocations	3
#Mis_translocations	0
#Mis_inversions	0
#Mis_misassembled contigs	3
Mis_Misassembled contigs length	9071
#Mis_local misassemblies	2
#Mis_short indels (<= 5 bp)	547
#Mis_long indels (> 5 bp)	0
#Una_fully unaligned contigs	13
Una_Fully unaligned length	3687
#Una_partially unaligned contigs	19
#Una_with misassembly	0
#Una_both parts are significant	0
Una_Partially unaligned length	1898
GAGE_Contigs #	862
GAGE_Min contig	200
GAGE_Max contig	85851
GAGE_N50	24979 COUNT: 36
GAGE_Genome size	2813862
GAGE_Assembly size	2908846
GAGE_Chaff bases	0
GAGE_Missing reference bases	20911(0.74%)
GAGE_Missing assembly bases	4878(0.17%)
GAGE_Missing assembly contigs	13(1.51%)
GAGE_Duplicated reference bases	137396
GAGE_Compressed reference bases	40798
GAGE_Bad trim	1486
GAGE_Avg idy	99.98
GAGE_SNPs	54
GAGE_Indels < 5bp	472
GAGE_Indels >= 5	1
GAGE_Inversions	0
GAGE_Relocation	3
GAGE_Translocation	0
GAGE_Corrected contig #	391
GAGE_Corrected assembly size	2767545
GAGE_Min correct contig	200
GAGE_Max correct contig	85866
GAGE_Corrected N50	23824 COUNT: 37
