calling: java -cp /vol/ngscomparison/software/analysis/quast-2.1/libs/gage:. SizeFasta /vol/codine-tmp/juene/tmp.EZrohAhFPA/quast/corrected_input/Ecoli_Sakai_editedNew_plasmids.fasta |awk '{SUM+=; print SUM}'|tail -n 1
Contig Stats
Total units: 598
Reference: 5594470
BasesInFasta: 5517341
Min: 369
Max: 88324
N10: 57461 COUNT: 9
N25: 41788 COUNT: 27
N50: 24691 COUNT: 71
N75: 11794 COUNT: 154
E-size:27792.22

Genome Size: 5594470
Assembly Size: 5517341
Chaff bases: 0
Missing Reference Bases: 19090(0.34%)
Missing Assembly Bases: 37295(0.68%)
Missing Assembly Contigs: 1(0.17%)
Duplicated Reference Bases: 12754
Compressed Reference Bases: 240906
Bad Trim: 790
Avg Idy: 99.99
SNPs: 148
Indels < 5bp: 19
Indels >= 5: 223
Inversions: 3
Relocation: 5
Translocation: 1

Corrected Contig Stats
calling: java -cp /vol/ngscomparison/software/analysis/quast-2.1/libs/gage:.:. GetFastaStats -o -min 199 -genomeSize 5594470 /vol/codine-tmp/juene/tmp.EZrohAhFPA/quast/gage/tmp/VELVET_MIS_PE_sakai_mis-both_bi_2x250bp_SI_default.0.64percent_185.final.contigs.matches.lens 2> /dev/null
Total units: 818
Reference: 5594470
BasesInFasta: 5471514
Min: 287
Max: 58288
N10: 35464 COUNT: 12
N25: 23868 COUNT: 42
N50: 13433 COUNT: 120
N75: 6863 COUNT: 263
E-size:17181.04

Done
