Assembly	NEWBLER_MIS_PE_sakai_mis-2_bi_2x150bp_default__sakai_mis-1_bi_2x150bp_default.0.550percent.contigs_broken	NEWBLER_MIS_PE_sakai_mis-2_bi_2x150bp_default__sakai_mis-1_bi_2x150bp_default.0.550percent.contigs
#Mis_misassemblies	3	14
#Mis_relocations	3	14
#Mis_translocations	0	0
#Mis_inversions	0	0
#Mis_misassembled contigs	3	10
Mis_Misassembled contigs length	125213	944709
#Mis_local misassemblies	3	72
#mismatches	44	135
#indels	13	21
#Mis_short indels (<= 5 bp)	13	21
#Mis_long indels (> 5 bp)	0	0
Indels length	13	23
