Assembly	#Contigs (>= 0 bp)	#Contigs (>= 1000 bp)	Total length (>= 0 bp)	Total length (>= 1000 bp)	#Contigs	Largest contig	Total length	Reference length	GC (%)	Reference GC (%)	N50	NG50	N75	NG75	#misassemblies	#local misassemblies	#unaligned contigs	Unaligned contigs length	Genome fraction (%)	Duplication ratio	#N's per 100 kbp	#mismatches per 100 kbp	#indels per 100 kbp	#genes	#predicted genes (unique)	#predicted genes (>= 0 bp)	#predicted genes (>= 300 bp)	#predicted genes (>= 1500 bp)	#predicted genes (>= 3000 bp)	Largest alignment	NA50	NGA50	NA75	NGA75
VELVET_MIS_PE_mrsa_mis-1_bi_2x250bp_default__mrsa_mis-2_bi_2x250bp_default.0.460percent_101.final.contigs_broken	233	158	2784931	2758100	232	139666	2784869	2813862	32.75	32.81	31654	31654	16528	14619	3	0	4 + 0 part	4683	98.225	1.001	0.00	1.37	0.40	2583 + 120 part	2711	2714	2312	287	27	139666	31654	31654	14658	14619
VELVET_MIS_PE_mrsa_mis-1_bi_2x250bp_default__mrsa_mis-2_bi_2x250bp_default.0.460percent_101.final.contigs	202	134	2786082	2762079	202	139666	2786082	2813862	32.75	32.81	36411	36411	19722	19685	8	9	3 + 0 part	4792	98.238	1.001	41.31	1.37	3.80	2595 + 109 part	2706	2709	2315	287	27	139666	36285	36285	19704	19685
