Assembly	GAGE_Contigs #	GAGE_Min contig	GAGE_Max contig	GAGE_N50	GAGE_Genome size	GAGE_Assembly size	GAGE_Chaff bases	GAGE_Missing reference bases	GAGE_Missing assembly bases	GAGE_Missing assembly contigs	GAGE_Duplicated reference bases	GAGE_Compressed reference bases	GAGE_Bad trim	GAGE_Avg idy	GAGE_SNPs	GAGE_Indels < 5bp	GAGE_Indels >= 5	GAGE_Inversions	GAGE_Relocation	GAGE_Translocation	GAGE_Corrected contig #	GAGE_Corrected assembly size	GAGE_Min correct contig	GAGE_Max correct contig	GAGE_Corrected N50
ABYSS_PE_MIS_PE_mrsa_mis-1_bi_2x150bp_default__mrsa_mis-2_bi_2x150bp_default.0.527percent_122-scaffolds_broken	359	221	44125	15045 COUNT: 59	2813862	2804497	0	19985(0.71%)	19(0.00%)	0(0.00%)	12197	17708	2	99.99	41	40	10	0	1	0	359	2793476	221	44125	14392 COUNT: 62
ABYSS_PE_MIS_PE_mrsa_mis-1_bi_2x150bp_default__mrsa_mis-2_bi_2x150bp_default.0.527percent_122-scaffolds	321	243	83872	17397 COUNT: 47	2813862	2806990	0	19956(0.71%)	2488(0.09%)	0(0.00%)	14037	19546	52	99.99	41	45	46	0	1	0	357	2791667	221	44125	14392 COUNT: 62
