All statistics are based on contigs of size >= 200 bp, unless otherwise noted (e.g., "# contigs (>= 0 bp)" and "Total length (>= 0 bp)" include all contigs).

Assembly                       ABYSS_PE_MIS_PE_mrsa_mis-1_bi_2x150bp_default__mrsa_mis-2_bi_2x150bp_default.0.527percent_122-scaffolds_broken  ABYSS_PE_MIS_PE_mrsa_mis-1_bi_2x150bp_default__mrsa_mis-2_bi_2x150bp_default.0.527percent_122-scaffolds
#Contigs (>= 0 bp)             379                                                                                                             341                                                                                                    
#Contigs (>= 1000 bp)          302                                                                                                             268                                                                                                    
Total length (>= 0 bp)         2807598                                                                                                         2810091                                                                                                
Total length (>= 1000 bp)      2773251                                                                                                         2778452                                                                                                
#Contigs                       359                                                                                                             321                                                                                                    
Largest contig                 44125                                                                                                           83872                                                                                                  
Total length                   2804497                                                                                                         2806990                                                                                                
Reference length               2813862                                                                                                         2813862                                                                                                
GC (%)                         32.88                                                                                                           32.88                                                                                                  
Reference GC (%)               32.81                                                                                                           32.81                                                                                                  
N50                            15156                                                                                                           17397                                                                                                  
NG50                           15045                                                                                                           17397                                                                                                  
N75                            7941                                                                                                            8415                                                                                                   
NG75                           7752                                                                                                            8302                                                                                                   
#misassemblies                 2                                                                                                               3                                                                                                      
#local misassemblies           2                                                                                                               14                                                                                                     
#unaligned contigs             1 + 0 part                                                                                                      1 + 0 part                                                                                             
Unaligned contigs length       243                                                                                                             243                                                                                                    
Genome fraction (%)            98.682                                                                                                          98.691                                                                                                 
Duplication ratio              1.005                                                                                                           1.006                                                                                                  
#N's per 100 kbp               1.46                                                                                                            90.27                                                                                                  
#mismatches per 100 kbp        1.66                                                                                                            1.73                                                                                                   
#indels per 100 kbp            1.40                                                                                                            20.06                                                                                                  
#genes                         2489 + 222 part                                                                                                 2509 + 203 part                                                                                        
#predicted genes (unique)      2806                                                                                                            2794                                                                                                   
#predicted genes (>= 0 bp)     2813                                                                                                            2800                                                                                                   
#predicted genes (>= 300 bp)   2334                                                                                                            2333                                                                                                   
#predicted genes (>= 1500 bp)  272                                                                                                             273                                                                                                    
#predicted genes (>= 3000 bp)  26                                                                                                              26                                                                                                     
Largest alignment              44125                                                                                                           83872                                                                                                  
NA50                           15156                                                                                                           17397                                                                                                  
NGA50                          15045                                                                                                           17397                                                                                                  
NA75                           7941                                                                                                            8415                                                                                                   
NGA75                          7752                                                                                                            8299                                                                                                   
