Assembly	#Contigs	#Contigs (>= 0 bp)	#Contigs (>= 1000 bp)	Largest contig	Total length	Total length (>= 0 bp)	Total length (>= 1000 bp)	Reference length	N50	NG50	N75	NG75	L50	LG50	L75	LG75	#local misassemblies	#misassemblies	#misassembled contigs	Misassembled contigs length	Misassemblies inter-contig overlap	#unaligned contigs	Unaligned contigs length	#ambiguously mapped contigs	Extra bases in ambiguously mapped contigs	#N's	#N's per 100 kbp	Genome fraction (%)	Duplication ratio	#genes	#predicted genes (unique)	#predicted genes (>= 0 bp)	#predicted genes (>= 300 bp)	#predicted genes (>= 1500 bp)	#predicted genes (>= 3000 bp)	#mismatches	#indels	Indels length	#mismatches per 100 kbp	#indels per 100 kbp	GC (%)	Reference GC (%)	Average %IDY	Largest alignment	NA50	NGA50	NA75	NGA75	LA50	LGA50	LA75	LGA75	#Mis_misassemblies	#Mis_relocations	#Mis_translocations	#Mis_inversions	#Mis_misassembled contigs	Mis_Misassembled contigs length	#Mis_local misassemblies	#Mis_short indels (<= 5 bp)	#Mis_long indels (> 5 bp)	#Una_fully unaligned contigs	Una_Fully unaligned length	#Una_partially unaligned contigs	#Una_with misassembly	#Una_both parts are significant	Una_Partially unaligned length	GAGE_Contigs #	GAGE_Min contig	GAGE_Max contig	GAGE_N50	GAGE_Genome size	GAGE_Assembly size	GAGE_Chaff bases	GAGE_Missing reference bases	GAGE_Missing assembly bases	GAGE_Missing assembly contigs	GAGE_Duplicated reference bases	GAGE_Compressed reference bases	GAGE_Bad trim	GAGE_Avg idy	GAGE_SNPs	GAGE_Indels < 5bp	GAGE_Indels >= 5	GAGE_Inversions	GAGE_Relocation	GAGE_Translocation	GAGE_Corrected contig #	GAGE_Corrected assembly size	GAGE_Min correct contig	GAGE_Max correct contig	GAGE_Corrected N50
ABYSS_PE_MIS_PE_mrsa_mis-1_bi_2x150bp_default__mrsa_mis-2_bi_2x150bp_default.0.527percent_122-scaffolds_broken	359	379	302	44125	2804497	2807598	2773251	2813862	15156	15045	7941	7752	58	59	123	124	2	2	2	41062	767	1 + 0 part	243	10	-14619	41	1.46	98.682	1.005	2489 + 222 part	2806	2813	2334	272	26	46	39	184	1.66	1.40	32.88	32.81	99.078	44125	15156	15045	7941	7752	59	60	124	125	2	2	0	0	2	41062	2	32	7	1	243	0	0	0	0	359	221	44125	15045 COUNT: 59	2813862	2804497	0	19985(0.71%)	19(0.00%)	0(0.00%)	12197	17708	2	99.99	41	40	10	0	1	0	359	2793476	221	44125	14392 COUNT: 62
ABYSS_PE_MIS_PE_mrsa_mis-1_bi_2x150bp_default__mrsa_mis-2_bi_2x150bp_default.0.527percent_122-scaffolds	321	341	268	83872	2806990	2810091	2778452	2813862	17397	17397	8415	8302	47	47	104	105	14	3	3	44599	767	1 + 0 part	243	9	-12781	2534	90.27	98.691	1.006	2509 + 203 part	2794	2800	2333	273	26	48	557	1248	1.73	20.06	32.88	32.81	99.050	83872	17397	17397	8415	8299	48	48	105	106	3	3	0	0	3	44599	14	537	20	1	243	0	0	0	0	321	243	83872	17397 COUNT: 47	2813862	2806990	0	19956(0.71%)	2488(0.09%)	0(0.00%)	14037	19546	52	99.99	41	45	46	0	1	0	357	2791667	221	44125	14392 COUNT: 62
