Assembly	SOAP2_MIS_PE_mrsa_mis-1_bi_2x250bp_default.0.460percent_57.final.scaf_broken	SOAP2_MIS_PE_mrsa_mis-1_bi_2x250bp_default.0.460percent_57.final.scaf
#Contigs (>= 0 bp)	18005	17363
#Contigs (>= 1000 bp)	941	952
Total length (>= 0 bp)	5401835	5425020
Total length (>= 1000 bp)	1661373	1941404
#Contigs	9123	8680
Largest contig	6786	13314
Total length	4127798	4181725
Reference length	2813862	2813862
GC (%)	34.23	34.23
Reference GC (%)	32.81	32.81
N50	674	835
NG50	1194	1575
N75	251	251
NG75	645	825
#misassemblies	1	1
#local misassemblies	11	118
#unaligned contigs	6127 + 1 part	6230 + 18 part
Unaligned contigs length	1459944	1604338
Genome fraction (%)	92.219	88.821
Duplication ratio	1.027	1.031
#N's per 100 kbp	20.81	575.00
#mismatches per 100 kbp	1.23	1.20
#indels per 100 kbp	15.41	100.15
#genes	1039 + 1578 part	1161 + 1379 part
#predicted genes (unique)	6766	9844
#predicted genes (>= 0 bp)	6770	9847
#predicted genes (>= 300 bp)	2335	2995
#predicted genes (>= 1500 bp)	45	59
#predicted genes (>= 3000 bp)	0	1
Largest alignment	6786	13218
NA50	664	677
NGA50	1188	1481
NA75	None	None
NGA75	630	658
