All statistics are based on contigs of size >= 200 bp, unless otherwise noted (e.g., "# contigs (>= 0 bp)" and "Total length (>= 0 bp)" include all contigs).

Assembly                         CLC_MIS_PE_mrsa_mis-1_bi_2x250bp_default__mrsa_mis-2_bi_2x250bp_default.0.925percent.result_broken  CLC_MIS_PE_mrsa_mis-1_bi_2x250bp_default__mrsa_mis-2_bi_2x250bp_default.0.925percent.result
#Mis_misassemblies               2                                                                                                   2                                                                                          
#Mis_relocations                 2                                                                                                   2                                                                                          
#Mis_translocations              0                                                                                                   0                                                                                          
#Mis_inversions                  0                                                                                                   0                                                                                          
#Mis_misassembled contigs        2                                                                                                   2                                                                                          
Mis_Misassembled contigs length  162542                                                                                              162607                                                                                     
#Mis_local misassemblies         4                                                                                                   7                                                                                          
#mismatches                      80                                                                                                  81                                                                                         
#indels                          11                                                                                                  11                                                                                         
#Mis_short indels (<= 5 bp)      9                                                                                                   9                                                                                          
#Mis_long indels (> 5 bp)        2                                                                                                   2                                                                                          
Indels length                    63                                                                                                  63                                                                                         
