Assembly	NEWBLER_PGM_mtbh37_pgm_400bp_es_318v2_OT2_tsv3.6_morestringent.0.025percent.contigs
#Mis_misassemblies	8
#Mis_relocations	8
#Mis_translocations	0
#Mis_inversions	0
#Mis_misassembled contigs	8
Mis_Misassembled contigs length	8654
#Mis_local misassemblies	3
#mismatches	262
#indels	1184
#Mis_short indels (<= 5 bp)	1184
#Mis_long indels (> 5 bp)	0
Indels length	1232
