calling: java -cp /vol/ngscomparison/software/analysis/quast-2.1/libs/gage:. SizeFasta /vol/codine-tmp/juene/tmp.3PLHAVeTKa/quast/corrected_input/Ecoli_Sakai_editedNew_plasmids.fasta |awk '{SUM+=; print SUM}'|tail -n 1
Contig Stats
Total units: 608
Reference: 5594470
BasesInFasta: 5327852
Min: 200
Max: 211319
N10: 121987 COUNT: 4
N25: 91971 COUNT: 12
N50: 52618 COUNT: 32
N75: 20821 COUNT: 75
E-size:60913.52

Genome Size: 5594470
Assembly Size: 5327852
Chaff bases: 0
Missing Reference Bases: 56321(1.01%)
Missing Assembly Bases: 0(0.00%)
Missing Assembly Contigs: 0(0.00%)
Duplicated Reference Bases: 1888
Compressed Reference Bases: 262427
Bad Trim: 0
Avg Idy: 99.99
SNPs: 185
Indels < 5bp: 13
Indels >= 5: 1
Inversions: 0
Relocation: 2
Translocation: 0

Corrected Contig Stats
calling: java -cp /vol/ngscomparison/software/analysis/quast-2.1/libs/gage:.:. GetFastaStats -o -min 199 -genomeSize 5594470 /vol/codine-tmp/juene/tmp.3PLHAVeTKa/quast/gage/tmp/ABYSS_PE_MIS_PE_sakai_mis-1_bi_2x250bp_SI_default__sakai_mis-2_bi_2x250bp_SI_default.0.3percent_70.final.matches.lens 2> /dev/null
Total units: 603
Reference: 5594470
BasesInFasta: 5325968
Min: 200
Max: 211318
N10: 121988 COUNT: 4
N25: 91971 COUNT: 12
N50: 52618 COUNT: 32
N75: 20630 COUNT: 76
E-size:60716.5

Done
