Assembly	NEWBLER_MIS_PE_sakai_mis-1_bi_2x250bp_SI_default__sakai_mis-2_bi_2x250bp_SI_default.51coverage.contigs
#Contigs (>= 0 bp)	385
#Contigs (>= 1000 bp)	154
Total length (>= 0 bp)	5344942
Total length (>= 1000 bp)	5260103
#Contigs	323
Largest contig	352540
Total length	5336158
Reference length	5594470
GC (%)	50.28
Reference GC (%)	50.48
N50	99571
NG50	95472
N75	54973
NG75	43047
#misassemblies	3
#local misassemblies	2
#unaligned contigs	4 + 0 part
Unaligned contigs length	6469
Genome fraction (%)	93.599
Duplication ratio	1.000
#N's per 100 kbp	0.00
#mismatches per 100 kbp	1.11
#indels per 100 kbp	0.29
#genes	4933 + 155 part
#predicted genes (unique)	5269
#predicted genes (>= 0 bp)	5270
#predicted genes (>= 300 bp)	4429
#predicted genes (>= 1500 bp)	667
#predicted genes (>= 3000 bp)	68
Largest alignment	352540
NA50	99571
NGA50	95472
NA75	46444
NGA75	43047
