calling: java -cp /vol/ngscomparison/software/analysis/quast-2.1/libs/gage:. SizeFasta /vol/codine-tmp/juene/tmp.Gk7X9M2nfK/quast/corrected_input/MRSA_COL_Plasmid.fasta |awk '{SUM+=; print SUM}'|tail -n 1
Contig Stats
Total units: 116
Reference: 2813862
BasesInFasta: 2811783
Min: 204
Max: 548008
N10: 548008 COUNT: 1
N25: 207933 COUNT: 2
N50: 107769 COUNT: 7
N75: 52318 COUNT: 17
E-size:184359.72

Genome Size: 2813862
Assembly Size: 2811783
Chaff bases: 0
Missing Reference Bases: 262(0.01%)
Missing Assembly Bases: 350(0.01%)
Missing Assembly Contigs: 0(0.00%)
Duplicated Reference Bases: 11576
Compressed Reference Bases: 22508
Bad Trim: 100
Avg Idy: 99.99
SNPs: 44
Indels < 5bp: 6
Indels >= 5: 2
Inversions: 1
Relocation: 2
Translocation: 0

Corrected Contig Stats
calling: java -cp /vol/ngscomparison/software/analysis/quast-2.1/libs/gage:.:. GetFastaStats -o -min 199 -genomeSize 2813862 /vol/codine-tmp/juene/tmp.Gk7X9M2nfK/quast/gage/tmp/ABYSS_PE_MIS_PE_mrsa_mis-1_bi_2x250bp_default__mrsa_mis-2_bi_2x250bp_default.0.460percent_114-scaffolds.matches.lens 2> /dev/null
Total units: 103
Reference: 2813862
BasesInFasta: 2801552
Min: 204
Max: 548007
N10: 548007 COUNT: 1
N25: 207933 COUNT: 2
N50: 107770 COUNT: 7
N75: 52318 COUNT: 17
E-size:183099.65

Done
