All statistics are based on contigs of size >= 200 bp, unless otherwise noted (e.g., "# contigs (>= 0 bp)" and "Total length (>= 0 bp)" include all contigs).

Assembly                          SOAP2_MIS_PE_sakai_mis-1_bi_2x250bp_SI_default.0.64percent_105.final.scaf_broken  SOAP2_MIS_PE_sakai_mis-1_bi_2x250bp_SI_default.0.64percent_105.final.scaf
#Una_fully unaligned contigs      9                                                                                 22                                                                       
Una_Fully unaligned length        7333                                                                              19070                                                                    
#Una_partially unaligned contigs  3                                                                                 12                                                                       
#Una_with misassembly             0                                                                                 0                                                                        
#Una_both parts are significant   0                                                                                 8                                                                        
Una_Partially unaligned length    288                                                                               5580                                                                     
#N's                              299                                                                               46253                                                                    
