Assembly	CLC_PGM_sakai_pgm_mu_200bp_IO_TS3.0Disabled_stringent.0.975percent.result
#Contigs (>= 0 bp)	863
#Contigs (>= 1000 bp)	342
Total length (>= 0 bp)	5390387
Total length (>= 1000 bp)	5219006
#Contigs	863
Largest contig	141966
Total length	5390387
Reference length	5594470
GC (%)	50.28
Reference GC (%)	50.48
N50	32547
NG50	32062
N75	16332
NG75	14187
#misassemblies	10
#local misassemblies	5
#unaligned contigs	4 + 16 part
Unaligned contigs length	1687
Genome fraction (%)	94.006
Duplication ratio	1.009
#N's per 100 kbp	9.59
#mismatches per 100 kbp	2.74
#indels per 100 kbp	20.93
#genes	4781 + 343 part
#predicted genes (unique)	6111
#predicted genes (>= 0 bp)	6117
#predicted genes (>= 300 bp)	4731
#predicted genes (>= 1500 bp)	545
#predicted genes (>= 3000 bp)	39
Largest alignment	141966
NA50	32547
NGA50	32062
NA75	15206
NGA75	13815
