Assembly	ABYSS_PE_PGM_mtbh37_pgm_400bp_es_318v2_OT2_tsv3.6_morestringent.0.900percent_40.final
#Contigs (>= 0 bp)	9557
#Contigs (>= 1000 bp)	1274
Total length (>= 0 bp)	4714695
Total length (>= 1000 bp)	3742449
#Contigs	2082
Largest contig	17013
Total length	4176367
Reference length	4411532
GC (%)	65.32
Reference GC (%)	65.61
N50	3235
NG50	3046
N75	1798
NG75	1548
#misassemblies	0
#local misassemblies	7
#unaligned contigs	1 + 1 part
Unaligned contigs length	859
Genome fraction (%)	94.275
Duplication ratio	1.001
#N's per 100 kbp	0.00
#mismatches per 100 kbp	2.81
#indels per 100 kbp	15.12
#genes	2602 + 1405 part
#predicted genes (unique)	5496
#predicted genes (>= 0 bp)	5497
#predicted genes (>= 300 bp)	4130
#predicted genes (>= 1500 bp)	325
#predicted genes (>= 3000 bp)	24
Largest alignment	17013
NA50	3235
NGA50	3046
NA75	1798
NGA75	1548
