Assembly	CLC_PGM_sakai_pgm_mu_200bp_IO_TS3.0Disabled_stringent.26coverage.result
GAGE_Contigs #	824
GAGE_Min contig	200
GAGE_Max contig	88310
GAGE_N50	22959 COUNT: 77
GAGE_Genome size	5594470
GAGE_Assembly size	5376956
GAGE_Chaff bases	0
GAGE_Missing reference bases	50401(0.90%)
GAGE_Missing assembly bases	1676(0.03%)
GAGE_Missing assembly contigs	0(0.00%)
GAGE_Duplicated reference bases	44675
GAGE_Compressed reference bases	251037
GAGE_Bad trim	1676
GAGE_Avg idy	99.96
GAGE_SNPs	128
GAGE_Indels < 5bp	1784
GAGE_Indels >= 5	6
GAGE_Inversions	0
GAGE_Relocation	3
GAGE_Translocation	0
GAGE_Corrected contig #	663
GAGE_Corrected assembly size	5333009
GAGE_Min correct contig	200
GAGE_Max correct contig	88339
GAGE_Corrected N50	22586 COUNT: 79
