Assembly	CLC_PGM_sakai_pgm_mu_200bp_IO_TS3.0Disabled_stringent.26coverage.result
#Contigs (>= 0 bp)	824
#Contigs (>= 1000 bp)	384
Total length (>= 0 bp)	5376956
Total length (>= 1000 bp)	5220216
#Contigs	824
Largest contig	88310
Total length	5376956
Reference length	5594470
GC (%)	50.27
Reference GC (%)	50.48
N50	23217
NG50	22959
N75	12689
NG75	11538
#misassemblies	15
#local misassemblies	5
#unaligned contigs	0 + 35 part
Unaligned contigs length	1407
Genome fraction (%)	93.771
Duplication ratio	1.008
#N's per 100 kbp	4.41
#mismatches per 100 kbp	2.65
#indels per 100 kbp	33.13
#genes	4766 + 334 part
#predicted genes (unique)	6359
#predicted genes (>= 0 bp)	6362
#predicted genes (>= 300 bp)	4877
#predicted genes (>= 1500 bp)	502
#predicted genes (>= 3000 bp)	34
Largest alignment	88310
NA50	23181
NGA50	22642
NA75	12641
NGA75	11538
