Assembly	ABYSS_PE_PGM_sakai_pgm_mu_200bp_IO_TS3.0Disabled_stringent.100coverage_126.final
GAGE_Contigs #	5105
GAGE_Min contig	200
GAGE_Max contig	26184
GAGE_N50	6472 COUNT: 276
GAGE_Genome size	5594470
GAGE_Assembly size	6157822
GAGE_Chaff bases	0
GAGE_Missing reference bases	7966(0.14%)
GAGE_Missing assembly bases	181(0.00%)
GAGE_Missing assembly contigs	0(0.00%)
GAGE_Duplicated reference bases	541708
GAGE_Compressed reference bases	261909
GAGE_Bad trim	181
GAGE_Avg idy	99.97
GAGE_SNPs	56
GAGE_Indels < 5bp	1533
GAGE_Indels >= 5	2
GAGE_Inversions	0
GAGE_Relocation	2
GAGE_Translocation	0
GAGE_Corrected contig #	2910
GAGE_Corrected assembly size	5615745
GAGE_Min correct contig	200
GAGE_Max correct contig	26192
GAGE_Corrected N50	6455 COUNT: 276
