All statistics are based on contigs of size >= 200 bp, unless otherwise noted (e.g., "# contigs (>= 0 bp)" and "Total length (>= 0 bp)" include all contigs).

Assembly                                                                #Contigs (>= 0 bp)  #Contigs (>= 1000 bp)  Total length (>= 0 bp)  Total length (>= 1000 bp)  #Contigs  Largest contig  Total length  Reference length  GC (%)  Reference GC (%)  N50  NG50  N75  NG75  #misassemblies  #local misassemblies  #unaligned contigs  Unaligned contigs length  Genome fraction (%)  Duplication ratio  #N's per 100 kbp  #mismatches per 100 kbp  #indels per 100 kbp  #genes            #predicted genes (unique)  #predicted genes (>= 0 bp)  #predicted genes (>= 300 bp)  #predicted genes (>= 1500 bp)  #predicted genes (>= 3000 bp)  Largest alignment  NA50  NGA50  NA75  NGA75
SOAP2_MIS_PE_mtbh37-1_mis_2x250bp_nextera_default_81.final.scaf_broken  81297               1577                   23237473                2804975                    76934     8017            22577425      4411532           70.16   65.61             251  1316  250  792   14              3                     62896 + 3346 part   16101546                  98.002               1.491              0.10              194.20                   5.69                 1608 + 2443 part  53738                      53827                       5074                          173                            1                              8017               None  1316   None  790  
SOAP2_MIS_PE_mtbh37-1_mis_2x250bp_nextera_default_81.final.scaf         81232               1594                   23240679                2836562                    76883     8017            22582940      4411532           70.16   65.61             251  1330  250  805   15              8                     62909 + 3347 part   16121157                  97.819               1.490              14.29             196.28                   12.19                1608 + 2443 part  53730                      53818                       5074                          175                            1                              8017               None  1321   None  795  
