All statistics are based on contigs of size >= 200 bp, unless otherwise noted (e.g., "# contigs (>= 0 bp)" and "Total length (>= 0 bp)" include all contigs).

Assembly                                                                                                 #Contigs  #Contigs (>= 0 bp)  #Contigs (>= 1000 bp)  Largest contig  Total length  Total length (>= 0 bp)  Total length (>= 1000 bp)  Reference length  N50    NG50   N75    NG75   L50  LG50  L75  LG75  #local misassemblies  #misassemblies  #misassembled contigs  Misassembled contigs length  Misassemblies inter-contig overlap  #unaligned contigs  Unaligned contigs length  #ambiguously mapped contigs  Extra bases in ambiguously mapped contigs  #N's  #N's per 100 kbp  Genome fraction (%)  Duplication ratio  #genes          #predicted genes (unique)  #predicted genes (>= 0 bp)  #predicted genes (>= 300 bp)  #predicted genes (>= 1500 bp)  #predicted genes (>= 3000 bp)  #mismatches  #indels  Indels length  #mismatches per 100 kbp  #indels per 100 kbp  GC (%)  Reference GC (%)  Average %IDY  Largest alignment  NA50   NGA50  NA75   NGA75  LA50  LGA50  LA75  LGA75  #Mis_misassemblies  #Mis_relocations  #Mis_translocations  #Mis_inversions  #Mis_misassembled contigs  Mis_Misassembled contigs length  #Mis_local misassemblies  #Mis_short indels (<= 5 bp)  #Mis_long indels (> 5 bp)  #Una_fully unaligned contigs  Una_Fully unaligned length  #Una_partially unaligned contigs  #Una_with misassembly  #Una_both parts are significant  Una_Partially unaligned length  GAGE_Contigs #  GAGE_Min contig  GAGE_Max contig  GAGE_N50         GAGE_Genome size  GAGE_Assembly size  GAGE_Chaff bases  GAGE_Missing reference bases  GAGE_Missing assembly bases  GAGE_Missing assembly contigs  GAGE_Duplicated reference bases  GAGE_Compressed reference bases  GAGE_Bad trim  GAGE_Avg idy  GAGE_SNPs  GAGE_Indels < 5bp  GAGE_Indels >= 5  GAGE_Inversions  GAGE_Relocation  GAGE_Translocation  GAGE_Corrected contig #  GAGE_Corrected assembly size  GAGE_Min correct contig  GAGE_Max correct contig  GAGE_Corrected N50
ABYSS_PE_MIS_PE_mrsa_mis-1_bi_2x150bp_default__mrsa_mis-2_bi_2x150bp_default.31coverage_50.final_broken  198       643                 142                    148673          2760116       2801320                 2734657                    2813862           36782  35068  20014  19731  24   25    49   51    1                     2               2                      34628                        19943                               0 + 0 part          0                         4                            -5490                                      5     0.18              97.776               1.008              2565 + 89 part  2677                       2682                        2286                          296                            28                             99           16       135            3.60                     0.58                 32.64   32.81             99.738        148673             36782  35068  19904  18587  24    25     50    52     2                   2                 0                    0                2                          34628                            1                         13                           3                          0                             0                           0                                 0                      0                                0                               198             207              148673           35068 COUNT: 25  2813862           2760116             0                 26491(0.94%)                  3(0.00%)                     0(0.00%)                       0                                36005                            1              99.99         103        16                 3                 0                2                0                   203                      2760801                       207                      148672                   34958 COUNT: 25   
ABYSS_PE_MIS_PE_mrsa_mis-1_bi_2x150bp_default__mrsa_mis-2_bi_2x150bp_default.31coverage_50.final         193       636                 139                    148673          2760723       2801649                 2734973                    2813862           37888  37888  20289  19904  24   24    47   49    2                     2               2                      34628                        19943                               1 + 0 part          849                       3                            -3865                                      334   12.10             97.822               1.008              2567 + 87 part  2677                       2682                        2286                          296                            28                             99           50       227            3.60                     1.82                 32.64   32.81             99.699        148673             37888  37888  20281  19731  24    24     48    50     2                   2                 0                    0                2                          34628                            2                         46                           4                          1                             849                         0                                 0                      0                                0                               193             207              148673           37888 COUNT: 24  2813862           2760723             0                 25864(0.92%)                  301(0.01%)                   0(0.00%)                       0                                36616                            1              99.99         103        16                 7                 0                3                0                   202                      2761003                       207                      148672                   34958 COUNT: 25   
