Assembly	GAGE_Contigs #	GAGE_Min contig	GAGE_Max contig	GAGE_N50	GAGE_Genome size	GAGE_Assembly size	GAGE_Chaff bases	GAGE_Missing reference bases	GAGE_Missing assembly bases	GAGE_Missing assembly contigs	GAGE_Duplicated reference bases	GAGE_Compressed reference bases	GAGE_Bad trim	GAGE_Avg idy	GAGE_SNPs	GAGE_Indels < 5bp	GAGE_Indels >= 5	GAGE_Inversions	GAGE_Relocation	GAGE_Translocation	GAGE_Corrected contig #	GAGE_Corrected assembly size	GAGE_Min correct contig	GAGE_Max correct contig	GAGE_Corrected N50
NEWBLER_MIS_PE_mrsa_mis-1_bi_2x250bp_default__mrsa_mis-2_bi_2x250bp_default.0.460percent.contigs_broken	43	514	643870	156948 COUNT: 5	2813862	2777144	0	10115(0.36%)	5386(0.19%)	1(2.33%)	0	34778	0	99.99	31	9	0	0	2	0	44	2771763	514	643869	148656 COUNT: 5
NEWBLER_MIS_PE_mrsa_mis-1_bi_2x250bp_default__mrsa_mis-2_bi_2x250bp_default.0.460percent.contigs	19	2561	1146437	418193 COUNT: 2	2813862	2789413	0	10115(0.36%)	17655(0.63%)	1(5.26%)	0	34891	0	99.99	31	9	15	0	5	0	44	2771763	514	643869	148656 COUNT: 5
