All statistics are based on contigs of size >= 200 bp, unless otherwise noted (e.g., "# contigs (>= 0 bp)" and "Total length (>= 0 bp)" include all contigs).

Assembly                         NEWBLER_MIS_PE_mrsa_mis-1_bi_2x250bp_default__mrsa_mis-2_bi_2x250bp_default.0.460percent.contigs_broken  NEWBLER_MIS_PE_mrsa_mis-1_bi_2x250bp_default__mrsa_mis-2_bi_2x250bp_default.0.460percent.contigs
GAGE_Contigs #                   43                                                                                                       19                                                                                              
GAGE_Min contig                  514                                                                                                      2561                                                                                            
GAGE_Max contig                  643870                                                                                                   1146437                                                                                         
GAGE_N50                         156948 COUNT: 5                                                                                          418193 COUNT: 2                                                                                 
GAGE_Genome size                 2813862                                                                                                  2813862                                                                                         
GAGE_Assembly size               2777144                                                                                                  2789413                                                                                         
GAGE_Chaff bases                 0                                                                                                        0                                                                                               
GAGE_Missing reference bases     10115(0.36%)                                                                                             10115(0.36%)                                                                                    
GAGE_Missing assembly bases      5386(0.19%)                                                                                              17655(0.63%)                                                                                    
GAGE_Missing assembly contigs    1(2.33%)                                                                                                 1(5.26%)                                                                                        
GAGE_Duplicated reference bases  0                                                                                                        0                                                                                               
GAGE_Compressed reference bases  34778                                                                                                    34891                                                                                           
GAGE_Bad trim                    0                                                                                                        0                                                                                               
GAGE_Avg idy                     99.99                                                                                                    99.99                                                                                           
GAGE_SNPs                        31                                                                                                       31                                                                                              
GAGE_Indels < 5bp                9                                                                                                        9                                                                                               
GAGE_Indels >= 5                 0                                                                                                        15                                                                                              
GAGE_Inversions                  0                                                                                                        0                                                                                               
GAGE_Relocation                  2                                                                                                        5                                                                                               
GAGE_Translocation               0                                                                                                        0                                                                                               
GAGE_Corrected contig #          44                                                                                                       44                                                                                              
GAGE_Corrected assembly size     2771763                                                                                                  2771763                                                                                         
GAGE_Min correct contig          514                                                                                                      514                                                                                             
GAGE_Max correct contig          643869                                                                                                   643869                                                                                          
GAGE_Corrected N50               148656 COUNT: 5                                                                                          148656 COUNT: 5                                                                                 
