Assembly	ABYSS_PE_MIS_PE_mrsa_mis-1_bi_2x150bp_default__mrsa_mis-2_bi_2x150bp_default.0.527percent_112-scaffolds_broken	ABYSS_PE_MIS_PE_mrsa_mis-1_bi_2x150bp_default__mrsa_mis-2_bi_2x150bp_default.0.527percent_112-scaffolds
#Contigs (>= 0 bp)	170	144
#Contigs (>= 1000 bp)	124	106
Total length (>= 0 bp)	2821496	2822866
Total length (>= 1000 bp)	2807234	2812382
#Contigs	149	123
Largest contig	116773	118068
Total length	2818563	2819933
Reference length	2813862	2813862
GC (%)	32.85	32.85
Reference GC (%)	32.81	32.81
N50	38712	48238
NG50	38906	48238
N75	26203	29645
NG75	26203	31462
#misassemblies	2	4
#local misassemblies	2	14
#unaligned contigs	1 + 0 part	1 + 0 part
Unaligned contigs length	223	223
Genome fraction (%)	99.149	99.228
Duplication ratio	1.005	1.006
#N's per 100 kbp	0.71	49.29
#mismatches per 100 kbp	1.72	1.72
#indels per 100 kbp	0.79	4.76
#genes	2642 + 76 part	2651 + 68 part
#predicted genes (unique)	2686	2682
#predicted genes (>= 0 bp)	2699	2692
#predicted genes (>= 300 bp)	2307	2306
#predicted genes (>= 1500 bp)	295	295
#predicted genes (>= 3000 bp)	30	30
Largest alignment	116773	118018
NA50	38151	46215
NGA50	38151	46215
NA75	25316	29645
NGA75	25316	29645
