Assembly	ABYSS_PE_MIS_PE_sakai_mis-1_bi_2x150bp_default__sakai_mis-2_bi_2x150bp_default.0.826percent_84-scaffolds_broken	ABYSS_PE_MIS_PE_sakai_mis-1_bi_2x150bp_default__sakai_mis-2_bi_2x150bp_default.0.826percent_84-scaffolds
GAGE_Contigs #	264	210
GAGE_Min contig	200	200
GAGE_Max contig	292286	376778
GAGE_N50	112156 COUNT: 18	146586 COUNT: 13
GAGE_Genome size	5594470	5594470
GAGE_Assembly size	5548630	5552082
GAGE_Chaff bases	0	0
GAGE_Missing reference bases	15307(0.27%)	14689(0.26%)
GAGE_Missing assembly bases	730(0.01%)	4082(0.07%)
GAGE_Missing assembly contigs	0(0.00%)	0(0.00%)
GAGE_Duplicated reference bases	20492	22936
GAGE_Compressed reference bases	219655	222257
GAGE_Bad trim	716	1266
GAGE_Avg idy	99.98	99.97
GAGE_SNPs	512	685
GAGE_Indels < 5bp	38	45
GAGE_Indels >= 5	12	35
GAGE_Inversions	0	8
GAGE_Relocation	2	6
GAGE_Translocation	0	0
GAGE_Corrected contig #	254	250
GAGE_Corrected assembly size	5529512	5528290
GAGE_Min correct contig	200	200
GAGE_Max correct contig	228653	228653
GAGE_Corrected N50	87260 COUNT: 21	87260 COUNT: 21
