All statistics are based on contigs of size >= 200 bp, unless otherwise noted (e.g., "# contigs (>= 0 bp)" and "Total length (>= 0 bp)" include all contigs).

Assembly                                                                                                         GAGE_Contigs #  GAGE_Min contig  GAGE_Max contig  GAGE_N50          GAGE_Genome size  GAGE_Assembly size  GAGE_Chaff bases  GAGE_Missing reference bases  GAGE_Missing assembly bases  GAGE_Missing assembly contigs  GAGE_Duplicated reference bases  GAGE_Compressed reference bases  GAGE_Bad trim  GAGE_Avg idy  GAGE_SNPs  GAGE_Indels < 5bp  GAGE_Indels >= 5  GAGE_Inversions  GAGE_Relocation  GAGE_Translocation  GAGE_Corrected contig #  GAGE_Corrected assembly size  GAGE_Min correct contig  GAGE_Max correct contig  GAGE_Corrected N50
ABYSS_PE_MIS_PE_sakai_mis-1_bi_2x150bp_default__sakai_mis-2_bi_2x150bp_default.0.826percent_84-scaffolds_broken  264             200              292286           112156 COUNT: 18  5594470           5548630             0                 15307(0.27%)                  730(0.01%)                   0(0.00%)                       20492                            219655                           716            99.98         512        38                 12                0                2                0                   254                      5529512                       200                      228653                   87260 COUNT: 21   
ABYSS_PE_MIS_PE_sakai_mis-1_bi_2x150bp_default__sakai_mis-2_bi_2x150bp_default.0.826percent_84-scaffolds         210             200              376778           146586 COUNT: 13  5594470           5552082             0                 14689(0.26%)                  4082(0.07%)                  0(0.00%)                       22936                            222257                           1266           99.97         685        45                 35                8                6                0                   250                      5528290                       200                      228653                   87260 COUNT: 21   
