calling: java -cp /vol/ngscomparison/software/analysis/quast-2.1/libs/gage:. SizeFasta /vol/codine-tmp/juene/tmp.HoF6WeKmEX/quast/corrected_input/Ecoli_Sakai_editedNew_plasmids.fasta |awk '{SUM+=; print SUM}'|tail -n 1
Contig Stats
Total units: 6672
Reference: 5594470
BasesInFasta: 4570871
Min: 265
Max: 3751
N10: 1525 COUNT: 286
N25: 1055 COUNT: 960
N50: 647 COUNT: 2683
N75: 374 COUNT: 5486
E-size:750.91

Genome Size: 5594470
Assembly Size: 4570871
Chaff bases: 0
Missing Reference Bases: 834739(14.92%)
Missing Assembly Bases: 5340(0.12%)
Missing Assembly Contigs: 4(0.06%)
Duplicated Reference Bases: 10132
Compressed Reference Bases: 298045
Bad Trim: 186
Avg Idy: 99.99
SNPs: 350
Indels < 5bp: 22
Indels >= 5: 2
Inversions: 2
Relocation: 4
Translocation: 0

Corrected Contig Stats
calling: java -cp /vol/ngscomparison/software/analysis/quast-2.1/libs/gage:.:. GetFastaStats -o -min 199 -genomeSize 5594470 /vol/codine-tmp/juene/tmp.HoF6WeKmEX/quast/gage/tmp/VELVET_MIS_PE_sakai_mis-1_bi_2x150bp_default__sakai_mis-2_bi_2x150bp_default.0.826percent_133.final.contigs_broken.matches.lens 2> /dev/null
Total units: 6651
Reference: 5594470
BasesInFasta: 4557051
Min: 201
Max: 3751
N10: 1513 COUNT: 287
N25: 1052 COUNT: 964
N50: 646 COUNT: 2691
N75: 371 COUNT: 5504
E-size:747.11

Done
