All statistics are based on contigs of size >= 200 bp, unless otherwise noted (e.g., "# contigs (>= 0 bp)" and "Total length (>= 0 bp)" include all contigs).

Assembly                                                                                                   GAGE_Contigs #  GAGE_Min contig  GAGE_Max contig  GAGE_N50         GAGE_Genome size  GAGE_Assembly size  GAGE_Chaff bases  GAGE_Missing reference bases  GAGE_Missing assembly bases  GAGE_Missing assembly contigs  GAGE_Duplicated reference bases  GAGE_Compressed reference bases  GAGE_Bad trim  GAGE_Avg idy  GAGE_SNPs  GAGE_Indels < 5bp  GAGE_Indels >= 5  GAGE_Inversions  GAGE_Relocation  GAGE_Translocation  GAGE_Corrected contig #  GAGE_Corrected assembly size  GAGE_Min correct contig  GAGE_Max correct contig  GAGE_Corrected N50
ABYSS_PE_MIS_PE_mrsa_mis-1_bi_2x250bp_default__mrsa_mis-2_bi_2x250bp_default.0.025percent_32.final_broken  2957            200              12130            613 COUNT: 1178  2813862           2039497             0                 747547(26.57%)                4922(0.24%)                  13(0.44%)                      0                                35685                            8              99.98         338        13                 0                 1                1                0                   2944                     2034280                       200                      12130                    611 COUNT: 1180   
ABYSS_PE_MIS_PE_mrsa_mis-1_bi_2x250bp_default__mrsa_mis-2_bi_2x250bp_default.0.025percent_32.final         2957            200              12130            613 COUNT: 1178  2813862           2039497             0                 747547(26.57%)                4922(0.24%)                  13(0.44%)                      0                                35685                            8              99.98         338        13                 0                 1                1                0                   2944                     2034280                       200                      12130                    611 COUNT: 1180   
