All statistics are based on contigs of size >= 200 bp, unless otherwise noted (e.g., "# contigs (>= 0 bp)" and "Total length (>= 0 bp)" include all contigs).

Assembly                         ABYSS_PE_MIS_PE_mrsa_mis-1_bi_2x250bp_default__mrsa_mis-2_bi_2x250bp_default.0.025percent_32.final_broken  ABYSS_PE_MIS_PE_mrsa_mis-1_bi_2x250bp_default__mrsa_mis-2_bi_2x250bp_default.0.025percent_32.final
GAGE_Contigs #                   2957                                                                                                       2957                                                                                              
GAGE_Min contig                  200                                                                                                        200                                                                                               
GAGE_Max contig                  12130                                                                                                      12130                                                                                             
GAGE_N50                         613 COUNT: 1178                                                                                            613 COUNT: 1178                                                                                   
GAGE_Genome size                 2813862                                                                                                    2813862                                                                                           
GAGE_Assembly size               2039497                                                                                                    2039497                                                                                           
GAGE_Chaff bases                 0                                                                                                          0                                                                                                 
GAGE_Missing reference bases     747547(26.57%)                                                                                             747547(26.57%)                                                                                    
GAGE_Missing assembly bases      4922(0.24%)                                                                                                4922(0.24%)                                                                                       
GAGE_Missing assembly contigs    13(0.44%)                                                                                                  13(0.44%)                                                                                         
GAGE_Duplicated reference bases  0                                                                                                          0                                                                                                 
GAGE_Compressed reference bases  35685                                                                                                      35685                                                                                             
GAGE_Bad trim                    8                                                                                                          8                                                                                                 
GAGE_Avg idy                     99.98                                                                                                      99.98                                                                                             
GAGE_SNPs                        338                                                                                                        338                                                                                               
GAGE_Indels < 5bp                13                                                                                                         13                                                                                                
GAGE_Indels >= 5                 0                                                                                                          0                                                                                                 
GAGE_Inversions                  1                                                                                                          1                                                                                                 
GAGE_Relocation                  1                                                                                                          1                                                                                                 
GAGE_Translocation               0                                                                                                          0                                                                                                 
GAGE_Corrected contig #          2944                                                                                                       2944                                                                                              
GAGE_Corrected assembly size     2034280                                                                                                    2034280                                                                                           
GAGE_Min correct contig          200                                                                                                        200                                                                                               
GAGE_Max correct contig          12130                                                                                                      12130                                                                                             
GAGE_Corrected N50               611 COUNT: 1180                                                                                            611 COUNT: 1180                                                                                   
