All statistics are based on contigs of size >= 200 bp, unless otherwise noted (e.g., "# contigs (>= 0 bp)" and "Total length (>= 0 bp)" include all contigs).

Assembly                                                                                                   #Contigs (>= 0 bp)  #Contigs (>= 1000 bp)  Total length (>= 0 bp)  Total length (>= 1000 bp)  #Contigs  Largest contig  Total length  Reference length  GC (%)  Reference GC (%)  N50  NG50  N75  NG75  #misassemblies  #local misassemblies  #unaligned contigs  Unaligned contigs length  Genome fraction (%)  Duplication ratio  #N's per 100 kbp  #mismatches per 100 kbp  #indels per 100 kbp  #genes           #predicted genes (unique)  #predicted genes (>= 0 bp)  #predicted genes (>= 300 bp)  #predicted genes (>= 1500 bp)  #predicted genes (>= 3000 bp)  Largest alignment  NA50  NGA50  NA75  NGA75
ABYSS_PE_MIS_PE_mrsa_mis-1_bi_2x250bp_default__mrsa_mis-2_bi_2x250bp_default.0.025percent_32.final_broken  4557                581                    2199104                 939716                     2957      12130           2039497       2813862           33.14   32.81             925  613   523  None  4               0                     13 + 0 part         4914                      71.944               1.002              0.00              17.14                    0.69                 588 + 1816 part  3906                       3906                        2192                          49                             2                              12130              915   605    517   None 
ABYSS_PE_MIS_PE_mrsa_mis-1_bi_2x250bp_default__mrsa_mis-2_bi_2x250bp_default.0.025percent_32.final         4557                581                    2199104                 939716                     2957      12130           2039497       2813862           33.14   32.81             925  613   523  None  4               0                     13 + 0 part         4914                      71.944               1.002              0.00              17.14                    0.69                 588 + 1816 part  3906                       3906                        2192                          49                             2                              12130              915   605    517   None 
