Assembly	#Una_fully unaligned contigs	Una_Fully unaligned length	#Una_partially unaligned contigs	#Una_with misassembly	#Una_both parts are significant	Una_Partially unaligned length	#N's
VELVET_MIS_PE_sakai_mis-both_bi_2x250bp_SI_default.0.64percent_119.final.contigs_broken	2	5600	0	0	0	0	0
VELVET_MIS_PE_sakai_mis-both_bi_2x250bp_SI_default.0.64percent_119.final.contigs	1	5385	1	0	1	318	25520
