All statistics are based on contigs of size >= 200 bp, unless otherwise noted (e.g., "# contigs (>= 0 bp)" and "Total length (>= 0 bp)" include all contigs).

Assembly                                                                                 #Mis_misassemblies  #Mis_relocations  #Mis_translocations  #Mis_inversions  #Mis_misassembled contigs  Mis_Misassembled contigs length  #Mis_local misassemblies  #mismatches  #indels  #Mis_short indels (<= 5 bp)  #Mis_long indels (> 5 bp)  Indels length
VELVET_MIS_PE_sakai_mis-both_bi_2x250bp_SI_default.0.64percent_119.final.contigs_broken  6                   6                 0                    0                6                          160896                           4                         194          21       21                           0                          21           
VELVET_MIS_PE_sakai_mis-both_bi_2x250bp_SI_default.0.64percent_119.final.contigs         20                  20                0                    0                13                         416211                           195                       220          355      341                          14                         810          
