Assembly	CLC_MIS_PE_mtbh37-1_mis_2x250bp_nextera_default__mtbh37-2_mis_2x250bp_nextera_default.0.125percent.result_broken	CLC_MIS_PE_mtbh37-1_mis_2x250bp_nextera_default__mtbh37-2_mis_2x250bp_nextera_default.0.125percent.result
#Contigs (>= 0 bp)	1299	1080
#Contigs (>= 1000 bp)	505	502
Total length (>= 0 bp)	4298333	4309956
Total length (>= 1000 bp)	4017523	4063910
#Contigs	1114	1080
Largest contig	47768	54252
Total length	4283901	4309956
Reference length	4411532	4411532
GC (%)	65.55	65.62
Reference GC (%)	65.61	65.61
N50	11950	12374
NG50	11479	12057
N75	6270	6511
NG75	5916	6100
#misassemblies	39	42
#local misassemblies	11	60
#unaligned contigs	34 + 81 part	65 + 119 part
Unaligned contigs length	20146	39530
Genome fraction (%)	95.700	95.685
Duplication ratio	1.011	1.012
#N's per 100 kbp	8.85	281.09
#mismatches per 100 kbp	62.11	63.13
#indels per 100 kbp	6.89	12.72
#genes	3415 + 630 part	3430 + 614 part
#predicted genes (unique)	4708	4685
#predicted genes (>= 0 bp)	4715	4692
#predicted genes (>= 300 bp)	3786	3783
#predicted genes (>= 1500 bp)	487	488
#predicted genes (>= 3000 bp)	56	55
Largest alignment	47768	54252
NA50	11229	11844
NGA50	11064	11512
NA75	6031	6137
NGA75	5421	5854
