All statistics are based on contigs of size >= 200 bp, unless otherwise noted (e.g., "# contigs (>= 0 bp)" and "Total length (>= 0 bp)" include all contigs).

Assembly                                                                                                          #Contigs  #Contigs (>= 0 bp)  #Contigs (>= 1000 bp)  Largest contig  Total length  Total length (>= 0 bp)  Total length (>= 1000 bp)  Reference length  N50    NG50   N75   NG75  L50  LG50  L75  LG75  #local misassemblies  #misassemblies  #misassembled contigs  Misassembled contigs length  Misassemblies inter-contig overlap  #unaligned contigs  Unaligned contigs length  #ambiguously mapped contigs  Extra bases in ambiguously mapped contigs  #N's   #N's per 100 kbp  Genome fraction (%)  Duplication ratio  #genes           #predicted genes (unique)  #predicted genes (>= 0 bp)  #predicted genes (>= 300 bp)  #predicted genes (>= 1500 bp)  #predicted genes (>= 3000 bp)  #mismatches  #indels  Indels length  #mismatches per 100 kbp  #indels per 100 kbp  GC (%)  Reference GC (%)  Average %IDY  Largest alignment  NA50   NGA50  NA75  NGA75  LA50  LGA50  LA75  LGA75  #Mis_misassemblies  #Mis_relocations  #Mis_translocations  #Mis_inversions  #Mis_misassembled contigs  Mis_Misassembled contigs length  #Mis_local misassemblies  #Mis_short indels (<= 5 bp)  #Mis_long indels (> 5 bp)  #Una_fully unaligned contigs  Una_Fully unaligned length  #Una_partially unaligned contigs  #Una_with misassembly  #Una_both parts are significant  Una_Partially unaligned length  GAGE_Contigs #  GAGE_Min contig  GAGE_Max contig  GAGE_N50          GAGE_Genome size  GAGE_Assembly size  GAGE_Chaff bases  GAGE_Missing reference bases  GAGE_Missing assembly bases  GAGE_Missing assembly contigs  GAGE_Duplicated reference bases  GAGE_Compressed reference bases  GAGE_Bad trim  GAGE_Avg idy  GAGE_SNPs  GAGE_Indels < 5bp  GAGE_Indels >= 5  GAGE_Inversions  GAGE_Relocation  GAGE_Translocation  GAGE_Corrected contig #  GAGE_Corrected assembly size  GAGE_Min correct contig  GAGE_Max correct contig  GAGE_Corrected N50
CLC_MIS_PE_mtbh37-1_mis_2x250bp_nextera_default__mtbh37-2_mis_2x250bp_nextera_default.0.125percent.result_broken  1114      1299                505                    47768           4283901       4298333                 4017523                    4411532           11950  11479  6270  5916  107  112   230  246   11                    39              37                     362960                       8742                                34 + 81 part        20146                     9                            -5645                                      379    8.85              95.700               1.011              3415 + 630 part  4708                       4715                        3786                          487                            56                             2622         291      1171           62.11                    6.89                 65.55   65.61             99.663        47768              11229  11064  6031  5421   112   118    242   258    39                  39                0                    0                37                         362960                           11                        258                          33                         34                            12791                       81                                0                      1                                7355                            1114            200              47768            11479 COUNT: 112  4411532           4283901             0                 148411(3.36%)                 19372(0.45%)                 31(2.78%)                      10226                            38589                            9195           99.92         1731       171                45                13               14               0                   1110                     4260837                       200                      46982                    10795 COUNT: 122  
CLC_MIS_PE_mtbh37-1_mis_2x250bp_nextera_default__mtbh37-2_mis_2x250bp_nextera_default.0.125percent.result         1080      1080                502                    54252           4309956       4309956                 4063910                    4411532           12374  12057  6511  6100  103  108   223  236   60                    42              40                     387841                       8412                                65 + 119 part       39530                     7                            -5133                                      12115  281.09            95.685               1.012              3430 + 614 part  4685                       4692                        3783                          488                            55                             2665         537      2089           63.13                    12.72                65.62   65.61             99.620        54252              11844  11512  6137  5854   109   113    235   248    42                  42                0                    0                40                         387841                           60                        481                          56                         65                            24796                       119                               0                      6                                14734                           1080            200              54252            12057 COUNT: 108  4411532           4309956             0                 145043(3.29%)                 42116(0.98%)                 57(5.28%)                      12346                            40938                            17447          99.91         1748       192                118               13               16               0                   1097                     4260248                       200                      46982                    10850 COUNT: 122  
