All statistics are based on contigs of size >= 200 bp, unless otherwise noted (e.g., "# contigs (>= 0 bp)" and "Total length (>= 0 bp)" include all contigs).

Assembly                                                                  #Contigs (>= 0 bp)  #Contigs (>= 1000 bp)  Total length (>= 0 bp)  Total length (>= 1000 bp)  #Contigs  Largest contig  Total length  Reference length  GC (%)  Reference GC (%)  N50    NG50   N75    NG75  #misassemblies  #local misassemblies  #unaligned contigs  Unaligned contigs length  Genome fraction (%)  Duplication ratio  #N's per 100 kbp  #mismatches per 100 kbp  #indels per 100 kbp  #genes           #predicted genes (unique)  #predicted genes (>= 0 bp)  #predicted genes (>= 300 bp)  #predicted genes (>= 1500 bp)  #predicted genes (>= 3000 bp)  Largest alignment  NA50   NGA50  NA75   NGA75
CLC_PGM_sakai_pgm_mu_200bp_IO_TS3.0Disabled_stringent.0.15percent.result  879                 434                    5346011                 5185166                    879       83956           5346011       5594470           50.27   50.48             22204  21283  10259  8828  17              7                     3 + 38 part         2417                      93.469               1.007              4.55              3.19                     38.96                4665 + 411 part  6493                       6494                        4919                          460                            34                             83956              22112  21146  10243  8828 
