All statistics are based on contigs of size >= 200 bp, unless otherwise noted (e.g., "# contigs (>= 0 bp)" and "Total length (>= 0 bp)" include all contigs).

Assembly                         ABYSS_PE_PGM_mtbh37_pgm_400bp_es_318v2_OT2_tsv3.6_morestringent_104-unitigs
GAGE_Contigs #                   6852                                                                       
GAGE_Min contig                  200                                                                        
GAGE_Max contig                  14046                                                                      
GAGE_N50                         2438 COUNT: 545                                                            
GAGE_Genome size                 4411532                                                                    
GAGE_Assembly size               5016169                                                                    
GAGE_Chaff bases                 0                                                                          
GAGE_Missing reference bases     137072(3.11%)                                                              
GAGE_Missing assembly bases      1229(0.02%)                                                                
GAGE_Missing assembly contigs    4(0.06%)                                                                   
GAGE_Duplicated reference bases  528652                                                                     
GAGE_Compressed reference bases  54927                                                                      
GAGE_Bad trim                    340                                                                        
GAGE_Avg idy                     99.95                                                                      
GAGE_SNPs                        77                                                                         
GAGE_Indels < 5bp                1334                                                                       
GAGE_Indels >= 5                 9                                                                          
GAGE_Inversions                  0                                                                          
GAGE_Relocation                  5                                                                          
GAGE_Translocation               0                                                                          
GAGE_Corrected contig #          4284                                                                       
GAGE_Corrected assembly size     4487521                                                                    
GAGE_Min correct contig          200                                                                        
GAGE_Max correct contig          14053                                                                      
GAGE_Corrected N50               2415 COUNT: 551                                                            
