Assembly	#Contigs	#Contigs (>= 0 bp)	#Contigs (>= 1000 bp)	Largest contig	Total length	Total length (>= 0 bp)	Total length (>= 1000 bp)	Reference length	N50	NG50	N75	NG75	L50	LG50	L75	LG75	#local misassemblies	#misassemblies	#misassembled contigs	Misassembled contigs length	Misassemblies inter-contig overlap	#unaligned contigs	Unaligned contigs length	#ambiguously mapped contigs	Extra bases in ambiguously mapped contigs	#N's	#N's per 100 kbp	Genome fraction (%)	Duplication ratio	#genes	#predicted genes (unique)	#predicted genes (>= 0 bp)	#predicted genes (>= 300 bp)	#predicted genes (>= 1500 bp)	#predicted genes (>= 3000 bp)	#mismatches	#indels	Indels length	#mismatches per 100 kbp	#indels per 100 kbp	GC (%)	Reference GC (%)	Average %IDY	Largest alignment	NA50	NGA50	NA75	NGA75	LA50	LGA50	LA75	LGA75	#Mis_misassemblies	#Mis_relocations	#Mis_translocations	#Mis_inversions	#Mis_misassembled contigs	Mis_Misassembled contigs length	#Mis_local misassemblies	#Mis_short indels (<= 5 bp)	#Mis_long indels (> 5 bp)	#Una_fully unaligned contigs	Una_Fully unaligned length	#Una_partially unaligned contigs	#Una_with misassembly	#Una_both parts are significant	Una_Partially unaligned length	GAGE_Contigs #	GAGE_Min contig	GAGE_Max contig	GAGE_N50	GAGE_Genome size	GAGE_Assembly size	GAGE_Chaff bases	GAGE_Missing reference bases	GAGE_Missing assembly bases	GAGE_Missing assembly contigs	GAGE_Duplicated reference bases	GAGE_Compressed reference bases	GAGE_Bad trim	GAGE_Avg idy	GAGE_SNPs	GAGE_Indels < 5bp	GAGE_Indels >= 5	GAGE_Inversions	GAGE_Relocation	GAGE_Translocation	GAGE_Corrected contig #	GAGE_Corrected assembly size	GAGE_Min correct contig	GAGE_Max correct contig	GAGE_Corrected N50
VELVET_MIS_PE_sakai_mis-both_bi_2x250bp_SI_default.0.64percent_53.final.contigs_broken	635	915	354	131598	5335466	5375173	5214192	5594470	26187	25059	14856	13363	63	68	128	142	14	5	5	124521	3180	1 + 0 part	5438	149	-92010	0	0.00	93.593	1.001	4733 + 365 part	5500	5503	4526	647	56	686	96	152	13.10	1.83	50.29	50.48	99.212	131598	26174	24932	14834	13363	63	68	129	143	5	5	0	0	5	124521	14	93	3	1	5438	0	0	0	0	635	201	131598	25059 COUNT: 68	5594470	5335466	0	63393(1.13%)	5451(0.10%)	1(0.16%)	10170	245260	13	99.98	616	34	10	1	9	1	619	5322631	201	123484	24762 COUNT: 70
VELVET_MIS_PE_sakai_mis-both_bi_2x250bp_SI_default.0.64percent_53.final.contigs	404	676	165	345753	5352386	5391169	5253256	5594470	83166	76582	40076	35278	18	20	42	47	124	12	7	511289	3367	2 + 2 part	6781	148	-91605	15996	298.86	93.676	1.003	4831 + 269 part	5434	5437	4511	651	58	741	898	2797	14.14	17.14	50.29	50.48	99.127	345315	73887	72220	35871	33991	20	21	45	50	12	12	0	0	7	511289	124	819	79	2	6284	2	0	2	497	404	201	345753	76582 COUNT: 20	5594470	5352386	0	62427(1.12%)	20586(0.38%)	1(0.25%)	10733	244854	541	99.97	616	95	182	2	25	1	594	5323467	201	123484	26174 COUNT: 62
