All statistics are based on contigs of size >= 200 bp, unless otherwise noted (e.g., "# contigs (>= 0 bp)" and "Total length (>= 0 bp)" include all contigs).

Assembly                                                                                #Contigs (>= 0 bp)  #Contigs (>= 1000 bp)  Total length (>= 0 bp)  Total length (>= 1000 bp)  #Contigs  Largest contig  Total length  Reference length  GC (%)  Reference GC (%)  N50    NG50   N75    NG75   #misassemblies  #local misassemblies  #unaligned contigs  Unaligned contigs length  Genome fraction (%)  Duplication ratio  #N's per 100 kbp  #mismatches per 100 kbp  #indels per 100 kbp  #genes           #predicted genes (unique)  #predicted genes (>= 0 bp)  #predicted genes (>= 300 bp)  #predicted genes (>= 1500 bp)  #predicted genes (>= 3000 bp)  Largest alignment  NA50   NGA50  NA75   NGA75
VELVET_MIS_PE_sakai_mis-both_bi_2x250bp_SI_default.0.64percent_53.final.contigs_broken  915                 354                    5375173                 5214192                    635       131598          5335466       5594470           50.29   50.48             26187  25059  14856  13363  5               14                    1 + 0 part          5438                      93.593               1.001              0.00              13.10                    1.83                 4733 + 365 part  5500                       5503                        4526                          647                            56                             131598             26174  24932  14834  13363
VELVET_MIS_PE_sakai_mis-both_bi_2x250bp_SI_default.0.64percent_53.final.contigs         676                 165                    5391169                 5253256                    404       345753          5352386       5594470           50.29   50.48             83166  76582  40076  35278  12              124                   2 + 2 part          6781                      93.676               1.003              298.86            14.14                    17.14                4831 + 269 part  5434                       5437                        4511                          651                            58                             345315             73887  72220  35871  33991
