calling: java -cp /vol/ngscomparison/software/analysis/quast-2.1/libs/gage:. SizeFasta /vol/codine-tmp/juene/tmp.20VLz3G8WR/quast/corrected_input/MRSA_COL_Plasmid.fasta |awk '{SUM+=; print SUM}'|tail -n 1
Contig Stats
Total units: 411
Reference: 2813862
BasesInFasta: 2358147
Min: 683
Max: 38274
N10: 17965 COUNT: 12
N25: 11526 COUNT: 42
N50: 5914 COUNT: 130
N75: 2850 COUNT: 300
E-size:8134.41

Genome Size: 2813862
Assembly Size: 2358147
Chaff bases: 0
Missing Reference Bases: 430495(15.30%)
Missing Assembly Bases: 5418(0.23%)
Missing Assembly Contigs: 2(0.49%)
Duplicated Reference Bases: 0
Compressed Reference Bases: 31555
Bad Trim: 76
Avg Idy: 99.99
SNPs: 92
Indels < 5bp: 20
Indels >= 5: 5
Inversions: 1
Relocation: 2
Translocation: 0

Corrected Contig Stats
calling: java -cp /vol/ngscomparison/software/analysis/quast-2.1/libs/gage:.:. GetFastaStats -o -min 199 -genomeSize 2813862 /vol/codine-tmp/juene/tmp.20VLz3G8WR/quast/gage/tmp/NEWBLER_MIS_PE_mrsa_mis-1_bi_2x250bp_default__mrsa_mis-2_bi_2x250bp_default.0.075percent.contigs_broken.matches.lens 2> /dev/null
Total units: 417
Reference: 2813862
BasesInFasta: 2354743
Min: 267
Max: 38274
N10: 17554 COUNT: 12
N25: 11492 COUNT: 43
N50: 5809 COUNT: 132
N75: 2826 COUNT: 304
E-size:8047.8

Done
