Assembly	SOAP2_PGM_mrsa_pgm_200bp_es_316_IonOnev2_ts3.0_morestringent.0.230percent_31.final.contig
#Contigs (>= 0 bp)	193299
#Contigs (>= 1000 bp)	0
Total length (>= 0 bp)	12684619
Total length (>= 1000 bp)	0
#Contigs	812
Largest contig	466
Total length	196820
Reference length	2813862
GC (%)	33.33
Reference GC (%)	32.81
N50	236
NG50	None
N75	213
NG75	None
#misassemblies	0
#local misassemblies	0
#unaligned contigs	58 + 3 part
Unaligned contigs length	12640
Genome fraction (%)	6.537
Duplication ratio	1.001
#N's per 100 kbp	0.00
#mismatches per 100 kbp	15.22
#indels per 100 kbp	90.79
#genes	1 + 605 part
#predicted genes (unique)	766
#predicted genes (>= 0 bp)	766
#predicted genes (>= 300 bp)	50
#predicted genes (>= 1500 bp)	0
#predicted genes (>= 3000 bp)	0
Largest alignment	466
NA50	235
NGA50	None
NA75	211
NGA75	None
