Assembly	#Contigs (>= 0 bp)	#Contigs (>= 1000 bp)	Total length (>= 0 bp)	Total length (>= 1000 bp)	#Contigs	Largest contig	Total length	Reference length	GC (%)	Reference GC (%)	N50	NG50	N75	NG75	#misassemblies	#local misassemblies	#unaligned contigs	Unaligned contigs length	Genome fraction (%)	Duplication ratio	#N's per 100 kbp	#mismatches per 100 kbp	#indels per 100 kbp	#genes	#predicted genes (unique)	#predicted genes (>= 0 bp)	#predicted genes (>= 300 bp)	#predicted genes (>= 1500 bp)	#predicted genes (>= 3000 bp)	Largest alignment	NA50	NGA50	NA75	NGA75
ABYSS_PE_MIS_PE_mtbh37-1_mis_2x250bp_nextera_default__mtbh37-2_mis_2x250bp_nextera_default.0.025percent_36.final_broken	4810	175	1707518	223903	3125	2921	1494881	4411532	65.32	65.61	544	None	362	None	8	2	3 + 8 part	1891	33.826	1.001	0.00	29.89	1.27	202 + 2495 part	3745	3745	1821	1	0	2921	540	None	359	None
ABYSS_PE_MIS_PE_mtbh37-1_mis_2x250bp_nextera_default__mtbh37-2_mis_2x250bp_nextera_default.0.025percent_36.final	4810	175	1707518	223903	3125	2921	1494881	4411532	65.32	65.61	544	None	362	None	8	2	3 + 8 part	1891	33.826	1.001	0.00	29.89	1.27	202 + 2495 part	3745	3745	1821	1	0	2921	540	None	359	None
