Assembly	CLC_PGM_mrsa_pgm_400bp_es_318_IKA_ts3.2_morestringent.0.175percent.result
#Mis_misassemblies	9
#Mis_relocations	9
#Mis_translocations	0
#Mis_inversions	0
#Mis_misassembled contigs	9
Mis_Misassembled contigs length	56885
#Mis_local misassemblies	1
#mismatches	79
#indels	512
#Mis_short indels (<= 5 bp)	512
#Mis_long indels (> 5 bp)	0
Indels length	522
