Assembly	NEWBLER_PGM_mrsa_pgm_400bp_es_318_IKA_ts3.2_morestringent.71coverage.contigs
#Contigs (>= 0 bp)	119
#Contigs (>= 1000 bp)	35
Total length (>= 0 bp)	2784698
Total length (>= 1000 bp)	2767404
#Contigs	54
Largest contig	297377
Total length	2775171
Reference length	2813862
GC (%)	32.65
Reference GC (%)	32.81
N50	179500
NG50	169935
N75	109107
NG75	81250
#misassemblies	2
#local misassemblies	6
#unaligned contigs	0 + 0 part
Unaligned contigs length	0
Genome fraction (%)	98.314
Duplication ratio	1.000
#N's per 100 kbp	0.00
#mismatches per 100 kbp	2.64
#indels per 100 kbp	4.01
#genes	2676 + 21 part
#predicted genes (unique)	2653
#predicted genes (>= 0 bp)	2654
#predicted genes (>= 300 bp)	2306
#predicted genes (>= 1500 bp)	290
#predicted genes (>= 3000 bp)	27
Largest alignment	297377
NA50	179500
NGA50	169935
NA75	81249
NGA75	81249
