All statistics are based on contigs of size >= 200 bp, unless otherwise noted (e.g., "# contigs (>= 0 bp)" and "Total length (>= 0 bp)" include all contigs).

Assembly                                                                       #Contigs (>= 0 bp)  #Contigs (>= 1000 bp)  Total length (>= 0 bp)  Total length (>= 1000 bp)  #Contigs  Largest contig  Total length  Reference length  GC (%)  Reference GC (%)  N50    NG50   N75    NG75   #misassemblies  #local misassemblies  #unaligned contigs  Unaligned contigs length  Genome fraction (%)  Duplication ratio  #N's per 100 kbp  #mismatches per 100 kbp  #indels per 100 kbp  #genes           #predicted genes (unique)  #predicted genes (>= 0 bp)  #predicted genes (>= 300 bp)  #predicted genes (>= 1500 bp)  #predicted genes (>= 3000 bp)  Largest alignment  NA50   NGA50  NA75   NGA75
NEWBLER_PGM_sakai_pgm_mu_200bp_IO_TS3.0Disabled_stringent.100coverage.contigs  571                 199                    5329439                 5216872                    416       198571          5308413       5594470           50.28   50.48             73689  71149  30179  27614  12              3                     0 + 3 part          183                       93.306               1.000              0.00              1.09                     16.78                4870 + 203 part  5690                       5690                        4636                          566                            48                             198571             73689  69598  30179  27614
