calling: java -cp /vol/ngscomparison/software/analysis/quast-2.1/libs/gage:. SizeFasta /vol/codine-tmp/juene/tmp.Bt6SaGN6s0/quast/corrected_input/MRSA_COL_Plasmid.fasta |awk '{SUM+=; print SUM}'|tail -n 1
Contig Stats
Total units: 901
Reference: 2813862
BasesInFasta: 2849285
Min: 389
Max: 38745
N10: 16437 COUNT: 12
N25: 9108 COUNT: 50
N50: 5073 COUNT: 157
N75: 2660 COUNT: 345
E-size:7442.03

Genome Size: 2813862
Assembly Size: 2849285
Chaff bases: 0
Missing Reference Bases: 65947(2.34%)
Missing Assembly Bases: 20866(0.73%)
Missing Assembly Contigs: 1(0.11%)
Duplicated Reference Bases: 3413
Compressed Reference Bases: 40690
Bad Trim: 171
Avg Idy: 100.00
SNPs: 45
Indels < 5bp: 8
Indels >= 5: 194
Inversions: 1
Relocation: 2
Translocation: 0

Corrected Contig Stats
calling: java -cp /vol/ngscomparison/software/analysis/quast-2.1/libs/gage:.:. GetFastaStats -o -min 199 -genomeSize 2813862 /vol/codine-tmp/juene/tmp.Bt6SaGN6s0/quast/gage/tmp/VELVET_MIS_PE_mrsa_mis-1_bi_2x250bp_default__mrsa_mis-2_bi_2x250bp_default.0.460percent_195.final.contigs.matches.lens 2> /dev/null
Total units: 1092
Reference: 2813862
BasesInFasta: 2825743
Min: 343
Max: 38745
N10: 11505 COUNT: 16
N25: 7001 COUNT: 66
N50: 3884 COUNT: 204
N75: 1951 COUNT: 457
E-size:5774.44

Done
