Assembly	GAGE_Contigs #	GAGE_Min contig	GAGE_Max contig	GAGE_N50	GAGE_Genome size	GAGE_Assembly size	GAGE_Chaff bases	GAGE_Missing reference bases	GAGE_Missing assembly bases	GAGE_Missing assembly contigs	GAGE_Duplicated reference bases	GAGE_Compressed reference bases	GAGE_Bad trim	GAGE_Avg idy	GAGE_SNPs	GAGE_Indels < 5bp	GAGE_Indels >= 5	GAGE_Inversions	GAGE_Relocation	GAGE_Translocation	GAGE_Corrected contig #	GAGE_Corrected assembly size	GAGE_Min correct contig	GAGE_Max correct contig	GAGE_Corrected N50
NEWBLER_MIS_PE_mrsa_mis-1_bi_2x250bp_default__mrsa_mis-2_bi_2x250bp_default.0.650percent.contigs_broken	45	501	713040	156890 COUNT: 5	2813862	2777457	0	8457(0.30%)	5387(0.19%)	1(2.22%)	0	35034	1	99.99	30	10	0	0	2	0	46	2772076	363	713040	150034 COUNT: 5
NEWBLER_MIS_PE_mrsa_mis-1_bi_2x250bp_default__mrsa_mis-2_bi_2x250bp_default.0.650percent.contigs	22	2274	810336	326194 COUNT: 3	2813862	2787831	0	8457(0.30%)	15761(0.57%)	1(4.55%)	0	35042	1	99.99	30	10	15	1	3	0	46	2772076	363	713040	150034 COUNT: 5
