Assembly	VELVET_PGM_sakai_pgm_mu_318_400bp_IO_TS3.4_ms_0.395percent_169.final.contigs
#Contigs (>= 0 bp)	4217
#Contigs (>= 1000 bp)	1592
Total length (>= 0 bp)	4398349
Total length (>= 1000 bp)	2875529
#Contigs	4217
Largest contig	8680
Total length	4398349
Reference length	5594470
GC (%)	50.41
Reference GC (%)	50.48
N50	1367
NG50	1043
N75	803
NG75	389
#misassemblies	95
#local misassemblies	4
#unaligned contigs	0 + 1 part
Unaligned contigs length	14
Genome fraction (%)	74.290
Duplication ratio	1.043
#N's per 100 kbp	0.91
#mismatches per 100 kbp	1.08
#indels per 100 kbp	17.95
#genes	1767 + 2648 part
#predicted genes (unique)	7482
#predicted genes (>= 0 bp)	7521
#predicted genes (>= 300 bp)	5058
#predicted genes (>= 1500 bp)	138
#predicted genes (>= 3000 bp)	3
Largest alignment	8398
NA50	1358
NGA50	1029
NA75	794
NGA75	363
