All statistics are based on contigs of size >= 200 bp, unless otherwise noted (e.g., "# contigs (>= 0 bp)" and "Total length (>= 0 bp)" include all contigs).

Assembly                         ABYSS_PE_MIS_PE_sakai_mis-2_bi_2x150bp_default__sakai_mis-1_bi_2x150bp_default.0.700percent_52.final_broken  ABYSS_PE_MIS_PE_sakai_mis-2_bi_2x150bp_default__sakai_mis-1_bi_2x150bp_default.0.700percent_52.final
#Mis_misassemblies               5                                                                                                            15                                                                                                  
#Mis_relocations                 4                                                                                                            14                                                                                                  
#Mis_translocations              1                                                                                                            1                                                                                                   
#Mis_inversions                  0                                                                                                            0                                                                                                   
#Mis_misassembled contigs        5                                                                                                            13                                                                                                  
Mis_Misassembled contigs length  406503                                                                                                       670045                                                                                              
#Mis_local misassemblies         8                                                                                                            31                                                                                                  
#mismatches                      1125                                                                                                         1150                                                                                                
#indels                          51                                                                                                           325                                                                                                 
#Mis_short indels (<= 5 bp)      48                                                                                                           313                                                                                                 
#Mis_long indels (> 5 bp)        3                                                                                                            12                                                                                                  
Indels length                    119                                                                                                          616                                                                                                 
