calling: java -cp /vol/ngscomparison/software/analysis/quast-2.1/libs/gage:. SizeFasta /vol/codine-tmp/juene/tmp.LKxMFYKHcl/quast/corrected_input/Mycobacterium_tuberculosis_H37Rv.fasta |awk '{SUM+=; print SUM}'|tail -n 1
Contig Stats
Total units: 227
Reference: 4411532
BasesInFasta: 4399231
Min: 218
Max: 162931
N10: 122083 COUNT: 4
N25: 79457 COUNT: 10
N50: 58408 COUNT: 26
N75: 27031 COUNT: 55
E-size:61490.2

Genome Size: 4411532
Assembly Size: 4399231
Chaff bases: 0
Missing Reference Bases: 31525(0.71%)
Missing Assembly Bases: 884(0.02%)
Missing Assembly Contigs: 0(0.00%)
Duplicated Reference Bases: 9154
Compressed Reference Bases: 37737
Bad Trim: 845
Avg Idy: 99.98
SNPs: 300
Indels < 5bp: 87
Indels >= 5: 48
Inversions: 0
Relocation: 8
Translocation: 0

Corrected Contig Stats
calling: java -cp /vol/ngscomparison/software/analysis/quast-2.1/libs/gage:.:. GetFastaStats -o -min 199 -genomeSize 4411532 /vol/codine-tmp/juene/tmp.LKxMFYKHcl/quast/gage/tmp/ABYSS_PE_MIS_PE_mtbh37-1_mis_2x250bp_nextera_default__mtbh37-2_mis_2x250bp_nextera_default_34-scaffolds_broken.matches.lens 2> /dev/null
Total units: 272
Reference: 4411532
BasesInFasta: 4392531
Min: 218
Max: 134109
N10: 97333 COUNT: 4
N25: 67040 COUNT: 13
N50: 40634 COUNT: 34
N75: 20552 COUNT: 72
E-size:47639.84

Done
