Assembly	VELVET_MIS_PE_sakai_mis-both_bi_2x250bp_SI_default.0.64percent_81.final.contigs_broken	VELVET_MIS_PE_sakai_mis-both_bi_2x250bp_SI_default.0.64percent_81.final.contigs
#Contigs	596	412
#Contigs (>= 0 bp)	672	486
#Contigs (>= 1000 bp)	337	177
Largest contig	96729	252458
Total length	5387620	5402373
Total length (>= 0 bp)	5401195	5415759
Total length (>= 1000 bp)	5279188	5308079
Reference length	5594470	5594470
N50	30840	97642
NG50	30247	88310
N75	15845	40352
NG75	13977	34230
L50	51	19
LG50	54	20
L75	111	39
LG75	122	43
#local misassemblies	7	121
#misassemblies	5	19
#misassembled contigs	5	12
Misassembled contigs length	106587	505689
Misassemblies inter-contig overlap	2484	1487
#unaligned contigs	1 + 0 part	1 + 0 part
Unaligned contigs length	5466	5466
#ambiguously mapped contigs	178	175
Extra bases in ambiguously mapped contigs	-102722	-98761
#N's	0	14564
#N's per 100 kbp	0.00	269.59
Genome fraction (%)	94.351	94.467
Duplication ratio	1.001	1.003
#genes	4834 + 330 part	4885 + 281 part
#predicted genes (unique)	5529	5486
#predicted genes (>= 0 bp)	5533	5489
#predicted genes (>= 300 bp)	4524	4518
#predicted genes (>= 1500 bp)	655	655
#predicted genes (>= 3000 bp)	63	63
#mismatches	235	286
#indels	24	497
Indels length	28	1474
#mismatches per 100 kbp	4.45	5.41
#indels per 100 kbp	0.45	9.40
GC (%)	50.31	50.31
Reference GC (%)	50.48	50.48
Average %IDY	98.937	98.920
Largest alignment	96729	252269
NA50	30772	86848
NGA50	29892	81083
NA75	15845	33720
NGA75	13977	32037
LA50	51	20
LGA50	55	21
LA75	111	44
LGA75	122	48
#Mis_misassemblies	5	19
#Mis_relocations	5	19
#Mis_translocations	0	0
#Mis_inversions	0	0
#Mis_misassembled contigs	5	12
Mis_Misassembled contigs length	106587	505689
#Mis_local misassemblies	7	121
#Mis_short indels (<= 5 bp)	24	463
#Mis_long indels (> 5 bp)	0	34
#Una_fully unaligned contigs	1	1
Una_Fully unaligned length	5466	5466
#Una_partially unaligned contigs	0	0
#Una_with misassembly	0	0
#Una_both parts are significant	0	0
Una_Partially unaligned length	0	0
GAGE_Contigs #	596	412
GAGE_Min contig	200	200
GAGE_Max contig	96729	252458
GAGE_N50	30247 COUNT: 54	88310 COUNT: 20
GAGE_Genome size	5594470	5594470
GAGE_Assembly size	5387620	5402373
GAGE_Chaff bases	0	0
GAGE_Missing reference bases	22091(0.39%)	21710(0.39%)
GAGE_Missing assembly bases	5495(0.10%)	19673(0.36%)
GAGE_Missing assembly contigs	1(0.17%)	1(0.24%)
GAGE_Duplicated reference bases	7295	7793
GAGE_Compressed reference bases	253813	253604
GAGE_Bad trim	29	55
GAGE_Avg idy	99.99	99.98
GAGE_SNPs	191	190
GAGE_Indels < 5bp	23	55
GAGE_Indels >= 5	5	145
GAGE_Inversions	0	9
GAGE_Relocation	7	19
GAGE_Translocation	0	0
GAGE_Corrected contig #	582	570
GAGE_Corrected assembly size	5378555	5378640
GAGE_Min correct contig	200	200
GAGE_Max correct contig	96729	96729
GAGE_Corrected N50	29057 COUNT: 56	29574 COUNT: 55
