Assembly	VELVET_PGM_sakai_pgm_mu_318_400bp_IO_TS3.4_ms_0.395percent_109.final.contigs
#Contigs (>= 0 bp)	32554
#Contigs (>= 1000 bp)	0
Total length (>= 0 bp)	8069722
Total length (>= 1000 bp)	0
#Contigs	32554
Largest contig	637
Total length	8069722
Reference length	5594470
GC (%)	50.24
Reference GC (%)	50.48
N50	240
NG50	259
N75	219
NG75	238
#misassemblies	951
#local misassemblies	5
#unaligned contigs	68 + 72 part
Unaligned contigs length	25441
Genome fraction (%)	71.975
Duplication ratio	1.926
#N's per 100 kbp	0.00
#mismatches per 100 kbp	82.72
#indels per 100 kbp	893.38
#genes	149 + 4780 part
#predicted genes (unique)	31065
#predicted genes (>= 0 bp)	31152
#predicted genes (>= 300 bp)	265
#predicted genes (>= 1500 bp)	0
#predicted genes (>= 3000 bp)	0
Largest alignment	637
NA50	236
NGA50	255
NA75	217
NGA75	234
