Assembly	NEWBLER_PGM_sakai_pgm_mu_200bp_IO_TS3.0Disabled_stringent.0.95percent.contigs
#Mis_misassemblies	17
#Mis_relocations	5
#Mis_translocations	0
#Mis_inversions	12
#Mis_misassembled contigs	16
Mis_Misassembled contigs length	109751
#Mis_local misassemblies	3
#mismatches	61
#indels	833
#Mis_short indels (<= 5 bp)	831
#Mis_long indels (> 5 bp)	2
Indels length	890
