Assembly	SOAP2_MIS_PE_sakai_mis-1_bi_2x250bp_SI_default.0.64percent_89.final.scaf_broken	SOAP2_MIS_PE_sakai_mis-1_bi_2x250bp_SI_default.0.64percent_89.final.scaf
#Contigs	1756	666
#Contigs (>= 0 bp)	6567	5307
#Contigs (>= 1000 bp)	1045	302
Largest contig	31481	115601
Total length	5252582	5338903
Total length (>= 0 bp)	6026480	6087379
Total length (>= 1000 bp)	4949011	5198827
Reference length	5594470	5594470
N50	6229	32905
NG50	5839	31692
N75	3278	18263
NG75	2770	16199
L50	246	47
LG50	274	51
L75	537	101
LG75	621	113
#local misassemblies	66	1002
#misassemblies	4	25
#misassembled contigs	4	23
Misassembled contigs length	10250	230671
Misassemblies inter-contig overlap	5	11
#unaligned contigs	11 + 0 part	18 + 14 part
Unaligned contigs length	9070	27144
#ambiguously mapped contigs	200	171
Extra bases in ambiguously mapped contigs	-74983	-63522
#N's	391	61290
#N's per 100 kbp	7.44	1147.99
Genome fraction (%)	92.209	92.240
Duplication ratio	1.002	1.017
#genes	3875 + 1239 part	3975 + 1147 part
#predicted genes (unique)	6291	6032
#predicted genes (>= 0 bp)	6301	6042
#predicted genes (>= 300 bp)	4751	4715
#predicted genes (>= 1500 bp)	518	535
#predicted genes (>= 3000 bp)	37	42
#mismatches	210	260
#indels	72	2637
Indels length	451	6690
#mismatches per 100 kbp	4.07	5.04
#indels per 100 kbp	1.40	51.10
GC (%)	50.22	50.24
Reference GC (%)	50.48	50.48
Average %IDY	99.285	99.234
Largest alignment	31481	114690
NA50	6229	31483
NGA50	5839	30515
NA75	3265	17298
NGA75	2761	15617
LA50	246	49
LGA50	274	53
LA75	537	105
LGA75	622	117
#Mis_misassemblies	4	25
#Mis_relocations	4	25
#Mis_translocations	0	0
#Mis_inversions	0	0
#Mis_misassembled contigs	4	23
Mis_Misassembled contigs length	10250	230671
#Mis_local misassemblies	66	1002
#Mis_short indels (<= 5 bp)	58	2503
#Mis_long indels (> 5 bp)	14	134
#Una_fully unaligned contigs	11	18
Una_Fully unaligned length	9070	16254
#Una_partially unaligned contigs	0	14
#Una_with misassembly	0	0
#Una_both parts are significant	0	11
Una_Partially unaligned length	0	10890
GAGE_Contigs #	1756	666
GAGE_Min contig	200	200
GAGE_Max contig	31481	115601
GAGE_N50	5839 COUNT: 274	31692 COUNT: 51
GAGE_Genome size	5594470	5594470
GAGE_Assembly size	5252582	5338903
GAGE_Chaff bases	0	0
GAGE_Missing reference bases	201338(3.60%)	187526(3.35%)
GAGE_Missing assembly bases	8370(0.16%)	71573(1.34%)
GAGE_Missing assembly contigs	10(0.57%)	10(1.50%)
GAGE_Duplicated reference bases	15388	24017
GAGE_Compressed reference bases	221863	220959
GAGE_Bad trim	35	6613
GAGE_Avg idy	99.99	99.98
GAGE_SNPs	196	143
GAGE_Indels < 5bp	90	141
GAGE_Indels >= 5	75	1164
GAGE_Inversions	0	3
GAGE_Relocation	4	18
GAGE_Translocation	0	0
GAGE_Corrected contig #	1759	1714
GAGE_Corrected assembly size	5227062	5220847
GAGE_Min correct contig	200	200
GAGE_Max correct contig	31481	31481
GAGE_Corrected N50	5548 COUNT: 291	5620 COUNT: 289
