1: PREPARING DATA
2,3: RUNNING mummer AND CREATING CLUSTERS
# reading input file "/vol/codine-tmp/juene/tmp.BaPsUhsulp/quast/gage/tmp/CLC_PGM_sakai_pgm_mu_200bp_IO_TS3.0Disabled_stringent.0.99percent.result.ntref" of length 5594473
# construct suffix tree for sequence of length 5594473
# (maximum reference length is 536870908)
# (maximum query length is 4294967295)
# process 55944 characters per dot
#....................................................................................................
# CONSTRUCTIONTIME /vol/ngscomparison/software/analysis/quast-2.1/libs/MUMmer3.23-linux/mummer /vol/codine-tmp/juene/tmp.BaPsUhsulp/quast/gage/tmp/CLC_PGM_sakai_pgm_mu_200bp_IO_TS3.0Disabled_stringent.0.99percent.result.ntref 2.90
# reading input file "/vol/codine-tmp/juene/tmp.BaPsUhsulp/quast/corrected_input/CLC_PGM_sakai_pgm_mu_200bp_IO_TS3.0Disabled_stringent.0.99percent.result" of length 5387172
# matching query-file "/vol/codine-tmp/juene/tmp.BaPsUhsulp/quast/corrected_input/CLC_PGM_sakai_pgm_mu_200bp_IO_TS3.0Disabled_stringent.0.99percent.result"
# against subject-file "/vol/codine-tmp/juene/tmp.BaPsUhsulp/quast/gage/tmp/CLC_PGM_sakai_pgm_mu_200bp_IO_TS3.0Disabled_stringent.0.99percent.result.ntref"
# COMPLETETIME /vol/ngscomparison/software/analysis/quast-2.1/libs/MUMmer3.23-linux/mummer /vol/codine-tmp/juene/tmp.BaPsUhsulp/quast/gage/tmp/CLC_PGM_sakai_pgm_mu_200bp_IO_TS3.0Disabled_stringent.0.99percent.result.ntref 9.44
# SPACE /vol/ngscomparison/software/analysis/quast-2.1/libs/MUMmer3.23-linux/mummer /vol/codine-tmp/juene/tmp.BaPsUhsulp/quast/gage/tmp/CLC_PGM_sakai_pgm_mu_200bp_IO_TS3.0Disabled_stringent.0.99percent.result.ntref 10.66
4: FINISHING DATA
Filtering alignments
Extracting alignment coordinates
Analyzing SNPs
Extracting alignment breakpoints
Generating report file
Found genome size at position 4 with value 5594470 aka 5594470
Calculating point at 0 and the sum is 1038238 and i is629 and lens is 639 and length is 62196
Calculating point at 1 and the sum is 2026899 and i is610 and lens is 639 and length is 44715
Calculating point at 2 and the sum is 3025600 and i is581 and lens is 639 and length is 27716
Calculating point at 3 and the sum is 4014283 and i is531 and lens is 639 and length is 15448
Calculating point at 4 and the sum is 5001556 and i is408 and lens is 639 and length is 3200
