calling: java -cp /vol/ngscomparison/software/analysis/quast-2.1/libs/gage:. SizeFasta /vol/codine-tmp/juene/tmp.ah6vlOdZSD/quast/corrected_input/Mycobacterium_tuberculosis_H37Rv.fasta |awk '{SUM+=; print SUM}'|tail -n 1
Contig Stats
Total units: 2083
Reference: 4411532
BasesInFasta: 4557864
Min: 200
Max: 31030
N10: 19815 COUNT: 19
N25: 14202 COUNT: 58
N50: 8657 COUNT: 161
N75: 4577 COUNT: 335
E-size:10014.89

Genome Size: 4411532
Assembly Size: 4557864
Chaff bases: 0
Missing Reference Bases: 15473(0.35%)
Missing Assembly Bases: 1796(0.04%)
Missing Assembly Contigs: 2(0.10%)
Duplicated Reference Bases: 131796
Compressed Reference Bases: 66973
Bad Trim: 1225
Avg Idy: 99.99
SNPs: 240
Indels < 5bp: 48
Indels >= 5: 9
Inversions: 1
Relocation: 4
Translocation: 0

Corrected Contig Stats
calling: java -cp /vol/ngscomparison/software/analysis/quast-2.1/libs/gage:.:. GetFastaStats -o -min 199 -genomeSize 4411532 /vol/codine-tmp/juene/tmp.ah6vlOdZSD/quast/gage/tmp/SOAP2_MIS_PE_mtbh37-1_mis_2x250bp_nextera_default_107.final.scaf_broken.matches.lens 2> /dev/null
Total units: 1500
Reference: 4411532
BasesInFasta: 4424034
Min: 201
Max: 31030
N10: 19400 COUNT: 19
N25: 13682 COUNT: 61
N50: 8395 COUNT: 165
N75: 4395 COUNT: 344
E-size:9708.85

Done
