Assembly	NEWBLER_MIS_PE_mrsa_mis-1_bi_2x150bp_default__mrsa_mis-2_bi_2x150bp_default.100coverage.contigs
#Contigs (>= 0 bp)	97
#Contigs (>= 1000 bp)	60
Total length (>= 0 bp)	2772231
Total length (>= 1000 bp)	2763764
#Contigs	69
Largest contig	326241
Total length	2768176
Reference length	2813862
GC (%)	32.67
Reference GC (%)	32.81
N50	87096
NG50	87096
N75	48898
NG75	45892
#misassemblies	2
#local misassemblies	4
#unaligned contigs	1 + 0 part
Unaligned contigs length	5386
Genome fraction (%)	97.909
Duplication ratio	1.000
#N's per 100 kbp	0.00
#mismatches per 100 kbp	2.00
#indels per 100 kbp	0.44
#genes	2654 + 30 part
#predicted genes (unique)	2620
#predicted genes (>= 0 bp)	2620
#predicted genes (>= 300 bp)	2280
#predicted genes (>= 1500 bp)	300
#predicted genes (>= 3000 bp)	29
Largest alignment	326241
NA50	87096
NGA50	87096
NA75	48898
NGA75	45892
