Assembly	SOAP2_PGM_sakai_pgm_mu_200bp_IO_TS3.0Disabled_stringent.0.34percent_75.final.contig
GAGE_Contigs #	11098
GAGE_Min contig	200
GAGE_Max contig	3168
GAGE_N50	397 COUNT: 4322
GAGE_Genome size	5594470
GAGE_Assembly size	4652675
GAGE_Chaff bases	0
GAGE_Missing reference bases	1126606(20.14%)
GAGE_Missing assembly bases	23675(0.51%)
GAGE_Missing assembly contigs	49(0.44%)
GAGE_Duplicated reference bases	164274
GAGE_Compressed reference bases	111329
GAGE_Bad trim	11867
GAGE_Avg idy	99.91
GAGE_SNPs	229
GAGE_Indels < 5bp	2401
GAGE_Indels >= 5	5
GAGE_Inversions	24
GAGE_Relocation	1
GAGE_Translocation	0
GAGE_Corrected contig #	10227
GAGE_Corrected assembly size	4446529
GAGE_Min correct contig	200
GAGE_Max correct contig	3168
GAGE_Corrected N50	397 COUNT: 4322
