Assembly	VELVET_PGM_sakai_pgm_mu_318_400bp_IO_TS3.4_ms_0.395percent_197.final.contigs
GAGE_Contigs #	1828
GAGE_Min contig	393
GAGE_Max contig	22889
GAGE_N50	3080 COUNT: 508
GAGE_Genome size	5594470
GAGE_Assembly size	4684644
GAGE_Chaff bases	0
GAGE_Missing reference bases	893951(15.98%)
GAGE_Missing assembly bases	1514(0.03%)
GAGE_Missing assembly contigs	0(0.00%)
GAGE_Duplicated reference bases	40915
GAGE_Compressed reference bases	232398
GAGE_Bad trim	1044
GAGE_Avg idy	99.97
GAGE_SNPs	74
GAGE_Indels < 5bp	844
GAGE_Indels >= 5	44
GAGE_Inversions	1
GAGE_Relocation	6
GAGE_Translocation	0
GAGE_Corrected contig #	1843
GAGE_Corrected assembly size	4643983
GAGE_Min correct contig	390
GAGE_Max correct contig	15487
GAGE_Corrected N50	2934 COUNT: 534
