All statistics are based on contigs of size >= 200 bp, unless otherwise noted (e.g., "# contigs (>= 0 bp)" and "Total length (>= 0 bp)" include all contigs).

Assembly                         ABYSS_PE_MIS_PE_sakai_mis-1_bi_2x150bp_default__sakai_mis-2_bi_2x150bp_default.0.826percent_72-scaffolds_broken  ABYSS_PE_MIS_PE_sakai_mis-1_bi_2x150bp_default__sakai_mis-2_bi_2x150bp_default.0.826percent_72-scaffolds
GAGE_Contigs #                   265                                                                                                              202                                                                                                     
GAGE_Min contig                  200                                                                                                              200                                                                                                     
GAGE_Max contig                  292288                                                                                                           376758                                                                                                  
GAGE_N50                         107239 COUNT: 17                                                                                                 127540 COUNT: 13                                                                                        
GAGE_Genome size                 5594470                                                                                                          5594470                                                                                                 
GAGE_Assembly size               5518130                                                                                                          5521907                                                                                                 
GAGE_Chaff bases                 0                                                                                                                0                                                                                                       
GAGE_Missing reference bases     27166(0.49%)                                                                                                     27974(0.50%)                                                                                            
GAGE_Missing assembly bases      89(0.00%)                                                                                                        3306(0.06%)                                                                                             
GAGE_Missing assembly contigs    0(0.00%)                                                                                                         0(0.00%)                                                                                                
GAGE_Duplicated reference bases  16928                                                                                                            15018                                                                                                   
GAGE_Compressed reference bases  220799                                                                                                           216090                                                                                                  
GAGE_Bad trim                    67                                                                                                               617                                                                                                     
GAGE_Avg idy                     99.97                                                                                                            99.97                                                                                                   
GAGE_SNPs                        465                                                                                                              472                                                                                                     
GAGE_Indels < 5bp                38                                                                                                               60                                                                                                      
GAGE_Indels >= 5                 10                                                                                                               29                                                                                                      
GAGE_Inversions                  0                                                                                                                9                                                                                                       
GAGE_Relocation                  3                                                                                                                12                                                                                                      
GAGE_Translocation               1                                                                                                                1                                                                                                       
GAGE_Corrected contig #          259                                                                                                              255                                                                                                     
GAGE_Corrected assembly size     5504567                                                                                                          5507027                                                                                                 
GAGE_Min correct contig          200                                                                                                              200                                                                                                     
GAGE_Max correct contig          228653                                                                                                           245373                                                                                                  
GAGE_Corrected N50               92823 COUNT: 20                                                                                                  98911 COUNT: 19                                                                                         
