calling: java -cp /vol/ngscomparison/software/analysis/quast-2.1/libs/gage:. SizeFasta /vol/codine-tmp/juene/tmp.E0PtxuqDwz/quast/corrected_input/MRSA_COL_Plasmid.fasta |awk '{SUM+=; print SUM}'|tail -n 1
Contig Stats
Total units: 256
Reference: 2813862
BasesInFasta: 2726489
Min: 203
Max: 134534
N10: 110245 COUNT: 3
N25: 49347 COUNT: 9
N50: 28070 COUNT: 28
N75: 14456 COUNT: 65
E-size:39202.23

Genome Size: 2813862
Assembly Size: 2726489
Chaff bases: 0
Missing Reference Bases: 69205(2.46%)
Missing Assembly Bases: 13446(0.49%)
Missing Assembly Contigs: 1(0.39%)
Duplicated Reference Bases: 2290
Compressed Reference Bases: 34915
Bad Trim: 1173
Avg Idy: 99.96
SNPs: 480
Indels < 5bp: 165
Indels >= 5: 225
Inversions: 15
Relocation: 29
Translocation: 0

Corrected Contig Stats
calling: java -cp /vol/ngscomparison/software/analysis/quast-2.1/libs/gage:.:. GetFastaStats -o -min 199 -genomeSize 2813862 /vol/codine-tmp/juene/tmp.E0PtxuqDwz/quast/gage/tmp/VELVET_MIS_PE_mrsa_mis-1_bi_2x150bp_default__mrsa_mis-2_bi_2x150bp_default.0.527percent_19.final.contigs.matches.lens 2> /dev/null
Total units: 508
Reference: 2813862
BasesInFasta: 2710045
Min: 203
Max: 45220
N10: 21997 COUNT: 10
N25: 15263 COUNT: 34
N50: 9696 COUNT: 93
N75: 5350 COUNT: 191
E-size:11277.15

Done
