Assembly	VELVET_PGM_mtbh37_pgm_400bp_es_318v2_OT2_tsv3.6_morestringent_127.final.contigs
#Contigs	4895
#Contigs (>= 0 bp)	4895
#Contigs (>= 1000 bp)	85
Largest contig	1795
Total length	1968020
Total length (>= 0 bp)	1968020
Total length (>= 1000 bp)	101734
Reference length	4411532
N50	403
NG50	None
N75	304
NG75	None
L50	1657
LG50	None
L75	3082
LG75	None
#local misassemblies	2
#misassemblies	150
#misassembled contigs	150
Misassembled contigs length	66020
Misassemblies inter-contig overlap	534
#unaligned contigs	0 + 1 part
Unaligned contigs length	21
#ambiguously mapped contigs	21
Extra bases in ambiguously mapped contigs	-6160
#N's	0
#N's per 100 kbp	0.00
Genome fraction (%)	40.089
Duplication ratio	1.110
#genes	155 + 2410 part
#predicted genes (unique)	5485
#predicted genes (>= 0 bp)	5515
#predicted genes (>= 300 bp)	2086
#predicted genes (>= 1500 bp)	0
#predicted genes (>= 3000 bp)	0
#mismatches	148
#indels	1819
Indels length	1879
#mismatches per 100 kbp	8.37
#indels per 100 kbp	102.85
GC (%)	66.21
Reference GC (%)	65.61
Average %IDY	99.822
Largest alignment	1795
NA50	394
NGA50	None
NA75	298
NGA75	None
LA50	1676
LGA50	None
LA75	3127
LGA75	None
#Mis_misassemblies	150
#Mis_relocations	148
#Mis_translocations	0
#Mis_inversions	2
#Mis_misassembled contigs	150
Mis_Misassembled contigs length	66020
#Mis_local misassemblies	2
#Mis_short indels (<= 5 bp)	1819
#Mis_long indels (> 5 bp)	0
#Una_fully unaligned contigs	0
Una_Fully unaligned length	0
#Una_partially unaligned contigs	1
#Una_with misassembly	0
#Una_both parts are significant	0
Una_Partially unaligned length	21
GAGE_Contigs #	4895
GAGE_Min contig	253
GAGE_Max contig	1795
GAGE_N50	0 COUNT: 0
GAGE_Genome size	4411532
GAGE_Assembly size	1968020
GAGE_Chaff bases	0
GAGE_Missing reference bases	2609488(59.15%)
GAGE_Missing assembly bases	68(0.00%)
GAGE_Missing assembly contigs	0(0.00%)
GAGE_Duplicated reference bases	94815
GAGE_Compressed reference bases	33314
GAGE_Bad trim	41
GAGE_Avg idy	99.89
GAGE_SNPs	121
GAGE_Indels < 5bp	1660
GAGE_Indels >= 5	2
GAGE_Inversions	62
GAGE_Relocation	27
GAGE_Translocation	0
GAGE_Corrected contig #	4562
GAGE_Corrected assembly size	1853561
GAGE_Min correct contig	200
GAGE_Max correct contig	1795
GAGE_Corrected N50	0 COUNT: 0
