Assembly	CLC_PGM_mrsa_pgm_200bp_es_316_IonOnev2_ts3.0_morestringent.0.500percent.result
#Contigs	251
#Contigs (>= 0 bp)	251
#Contigs (>= 1000 bp)	121
Largest contig	142516
Total length	2781065
Total length (>= 0 bp)	2781065
Total length (>= 1000 bp)	2742745
Reference length	2813862
N50	39022
NG50	39022
N75	22401
NG75	21317
L50	23
LG50	23
L75	46
LG75	47
#local misassemblies	3
#misassemblies	17
#misassembled contigs	17
Misassembled contigs length	105898
Misassemblies inter-contig overlap	1156
#unaligned contigs	0 + 10 part
Unaligned contigs length	450
#ambiguously mapped contigs	11
Extra bases in ambiguously mapped contigs	-8973
#N's	46
#N's per 100 kbp	1.65
Genome fraction (%)	97.801
Duplication ratio	1.008
#genes	2622 + 67 part
#predicted genes (unique)	2827
#predicted genes (>= 0 bp)	2829
#predicted genes (>= 300 bp)	2338
#predicted genes (>= 1500 bp)	282
#predicted genes (>= 3000 bp)	28
#mismatches	83
#indels	359
Indels length	374
#mismatches per 100 kbp	3.02
#indels per 100 kbp	13.05
GC (%)	32.63
Reference GC (%)	32.81
Average %IDY	99.309
Largest alignment	142516
NA50	39022
NGA50	38668
NA75	21317
NGA75	21209
LA50	23
LGA50	24
LA75	47
LGA75	48
#Mis_misassemblies	17
#Mis_relocations	4
#Mis_translocations	0
#Mis_inversions	13
#Mis_misassembled contigs	17
Mis_Misassembled contigs length	105898
#Mis_local misassemblies	3
#Mis_short indels (<= 5 bp)	359
#Mis_long indels (> 5 bp)	0
#Una_fully unaligned contigs	0
Una_Fully unaligned length	0
#Una_partially unaligned contigs	10
#Una_with misassembly	0
#Una_both parts are significant	0
Una_Partially unaligned length	450
GAGE_Contigs #	251
GAGE_Min contig	200
GAGE_Max contig	142516
GAGE_N50	39022 COUNT: 23
GAGE_Genome size	2813862
GAGE_Assembly size	2781065
GAGE_Chaff bases	0
GAGE_Missing reference bases	18870(0.67%)
GAGE_Missing assembly bases	646(0.02%)
GAGE_Missing assembly contigs	1(0.40%)
GAGE_Duplicated reference bases	19701
GAGE_Compressed reference bases	38698
GAGE_Bad trim	370
GAGE_Avg idy	99.98
GAGE_SNPs	41
GAGE_Indels < 5bp	360
GAGE_Indels >= 5	2
GAGE_Inversions	1
GAGE_Relocation	3
GAGE_Translocation	0
GAGE_Corrected contig #	174
GAGE_Corrected assembly size	2762004
GAGE_Min correct contig	204
GAGE_Max correct contig	142524
GAGE_Corrected N50	38597 COUNT: 24
