Assembly	ABYSS_PE_MIS_PE_sakai_mis-both_bi_2x250bp_SI_default.0.64percent.NEWBLER_84-scaffolds_broken	ABYSS_PE_MIS_PE_sakai_mis-both_bi_2x250bp_SI_default.0.64percent.NEWBLER_84-scaffolds
#Contigs	327	273
#Contigs (>= 0 bp)	708	654
#Contigs (>= 1000 bp)	205	186
Largest contig	227354	377123
Total length	5503617	5507059
Total length (>= 0 bp)	5555965	5559407
Total length (>= 1000 bp)	5444699	5464521
Reference length	5594470	5594470
N50	100104	132730
NG50	100104	132730
N75	44485	47936
NG75	41811	47016
L50	18	15
LG50	18	15
L75	37	31
LG75	39	32
#local misassemblies	3	27
#misassemblies	5	15
#misassembled contigs	5	14
Misassembled contigs length	220413	520926
Misassemblies inter-contig overlap	4202	6733
#unaligned contigs	0 + 0 part	0 + 1 part
Unaligned contigs length	0	832
#ambiguously mapped contigs	59	40
Extra bases in ambiguously mapped contigs	-68265	-52570
#N's	31	3473
#N's per 100 kbp	0.56	63.06
Genome fraction (%)	96.325	96.579
Duplication ratio	1.009	1.011
#genes	5069 + 191 part	5090 + 184 part
#predicted genes (unique)	5342	5327
#predicted genes (>= 0 bp)	5456	5440
#predicted genes (>= 300 bp)	4535	4533
#predicted genes (>= 1500 bp)	690	691
#predicted genes (>= 3000 bp)	70	69
#mismatches	702	705
#indels	44	195
Indels length	449	940
#mismatches per 100 kbp	13.03	13.05
#indels per 100 kbp	0.82	3.61
GC (%)	50.41	50.41
Reference GC (%)	50.48	50.48
Average %IDY	98.762	98.755
Largest alignment	227354	249759
NA50	100104	132730
NGA50	99911	132730
NA75	42705	47936
NGA75	41811	47016
LA50	18	16
LGA50	19	16
LA75	38	32
LGA75	39	33
#Mis_misassemblies	5	15
#Mis_relocations	5	15
#Mis_translocations	0	0
#Mis_inversions	0	0
#Mis_misassembled contigs	5	14
Mis_Misassembled contigs length	220413	520926
#Mis_local misassemblies	3	27
#Mis_short indels (<= 5 bp)	34	170
#Mis_long indels (> 5 bp)	10	25
#Una_fully unaligned contigs	0	0
Una_Fully unaligned length	0	0
#Una_partially unaligned contigs	0	1
#Una_with misassembly	0	0
#Una_both parts are significant	0	0
Una_Partially unaligned length	0	832
GAGE_Contigs #	327	273
GAGE_Min contig	200	203
GAGE_Max contig	227354	377123
GAGE_N50	100104 COUNT: 18	132730 COUNT: 15
GAGE_Genome size	5594470	5594470
GAGE_Assembly size	5503617	5507059
GAGE_Chaff bases	0	0
GAGE_Missing reference bases	13173(0.24%)	13553(0.24%)
GAGE_Missing assembly bases	38(0.00%)	3785(0.07%)
GAGE_Missing assembly contigs	0(0.00%)	0(0.00%)
GAGE_Duplicated reference bases	31327	31988
GAGE_Compressed reference bases	252778	253555
GAGE_Bad trim	12	830
GAGE_Avg idy	99.98	99.98
GAGE_SNPs	504	504
GAGE_Indels < 5bp	35	35
GAGE_Indels >= 5	12	36
GAGE_Inversions	3	7
GAGE_Relocation	2	10
GAGE_Translocation	0	0
GAGE_Corrected contig #	306	303
GAGE_Corrected assembly size	5476340	5475374
GAGE_Min correct contig	200	200
GAGE_Max correct contig	227354	227354
GAGE_Corrected N50	72558 COUNT: 22	72558 COUNT: 22
