Assembly	#Contigs	#Contigs (>= 0 bp)	#Contigs (>= 1000 bp)	Largest contig	Total length	Total length (>= 0 bp)	Total length (>= 1000 bp)	Reference length	N50	NG50	N75	NG75	L50	LG50	L75	LG75	#local misassemblies	#misassemblies	#misassembled contigs	Misassembled contigs length	Misassemblies inter-contig overlap	#unaligned contigs	Unaligned contigs length	#ambiguously mapped contigs	Extra bases in ambiguously mapped contigs	#N's	#N's per 100 kbp	Genome fraction (%)	Duplication ratio	#genes	#predicted genes (unique)	#predicted genes (>= 0 bp)	#predicted genes (>= 300 bp)	#predicted genes (>= 1500 bp)	#predicted genes (>= 3000 bp)	#mismatches	#indels	Indels length	#mismatches per 100 kbp	#indels per 100 kbp	GC (%)	Reference GC (%)	Average %IDY	Largest alignment	NA50	NGA50	NA75	NGA75	LA50	LGA50	LA75	LGA75	#Mis_misassemblies	#Mis_relocations	#Mis_translocations	#Mis_inversions	#Mis_misassembled contigs	Mis_Misassembled contigs length	#Mis_local misassemblies	#Mis_short indels (<= 5 bp)	#Mis_long indels (> 5 bp)	#Una_fully unaligned contigs	Una_Fully unaligned length	#Una_partially unaligned contigs	#Una_with misassembly	#Una_both parts are significant	Una_Partially unaligned length	GAGE_Contigs #	GAGE_Min contig	GAGE_Max contig	GAGE_N50	GAGE_Genome size	GAGE_Assembly size	GAGE_Chaff bases	GAGE_Missing reference bases	GAGE_Missing assembly bases	GAGE_Missing assembly contigs	GAGE_Duplicated reference bases	GAGE_Compressed reference bases	GAGE_Bad trim	GAGE_Avg idy	GAGE_SNPs	GAGE_Indels < 5bp	GAGE_Indels >= 5	GAGE_Inversions	GAGE_Relocation	GAGE_Translocation	GAGE_Corrected contig #	GAGE_Corrected assembly size	GAGE_Min correct contig	GAGE_Max correct contig	GAGE_Corrected N50
VELVET_MIS_PE_mtbh37-1_mis_2x250bp_nextera_default__mtbh37-2_mis_2x250bp_nextera_default_77.final.contigs_broken	384	395	323	76100	4261184	4263028	4228440	4411532	22669	22159	12203	10669	62	65	126	135	18	5	5	24796	12080	0 + 1 part	110	23	-17121	0	0.00	96.175	1.003	3730 + 309 part	4184	4187	3621	523	63	231	29	161	5.44	0.68	65.39	65.61	99.772	76100	22665	22159	12203	10669	62	65	126	135	5	5	0	0	5	24796	18	26	3	0	0	1	0	0	110	384	208	76100	22159 COUNT: 65	4411532	4261184	0	106371(2.41%)	1014(0.02%)	0(0.00%)	1576	57482	1014	99.99	226	31	14	0	8	0	402	4260738	208	76099	21304 COUNT: 68
VELVET_MIS_PE_mtbh37-1_mis_2x250bp_nextera_default__mtbh37-2_mis_2x250bp_nextera_default_77.final.contigs	178	188	142	206064	4280906	4282583	4262400	4411532	63995	63581	33955	31936	21	22	43	46	156	12	10	404572	12184	0 + 1 part	110	23	-17121	19555	456.80	96.248	1.007	3784 + 255 part	4156	4159	3613	527	63	207	741	1924	4.88	17.45	65.39	65.61	99.736	191622	63375	62876	32398	29568	22	23	45	48	12	12	0	0	10	404572	156	700	41	0	0	1	0	0	110	178	245	206064	63581 COUNT: 22	4411532	4280906	0	105857(2.40%)	20058(0.47%)	0(0.00%)	1743	57482	1171	99.98	226	54	196	5	17	0	394	4261252	208	76099	21710 COUNT: 67
