Assembly	#Contigs	#Contigs (>= 0 bp)	#Contigs (>= 1000 bp)	Largest contig	Total length	Total length (>= 0 bp)	Total length (>= 1000 bp)	Reference length	N50	NG50	N75	NG75	L50	LG50	L75	LG75	#local misassemblies	#misassemblies	#misassembled contigs	Misassembled contigs length	Misassemblies inter-contig overlap	#unaligned contigs	Unaligned contigs length	#ambiguously mapped contigs	Extra bases in ambiguously mapped contigs	#N's	#N's per 100 kbp	Genome fraction (%)	Duplication ratio	#genes	#predicted genes (unique)	#predicted genes (>= 0 bp)	#predicted genes (>= 300 bp)	#predicted genes (>= 1500 bp)	#predicted genes (>= 3000 bp)	#mismatches	#indels	Indels length	#mismatches per 100 kbp	#indels per 100 kbp	GC (%)	Reference GC (%)	Average %IDY	Largest alignment	NA50	NGA50	NA75	NGA75	LA50	LGA50	LA75	LGA75	#Mis_misassemblies	#Mis_relocations	#Mis_translocations	#Mis_inversions	#Mis_misassembled contigs	Mis_Misassembled contigs length	#Mis_local misassemblies	#Mis_short indels (<= 5 bp)	#Mis_long indels (> 5 bp)	#Una_fully unaligned contigs	Una_Fully unaligned length	#Una_partially unaligned contigs	#Una_with misassembly	#Una_both parts are significant	Una_Partially unaligned length	GAGE_Contigs #	GAGE_Min contig	GAGE_Max contig	GAGE_N50	GAGE_Genome size	GAGE_Assembly size	GAGE_Chaff bases	GAGE_Missing reference bases	GAGE_Missing assembly bases	GAGE_Missing assembly contigs	GAGE_Duplicated reference bases	GAGE_Compressed reference bases	GAGE_Bad trim	GAGE_Avg idy	GAGE_SNPs	GAGE_Indels < 5bp	GAGE_Indels >= 5	GAGE_Inversions	GAGE_Relocation	GAGE_Translocation	GAGE_Corrected contig #	GAGE_Corrected assembly size	GAGE_Min correct contig	GAGE_Max correct contig	GAGE_Corrected N50
SOAP2_MIS_PE_mtbh37-1_mis_2x250bp_nextera_default_19.final.scaf_broken	5519	71549	0	685	1293904	9861617	0	4411532	230	None	213	None	2484	None	3948	None	0	0	0	0	0	4249 + 7 part	966242	0	0	0	0.00	7.415	1.002	10 + 1013 part	3403	3403	171	0	0	166	4	4	50.75	1.22	66.48	65.61	99.941	685	None	None	None	None	None	None	None	None	0	0	0	0	0	0	0	4	0	4249	965900	7	0	0	342	5519	200	685	0 COUNT: 0	4411532	1293904	0	4084174(92.58%)	966249(74.68%)	4249(76.99%)	0	243	349	99.95	166	4	0	0	0	0	1266	326976	200	685	0 COUNT: 0
SOAP2_MIS_PE_mtbh37-1_mis_2x250bp_nextera_default_19.final.scaf	5522	71546	0	685	1294894	9861992	0	4411532	230	None	213	None	2485	None	3950	None	0	0	0	0	0	4250 + 9 part	966890	0	0	375	28.96	7.423	1.002	10 + 1015 part	3405	3405	171	0	0	166	4	4	50.69	1.22	66.48	65.61	99.941	685	None	None	None	None	None	None	None	None	0	0	0	0	0	0	0	4	0	4250	966190	9	0	0	700	5522	200	685	0 COUNT: 0	4411532	1294894	0	4083832(92.57%)	966897(74.67%)	4250(76.96%)	0	243	707	99.95	166	4	0	0	0	0	1266	326976	200	685	0 COUNT: 0
