Assembly	VELVET_PGM_mtbh37_pgm_400bp_es_318v2_OT2_tsv3.6_morestringent_27.final.contigs
GAGE_Contigs #	2427
GAGE_Min contig	200
GAGE_Max contig	17043
GAGE_N50	2716 COUNT: 483
GAGE_Genome size	4411532
GAGE_Assembly size	4173265
GAGE_Chaff bases	0
GAGE_Missing reference bases	235694(5.34%)
GAGE_Missing assembly bases	1321(0.03%)
GAGE_Missing assembly contigs	1(0.04%)
GAGE_Duplicated reference bases	1398
GAGE_Compressed reference bases	29004
GAGE_Bad trim	382
GAGE_Avg idy	99.93
GAGE_SNPs	234
GAGE_Indels < 5bp	2498
GAGE_Indels >= 5	11
GAGE_Inversions	1
GAGE_Relocation	1
GAGE_Translocation	0
GAGE_Corrected contig #	2436
GAGE_Corrected assembly size	4172168
GAGE_Min correct contig	200
GAGE_Max correct contig	17049
GAGE_Corrected N50	2713 COUNT: 485
