Assembly	SOAP2_PGM_sakai_pgm_mu_318_400bp_IO_TS3.4_ms_0.395percent_65.final.contig
GAGE_Contigs #	9665
GAGE_Min contig	200
GAGE_Max contig	877
GAGE_N50	0 COUNT: 0
GAGE_Genome size	5594470
GAGE_Assembly size	2372543
GAGE_Chaff bases	0
GAGE_Missing reference bases	3500550(62.57%)
GAGE_Missing assembly bases	87085(3.67%)
GAGE_Missing assembly contigs	269(2.78%)
GAGE_Duplicated reference bases	118522
GAGE_Compressed reference bases	98540
GAGE_Bad trim	23094
GAGE_Avg idy	98.79
GAGE_SNPs	731
GAGE_Indels < 5bp	20653
GAGE_Indels >= 5	14
GAGE_Inversions	57
GAGE_Relocation	26
GAGE_Translocation	7
GAGE_Corrected contig #	8127
GAGE_Corrected assembly size	2020640
GAGE_Min correct contig	200
GAGE_Max correct contig	877
GAGE_Corrected N50	0 COUNT: 0
