Assembly	NEWBLER_MIS_PE_mrsa_mis-1_bi_2x150bp_default__mrsa_mis-2_bi_2x150bp_default.0.350percent.contigs_broken	NEWBLER_MIS_PE_mrsa_mis-1_bi_2x150bp_default__mrsa_mis-2_bi_2x150bp_default.0.350percent.contigs
#Contigs	69	31
#Contigs (>= 0 bp)	69	31
#Contigs (>= 1000 bp)	66	31
Largest contig	207707	754859
Total length	2759491	2792461
Total length (>= 0 bp)	2759491	2792461
Total length (>= 1000 bp)	2757150	2792461
Reference length	2813862	2813862
N50	87089	161184
NG50	77165	161184
N75	43160	88273
NG75	39877	88273
L50	10	4
LG50	11	4
L75	22	10
LG75	23	10
#local misassemblies	4	39
#misassemblies	2	5
#misassembled contigs	2	5
Misassembled contigs length	73519	984472
Misassemblies inter-contig overlap	1562	1562
#unaligned contigs	1 + 0 part	1 + 0 part
Unaligned contigs length	5386	5386
#ambiguously mapped contigs	4	0
Extra bases in ambiguously mapped contigs	-5884	0
#N's	0	32970
#N's per 100 kbp	0.00	1180.68
Genome fraction (%)	97.689	97.898
Duplication ratio	1.000	1.012
#genes	2638 + 30 part	2639 + 32 part
#predicted genes (unique)	2609	2605
#predicted genes (>= 0 bp)	2609	2605
#predicted genes (>= 300 bp)	2274	2274
#predicted genes (>= 1500 bp)	298	298
#predicted genes (>= 3000 bp)	30	30
#mismatches	85	90
#indels	17	17
Indels length	56	56
#mismatches per 100 kbp	3.09	3.27
#indels per 100 kbp	0.62	0.62
GC (%)	32.67	32.67
Reference GC (%)	32.81	32.81
Average %IDY	99.155	99.155
Largest alignment	207707	711500
NA50	87089	147113
NGA50	77165	147113
NA75	43160	87089
NGA75	39877	87089
LA50	10	5
LGA50	11	5
LA75	22	11
LGA75	23	11
#Mis_misassemblies	2	5
#Mis_relocations	2	5
#Mis_translocations	0	0
#Mis_inversions	0	0
#Mis_misassembled contigs	2	5
Mis_Misassembled contigs length	73519	984472
#Mis_local misassemblies	4	39
#Mis_short indels (<= 5 bp)	14	14
#Mis_long indels (> 5 bp)	3	3
#Una_fully unaligned contigs	1	1
Una_Fully unaligned length	5386	5386
#Una_partially unaligned contigs	0	0
#Una_with misassembly	0	0
#Una_both parts are significant	0	0
Una_Partially unaligned length	0	0
GAGE_Contigs #	69	31
GAGE_Min contig	720	3225
GAGE_Max contig	207707	754859
GAGE_N50	77165 COUNT: 11	161184 COUNT: 4
GAGE_Genome size	2813862	2813862
GAGE_Assembly size	2759491	2792461
GAGE_Chaff bases	0	0
GAGE_Missing reference bases	31585(1.12%)	31585(1.12%)
GAGE_Missing assembly bases	5386(0.20%)	38356(1.37%)
GAGE_Missing assembly contigs	1(1.45%)	1(3.23%)
GAGE_Duplicated reference bases	0	0
GAGE_Compressed reference bases	28198	28198
GAGE_Bad trim	0	0
GAGE_Avg idy	99.99	99.99
GAGE_SNPs	38	38
GAGE_Indels < 5bp	7	7
GAGE_Indels >= 5	4	31
GAGE_Inversions	0	1
GAGE_Relocation	2	6
GAGE_Translocation	0	0
GAGE_Corrected contig #	74	74
GAGE_Corrected assembly size	2755148	2755148
GAGE_Min correct contig	720	720
GAGE_Max correct contig	207707	207707
GAGE_Corrected N50	75439 COUNT: 12	75439 COUNT: 12
