Assembly	CLC_PGM_sakai_pgm_mu_318_400bp_IO_TS3.4_ms.0.075percent.result
GAGE_Contigs #	984
GAGE_Min contig	200
GAGE_Max contig	90348
GAGE_N50	25470 COUNT: 66
GAGE_Genome size	5594470
GAGE_Assembly size	5362189
GAGE_Chaff bases	0
GAGE_Missing reference bases	70891(1.27%)
GAGE_Missing assembly bases	365(0.01%)
GAGE_Missing assembly contigs	0(0.00%)
GAGE_Duplicated reference bases	40869
GAGE_Compressed reference bases	254183
GAGE_Bad trim	365
GAGE_Avg idy	99.96
GAGE_SNPs	187
GAGE_Indels < 5bp	1287
GAGE_Indels >= 5	9
GAGE_Inversions	1
GAGE_Relocation	7
GAGE_Translocation	0
GAGE_Corrected contig #	872
GAGE_Corrected assembly size	5325633
GAGE_Min correct contig	200
GAGE_Max correct contig	90354
GAGE_Corrected N50	23513 COUNT: 69
