Assembly	SOAP2_MIS_PE_mrsa_mis-1_bi_2x150bp_default.0.527percent_55.final.scaf_broken	SOAP2_MIS_PE_mrsa_mis-1_bi_2x150bp_default.0.527percent_55.final.scaf
#Contigs (>= 0 bp)	1780	1449
#Contigs (>= 1000 bp)	199	41
Total length (>= 0 bp)	2910838	2925674
Total length (>= 1000 bp)	2711201	2760015
#Contigs	278	65
Largest contig	77813	318169
Total length	2743239	2770883
Reference length	2813862	2813862
GC (%)	32.62	32.64
Reference GC (%)	32.81	32.81
N50	20849	129860
NG50	20421	129860
N75	12818	73146
NG75	12368	73146
#misassemblies	1	3
#local misassemblies	1	63
#unaligned contigs	6 + 1 part	6 + 1 part
Unaligned contigs length	7139	9714
Genome fraction (%)	97.107	97.473
Duplication ratio	1.000	1.005
#N's per 100 kbp	4.30	539.68
#mismatches per 100 kbp	1.13	1.17
#indels per 100 kbp	1.17	46.52
#genes	2481 + 158 part	2598 + 52 part
#predicted genes (unique)	2749	2710
#predicted genes (>= 0 bp)	2750	2710
#predicted genes (>= 300 bp)	2296	2297
#predicted genes (>= 1500 bp)	286	287
#predicted genes (>= 3000 bp)	27	26
Largest alignment	77813	317693
NA50	20849	129860
NGA50	20421	129860
NA75	12818	73110
NGA75	11803	73110
