Assembly	SOAP2_MIS_PE_sakai_mis-1_bi_2x150bp_default.0.826percent_101.final.scaf_broken	SOAP2_MIS_PE_sakai_mis-1_bi_2x150bp_default.0.826percent_101.final.scaf
#Contigs	975	671
#Contigs (>= 0 bp)	1765	1407
#Contigs (>= 1000 bp)	251	134
Largest contig	142924	374591
Total length	5435048	5460418
Total length (>= 0 bp)	5545501	5562477
Total length (>= 1000 bp)	5220062	5309257
Reference length	5594470	5594470
N50	50187	142636
NG50	49630	142636
N75	22515	67368
NG75	19605	58830
L50	34	11
LG50	36	11
L75	75	25
LG75	81	26
#local misassemblies	3	105
#misassemblies	4	28
#misassembled contigs	4	22
Misassembled contigs length	90280	830602
Misassemblies inter-contig overlap	5	290
#unaligned contigs	4 + 0 part	9 + 9 part
Unaligned contigs length	6357	19336
#ambiguously mapped contigs	441	402
Extra bases in ambiguously mapped contigs	-141427	-121848
#N's	56	17032
#N's per 100 kbp	1.03	311.92
Genome fraction (%)	94.360	94.403
Duplication ratio	1.002	1.007
#genes	4839 + 322 part	4941 + 213 part
#predicted genes (unique)	5818	5721
#predicted genes (>= 0 bp)	5839	5741
#predicted genes (>= 300 bp)	4472	4459
#predicted genes (>= 1500 bp)	658	656
#predicted genes (>= 3000 bp)	66	65
#mismatches	65	128
#indels	29	1912
Indels length	278	3892
#mismatches per 100 kbp	1.23	2.42
#indels per 100 kbp	0.55	36.20
GC (%)	50.34	50.34
Reference GC (%)	50.48	50.48
Average %IDY	99.058	99.020
Largest alignment	142924	361923
NA50	49935	142636
NGA50	48573	142636
NA75	21949	67331
NGA75	19605	58830
LA50	34	12
LGA50	36	12
LA75	76	26
LGA75	81	27
#Mis_misassemblies	4	28
#Mis_relocations	4	28
#Mis_translocations	0	0
#Mis_inversions	0	0
#Mis_misassembled contigs	4	22
Mis_Misassembled contigs length	90280	830602
#Mis_local misassemblies	3	105
#Mis_short indels (<= 5 bp)	19	1819
#Mis_long indels (> 5 bp)	10	93
#Una_fully unaligned contigs	4	9
Una_Fully unaligned length	6357	11053
#Una_partially unaligned contigs	0	9
#Una_with misassembly	0	0
#Una_both parts are significant	0	7
Una_Partially unaligned length	0	8283
GAGE_Contigs #	975	671
GAGE_Min contig	200	200
GAGE_Max contig	142924	374591
GAGE_N50	49630 COUNT: 36	142636 COUNT: 11
GAGE_Genome size	5594470	5594470
GAGE_Assembly size	5435048	5460418
GAGE_Chaff bases	0	0
GAGE_Missing reference bases	13077(0.23%)	10664(0.19%)
GAGE_Missing assembly bases	5856(0.11%)	24488(0.45%)
GAGE_Missing assembly contigs	3(0.31%)	3(0.45%)
GAGE_Duplicated reference bases	19177	17566
GAGE_Compressed reference bases	285543	279420
GAGE_Bad trim	23	4760
GAGE_Avg idy	100.00	99.98
GAGE_SNPs	60	64
GAGE_Indels < 5bp	22	83
GAGE_Indels >= 5	9	160
GAGE_Inversions	1	1
GAGE_Relocation	2	15
GAGE_Translocation	0	0
GAGE_Corrected contig #	907	894
GAGE_Corrected assembly size	5409517	5412608
GAGE_Min correct contig	200	200
GAGE_Max correct contig	142923	142923
GAGE_Corrected N50	44222 COUNT: 39	48573 COUNT: 36
