All statistics are based on contigs of size >= 200 bp, unless otherwise noted (e.g., "# contigs (>= 0 bp)" and "Total length (>= 0 bp)" include all contigs).

Assembly                                                                        #Contigs  #Contigs (>= 0 bp)  #Contigs (>= 1000 bp)  Largest contig  Total length  Total length (>= 0 bp)  Total length (>= 1000 bp)  Reference length  N50     NG50    N75    NG75   L50  LG50  L75  LG75  #local misassemblies  #misassemblies  #misassembled contigs  Misassembled contigs length  Misassemblies inter-contig overlap  #unaligned contigs  Unaligned contigs length  #ambiguously mapped contigs  Extra bases in ambiguously mapped contigs  #N's   #N's per 100 kbp  Genome fraction (%)  Duplication ratio  #genes           #predicted genes (unique)  #predicted genes (>= 0 bp)  #predicted genes (>= 300 bp)  #predicted genes (>= 1500 bp)  #predicted genes (>= 3000 bp)  #mismatches  #indels  Indels length  #mismatches per 100 kbp  #indels per 100 kbp  GC (%)  Reference GC (%)  Average %IDY  Largest alignment  NA50    NGA50   NA75   NGA75  LA50  LGA50  LA75  LGA75  #Mis_misassemblies  #Mis_relocations  #Mis_translocations  #Mis_inversions  #Mis_misassembled contigs  Mis_Misassembled contigs length  #Mis_local misassemblies  #Mis_short indels (<= 5 bp)  #Mis_long indels (> 5 bp)  #Una_fully unaligned contigs  Una_Fully unaligned length  #Una_partially unaligned contigs  #Una_with misassembly  #Una_both parts are significant  Una_Partially unaligned length  GAGE_Contigs #  GAGE_Min contig  GAGE_Max contig  GAGE_N50          GAGE_Genome size  GAGE_Assembly size  GAGE_Chaff bases  GAGE_Missing reference bases  GAGE_Missing assembly bases  GAGE_Missing assembly contigs  GAGE_Duplicated reference bases  GAGE_Compressed reference bases  GAGE_Bad trim  GAGE_Avg idy  GAGE_SNPs  GAGE_Indels < 5bp  GAGE_Indels >= 5  GAGE_Inversions  GAGE_Relocation  GAGE_Translocation  GAGE_Corrected contig #  GAGE_Corrected assembly size  GAGE_Min correct contig  GAGE_Max correct contig  GAGE_Corrected N50
SOAP2_MIS_PE_sakai_mis-1_bi_2x150bp_default.0.826percent_101.final.scaf_broken  975       1765                251                    142924          5435048       5545501                 5220062                    5594470           50187   49630   22515  19605  34   36    75   81    3                     4               4                      90280                        5                                   4 + 0 part          6357                      441                          -141427                                    56     1.03              94.360               1.002              4839 + 322 part  5818                       5839                        4472                          658                            66                             65           29       278            1.23                     0.55                 50.34   50.48             99.058        142924             49935   48573   21949  19605  34    36     76    81     4                   4                 0                    0                4                          90280                            3                         19                           10                         4                             6357                        0                                 0                      0                                0                               975             200              142924           49630 COUNT: 36   5594470           5435048             0                 13077(0.23%)                  5856(0.11%)                  3(0.31%)                       19177                            285543                           23             100.00        60         22                 9                 1                2                0                   907                      5409517                       200                      142923                   44222 COUNT: 39   
SOAP2_MIS_PE_sakai_mis-1_bi_2x150bp_default.0.826percent_101.final.scaf         671       1407                134                    374591          5460418       5562477                 5309257                    5594470           142636  142636  67368  58830  11   11    25   26    105                   28              22                     830602                       290                                 9 + 9 part          19336                     402                          -121848                                    17032  311.92            94.403               1.007              4941 + 213 part  5721                       5741                        4459                          656                            65                             128          1912     3892           2.42                     36.20                50.34   50.48             99.020        361923             142636  142636  67331  58830  12    12     26    27     28                  28                0                    0                22                         830602                           105                       1819                         93                         9                             11053                       9                                 0                      7                                8283                            671             200              374591           142636 COUNT: 11  5594470           5460418             0                 10664(0.19%)                  24488(0.45%)                 3(0.45%)                       17566                            279420                           4760           99.98         64         83                 160               1                15               0                   894                      5412608                       200                      142923                   48573 COUNT: 36   
