Assembly	GAGE_Contigs #	GAGE_Min contig	GAGE_Max contig	GAGE_N50	GAGE_Genome size	GAGE_Assembly size	GAGE_Chaff bases	GAGE_Missing reference bases	GAGE_Missing assembly bases	GAGE_Missing assembly contigs	GAGE_Duplicated reference bases	GAGE_Compressed reference bases	GAGE_Bad trim	GAGE_Avg idy	GAGE_SNPs	GAGE_Indels < 5bp	GAGE_Indels >= 5	GAGE_Inversions	GAGE_Relocation	GAGE_Translocation	GAGE_Corrected contig #	GAGE_Corrected assembly size	GAGE_Min correct contig	GAGE_Max correct contig	GAGE_Corrected N50
NEWBLER_MIS_PE_mrsa_mis-1_bi_2x250bp_default__mrsa_mis-2_bi_2x250bp_default.0.400percent.contigs_broken	36	514	713128	237773 COUNT: 4	2813862	2772793	0	12748(0.45%)	5387(0.19%)	1(2.78%)	0	35912	1	99.99	30	9	0	0	2	0	37	2767411	514	713127	237776 COUNT: 4
NEWBLER_MIS_PE_mrsa_mis-1_bi_2x250bp_default__mrsa_mis-2_bi_2x250bp_default.0.400percent.contigs	21	4440	871596	304532 COUNT: 3	2813862	2781914	0	12748(0.45%)	14508(0.52%)	1(4.76%)	0	35912	1	99.99	30	9	10	0	5	0	37	2767411	514	713127	237776 COUNT: 4
