Assembly	NEWBLER_MIS_PE_mrsa_mis-1_bi_2x250bp_default__mrsa_mis-2_bi_2x250bp_default.0.400percent.contigs_broken	NEWBLER_MIS_PE_mrsa_mis-1_bi_2x250bp_default__mrsa_mis-2_bi_2x250bp_default.0.400percent.contigs
#Contigs (>= 0 bp)	36	21
#Contigs (>= 1000 bp)	34	21
Total length (>= 0 bp)	2772793	2781914
Total length (>= 1000 bp)	2771523	2781914
#Contigs	36	21
Largest contig	713128	871596
Total length	2772793	2781914
Reference length	2813862	2813862
GC (%)	32.67	32.67
Reference GC (%)	32.81	32.81
N50	237773	304532
NG50	237773	304532
N75	88125	150401
NG75	80132	150401
#misassemblies	2	2
#local misassemblies	0	14
#unaligned contigs	1 + 0 part	1 + 0 part
Unaligned contigs length	5386	5386
Genome fraction (%)	98.120	98.327
Duplication ratio	1.000	1.004
#N's per 100 kbp	0.00	327.87
#mismatches per 100 kbp	1.09	1.16
#indels per 100 kbp	0.33	0.33
#genes	2650 + 17 part	2652 + 17 part
#predicted genes (unique)	2615	2614
#predicted genes (>= 0 bp)	2616	2615
#predicted genes (>= 300 bp)	2285	2285
#predicted genes (>= 1500 bp)	301	301
#predicted genes (>= 3000 bp)	29	29
Largest alignment	713128	868767
NA50	237773	304532
NGA50	237773	304532
NA75	80132	109110
NGA75	80132	109110
