calling: java -cp /vol/ngscomparison/software/analysis/quast-2.1/libs/gage:. SizeFasta /vol/codine-tmp/juene/tmp.SgoChi4m7I/quast/corrected_input/MRSA_COL_Plasmid.fasta |awk '{SUM+=; print SUM}'|tail -n 1
Contig Stats
Total units: 10039
Reference: 2813862
BasesInFasta: 4591078
Min: 200
Max: 10068
N10: 5272 COUNT: 42
N25: 3403 COUNT: 146
N50: 1923 COUNT: 427
N75: 973 COUNT: 945
E-size:2605.91

Genome Size: 2813862
Assembly Size: 4591078
Chaff bases: 0
Missing Reference Bases: 64355(2.29%)
Missing Assembly Bases: 1334695(29.07%)
Missing Assembly Contigs: 5396(53.75%)
Duplicated Reference Bases: 392897
Compressed Reference Bases: 42511
Bad Trim: 27065
Avg Idy: 99.87
SNPs: 1622
Indels < 5bp: 274
Indels >= 5: 528
Inversions: 0
Relocation: 3
Translocation: 0

Corrected Contig Stats
calling: java -cp /vol/ngscomparison/software/analysis/quast-2.1/libs/gage:.:. GetFastaStats -o -min 199 -genomeSize 2813862 /vol/codine-tmp/juene/tmp.SgoChi4m7I/quast/gage/tmp/SOAP2_MIS_PE_mrsa_mis-1_bi_2x250bp_default.0.460percent_63.final.scaf.matches.lens 2> /dev/null
Total units: 3298
Reference: 2813862
BasesInFasta: 2829926
Min: 200
Max: 7667
N10: 3398 COUNT: 65
N25: 2270 COUNT: 218
N50: 1363 COUNT: 624
N75: 733 COUNT: 1327
E-size:1691.52

Done
