calling: java -cp /vol/ngscomparison/software/analysis/quast-2.1/libs/gage:. SizeFasta /vol/codine-tmp/juene/tmp.SgoChi4m7I/quast/corrected_input/MRSA_COL_Plasmid.fasta |awk '{SUM+=; print SUM}'|tail -n 1
Contig Stats
Total units: 10481
Reference: 2813862
BasesInFasta: 4548634
Min: 200
Max: 8912
N10: 3587 COUNT: 60
N25: 2418 COUNT: 204
N50: 1420 COUNT: 586
N75: 763 COUNT: 1258
E-size:1949.67

Genome Size: 2813862
Assembly Size: 4548634
Chaff bases: 0
Missing Reference Bases: 73192(2.60%)
Missing Assembly Bases: 1311773(28.84%)
Missing Assembly Contigs: 5395(51.47%)
Duplicated Reference Bases: 382602
Compressed Reference Bases: 41968
Bad Trim: 23931
Avg Idy: 99.88
SNPs: 1720
Indels < 5bp: 231
Indels >= 5: 104
Inversions: 0
Relocation: 3
Translocation: 0

Corrected Contig Stats
calling: java -cp /vol/ngscomparison/software/analysis/quast-2.1/libs/gage:.:. GetFastaStats -o -min 199 -genomeSize 2813862 /vol/codine-tmp/juene/tmp.SgoChi4m7I/quast/gage/tmp/SOAP2_MIS_PE_mrsa_mis-1_bi_2x250bp_default.0.460percent_63.final.scaf_broken.matches.lens 2> /dev/null
Total units: 3335
Reference: 2813862
BasesInFasta: 2835283
Min: 200
Max: 7667
N10: 3372 COUNT: 65
N25: 2262 COUNT: 220
N50: 1346 COUNT: 628
N75: 730 COUNT: 1337
E-size:1678.29

Done
