Assembly	#Mis_misassemblies	#Mis_relocations	#Mis_translocations	#Mis_inversions	#Mis_misassembled contigs	Mis_Misassembled contigs length	#Mis_local misassemblies	#mismatches	#indels	#Mis_short indels (<= 5 bp)	#Mis_long indels (> 5 bp)	Indels length
SOAP2_MIS_PE_sakai_mis-1_bi_2x250bp_SI_default.0.64percent_71.final.scaf_broken	4	3	0	1	4	2405	1	25747	221	221	0	222
SOAP2_MIS_PE_sakai_mis-1_bi_2x250bp_SI_default.0.64percent_71.final.scaf	4	3	0	1	4	2405	13	25273	224	224	0	225
