All statistics are based on contigs of size >= 200 bp, unless otherwise noted (e.g., "# contigs (>= 0 bp)" and "Total length (>= 0 bp)" include all contigs).

Assembly                         ABYSS_PE_MIS_PE_sakai_mis-1_bi_2x250bp_SI_default__sakai_mis-2_bi_2x250bp_SI_default.0.3percent_70.final_broken  ABYSS_PE_MIS_PE_sakai_mis-1_bi_2x250bp_SI_default__sakai_mis-2_bi_2x250bp_SI_default.0.3percent_70.final
#Mis_misassemblies               2                                                                                                                2                                                                                                       
#Mis_relocations                 2                                                                                                                2                                                                                                       
#Mis_translocations              0                                                                                                                0                                                                                                       
#Mis_inversions                  0                                                                                                                0                                                                                                       
#Mis_misassembled contigs        2                                                                                                                2                                                                                                       
Mis_Misassembled contigs length  80702                                                                                                            80702                                                                                                   
#Mis_local misassemblies         1                                                                                                                1                                                                                                       
#mismatches                      127                                                                                                              127                                                                                                     
#indels                          13                                                                                                               13                                                                                                      
#Mis_short indels (<= 5 bp)      13                                                                                                               13                                                                                                      
#Mis_long indels (> 5 bp)        0                                                                                                                0                                                                                                       
Indels length                    13                                                                                                               13                                                                                                      
