All statistics are based on contigs of size >= 200 bp, unless otherwise noted (e.g., "# contigs (>= 0 bp)" and "Total length (>= 0 bp)" include all contigs).

Assembly                       NEWBLER_MIS_PE_sakai_mis-1_bi_2x250bp_SI_default__sakai_mis-2_bi_2x250bp_SI_default.0.45percent.contigs_broken  NEWBLER_MIS_PE_sakai_mis-1_bi_2x250bp_SI_default__sakai_mis-2_bi_2x250bp_SI_default.0.45percent.contigs
#Contigs (>= 0 bp)             162                                                                                                             91                                                                                                     
#Contigs (>= 1000 bp)          136                                                                                                             91                                                                                                     
Total length (>= 0 bp)         5265334                                                                                                         5308367                                                                                                
Total length (>= 1000 bp)      5247477                                                                                                         5308367                                                                                                
#Contigs                       162                                                                                                             91                                                                                                     
Largest contig                 353648                                                                                                          375314                                                                                                 
Total length                   5265334                                                                                                         5308367                                                                                                
Reference length               5594470                                                                                                         5594470                                                                                                
GC (%)                         50.24                                                                                                           50.24                                                                                                  
Reference GC (%)               50.48                                                                                                           50.48                                                                                                  
N50                            120678                                                                                                          148119                                                                                                 
NG50                           120472                                                                                                          146497                                                                                                 
N75                            66896                                                                                                           75640                                                                                                  
NG75                           44988                                                                                                           73291                                                                                                  
#misassemblies                 3                                                                                                               14                                                                                                     
#local misassemblies           5                                                                                                               65                                                                                                     
#unaligned contigs             1 + 0 part                                                                                                      1 + 0 part                                                                                             
Unaligned contigs length       5386                                                                                                            5386                                                                                                   
Genome fraction (%)            93.133                                                                                                          93.913                                                                                                 
Duplication ratio              1.000                                                                                                           1.008                                                                                                  
#N's per 100 kbp               0.00                                                                                                            810.66                                                                                                 
#mismatches per 100 kbp        1.63                                                                                                            2.95                                                                                                   
#indels per 100 kbp            0.29                                                                                                            0.44                                                                                                   
#genes                         4929 + 118 part                                                                                                 4958 + 134 part                                                                                        
#predicted genes (unique)      5091                                                                                                            5074                                                                                                   
#predicted genes (>= 0 bp)     5091                                                                                                            5074                                                                                                   
#predicted genes (>= 300 bp)   4350                                                                                                            4350                                                                                                   
#predicted genes (>= 1500 bp)  666                                                                                                             666                                                                                                    
#predicted genes (>= 3000 bp)  68                                                                                                              67                                                                                                     
Largest alignment              353648                                                                                                          362177                                                                                                 
NA50                           120678                                                                                                          147910                                                                                                 
NGA50                          120472                                                                                                          145593                                                                                                 
NA75                           65126                                                                                                           75040                                                                                                  
NGA75                          44988                                                                                                           66113                                                                                                  
