Assembly	ABYSS_PE_PGM_mtbh37_pgm_400bp_es_318v2_OT2_tsv3.6_morestringent.0.600percent_38.final
#Mis_misassemblies	1
#Mis_relocations	1
#Mis_translocations	0
#Mis_inversions	0
#Mis_misassembled contigs	1
Mis_Misassembled contigs length	1756
#Mis_local misassemblies	3
#mismatches	123
#indels	702
#Mis_short indels (<= 5 bp)	701
#Mis_long indels (> 5 bp)	1
Indels length	742
