Assembly	SOAP2_MIS_PE_mtbh37-1_mis_2x250bp_nextera_default_59.final.scaf_broken	SOAP2_MIS_PE_mtbh37-1_mis_2x250bp_nextera_default_59.final.scaf
#Contigs (>= 0 bp)	144748	144738
#Contigs (>= 1000 bp)	43	43
Total length (>= 0 bp)	31446224	31447148
Total length (>= 1000 bp)	52173	52173
#Contigs	95142	95145
Largest contig	1777	1777
Total length	23312283	23315002
Reference length	4411532	4411532
GC (%)	70.83	70.83
Reference GC (%)	65.61	65.61
N50	247	247
NG50	282	282
N75	224	224
NG75	251	251
#misassemblies	0	0
#local misassemblies	1	7
#unaligned contigs	85704 + 13 part	85706 + 14 part
Unaligned contigs length	20124288	20125570
Genome fraction (%)	68.395	68.413
Duplication ratio	1.055	1.055
#N's per 100 kbp	0.00	3.96
#mismatches per 100 kbp	7.72	7.72
#indels per 100 kbp	0.60	0.60
#genes	206 + 3599 part	206 + 3599 part
#predicted genes (unique)	61535	61540
#predicted genes (>= 0 bp)	61635	61640
#predicted genes (>= 300 bp)	3258	3257
#predicted genes (>= 1500 bp)	0	0
#predicted genes (>= 3000 bp)	0	0
Largest alignment	1777	1777
NA50	None	None
NGA50	279	279
NA75	None	None
NGA75	None	None
