All statistics are based on contigs of size >= 200 bp, unless otherwise noted (e.g., "# contigs (>= 0 bp)" and "Total length (>= 0 bp)" include all contigs).

Assembly                          VELVET_MIS_PE_mtbh37-1_mis_2x250bp_nextera_default__mtbh37-2_mis_2x250bp_nextera_default_51.final.contigs_broken  VELVET_MIS_PE_mtbh37-1_mis_2x250bp_nextera_default__mtbh37-2_mis_2x250bp_nextera_default_51.final.contigs
#Una_fully unaligned contigs      0                                                                                                                 0                                                                                                        
Una_Fully unaligned length        0                                                                                                                 0                                                                                                        
#Una_partially unaligned contigs  5                                                                                                                 4                                                                                                        
#Una_with misassembly             0                                                                                                                 0                                                                                                        
#Una_both parts are significant   1                                                                                                                 2                                                                                                        
Una_Partially unaligned length    1166                                                                                                              2417                                                                                                     
#N's                              0                                                                                                                 22414                                                                                                    
