Assembly	GAGE_Contigs #	GAGE_Min contig	GAGE_Max contig	GAGE_N50	GAGE_Genome size	GAGE_Assembly size	GAGE_Chaff bases	GAGE_Missing reference bases	GAGE_Missing assembly bases	GAGE_Missing assembly contigs	GAGE_Duplicated reference bases	GAGE_Compressed reference bases	GAGE_Bad trim	GAGE_Avg idy	GAGE_SNPs	GAGE_Indels < 5bp	GAGE_Indels >= 5	GAGE_Inversions	GAGE_Relocation	GAGE_Translocation	GAGE_Corrected contig #	GAGE_Corrected assembly size	GAGE_Min correct contig	GAGE_Max correct contig	GAGE_Corrected N50
NEWBLER_MIS_PE_mrsa_mis-1_bi_2x150bp_default__mrsa_mis-2_bi_2x150bp_default.0.850percent.contigs_broken	59	858	300399	87121 COUNT: 9	2813862	2762471	0	28051(1.00%)	5386(0.19%)	1(1.69%)	0	29277	0	99.99	30	9	4	0	2	0	63	2757672	858	300399	75450 COUNT: 11
NEWBLER_MIS_PE_mrsa_mis-1_bi_2x150bp_default__mrsa_mis-2_bi_2x150bp_default.0.850percent.contigs	24	4414	856796	309818 COUNT: 3	2813862	2787486	0	28312(1.01%)	30401(1.09%)	1(4.17%)	0	29016	0	99.99	30	9	26	2	7	0	63	2757672	858	300399	75450 COUNT: 11
