Assembly	NEWBLER_MIS_PE_mrsa_mis-1_bi_2x150bp_default__mrsa_mis-2_bi_2x150bp_default.0.850percent.contigs_broken	NEWBLER_MIS_PE_mrsa_mis-1_bi_2x150bp_default__mrsa_mis-2_bi_2x150bp_default.0.850percent.contigs
GAGE_Contigs #	59	24
GAGE_Min contig	858	4414
GAGE_Max contig	300399	856796
GAGE_N50	87121 COUNT: 9	309818 COUNT: 3
GAGE_Genome size	2813862	2813862
GAGE_Assembly size	2762471	2787486
GAGE_Chaff bases	0	0
GAGE_Missing reference bases	28051(1.00%)	28312(1.01%)
GAGE_Missing assembly bases	5386(0.19%)	30401(1.09%)
GAGE_Missing assembly contigs	1(1.69%)	1(4.17%)
GAGE_Duplicated reference bases	0	0
GAGE_Compressed reference bases	29277	29016
GAGE_Bad trim	0	0
GAGE_Avg idy	99.99	99.99
GAGE_SNPs	30	30
GAGE_Indels < 5bp	9	9
GAGE_Indels >= 5	4	26
GAGE_Inversions	0	2
GAGE_Relocation	2	7
GAGE_Translocation	0	0
GAGE_Corrected contig #	63	63
GAGE_Corrected assembly size	2757672	2757672
GAGE_Min correct contig	858	858
GAGE_Max correct contig	300399	300399
GAGE_Corrected N50	75450 COUNT: 11	75450 COUNT: 11
