All statistics are based on contigs of size >= 200 bp, unless otherwise noted (e.g., "# contigs (>= 0 bp)" and "Total length (>= 0 bp)" include all contigs).

Assembly                       NEWBLER_MIS_PE_mrsa_mis-1_bi_2x150bp_default__mrsa_mis-2_bi_2x150bp_default.0.850percent.contigs_broken  NEWBLER_MIS_PE_mrsa_mis-1_bi_2x150bp_default__mrsa_mis-2_bi_2x150bp_default.0.850percent.contigs
#Contigs (>= 0 bp)             59                                                                                                       24                                                                                              
#Contigs (>= 1000 bp)          57                                                                                                       24                                                                                              
Total length (>= 0 bp)         2762471                                                                                                  2787486                                                                                         
Total length (>= 1000 bp)      2760742                                                                                                  2787486                                                                                         
#Contigs                       59                                                                                                       24                                                                                              
Largest contig                 300399                                                                                                   856796                                                                                          
Total length                   2762471                                                                                                  2787486                                                                                         
Reference length               2813862                                                                                                  2813862                                                                                         
GC (%)                         32.67                                                                                                    32.67                                                                                           
Reference GC (%)               32.81                                                                                                    32.81                                                                                           
N50                            87121                                                                                                    309818                                                                                          
NG50                           87121                                                                                                    309818                                                                                          
N75                            50346                                                                                                    133449                                                                                          
NG75                           46005                                                                                                    133449                                                                                          
#misassemblies                 2                                                                                                        2                                                                                               
#local misassemblies           4                                                                                                        39                                                                                              
#unaligned contigs             1 + 0 part                                                                                               1 + 0 part                                                                                      
Unaligned contigs length       5386                                                                                                     5386                                                                                            
Genome fraction (%)            97.787                                                                                                   97.995                                                                                          
Duplication ratio              1.000                                                                                                    1.009                                                                                           
#N's per 100 kbp               0.00                                                                                                     897.40                                                                                          
#mismatches per 100 kbp        1.16                                                                                                     1.38                                                                                            
#indels per 100 kbp            0.36                                                                                                     0.36                                                                                            
#genes                         2653 + 27 part                                                                                           2654 + 28 part                                                                                  
#predicted genes (unique)      2601                                                                                                     2602                                                                                            
#predicted genes (>= 0 bp)     2601                                                                                                     2602                                                                                            
#predicted genes (>= 300 bp)   2274                                                                                                     2274                                                                                            
#predicted genes (>= 1500 bp)  298                                                                                                      298                                                                                             
#predicted genes (>= 3000 bp)  29                                                                                                       29                                                                                              
Largest alignment              300399                                                                                                   850835                                                                                          
NA50                           87121                                                                                                    246782                                                                                          
NGA50                          87121                                                                                                    246782                                                                                          
NA75                           46005                                                                                                    108921                                                                                          
NGA75                          46005                                                                                                    108921                                                                                          
