Assembly	#Contigs	#Contigs (>= 0 bp)	#Contigs (>= 1000 bp)	Largest contig	Total length	Total length (>= 0 bp)	Total length (>= 1000 bp)	Reference length	N50	NG50	N75	NG75	L50	LG50	L75	LG75	#local misassemblies	#misassemblies	#misassembled contigs	Misassembled contigs length	Misassemblies inter-contig overlap	#unaligned contigs	Unaligned contigs length	#ambiguously mapped contigs	Extra bases in ambiguously mapped contigs	#N's	#N's per 100 kbp	Genome fraction (%)	Duplication ratio	#genes	#predicted genes (unique)	#predicted genes (>= 0 bp)	#predicted genes (>= 300 bp)	#predicted genes (>= 1500 bp)	#predicted genes (>= 3000 bp)	#mismatches	#indels	Indels length	#mismatches per 100 kbp	#indels per 100 kbp	GC (%)	Reference GC (%)	Average %IDY	Largest alignment	NA50	NGA50	NA75	NGA75	LA50	LGA50	LA75	LGA75	#Mis_misassemblies	#Mis_relocations	#Mis_translocations	#Mis_inversions	#Mis_misassembled contigs	Mis_Misassembled contigs length	#Mis_local misassemblies	#Mis_short indels (<= 5 bp)	#Mis_long indels (> 5 bp)	#Una_fully unaligned contigs	Una_Fully unaligned length	#Una_partially unaligned contigs	#Una_with misassembly	#Una_both parts are significant	Una_Partially unaligned length	GAGE_Contigs #	GAGE_Min contig	GAGE_Max contig	GAGE_N50	GAGE_Genome size	GAGE_Assembly size	GAGE_Chaff bases	GAGE_Missing reference bases	GAGE_Missing assembly bases	GAGE_Missing assembly contigs	GAGE_Duplicated reference bases	GAGE_Compressed reference bases	GAGE_Bad trim	GAGE_Avg idy	GAGE_SNPs	GAGE_Indels < 5bp	GAGE_Indels >= 5	GAGE_Inversions	GAGE_Relocation	GAGE_Translocation	GAGE_Corrected contig #	GAGE_Corrected assembly size	GAGE_Min correct contig	GAGE_Max correct contig	GAGE_Corrected N50
NEWBLER_MIS_PE_mrsa_mis-1_bi_2x150bp_default__mrsa_mis-2_bi_2x150bp_default.0.850percent.contigs_broken	59	59	57	300399	2762471	2762471	2760742	2813862	87121	87121	50346	46005	9	9	19	20	4	2	2	72588	681	1 + 0 part	5386	4	-5876	0	0.00	97.787	1.000	2653 + 27 part	2601	2601	2274	298	29	32	10	11	1.16	0.36	32.67	32.81	99.052	300399	87121	87121	46005	46005	9	9	20	20	2	2	0	0	2	72588	4	10	0	1	5386	0	0	0	0	59	858	300399	87121 COUNT: 9	2813862	2762471	0	28051(1.00%)	5386(0.19%)	1(1.69%)	0	29277	0	99.99	30	9	4	0	2	0	63	2757672	858	300399	75450 COUNT: 11
NEWBLER_MIS_PE_mrsa_mis-1_bi_2x150bp_default__mrsa_mis-2_bi_2x150bp_default.0.850percent.contigs	24	24	24	856796	2787486	2787486	2787486	2813862	309818	309818	133449	133449	3	3	7	7	39	2	2	314232	681	1 + 0 part	5386	0	0	25015	897.40	97.995	1.009	2654 + 28 part	2602	2602	2274	298	29	38	10	11	1.38	0.36	32.67	32.81	99.052	850835	246782	246782	108921	108921	3	3	8	8	2	2	0	0	2	314232	39	10	0	1	5386	0	0	0	0	24	4414	856796	309818 COUNT: 3	2813862	2787486	0	28312(1.01%)	30401(1.09%)	1(4.17%)	0	29016	0	99.99	30	9	26	2	7	0	63	2757672	858	300399	75450 COUNT: 11
