All statistics are based on contigs of size >= 200 bp, unless otherwise noted (e.g., "# contigs (>= 0 bp)" and "Total length (>= 0 bp)" include all contigs).

Assembly                                                                                                 #Contigs (>= 0 bp)  #Contigs (>= 1000 bp)  Total length (>= 0 bp)  Total length (>= 1000 bp)  #Contigs  Largest contig  Total length  Reference length  GC (%)  Reference GC (%)  N50     NG50    N75     NG75    #misassemblies  #local misassemblies  #unaligned contigs  Unaligned contigs length  Genome fraction (%)  Duplication ratio  #N's per 100 kbp  #mismatches per 100 kbp  #indels per 100 kbp  #genes          #predicted genes (unique)  #predicted genes (>= 0 bp)  #predicted genes (>= 300 bp)  #predicted genes (>= 1500 bp)  #predicted genes (>= 3000 bp)  Largest alignment  NA50    NGA50   NA75    NGA75 
NEWBLER_MIS_PE_mrsa_mis-1_bi_2x150bp_default__mrsa_mis-2_bi_2x150bp_default.0.850percent.contigs_broken  59                  57                     2762471                 2760742                    59        300399          2762471       2813862           32.67   32.81             87121   87121   50346   46005   2               4                     1 + 0 part          5386                      97.787               1.000              0.00              1.16                     0.36                 2653 + 27 part  2601                       2601                        2274                          298                            29                             300399             87121   87121   46005   46005 
NEWBLER_MIS_PE_mrsa_mis-1_bi_2x150bp_default__mrsa_mis-2_bi_2x150bp_default.0.850percent.contigs         24                  24                     2787486                 2787486                    24        856796          2787486       2813862           32.67   32.81             309818  309818  133449  133449  2               39                    1 + 0 part          5386                      97.995               1.009              897.40            1.38                     0.36                 2654 + 28 part  2602                       2602                        2274                          298                            29                             850835             246782  246782  108921  108921
