Assembly	VELVET_PGM_mrsa_pgm_400bp_es_318_IKA_ts3.2_morestringent.0.165percent_63.final.contigs
#Contigs	7768
#Contigs (>= 0 bp)	49270
#Contigs (>= 1000 bp)	0
Largest contig	430
Total length	1767074
Total length (>= 0 bp)	8427863
Total length (>= 1000 bp)	0
Reference length	2813862
N50	222
NG50	207
N75	209
NG75	None
L50	3545
LG50	5995
L75	5603
LG75	None
#local misassemblies	0
#misassemblies	0
#misassembled contigs	0
Misassembled contigs length	0
Misassemblies inter-contig overlap	0
#unaligned contigs	7742 + 2 part
Unaligned contigs length	1761047
#ambiguously mapped contigs	0
Extra bases in ambiguously mapped contigs	0
#N's	0
#N's per 100 kbp	0.00
Genome fraction (%)	0.214
Duplication ratio	0.999
#genes	2 + 21 part
#predicted genes (unique)	5341
#predicted genes (>= 0 bp)	5343
#predicted genes (>= 300 bp)	0
#predicted genes (>= 1500 bp)	0
#predicted genes (>= 3000 bp)	0
#mismatches	2
#indels	31
Indels length	31
#mismatches per 100 kbp	33.16
#indels per 100 kbp	513.93
GC (%)	31.81
Reference GC (%)	32.81
Average %IDY	99.467
Largest alignment	302
NA50	None
NGA50	None
NA75	None
NGA75	None
LA50	None
LGA50	None
LA75	None
LGA75	None
#Mis_misassemblies	0
#Mis_relocations	0
#Mis_translocations	0
#Mis_inversions	0
#Mis_misassembled contigs	0
Mis_Misassembled contigs length	0
#Mis_local misassemblies	0
#Mis_short indels (<= 5 bp)	31
#Mis_long indels (> 5 bp)	0
#Una_fully unaligned contigs	7742
Una_Fully unaligned length	1760932
#Una_partially unaligned contigs	2
#Una_with misassembly	0
#Una_both parts are significant	0
Una_Partially unaligned length	115
GAGE_Contigs #	7768
GAGE_Min contig	200
GAGE_Max contig	430
GAGE_N50	207 COUNT: 5995
GAGE_Genome size	2813862
GAGE_Assembly size	1767074
GAGE_Chaff bases	0
GAGE_Missing reference bases	1600932(56.89%)
GAGE_Missing assembly bases	184347(10.43%)
GAGE_Missing assembly contigs	698(8.99%)
GAGE_Duplicated reference bases	191845
GAGE_Compressed reference bases	28117
GAGE_Bad trim	22130
GAGE_Avg idy	97.26
GAGE_SNPs	1701
GAGE_Indels < 5bp	26495
GAGE_Indels >= 5	6
GAGE_Inversions	4
GAGE_Relocation	2
GAGE_Translocation	1
GAGE_Corrected contig #	5648
GAGE_Corrected assembly size	1285783
GAGE_Min correct contig	200
GAGE_Max correct contig	405
GAGE_Corrected N50	0 COUNT: 0
