All statistics are based on contigs of size >= 200 bp, unless otherwise noted (e.g., "# contigs (>= 0 bp)" and "Total length (>= 0 bp)" include all contigs).

Assembly                                                                                                         #Contigs  #Contigs (>= 0 bp)  #Contigs (>= 1000 bp)  Largest contig  Total length  Total length (>= 0 bp)  Total length (>= 1000 bp)  Reference length  N50    NG50   N75    NG75   L50  LG50  L75  LG75  #local misassemblies  #misassemblies  #misassembled contigs  Misassembled contigs length  Misassemblies inter-contig overlap  #unaligned contigs  Unaligned contigs length  #ambiguously mapped contigs  Extra bases in ambiguously mapped contigs  #N's  #N's per 100 kbp  Genome fraction (%)  Duplication ratio  #genes          #predicted genes (unique)  #predicted genes (>= 0 bp)  #predicted genes (>= 300 bp)  #predicted genes (>= 1500 bp)  #predicted genes (>= 3000 bp)  #mismatches  #indels  Indels length  #mismatches per 100 kbp  #indels per 100 kbp  GC (%)  Reference GC (%)  Average %IDY  Largest alignment  NA50   NGA50  NA75   NGA75  LA50  LGA50  LA75  LGA75  #Mis_misassemblies  #Mis_relocations  #Mis_translocations  #Mis_inversions  #Mis_misassembled contigs  Mis_Misassembled contigs length  #Mis_local misassemblies  #Mis_short indels (<= 5 bp)  #Mis_long indels (> 5 bp)  #Una_fully unaligned contigs  Una_Fully unaligned length  #Una_partially unaligned contigs  #Una_with misassembly  #Una_both parts are significant  Una_Partially unaligned length  GAGE_Contigs #  GAGE_Min contig  GAGE_Max contig  GAGE_N50         GAGE_Genome size  GAGE_Assembly size  GAGE_Chaff bases  GAGE_Missing reference bases  GAGE_Missing assembly bases  GAGE_Missing assembly contigs  GAGE_Duplicated reference bases  GAGE_Compressed reference bases  GAGE_Bad trim  GAGE_Avg idy  GAGE_SNPs  GAGE_Indels < 5bp  GAGE_Indels >= 5  GAGE_Inversions  GAGE_Relocation  GAGE_Translocation  GAGE_Corrected contig #  GAGE_Corrected assembly size  GAGE_Min correct contig  GAGE_Max correct contig  GAGE_Corrected N50
VELVET_MIS_PE_mrsa_mis-1_bi_2x250bp_default__mrsa_mis-2_bi_2x250bp_default.0.460percent_33.final.contigs_broken  196       436                 154                    81147           2749109       2771369                 2730336                    2813862           30433  30092  18986  18304  27   29    56   58    14                    7               5                      166054                       2282                                5 + 1 part          6099                      13                           -9825                                      0     0.00              97.099               1.001              2545 + 97 part  2685                       2685                        2288                          292                            28                             343          176      286            12.55                    6.44                 32.66   32.81             99.488        81147              29979  29597  18304  16127  28    29     58    61     7                   7                 0                    0                5                          166054                           14                        174                          2                          5                             5802                        1                                 0                      1                                297                             196             206              81147            30092 COUNT: 29  2813862           2749109             0                 35278(1.25%)                  6062(0.22%)                  5(2.55%)                       1290                             38378                            260            99.98         303        42                 10                1                9                0                   207                      2744112                       210                      81147                    25817 COUNT: 33   
VELVET_MIS_PE_mrsa_mis-1_bi_2x250bp_default__mrsa_mis-2_bi_2x250bp_default.0.460percent_33.final.contigs         151       390                 124                    144455          2750138       2772286                 2738976                    2813862           45777  40612  23630  21657  20   21    43   45    32                    8               5                      177646                       2818                                3 + 2 part          6671                      13                           -9825                                      917   33.34             97.129               1.001              2558 + 85 part  2675                       2675                        2290                          291                            28                             392          205      782            14.34                    7.50                 32.66   32.81             99.394        144040             39426  37828  21657  20833  21    22     45    47     8                   8                 0                    0                5                          177646                           32                        182                          23                         3                             4998                        2                                 0                      2                                1673                            151             206              144455           40612 COUNT: 21  2813862           2750138             0                 34095(1.21%)                  6096(0.22%)                  3(1.99%)                       1290                             38453                            2              99.98         303        56                 42                2                16               0                   204                      2745142                       210                      90780                    26857 COUNT: 31   
