Assembly	SOAP2_MIS_PE_mtbh37-1_mis_2x250bp_nextera_default_83.final.scaf_broken	SOAP2_MIS_PE_mtbh37-1_mis_2x250bp_nextera_default_83.final.scaf
#Una_fully unaligned contigs	53318	53323
Una_Fully unaligned length	13368823	13371836
#Una_partially unaligned contigs	2557	2556
#Una_with misassembly	0	0
#Una_both parts are significant	0	0
Una_Partially unaligned length	263582	265142
#N's	23	892
