Assembly	GAGE_Contigs #	GAGE_Min contig	GAGE_Max contig	GAGE_N50	GAGE_Genome size	GAGE_Assembly size	GAGE_Chaff bases	GAGE_Missing reference bases	GAGE_Missing assembly bases	GAGE_Missing assembly contigs	GAGE_Duplicated reference bases	GAGE_Compressed reference bases	GAGE_Bad trim	GAGE_Avg idy	GAGE_SNPs	GAGE_Indels < 5bp	GAGE_Indels >= 5	GAGE_Inversions	GAGE_Relocation	GAGE_Translocation	GAGE_Corrected contig #	GAGE_Corrected assembly size	GAGE_Min correct contig	GAGE_Max correct contig	GAGE_Corrected N50
ABYSS_PE_MIS_PE_mtbh37-1_mis_2x250bp_nextera_default__mtbh37-2_mis_2x250bp_nextera_default_116-scaffolds_broken	226	205	118591	48595 COUNT: 30	4411532	4416235	0	32509(0.74%)	1079(0.02%)	0(0.00%)	14661	27024	1051	99.99	206	72	22	0	3	0	237	4404660	221	118590	41238 COUNT: 35
ABYSS_PE_MIS_PE_mtbh37-1_mis_2x250bp_nextera_default__mtbh37-2_mis_2x250bp_nextera_default_116-scaffolds	176	205	162945	66065 COUNT: 22	4411532	4418721	0	32201(0.73%)	3265(0.07%)	0(0.00%)	14661	27024	1051	99.98	206	94	64	0	3	0	229	4404968	221	149861	42050 COUNT: 32
