Assembly	VELVET_PGM_sakai_pgm_mu_318_400bp_IO_TS3.4_ms_0.395percent_149.final.contigs
GAGE_Contigs #	7165
GAGE_Min contig	297
GAGE_Max contig	5196
GAGE_N50	427 COUNT: 3834
GAGE_Genome size	5594470
GAGE_Assembly size	3951434
GAGE_Chaff bases	0
GAGE_Missing reference bases	1810311(32.36%)
GAGE_Missing assembly bases	49(0.00%)
GAGE_Missing assembly contigs	0(0.00%)
GAGE_Duplicated reference bases	149091
GAGE_Compressed reference bases	188715
GAGE_Bad trim	45
GAGE_Avg idy	99.97
GAGE_SNPs	56
GAGE_Indels < 5bp	1019
GAGE_Indels >= 5	1
GAGE_Inversions	40
GAGE_Relocation	10
GAGE_Translocation	12
GAGE_Corrected contig #	6760
GAGE_Corrected assembly size	3788239
GAGE_Min correct contig	200
GAGE_Max correct contig	5194
GAGE_Corrected N50	421 COUNT: 3868
