Assembly	ABYSS_PE_PGM_mtbh37_pgm_400bp_es_318v2_OT2_tsv3.6_morestringent_128-unitigs
#Una_fully unaligned contigs	5
Una_Fully unaligned length	1332
#Una_partially unaligned contigs	1
#Una_with misassembly	0
#Una_both parts are significant	1
Una_Partially unaligned length	314
#N's	0
