Assembly	SEQMAN_MIS_PE_mtbh37-1_mis_2x250bp_nextera_default__mtbh37-2_mis_2x250bp_nextera_default
#Contigs (>= 0 bp)	109
#Contigs (>= 1000 bp)	106
Total length (>= 0 bp)	4411318
Total length (>= 1000 bp)	4408954
#Contigs	109
Largest contig	196727
Total length	4411318
Reference length	4411532
GC (%)	65.61
Reference GC (%)	65.61
N50	88017
NG50	88017
N75	53818
NG75	53818
#misassemblies	10
#local misassemblies	11
#unaligned contigs	0 + 4 part
Unaligned contigs length	1432
Genome fraction (%)	99.403
Duplication ratio	1.017
#N's per 100 kbp	0.97
#mismatches per 100 kbp	9.69
#indels per 100 kbp	1.94
#genes	4001 + 105 part
#predicted genes (unique)	4074
#predicted genes (>= 0 bp)	4094
#predicted genes (>= 300 bp)	3577
#predicted genes (>= 1500 bp)	588
#predicted genes (>= 3000 bp)	82
Largest alignment	196708
NA50	74967
NGA50	74967
NA75	50489
NGA75	50489
