All statistics are based on contigs of size >= 200 bp, unless otherwise noted (e.g., "# contigs (>= 0 bp)" and "Total length (>= 0 bp)" include all contigs).

Assembly                          ABYSS_PE_MIS_PE_sakai_mis-2_bi_2x150bp_default__sakai_mis-1_bi_2x150bp_default.0.975percent_58.final_broken  ABYSS_PE_MIS_PE_sakai_mis-2_bi_2x150bp_default__sakai_mis-1_bi_2x150bp_default.0.975percent_58.final
#Una_fully unaligned contigs      0                                                                                                            1                                                                                                   
Una_Fully unaligned length        0                                                                                                            1093                                                                                                
#Una_partially unaligned contigs  0                                                                                                            1                                                                                                   
#Una_with misassembly             0                                                                                                            0                                                                                                   
#Una_both parts are significant   0                                                                                                            0                                                                                                   
Una_Partially unaligned length    0                                                                                                            2005                                                                                                
#N's                              48                                                                                                           3601                                                                                                
