Assembly	ABYSS_PE_MIS_PE_sakai_mis-both_bi_2x250bp_SI_default.0.64percent.NEWBLER_40-scaffolds_broken	ABYSS_PE_MIS_PE_sakai_mis-both_bi_2x250bp_SI_default.0.64percent.NEWBLER_40-scaffolds
#Contigs	308	262
#Contigs (>= 0 bp)	1684	1631
#Contigs (>= 1000 bp)	211	190
Largest contig	235223	235223
Total length	5358817	5362052
Total length (>= 0 bp)	5474595	5477119
Total length (>= 1000 bp)	5308111	5324355
Reference length	5594470	5594470
N50	75621	87529
NG50	74927	81557
N75	32735	41491
NG75	28459	32735
L50	22	20
LG50	23	22
L75	48	42
LG75	54	47
#local misassemblies	9	25
#misassemblies	3	10
#misassembled contigs	3	8
Misassembled contigs length	133186	218600
Misassemblies inter-contig overlap	41216	42099
#unaligned contigs	0 + 0 part	3 + 0 part
Unaligned contigs length	0	3359
#ambiguously mapped contigs	45	26
Extra bases in ambiguously mapped contigs	-45272	-27049
#N's	139	2663
#N's per 100 kbp	2.59	49.66
Genome fraction (%)	94.357	94.622
Duplication ratio	1.014	1.015
#genes	4921 + 176 part	4944 + 167 part
#predicted genes (unique)	5183	5174
#predicted genes (>= 0 bp)	5256	5246
#predicted genes (>= 300 bp)	4432	4432
#predicted genes (>= 1500 bp)	672	673
#predicted genes (>= 3000 bp)	65	65
#mismatches	794	970
#indels	45	132
Indels length	330	727
#mismatches per 100 kbp	15.04	18.32
#indels per 100 kbp	0.85	2.49
GC (%)	50.31	50.31
Reference GC (%)	50.48	50.48
Average %IDY	99.234	99.161
Largest alignment	235223	235223
NA50	74927	81557
NGA50	72394	75621
NA75	30981	41207
NGA75	28289	31623
LA50	22	21
LGA50	23	22
LA75	49	43
LGA75	55	48
#Mis_misassemblies	3	10
#Mis_relocations	3	10
#Mis_translocations	0	0
#Mis_inversions	0	0
#Mis_misassembled contigs	3	8
Mis_Misassembled contigs length	133186	218600
#Mis_local misassemblies	9	25
#Mis_short indels (<= 5 bp)	33	108
#Mis_long indels (> 5 bp)	12	24
#Una_fully unaligned contigs	0	3
Una_Fully unaligned length	0	3359
#Una_partially unaligned contigs	0	0
#Una_with misassembly	0	0
#Una_both parts are significant	0	0
Una_Partially unaligned length	0	0
GAGE_Contigs #	308	262
GAGE_Min contig	201	201
GAGE_Max contig	235223	235223
GAGE_N50	74927 COUNT: 23	81557 COUNT: 22
GAGE_Genome size	5594470	5594470
GAGE_Assembly size	5358817	5362052
GAGE_Chaff bases	0	0
GAGE_Missing reference bases	124931(2.23%)	128085(2.29%)
GAGE_Missing assembly bases	56(0.00%)	2892(0.05%)
GAGE_Missing assembly contigs	0(0.00%)	0(0.00%)
GAGE_Duplicated reference bases	6788	7222
GAGE_Compressed reference bases	186217	188690
GAGE_Bad trim	40	231
GAGE_Avg idy	99.97	99.96
GAGE_SNPs	578	683
GAGE_Indels < 5bp	26	44
GAGE_Indels >= 5	17	43
GAGE_Inversions	2	8
GAGE_Relocation	2	8
GAGE_Translocation	0	0
GAGE_Corrected contig #	320	311
GAGE_Corrected assembly size	5354025	5354767
GAGE_Min correct contig	201	201
GAGE_Max correct contig	235222	235222
GAGE_Corrected N50	60553 COUNT: 27	60553 COUNT: 27
