All statistics are based on contigs of size >= 200 bp, unless otherwise noted (e.g., "# contigs (>= 0 bp)" and "Total length (>= 0 bp)" include all contigs).

Assembly                                                                      #Mis_misassemblies  #Mis_relocations  #Mis_translocations  #Mis_inversions  #Mis_misassembled contigs  Mis_Misassembled contigs length  #Mis_local misassemblies  #mismatches  #indels  #Mis_short indels (<= 5 bp)  #Mis_long indels (> 5 bp)  Indels length
SOAP2_MIS_PE_mrsa_mis-1_bi_2x250bp_default.0.460percent_39.final.scaf_broken  1                   1                 0                    0                1                          1584                             34                        33           493      362                          131                        4572         
SOAP2_MIS_PE_mrsa_mis-1_bi_2x250bp_default.0.460percent_39.final.scaf         1                   1                 0                    0                1                          1921                             281                       30           2028     1665                         363                        11455        
