All statistics are based on contigs of size >= 200 bp, unless otherwise noted (e.g., "# contigs (>= 0 bp)" and "Total length (>= 0 bp)" include all contigs).

Assembly                                                                                                         GAGE_Contigs #  GAGE_Min contig  GAGE_Max contig  GAGE_N50         GAGE_Genome size  GAGE_Assembly size  GAGE_Chaff bases  GAGE_Missing reference bases  GAGE_Missing assembly bases  GAGE_Missing assembly contigs  GAGE_Duplicated reference bases  GAGE_Compressed reference bases  GAGE_Bad trim  GAGE_Avg idy  GAGE_SNPs  GAGE_Indels < 5bp  GAGE_Indels >= 5  GAGE_Inversions  GAGE_Relocation  GAGE_Translocation  GAGE_Corrected contig #  GAGE_Corrected assembly size  GAGE_Min correct contig  GAGE_Max correct contig  GAGE_Corrected N50
ABYSS_PE_MIS_PE_mtbh37-1_mis_2x250bp_nextera_default__mtbh37-2_mis_2x250bp_nextera_default_128-scaffolds_broken  254             209              129779           37190 COUNT: 35  4411532           4415639             0                 45661(1.04%)                  1076(0.02%)                  0(0.00%)                       16301                            7580                             1058           99.99         226        61                 22                0                2                0                   264                      4402967                       247                      101714                   31325 COUNT: 41   
ABYSS_PE_MIS_PE_mtbh37-1_mis_2x250bp_nextera_default__mtbh37-2_mis_2x250bp_nextera_default_128-scaffolds         207             209              149768           51205 COUNT: 27  4411532           4417972             0                 45445(1.03%)                  3189(0.07%)                  0(0.00%)                       16301                            7580                             1058           99.98         226        83                 61                0                2                0                   256                      4403183                       247                      101714                   33709 COUNT: 38   
