Assembly	NEWBLER_PGM_mrsa_pgm_400bp_es_318_IKA_ts3.2_morestringent.0.150percent.contigs
#Mis_misassemblies	2
#Mis_relocations	2
#Mis_translocations	0
#Mis_inversions	0
#Mis_misassembled contigs	2
Mis_Misassembled contigs length	189980
#Mis_local misassemblies	9
#mismatches	140
#indels	292
#Mis_short indels (<= 5 bp)	291
#Mis_long indels (> 5 bp)	1
Indels length	303
