1: PREPARING DATA
2,3: RUNNING mummer AND CREATING CLUSTERS
# reading input file "/vol/codine-tmp/juene/tmp.ifBcBlNTyC/quast/contigs_reports/nucmer_output/SOAP2_MIS_PE_mtbh37-1_mis_2x250bp_nextera_default_95.final.scaf_broken.ntref" of length 4411533
# construct suffix tree for sequence of length 4411533
# (maximum reference length is 536870908)
# (maximum query length is 4294967295)
# process 44115 characters per dot
#....................................................................................................
# CONSTRUCTIONTIME /vol/ngscomparison/software/analysis/quast-2.1/libs/MUMmer3.23-linux/mummer /vol/codine-tmp/juene/tmp.ifBcBlNTyC/quast/contigs_reports/nucmer_output/SOAP2_MIS_PE_mtbh37-1_mis_2x250bp_nextera_default_95.final.scaf_broken.ntref 2.49
# reading input file "/vol/codine-tmp/juene/tmp.ifBcBlNTyC/quast/corrected_input/SOAP2_MIS_PE_mtbh37-1_mis_2x250bp_nextera_default_95.final.scaf_broken" of length 4327434
# matching query-file "/vol/codine-tmp/juene/tmp.ifBcBlNTyC/quast/corrected_input/SOAP2_MIS_PE_mtbh37-1_mis_2x250bp_nextera_default_95.final.scaf_broken"
# against subject-file "/vol/codine-tmp/juene/tmp.ifBcBlNTyC/quast/contigs_reports/nucmer_output/SOAP2_MIS_PE_mtbh37-1_mis_2x250bp_nextera_default_95.final.scaf_broken.ntref"
# COMPLETETIME /vol/ngscomparison/software/analysis/quast-2.1/libs/MUMmer3.23-linux/mummer /vol/codine-tmp/juene/tmp.ifBcBlNTyC/quast/contigs_reports/nucmer_output/SOAP2_MIS_PE_mtbh37-1_mis_2x250bp_nextera_default_95.final.scaf_broken.ntref 7.96
# SPACE /vol/ngscomparison/software/analysis/quast-2.1/libs/MUMmer3.23-linux/mummer /vol/codine-tmp/juene/tmp.ifBcBlNTyC/quast/contigs_reports/nucmer_output/SOAP2_MIS_PE_mtbh37-1_mis_2x250bp_nextera_default_95.final.scaf_broken.ntref 8.48
4: FINISHING DATA
