Assembly	#Mis_misassemblies	#Mis_relocations	#Mis_translocations	#Mis_inversions	#Mis_misassembled contigs	Mis_Misassembled contigs length	#Mis_local misassemblies	#mismatches	#indels	#Mis_short indels (<= 5 bp)	#Mis_long indels (> 5 bp)	Indels length
SOAP2_MIS_PE_mtbh37-1_mis_2x250bp_nextera_default_95.final.scaf_broken	2	2	0	0	2	1850	16	230	122	109	13	479
SOAP2_MIS_PE_mtbh37-1_mis_2x250bp_nextera_default_95.final.scaf	4	4	0	0	4	19265	419	235	1848	1737	111	4996
