All statistics are based on contigs of size >= 200 bp, unless otherwise noted (e.g., "# contigs (>= 0 bp)" and "Total length (>= 0 bp)" include all contigs).

Assembly                                                                                                         GAGE_Contigs #  GAGE_Min contig  GAGE_Max contig  GAGE_N50         GAGE_Genome size  GAGE_Assembly size  GAGE_Chaff bases  GAGE_Missing reference bases  GAGE_Missing assembly bases  GAGE_Missing assembly contigs  GAGE_Duplicated reference bases  GAGE_Compressed reference bases  GAGE_Bad trim  GAGE_Avg idy  GAGE_SNPs  GAGE_Indels < 5bp  GAGE_Indels >= 5  GAGE_Inversions  GAGE_Relocation  GAGE_Translocation  GAGE_Corrected contig #  GAGE_Corrected assembly size  GAGE_Min correct contig  GAGE_Max correct contig  GAGE_Corrected N50
VELVET_MIS_PE_mrsa_mis-1_bi_2x250bp_default__mrsa_mis-2_bi_2x250bp_default.0.460percent_71.final.contigs_broken  129             211              126484           65068 COUNT: 17  2813862           2781734             0                 5715(0.20%)                   4835(0.17%)                  3(2.33%)                       1027                             39108                            11             99.99         79         19                 5                 1                3                0                   131                      2777317                       211                      126484                   59564 COUNT: 18   
VELVET_MIS_PE_mrsa_mis-1_bi_2x250bp_default__mrsa_mis-2_bi_2x250bp_default.0.460percent_71.final.contigs         107             211              305395           72556 COUNT: 13  2813862           2782352             0                 5687(0.20%)                   5413(0.19%)                  2(1.87%)                       1027                             39026                            10             99.99         79         27                 14                1                6                0                   127                      2777351                       211                      126484                   65068 COUNT: 17   
