Assembly	NEWBLER_MIS_PE_mrsa_mis-1_bi_2x250bp_default__mrsa_mis-2_bi_2x250bp_default.0.990percent.contigs_broken	NEWBLER_MIS_PE_mrsa_mis-1_bi_2x250bp_default__mrsa_mis-2_bi_2x250bp_default.0.990percent.contigs
#Contigs (>= 0 bp)	46	23
#Contigs (>= 1000 bp)	41	23
Total length (>= 0 bp)	2771987	2782313
Total length (>= 1000 bp)	2768881	2782313
#Contigs	46	23
Largest contig	713105	1141952
Total length	2771987	2782313
Reference length	2813862	2813862
GC (%)	32.67	32.67
Reference GC (%)	32.81	32.81
N50	156961	192405
NG50	156961	192405
N75	68272	112344
NG75	68272	112344
#misassemblies	2	3
#local misassemblies	0	22
#unaligned contigs	1 + 0 part	1 + 0 part
Unaligned contigs length	5386	5386
Genome fraction (%)	98.108	98.243
Duplication ratio	1.000	1.004
#N's per 100 kbp	0.00	371.13
#mismatches per 100 kbp	1.09	1.19
#indels per 100 kbp	0.33	0.33
#genes	2649 + 25 part	2649 + 28 part
#predicted genes (unique)	2618	2620
#predicted genes (>= 0 bp)	2619	2621
#predicted genes (>= 300 bp)	2285	2285
#predicted genes (>= 1500 bp)	300	300
#predicted genes (>= 3000 bp)	29	29
Largest alignment	713105	1139300
NA50	149906	191882
NGA50	149906	191882
NA75	68272	109110
NGA75	59455	109110
