calling: java -cp /vol/ngscomparison/software/analysis/quast-2.1/libs/gage:. SizeFasta /vol/codine-tmp/juene/tmp.p1fa0CqMHi/quast/corrected_input/Ecoli_Sakai_editedNew_plasmids.fasta |awk '{SUM+=; print SUM}'|tail -n 1
Contig Stats
Total units: 222
Reference: 5594470
BasesInFasta: 5558250
Min: 200
Max: 376804
N10: 353707 COUNT: 2
N25: 246441 COUNT: 5
N50: 146586 COUNT: 13
N75: 73827 COUNT: 27
E-size:157452.96

Genome Size: 5594470
Assembly Size: 5558250
Chaff bases: 0
Missing Reference Bases: 11419(0.20%)
Missing Assembly Bases: 2773(0.05%)
Missing Assembly Contigs: 0(0.00%)
Duplicated Reference Bases: 20997
Compressed Reference Bases: 213497
Bad Trim: 412
Avg Idy: 99.97
SNPs: 767
Indels < 5bp: 47
Indels >= 5: 32
Inversions: 10
Relocation: 8
Translocation: 1

Corrected Contig Stats
calling: java -cp /vol/ngscomparison/software/analysis/quast-2.1/libs/gage:.:. GetFastaStats -o -min 199 -genomeSize 5594470 /vol/codine-tmp/juene/tmp.p1fa0CqMHi/quast/gage/tmp/ABYSS_PE_MIS_PE_sakai_mis-1_bi_2x150bp_default__sakai_mis-2_bi_2x150bp_default.0.826percent_86-scaffolds.matches.lens 2> /dev/null
Total units: 263
Reference: 5594470
BasesInFasta: 5537688
Min: 200
Max: 245298
N10: 218909 COUNT: 3
N25: 143127 COUNT: 8
N50: 92077 COUNT: 20
N75: 41518 COUNT: 41
E-size:100387.17

Done
