Assembly	SOAP2_PGM_mtbh37_pgm_400bp_es_318v2_OT2_tsv3.6_morestringent_39.final.contig
#Contigs (>= 0 bp)	346125
#Contigs (>= 1000 bp)	3
Total length (>= 0 bp)	22335673
Total length (>= 1000 bp)	3196
#Contigs	1603
Largest contig	1083
Total length	437341
Reference length	4411532
GC (%)	69.41
Reference GC (%)	65.61
N50	260
NG50	None
N75	223
NG75	None
#misassemblies	0
#local misassemblies	1
#unaligned contigs	82 + 4 part
Unaligned contigs length	19170
Genome fraction (%)	9.446
Duplication ratio	1.002
#N's per 100 kbp	0.00
#mismatches per 100 kbp	10.80
#indels per 100 kbp	63.35
#genes	6 + 1099 part
#predicted genes (unique)	1486
#predicted genes (>= 0 bp)	1486
#predicted genes (>= 300 bp)	247
#predicted genes (>= 1500 bp)	0
#predicted genes (>= 3000 bp)	0
Largest alignment	1083
NA50	258
NGA50	None
NA75	221
NGA75	None
