1: PREPARING DATA
2,3: RUNNING mummer AND CREATING CLUSTERS
# reading input file "/vol/codine-tmp/juene/tmp.LOj7wOo8u3/quast/gage/tmp/ABYSS_PE_PGM_sakai_pgm_mu_318_400bp_IO_TS3.4_ms.0.65percent_122.final.ntref" of length 5594473
# construct suffix tree for sequence of length 5594473
# (maximum reference length is 536870908)
# (maximum query length is 4294967295)
# process 55944 characters per dot
#....................................................................................................
# CONSTRUCTIONTIME /vol/ngscomparison/software/analysis/quast-2.1/libs/MUMmer3.23-linux/mummer /vol/codine-tmp/juene/tmp.LOj7wOo8u3/quast/gage/tmp/ABYSS_PE_PGM_sakai_pgm_mu_318_400bp_IO_TS3.4_ms.0.65percent_122.final.ntref 3.67
# reading input file "/vol/codine-tmp/juene/tmp.LOj7wOo8u3/quast/corrected_input/ABYSS_PE_PGM_sakai_pgm_mu_318_400bp_IO_TS3.4_ms.0.65percent_122.final" of length 5882515
# matching query-file "/vol/codine-tmp/juene/tmp.LOj7wOo8u3/quast/corrected_input/ABYSS_PE_PGM_sakai_pgm_mu_318_400bp_IO_TS3.4_ms.0.65percent_122.final"
# against subject-file "/vol/codine-tmp/juene/tmp.LOj7wOo8u3/quast/gage/tmp/ABYSS_PE_PGM_sakai_pgm_mu_318_400bp_IO_TS3.4_ms.0.65percent_122.final.ntref"
# COMPLETETIME /vol/ngscomparison/software/analysis/quast-2.1/libs/MUMmer3.23-linux/mummer /vol/codine-tmp/juene/tmp.LOj7wOo8u3/quast/gage/tmp/ABYSS_PE_PGM_sakai_pgm_mu_318_400bp_IO_TS3.4_ms.0.65percent_122.final.ntref 11.78
# SPACE /vol/ngscomparison/software/analysis/quast-2.1/libs/MUMmer3.23-linux/mummer /vol/codine-tmp/juene/tmp.LOj7wOo8u3/quast/gage/tmp/ABYSS_PE_PGM_sakai_pgm_mu_318_400bp_IO_TS3.4_ms.0.65percent_122.final.ntref 11.19
4: FINISHING DATA
Filtering alignments
Extracting alignment coordinates
Analyzing SNPs
Extracting alignment breakpoints
Generating report file
Found genome size at position 4 with value 5594470 aka 5594470
Calculating point at 0 and the sum is 1018664 and i is2065 and lens is 2106 and length is 18871
Calculating point at 1 and the sum is 2010771 and i is2001 and lens is 2106 and length is 12578
Calculating point at 2 and the sum is 3006574 and i is1904 and lens is 2106 and length is 8424
Calculating point at 3 and the sum is 4004264 and i is1754 and lens is 2106 and length is 5207
Calculating point at 4 and the sum is 5000715 and i is1408 and lens is 2106 and length is 1346
