All statistics are based on contigs of size >= 200 bp, unless otherwise noted (e.g., "# contigs (>= 0 bp)" and "Total length (>= 0 bp)" include all contigs).

Assembly                       NEWBLER_MIS_PE_mtbh37-1_mis_2x250bp_nextera_default__mtbh37-2_mis_2x250bp_nextera_default.0.975percent.contigs_broken  NEWBLER_MIS_PE_mtbh37-1_mis_2x250bp_nextera_default__mtbh37-2_mis_2x250bp_nextera_default.0.975percent.contigs
#Contigs (>= 0 bp)             129                                                                                                                    56                                                                                                            
#Contigs (>= 1000 bp)          125                                                                                                                    56                                                                                                            
Total length (>= 0 bp)         4323909                                                                                                                4361604                                                                                                       
Total length (>= 1000 bp)      4320930                                                                                                                4361604                                                                                                       
#Contigs                       129                                                                                                                    56                                                                                                            
Largest contig                 187160                                                                                                                 437817                                                                                                        
Total length                   4323909                                                                                                                4361604                                                                                                       
Reference length               4411532                                                                                                                4411532                                                                                                       
GC (%)                         65.58                                                                                                                  65.58                                                                                                         
Reference GC (%)               65.61                                                                                                                  65.61                                                                                                         
N50                            65297                                                                                                                  150497                                                                                                        
NG50                           64342                                                                                                                  150497                                                                                                        
N75                            42111                                                                                                                  84313                                                                                                         
NG75                           40163                                                                                                                  74585                                                                                                         
#misassemblies                 0                                                                                                                      1                                                                                                             
#local misassemblies           7                                                                                                                      78                                                                                                            
#unaligned contigs             0 + 2 part                                                                                                             0 + 0 part                                                                                                    
Unaligned contigs length       124                                                                                                                    0                                                                                                             
Genome fraction (%)            97.857                                                                                                                 97.986                                                                                                        
Duplication ratio              1.005                                                                                                                  1.017                                                                                                         
#N's per 100 kbp               0.00                                                                                                                   864.25                                                                                                        
#mismatches per 100 kbp        3.52                                                                                                                   3.40                                                                                                          
#indels per 100 kbp            0.86                                                                                                                   1.97                                                                                                          
#genes                         3941 + 95 part                                                                                                         3945 + 94 part                                                                                                
#predicted genes (unique)      4000                                                                                                                   3995                                                                                                          
#predicted genes (>= 0 bp)     4001                                                                                                                   3995                                                                                                          
#predicted genes (>= 300 bp)   3517                                                                                                                   3520                                                                                                          
#predicted genes (>= 1500 bp)  576                                                                                                                    575                                                                                                           
#predicted genes (>= 3000 bp)  77                                                                                                                     78                                                                                                            
Largest alignment              187160                                                                                                                 434741                                                                                                        
NA50                           65297                                                                                                                  150497                                                                                                        
NGA50                          64342                                                                                                                  136702                                                                                                        
NA75                           42111                                                                                                                  74525                                                                                                         
NGA75                          40163                                                                                                                  74525                                                                                                         
