Assembly	VELVET_MIS_PE_sakai_mis-1_bi_2x150bp_default__sakai_mis-2_bi_2x150bp_default.0.826percent_57.final.contigs_broken	VELVET_MIS_PE_sakai_mis-1_bi_2x150bp_default__sakai_mis-2_bi_2x150bp_default.0.826percent_57.final.contigs
GAGE_Contigs #	431	321
GAGE_Min contig	201	201
GAGE_Max contig	251824	374916
GAGE_N50	69674 COUNT: 24	148290 COUNT: 12
GAGE_Genome size	5594470	5594470
GAGE_Assembly size	5364775	5371438
GAGE_Chaff bases	0	0
GAGE_Missing reference bases	36180(0.65%)	35796(0.64%)
GAGE_Missing assembly bases	5466(0.10%)	11080(0.21%)
GAGE_Missing assembly contigs	1(0.23%)	1(0.31%)
GAGE_Duplicated reference bases	15761	16137
GAGE_Compressed reference bases	256778	256270
GAGE_Bad trim	24	634
GAGE_Avg idy	99.99	99.98
GAGE_SNPs	274	282
GAGE_Indels < 5bp	24	57
GAGE_Indels >= 5	9	68
GAGE_Inversions	0	2
GAGE_Relocation	4	10
GAGE_Translocation	0	0
GAGE_Corrected contig #	395	385
GAGE_Corrected assembly size	5345649	5346323
GAGE_Min correct contig	201	201
GAGE_Max correct contig	251227	251227
GAGE_Corrected N50	59779 COUNT: 27	63619 COUNT: 26
