All statistics are based on contigs of size >= 200 bp, unless otherwise noted (e.g., "# contigs (>= 0 bp)" and "Total length (>= 0 bp)" include all contigs).

Assembly                          ABYSS_PE_MIS_PE_mtbh37-1_mis_2x250bp_nextera_default__mtbh37-2_mis_2x250bp_nextera_default.0.900percent_84.final_broken  ABYSS_PE_MIS_PE_mtbh37-1_mis_2x250bp_nextera_default__mtbh37-2_mis_2x250bp_nextera_default.0.900percent_84.final
#Una_fully unaligned contigs      0                                                                                                                        0                                                                                                               
Una_Fully unaligned length        0                                                                                                                        0                                                                                                               
#Una_partially unaligned contigs  0                                                                                                                        0                                                                                                               
#Una_with misassembly             0                                                                                                                        0                                                                                                               
#Una_both parts are significant   0                                                                                                                        0                                                                                                               
Una_Partially unaligned length    0                                                                                                                        0                                                                                                               
#N's                              43                                                                                                                       2111                                                                                                            
