All statistics are based on contigs of size >= 200 bp, unless otherwise noted (e.g., "# contigs (>= 0 bp)" and "Total length (>= 0 bp)" include all contigs).

Assembly                                                                                                   GAGE_Contigs #  GAGE_Min contig  GAGE_Max contig  GAGE_N50         GAGE_Genome size  GAGE_Assembly size  GAGE_Chaff bases  GAGE_Missing reference bases  GAGE_Missing assembly bases  GAGE_Missing assembly contigs  GAGE_Duplicated reference bases  GAGE_Compressed reference bases  GAGE_Bad trim  GAGE_Avg idy  GAGE_SNPs  GAGE_Indels < 5bp  GAGE_Indels >= 5  GAGE_Inversions  GAGE_Relocation  GAGE_Translocation  GAGE_Corrected contig #  GAGE_Corrected assembly size  GAGE_Min correct contig  GAGE_Max correct contig  GAGE_Corrected N50
ABYSS_PE_MIS_PE_mrsa_mis-1_bi_2x150bp_default__mrsa_mis-2_bi_2x150bp_default.0.350percent_74.final_broken  84              216              233801           73474 COUNT: 11  2813862           2786804             0                 2534(0.09%)                   1(0.00%)                     0(0.00%)                       471                              35975                            0              99.99         74         15                 4                 1                2                0                   89                       2787967                       216                      180306                   69387 COUNT: 12   
ABYSS_PE_MIS_PE_mrsa_mis-1_bi_2x150bp_default__mrsa_mis-2_bi_2x150bp_default.0.350percent_74.final         69              216              233801           88201 COUNT: 10  2813862           2787731             0                 2534(0.09%)                   928(0.03%)                   0(0.00%)                       471                              35975                            0              99.99         74         15                 13                1                4                0                   89                       2787967                       216                      180306                   69387 COUNT: 12   
