Assembly	VELVET_PGM_mrsa_pgm_200bp_es_316_IonOnev2_ts3.0_morestringent.0.230percent_139.final.contigs
#Contigs	2272
#Contigs (>= 0 bp)	2272
#Contigs (>= 1000 bp)	143
Largest contig	3088
Total length	1409605
Total length (>= 0 bp)	1409605
Total length (>= 1000 bp)	179717
Reference length	2813862
N50	611
NG50	285
N75	499
NG75	None
L50	848
LG50	2263
L75	1491
LG75	None
#local misassemblies	0
#misassemblies	10
#misassembled contigs	10
Misassembled contigs length	5702
Misassemblies inter-contig overlap	310
#unaligned contigs	0 + 79 part
Unaligned contigs length	2089
#ambiguously mapped contigs	16
Extra bases in ambiguously mapped contigs	-6633
#N's	0
#N's per 100 kbp	0.00
Genome fraction (%)	48.141
Duplication ratio	1.034
#genes	246 + 1643 part
#predicted genes (unique)	2909
#predicted genes (>= 0 bp)	2909
#predicted genes (>= 300 bp)	2012
#predicted genes (>= 1500 bp)	1
#predicted genes (>= 3000 bp)	0
#mismatches	138
#indels	1066
Indels length	1082
#mismatches per 100 kbp	10.19
#indels per 100 kbp	78.69
GC (%)	33.76
Reference GC (%)	32.81
Average %IDY	99.830
Largest alignment	3088
NA50	609
NGA50	None
NA75	496
NGA75	None
LA50	850
LGA50	None
LA75	1497
LGA75	None
#Mis_misassemblies	10
#Mis_relocations	3
#Mis_translocations	0
#Mis_inversions	7
#Mis_misassembled contigs	10
Mis_Misassembled contigs length	5702
#Mis_local misassemblies	0
#Mis_short indels (<= 5 bp)	1066
#Mis_long indels (> 5 bp)	0
#Una_fully unaligned contigs	0
Una_Fully unaligned length	0
#Una_partially unaligned contigs	79
#Una_with misassembly	0
#Una_both parts are significant	0
Una_Partially unaligned length	2089
GAGE_Contigs #	2272
GAGE_Min contig	277
GAGE_Max contig	3088
GAGE_N50	285 COUNT: 2263
GAGE_Genome size	2813862
GAGE_Assembly size	1409605
GAGE_Chaff bases	0
GAGE_Missing reference bases	1421713(50.53%)
GAGE_Missing assembly bases	2781(0.20%)
GAGE_Missing assembly contigs	0(0.00%)
GAGE_Duplicated reference bases	1593
GAGE_Compressed reference bases	39489
GAGE_Bad trim	2781
GAGE_Avg idy	99.90
GAGE_SNPs	117
GAGE_Indels < 5bp	972
GAGE_Indels >= 5	0
GAGE_Inversions	6
GAGE_Relocation	1
GAGE_Translocation	0
GAGE_Corrected contig #	2270
GAGE_Corrected assembly size	1405491
GAGE_Min correct contig	276
GAGE_Max correct contig	3089
GAGE_Corrected N50	0 COUNT: 0
