Assembly	VELVET_PGM_mrsa_pgm_200bp_es_316_IonOnev2_ts3.0_morestringent.0.230percent_139.final.contigs
#Contigs (>= 0 bp)	2272
#Contigs (>= 1000 bp)	143
Total length (>= 0 bp)	1409605
Total length (>= 1000 bp)	179717
#Contigs	2272
Largest contig	3088
Total length	1409605
Reference length	2813862
GC (%)	33.76
Reference GC (%)	32.81
N50	611
NG50	285
N75	499
NG75	None
#misassemblies	10
#local misassemblies	0
#unaligned contigs	0 + 79 part
Unaligned contigs length	2089
Genome fraction (%)	48.141
Duplication ratio	1.034
#N's per 100 kbp	0.00
#mismatches per 100 kbp	10.19
#indels per 100 kbp	78.69
#genes	246 + 1643 part
#predicted genes (unique)	2909
#predicted genes (>= 0 bp)	2909
#predicted genes (>= 300 bp)	2012
#predicted genes (>= 1500 bp)	1
#predicted genes (>= 3000 bp)	0
Largest alignment	3088
NA50	609
NGA50	None
NA75	496
NGA75	None
