Assembly	#Contigs (>= 0 bp)	#Contigs (>= 1000 bp)	Total length (>= 0 bp)	Total length (>= 1000 bp)	#Contigs	Largest contig	Total length	Reference length	GC (%)	Reference GC (%)	N50	NG50	N75	NG75	#misassemblies	#local misassemblies	#unaligned contigs	Unaligned contigs length	Genome fraction (%)	Duplication ratio	#N's per 100 kbp	#mismatches per 100 kbp	#indels per 100 kbp	#genes	#predicted genes (unique)	#predicted genes (>= 0 bp)	#predicted genes (>= 300 bp)	#predicted genes (>= 1500 bp)	#predicted genes (>= 3000 bp)	Largest alignment	NA50	NGA50	NA75	NGA75
SOAP2_MIS_PE_mtbh37-1_mis_2x250bp_nextera_default_15.final.scaf_broken	6788	0	737273	0	151	344	34314	4411532	54.93	65.61	222	None	209	None	0	0	72 + 13 part	16986	0.392	1.001	145.71	138.67	52.00	0 + 55 part	112	112	1	0	0	338	100	None	None	None
SOAP2_MIS_PE_mtbh37-1_mis_2x250bp_nextera_default_15.final.scaf	5091	50	926931	75419	842	5155	417402	4411532	60.75	65.61	575	None	367	None	5	196	240 + 409 part	239848	2.291	1.758	45422.64	350.96	50.28	2 + 384 part	848	848	13	0	0	1101	None	None	None	None
