1: PREPARING DATA
2,3: RUNNING mummer AND CREATING CLUSTERS
# reading input file "/vol/codine-tmp/juene/tmp.8e0lcI3n7t/quast/gage/tmp/VELVET_MIS_PE_sakai_mis-1_bi_2x150bp_default__sakai_mis-2_bi_2x150bp_default.0.826percent_121.final.contigs_broken.ntref" of length 5594473
# construct suffix tree for sequence of length 5594473
# (maximum reference length is 536870908)
# (maximum query length is 4294967295)
# process 55944 characters per dot
#....................................................................................................
# CONSTRUCTIONTIME /vol/ngscomparison/software/analysis/quast-2.1/libs/MUMmer3.23-linux/mummer /vol/codine-tmp/juene/tmp.8e0lcI3n7t/quast/gage/tmp/VELVET_MIS_PE_sakai_mis-1_bi_2x150bp_default__sakai_mis-2_bi_2x150bp_default.0.826percent_121.final.contigs_broken.ntref 3.03
# reading input file "/vol/codine-tmp/juene/tmp.8e0lcI3n7t/quast/corrected_input/VELVET_MIS_PE_sakai_mis-1_bi_2x150bp_default__sakai_mis-2_bi_2x150bp_default.0.826percent_121.final.contigs_broken" of length 5417973
# matching query-file "/vol/codine-tmp/juene/tmp.8e0lcI3n7t/quast/corrected_input/VELVET_MIS_PE_sakai_mis-1_bi_2x150bp_default__sakai_mis-2_bi_2x150bp_default.0.826percent_121.final.contigs_broken"
# against subject-file "/vol/codine-tmp/juene/tmp.8e0lcI3n7t/quast/gage/tmp/VELVET_MIS_PE_sakai_mis-1_bi_2x150bp_default__sakai_mis-2_bi_2x150bp_default.0.826percent_121.final.contigs_broken.ntref"
# COMPLETETIME /vol/ngscomparison/software/analysis/quast-2.1/libs/MUMmer3.23-linux/mummer /vol/codine-tmp/juene/tmp.8e0lcI3n7t/quast/gage/tmp/VELVET_MIS_PE_sakai_mis-1_bi_2x150bp_default__sakai_mis-2_bi_2x150bp_default.0.826percent_121.final.contigs_broken.ntref 9.59
# SPACE /vol/ngscomparison/software/analysis/quast-2.1/libs/MUMmer3.23-linux/mummer /vol/codine-tmp/juene/tmp.8e0lcI3n7t/quast/gage/tmp/VELVET_MIS_PE_sakai_mis-1_bi_2x150bp_default__sakai_mis-2_bi_2x150bp_default.0.826percent_121.final.contigs_broken.ntref 10.73
4: FINISHING DATA
Filtering alignments
Extracting alignment coordinates
Analyzing SNPs
Extracting alignment breakpoints
Generating report file
Found genome size at position 4 with value 5594470 aka 5594470
Calculating point at 0 and the sum is 1005375 and i is1458 and lens is 1517 and length is 12709
Calculating point at 1 and the sum is 2008263 and i is1359 and lens is 1517 and length is 8425
Calculating point at 2 and the sum is 3001550 and i is1219 and lens is 1517 and length is 5989
Calculating point at 3 and the sum is 4002830 and i is1004 and lens is 1517 and length is 3730
Calculating point at 4 and the sum is 5000506 and i is611 and lens is 1517 and length is 1492
