calling: java -cp /vol/ngscomparison/software/analysis/quast-2.1/libs/gage:. SizeFasta /vol/codine-tmp/juene/tmp.Nk22qb8kNv/quast/corrected_input/Ecoli_Sakai_editedNew_plasmids.fasta |awk '{SUM+=; print SUM}'|tail -n 1
Contig Stats
Total units: 2709
Reference: 5594470
BasesInFasta: 5630483
Min: 200
Max: 38912
N10: 22551 COUNT: 21
N25: 15161 COUNT: 68
N50: 9403 COUNT: 187
N75: 4187 COUNT: 412
E-size:10645.48

Genome Size: 5594470
Assembly Size: 5630483
Chaff bases: 0
Missing Reference Bases: 20832(0.37%)
Missing Assembly Bases: 184(0.00%)
Missing Assembly Contigs: 0(0.00%)
Duplicated Reference Bases: 168736
Compressed Reference Bases: 272636
Bad Trim: 184
Avg Idy: 99.96
SNPs: 63
Indels < 5bp: 1947
Indels >= 5: 1
Inversions: 0
Relocation: 3
Translocation: 0

Corrected Contig Stats
calling: java -cp /vol/ngscomparison/software/analysis/quast-2.1/libs/gage:.:. GetFastaStats -o -min 199 -genomeSize 5594470 /vol/codine-tmp/juene/tmp.Nk22qb8kNv/quast/gage/tmp/ABYSS_PE_PGM_sakai_pgm_mu_200bp_IO_TS3.0Disabled_stringent.0.34percent_108-unitigs.matches.lens 2> /dev/null
Total units: 1930
Reference: 5594470
BasesInFasta: 5463316
Min: 200
Max: 38924
N10: 22556 COUNT: 21
N25: 15043 COUNT: 68
N50: 9373 COUNT: 188
N75: 4188 COUNT: 413
E-size:10616.1

Done
