Assembly	SOAP2_PGM_mrsa_pgm_400bp_es_318_IKA_ts3.2_morestringent.0.165percent_13.final.contig
GAGE_Contigs #	1
GAGE_Min contig	212
GAGE_Max contig	212
GAGE_N50	0 COUNT: 0
GAGE_Genome size	2813862
GAGE_Assembly size	212
GAGE_Chaff bases	0
GAGE_Missing reference bases	2813862(100.00%)
GAGE_Missing assembly bases	212(100.00%)
GAGE_Missing assembly contigs	1(100.00%)
GAGE_Duplicated reference bases	0
GAGE_Compressed reference bases	0
GAGE_Bad trim	0
GAGE_Avg idy	0.00
GAGE_SNPs	0
GAGE_Indels < 5bp	0
GAGE_Indels >= 5	0
GAGE_Inversions	0
GAGE_Relocation	0
GAGE_Translocation	0
