Assembly	GAGE_Contigs #	GAGE_Min contig	GAGE_Max contig	GAGE_N50	GAGE_Genome size	GAGE_Assembly size	GAGE_Chaff bases	GAGE_Missing reference bases	GAGE_Missing assembly bases	GAGE_Missing assembly contigs	GAGE_Duplicated reference bases	GAGE_Compressed reference bases	GAGE_Bad trim	GAGE_Avg idy	GAGE_SNPs	GAGE_Indels < 5bp	GAGE_Indels >= 5	GAGE_Inversions	GAGE_Relocation	GAGE_Translocation	GAGE_Corrected contig #	GAGE_Corrected assembly size	GAGE_Min correct contig	GAGE_Max correct contig	GAGE_Corrected N50
VELVET_MIS_PE_mtbh37-1_mis_2x250bp_nextera_default__mtbh37-2_mis_2x250bp_nextera_default_39.final.contigs_broken	547	202	52320	15051 COUNT: 95	4411532	4250054	0	116887(2.65%)	3571(0.08%)	4(0.73%)	2683	55199	1507	99.97	808	86	32	0	16	0	587	4249703	216	52320	13383 COUNT: 106
VELVET_MIS_PE_mtbh37-1_mis_2x250bp_nextera_default__mtbh37-2_mis_2x250bp_nextera_default_39.final.contigs	233	202	155848	45270 COUNT: 29	4411532	4271995	0	113380(2.57%)	22098(0.52%)	2(0.86%)	2761	55115	1304	99.92	791	209	302	2	29	0	543	4250958	216	82556	14860 COUNT: 93
