All statistics are based on contigs of size >= 200 bp, unless otherwise noted (e.g., "# contigs (>= 0 bp)" and "Total length (>= 0 bp)" include all contigs).

Assembly                         ABYSS_PE_MIS_PE_mrsa_mis-1_bi_2x150bp_default__mrsa_mis-2_bi_2x150bp_default.26coverage_32.final_broken  ABYSS_PE_MIS_PE_mrsa_mis-1_bi_2x150bp_default__mrsa_mis-2_bi_2x150bp_default.26coverage_32.final
#Mis_misassemblies               3                                                                                                        2                                                                                               
#Mis_relocations                 3                                                                                                        2                                                                                               
#Mis_translocations              0                                                                                                        0                                                                                               
#Mis_inversions                  0                                                                                                        0                                                                                               
#Mis_misassembled contigs        3                                                                                                        2                                                                                               
Mis_Misassembled contigs length  49533                                                                                                    46600                                                                                           
#Mis_local misassemblies         0                                                                                                        2                                                                                               
#mismatches                      102                                                                                                      102                                                                                             
#indels                          8                                                                                                        68                                                                                              
#Mis_short indels (<= 5 bp)      7                                                                                                        66                                                                                              
#Mis_long indels (> 5 bp)        1                                                                                                        2                                                                                               
Indels length                    33                                                                                                       117                                                                                             
