Assembly	SOAP2_PGM_mrsa_pgm_400bp_es_318_IKA_ts3.2_morestringent.0.165percent_103.final.contig
#Contigs	42751
#Contigs (>= 0 bp)	94388
#Contigs (>= 1000 bp)	4
Largest contig	1118
Total length	11708554
Total length (>= 0 bp)	18756580
Total length (>= 1000 bp)	4204
Reference length	2813862
N50	318
NG50	385
N75	204
NG75	369
L50	16175
LG50	3301
L75	28274
LG75	5168
#local misassemblies	2
#misassemblies	226
#misassembled contigs	226
Misassembled contigs length	76840
Misassemblies inter-contig overlap	627
#unaligned contigs	1330 + 417 part
Unaligned contigs length	500342
#ambiguously mapped contigs	460
Extra bases in ambiguously mapped contigs	-107281
#N's	0
#N's per 100 kbp	0.00
Genome fraction (%)	98.432
Duplication ratio	4.008
#genes	316 + 2394 part
#predicted genes (unique)	39964
#predicted genes (>= 0 bp)	40417
#predicted genes (>= 300 bp)	1240
#predicted genes (>= 1500 bp)	0
#predicted genes (>= 3000 bp)	0
#mismatches	2613
#indels	38643
Indels length	39768
#mismatches per 100 kbp	94.34
#indels per 100 kbp	1395.18
GC (%)	32.45
Reference GC (%)	32.81
Average %IDY	98.839
Largest alignment	1118
NA50	311
NGA50	380
NA75	203
NGA75	364
LA50	16432
LGA50	3332
LA75	29607
LGA75	5224
#Mis_misassemblies	226
#Mis_relocations	211
#Mis_translocations	14
#Mis_inversions	1
#Mis_misassembled contigs	226
Mis_Misassembled contigs length	76840
#Mis_local misassemblies	2
#Mis_short indels (<= 5 bp)	38643
#Mis_long indels (> 5 bp)	0
#Una_fully unaligned contigs	1330
Una_Fully unaligned length	470900
#Una_partially unaligned contigs	417
#Una_with misassembly	0
#Una_both parts are significant	2
Una_Partially unaligned length	29442
GAGE_Contigs #	42751
GAGE_Min contig	200
GAGE_Max contig	1118
GAGE_N50	385 COUNT: 3301
GAGE_Genome size	2813862
GAGE_Assembly size	11708554
GAGE_Chaff bases	0
GAGE_Missing reference bases	12654(0.45%)
GAGE_Missing assembly bases	308760(2.64%)
GAGE_Missing assembly contigs	552(1.29%)
GAGE_Duplicated reference bases	7683446
GAGE_Compressed reference bases	41598
GAGE_Bad trim	111474
GAGE_Avg idy	99.63
GAGE_SNPs	324
GAGE_Indels < 5bp	8125
GAGE_Indels >= 5	1
GAGE_Inversions	2
GAGE_Relocation	2
GAGE_Translocation	0
GAGE_Corrected contig #	14970
GAGE_Corrected assembly size	3687489
GAGE_Min correct contig	200
GAGE_Max correct contig	1118
GAGE_Corrected N50	256 COUNT: 4009
