Assembly	#Mis_misassemblies	#Mis_relocations	#Mis_translocations	#Mis_inversions	#Mis_misassembled contigs	Mis_Misassembled contigs length	#Mis_local misassemblies	#mismatches	#indels	#Mis_short indels (<= 5 bp)	#Mis_long indels (> 5 bp)	Indels length
SOAP2_MIS_PE_mtbh37-1_mis_2x250bp_nextera_default_113.final.scaf_broken	16	4	0	12	16	24150	18	450	67	60	7	321
SOAP2_MIS_PE_mtbh37-1_mis_2x250bp_nextera_default_113.final.scaf	16	4	0	12	16	127418	463	441	1143	1063	80	3199
