Assembly	ABYSS_PE_PGM_sakai_pgm_mu_200bp_IO_TS3.0Disabled_stringent.0.34percent_54-unitigs
#Contigs (>= 0 bp)	6238
#Contigs (>= 1000 bp)	726
Total length (>= 0 bp)	5718346
Total length (>= 1000 bp)	5039443
#Contigs	1189
Largest contig	55093
Total length	5238915
Reference length	5594470
GC (%)	50.22
Reference GC (%)	50.48
N50	10229
NG50	9677
N75	5442
NG75	4496
#misassemblies	2
#local misassemblies	6
#unaligned contigs	0 + 1 part
Unaligned contigs length	47
Genome fraction (%)	92.490
Duplication ratio	1.001
#N's per 100 kbp	0.00
#mismatches per 100 kbp	1.55
#indels per 100 kbp	23.17
#genes	4297 + 698 part
#predicted genes (unique)	6213
#predicted genes (>= 0 bp)	6213
#predicted genes (>= 300 bp)	4791
#predicted genes (>= 1500 bp)	508
#predicted genes (>= 3000 bp)	33
Largest alignment	55093
NA50	10184
NGA50	9677
NA75	5442
NGA75	4496
