Assembly	CLC_PGM_sakai_pgm_mu_318_400bp_IO_TS3.4_ms.86coverage.result
#Contigs	940
#Contigs (>= 0 bp)	940
#Contigs (>= 1000 bp)	309
Largest contig	161216
Total length	5448266
Total length (>= 0 bp)	5448266
Total length (>= 1000 bp)	5226245
Reference length	5594470
N50	35049
NG50	34284
N75	16449
NG75	14231
L50	48
LG50	50
L75	104
LG75	111
#local misassemblies	5
#misassemblies	5
#misassembled contigs	5
Misassembled contigs length	103069
Misassemblies inter-contig overlap	2777
#unaligned contigs	6 + 3 part
Unaligned contigs length	2050
#ambiguously mapped contigs	143
Extra bases in ambiguously mapped contigs	-83407
#N's	503
#N's per 100 kbp	9.23
Genome fraction (%)	94.319
Duplication ratio	1.017
#genes	4817 + 307 part
#predicted genes (unique)	5906
#predicted genes (>= 0 bp)	5928
#predicted genes (>= 300 bp)	4600
#predicted genes (>= 1500 bp)	620
#predicted genes (>= 3000 bp)	58
#mismatches	143
#indels	542
Indels length	550
#mismatches per 100 kbp	2.71
#indels per 100 kbp	10.27
GC (%)	50.32
Reference GC (%)	50.48
Average %IDY	98.915
Largest alignment	161216
NA50	34795
NGA50	33347
NA75	16235
NGA75	14140
LA50	48
LGA50	50
LA75	105
LGA75	112
#Mis_misassemblies	5
#Mis_relocations	5
#Mis_translocations	0
#Mis_inversions	0
#Mis_misassembled contigs	5
Mis_Misassembled contigs length	103069
#Mis_local misassemblies	5
#Mis_short indels (<= 5 bp)	542
#Mis_long indels (> 5 bp)	0
#Una_fully unaligned contigs	6
Una_Fully unaligned length	1806
#Una_partially unaligned contigs	3
#Una_with misassembly	0
#Una_both parts are significant	0
Una_Partially unaligned length	244
GAGE_Contigs #	940
GAGE_Min contig	200
GAGE_Max contig	161216
GAGE_N50	34284 COUNT: 50
GAGE_Genome size	5594470
GAGE_Assembly size	5448266
GAGE_Chaff bases	0
GAGE_Missing reference bases	67729(1.21%)
GAGE_Missing assembly bases	1864(0.03%)
GAGE_Missing assembly contigs	4(0.43%)
GAGE_Duplicated reference bases	104424
GAGE_Compressed reference bases	229144
GAGE_Bad trim	533
GAGE_Avg idy	99.99
GAGE_SNPs	96
GAGE_Indels < 5bp	514
GAGE_Indels >= 5	2
GAGE_Inversions	2
GAGE_Relocation	5
GAGE_Translocation	0
GAGE_Corrected contig #	609
GAGE_Corrected assembly size	5344030
GAGE_Min correct contig	200
GAGE_Max correct contig	161220
GAGE_Corrected N50	33347 COUNT: 50
