Assembly	ABYSS_PE_PGM_sakai_pgm_mu_200bp_IO_TS3.0Disabled_stringent.61coverage_120.final
GAGE_Contigs #	2932
GAGE_Min contig	200
GAGE_Max contig	48106
GAGE_N50	9729 COUNT: 180
GAGE_Genome size	5594470
GAGE_Assembly size	5737218
GAGE_Chaff bases	0
GAGE_Missing reference bases	17167(0.31%)
GAGE_Missing assembly bases	165(0.00%)
GAGE_Missing assembly contigs	0(0.00%)
GAGE_Duplicated reference bases	241887
GAGE_Compressed reference bases	272235
GAGE_Bad trim	165
GAGE_Avg idy	99.96
GAGE_SNPs	79
GAGE_Indels < 5bp	1709
GAGE_Indels >= 5	3
GAGE_Inversions	0
GAGE_Relocation	2
GAGE_Translocation	0
GAGE_Corrected contig #	1918
GAGE_Corrected assembly size	5496248
GAGE_Min correct contig	200
GAGE_Max correct contig	48119
GAGE_Corrected N50	9670 COUNT: 182
