Assembly	VELVET_MIS_PE_sakai_mis-both_bi_2x250bp_SI_default.0.64percent_103.final.contigs_broken	VELVET_MIS_PE_sakai_mis-both_bi_2x250bp_SI_default.0.64percent_103.final.contigs
#Contigs	1003	674
#Contigs (>= 0 bp)	1008	674
#Contigs (>= 1000 bp)	595	314
Largest contig	69882	118918
Total length	5402962	5436630
Total length (>= 0 bp)	5403515	5436630
Total length (>= 1000 bp)	5246983	5306193
Reference length	5594470	5594470
N50	13532	31307
NG50	13003	31084
N75	7476	16273
NG75	6923	15040
L50	123	51
LG50	131	54
L75	254	108
LG75	274	116
#local misassemblies	3	250
#misassemblies	6	20
#misassembled contigs	6	17
Misassembled contigs length	74234	227303
Misassemblies inter-contig overlap	2414	2817
#unaligned contigs	1 + 0 part	1 + 0 part
Unaligned contigs length	5176	5176
#ambiguously mapped contigs	283	279
Extra bases in ambiguously mapped contigs	-117563	-114778
#N's	0	33115
#N's per 100 kbp	0.00	609.11
Genome fraction (%)	94.292	94.363
Duplication ratio	1.001	1.008
#genes	4610 + 593 part	4669 + 536 part
#predicted genes (unique)	5869	5804
#predicted genes (>= 0 bp)	5884	5819
#predicted genes (>= 300 bp)	4655	4654
#predicted genes (>= 1500 bp)	612	617
#predicted genes (>= 3000 bp)	52	52
#mismatches	192	243
#indels	25	1193
Indels length	39	2373
#mismatches per 100 kbp	3.64	4.60
#indels per 100 kbp	0.47	22.60
GC (%)	50.32	50.32
Reference GC (%)	50.48	50.48
Average %IDY	99.008	98.986
Largest alignment	69882	117852
NA50	13484	30837
NGA50	12961	29402
NA75	7450	15590
NGA75	6873	14633
LA50	124	52
LGA50	132	55
LA75	256	112
LGA75	276	119
#Mis_misassemblies	6	20
#Mis_relocations	6	20
#Mis_translocations	0	0
#Mis_inversions	0	0
#Mis_misassembled contigs	6	17
Mis_Misassembled contigs length	74234	227303
#Mis_local misassemblies	3	250
#Mis_short indels (<= 5 bp)	23	1155
#Mis_long indels (> 5 bp)	2	38
#Una_fully unaligned contigs	1	1
Una_Fully unaligned length	5176	5176
#Una_partially unaligned contigs	0	0
#Una_with misassembly	0	0
#Una_both parts are significant	0	0
Una_Partially unaligned length	0	0
GAGE_Contigs #	1003	674
GAGE_Min contig	205	205
GAGE_Max contig	69882	118918
GAGE_N50	13003 COUNT: 131	31084 COUNT: 54
GAGE_Genome size	5594470	5594470
GAGE_Assembly size	5402962	5436630
GAGE_Chaff bases	0	0
GAGE_Missing reference bases	49885(0.89%)	49359(0.88%)
GAGE_Missing assembly bases	5198(0.10%)	37984(0.70%)
GAGE_Missing assembly contigs	1(0.10%)	1(0.15%)
GAGE_Duplicated reference bases	12675	12457
GAGE_Compressed reference bases	253775	252901
GAGE_Bad trim	22	244
GAGE_Avg idy	99.99	99.99
GAGE_SNPs	105	106
GAGE_Indels < 5bp	17	46
GAGE_Indels >= 5	3	293
GAGE_Inversions	1	7
GAGE_Relocation	5	10
GAGE_Translocation	0	0
GAGE_Corrected contig #	969	963
GAGE_Corrected assembly size	5387229	5388532
GAGE_Min correct contig	205	205
GAGE_Max correct contig	69882	69882
GAGE_Corrected N50	12929 COUNT: 132	13047 COUNT: 129
