1: PREPARING DATA
2,3: RUNNING mummer AND CREATING CLUSTERS
# reading input file "/vol/codine-tmp/juene/tmp.URRz8M1KMY/quast/contigs_reports/nucmer_output/ABYSS_PE_MIS_PE_sakai_mis-2_bi_2x150bp_default__sakai_mis-1_bi_2x150bp_default.0.750percent_50.final_broken.ntref" of length 5594473
# construct suffix tree for sequence of length 5594473
# (maximum reference length is 536870908)
# (maximum query length is 4294967295)
# process 55944 characters per dot
#....................................................................................................
# CONSTRUCTIONTIME /vol/ngscomparison/software/analysis/quast-2.1/libs/MUMmer3.23-linux/mummer /vol/codine-tmp/juene/tmp.URRz8M1KMY/quast/contigs_reports/nucmer_output/ABYSS_PE_MIS_PE_sakai_mis-2_bi_2x150bp_default__sakai_mis-1_bi_2x150bp_default.0.750percent_50.final_broken.ntref 4.05
# reading input file "/vol/codine-tmp/juene/tmp.URRz8M1KMY/quast/corrected_input/ABYSS_PE_MIS_PE_sakai_mis-2_bi_2x150bp_default__sakai_mis-1_bi_2x150bp_default.0.750percent_50.final_broken" of length 5442329
# matching query-file "/vol/codine-tmp/juene/tmp.URRz8M1KMY/quast/corrected_input/ABYSS_PE_MIS_PE_sakai_mis-2_bi_2x150bp_default__sakai_mis-1_bi_2x150bp_default.0.750percent_50.final_broken"
# against subject-file "/vol/codine-tmp/juene/tmp.URRz8M1KMY/quast/contigs_reports/nucmer_output/ABYSS_PE_MIS_PE_sakai_mis-2_bi_2x150bp_default__sakai_mis-1_bi_2x150bp_default.0.750percent_50.final_broken.ntref"
# COMPLETETIME /vol/ngscomparison/software/analysis/quast-2.1/libs/MUMmer3.23-linux/mummer /vol/codine-tmp/juene/tmp.URRz8M1KMY/quast/contigs_reports/nucmer_output/ABYSS_PE_MIS_PE_sakai_mis-2_bi_2x150bp_default__sakai_mis-1_bi_2x150bp_default.0.750percent_50.final_broken.ntref 11.47
# SPACE /vol/ngscomparison/software/analysis/quast-2.1/libs/MUMmer3.23-linux/mummer /vol/codine-tmp/juene/tmp.URRz8M1KMY/quast/contigs_reports/nucmer_output/ABYSS_PE_MIS_PE_sakai_mis-2_bi_2x150bp_default__sakai_mis-1_bi_2x150bp_default.0.750percent_50.final_broken.ntref 10.70
4: FINISHING DATA
