All statistics are based on contigs of size >= 200 bp, unless otherwise noted (e.g., "# contigs (>= 0 bp)" and "Total length (>= 0 bp)" include all contigs).

Assembly                         VELVET_MIS_PE_mrsa_mis-1_bi_2x150bp_default__mrsa_mis-2_bi_2x150bp_default.0.527percent_37.final.contigs_broken  VELVET_MIS_PE_mrsa_mis-1_bi_2x150bp_default__mrsa_mis-2_bi_2x150bp_default.0.527percent_37.final.contigs
#Mis_misassemblies               10                                                                                                               15                                                                                                      
#Mis_relocations                 10                                                                                                               15                                                                                                      
#Mis_translocations              0                                                                                                                0                                                                                                       
#Mis_inversions                  0                                                                                                                0                                                                                                       
#Mis_misassembled contigs        8                                                                                                                11                                                                                                      
Mis_Misassembled contigs length  147881                                                                                                           442805                                                                                                  
#Mis_local misassemblies         13                                                                                                               24                                                                                                      
#mismatches                      455                                                                                                              515                                                                                                     
#indels                          140                                                                                                              378                                                                                                     
#Mis_short indels (<= 5 bp)      133                                                                                                              322                                                                                                     
#Mis_long indels (> 5 bp)        7                                                                                                                56                                                                                                      
Indels length                    251                                                                                                              1570                                                                                                    
