All statistics are based on contigs of size >= 200 bp, unless otherwise noted (e.g., "# contigs (>= 0 bp)" and "Total length (>= 0 bp)" include all contigs).

Assembly                                                                       #Contigs (>= 0 bp)  #Contigs (>= 1000 bp)  Total length (>= 0 bp)  Total length (>= 1000 bp)  #Contigs  Largest contig  Total length  Reference length  GC (%)  Reference GC (%)  N50    NG50   N75    NG75   #misassemblies  #local misassemblies  #unaligned contigs  Unaligned contigs length  Genome fraction (%)  Duplication ratio  #N's per 100 kbp  #mismatches per 100 kbp  #indels per 100 kbp  #genes          #predicted genes (unique)  #predicted genes (>= 0 bp)  #predicted genes (>= 300 bp)  #predicted genes (>= 1500 bp)  #predicted genes (>= 3000 bp)  Largest alignment  NA50   NGA50  NA75   NGA75
SOAP2_MIS_PE_mrsa_mis-1_bi_2x250bp_default.0.460percent_123.final.scaf_broken  1164                79                     2970677                 2768871                    506       237900          2880747       2813862           32.72   32.81             74179  74179  30514  31474  10              1                     3 + 8 part          6180                      98.682               1.028              0.49              1.69                     0.47                 2651 + 59 part  2993                       3006                        2304                          297                            31                             237900             74179  74179  30511  31474
SOAP2_MIS_PE_mrsa_mis-1_bi_2x250bp_default.0.460percent_123.final.scaf         1142                67                     2971303                 2772058                    486       237900          2881724       2813862           32.72   32.81             85171  87220  34873  35888  12              11                    3 + 8 part          6180                      98.695               1.029              22.21             1.62                     1.84                 2655 + 56 part  2989                       2999                        2301                          297                            31                             237900             85171  87220  34873  35888
