Assembly	#Contigs	#Contigs (>= 0 bp)	#Contigs (>= 1000 bp)	Largest contig	Total length	Total length (>= 0 bp)	Total length (>= 1000 bp)	Reference length	N50	NG50	N75	NG75	L50	LG50	L75	LG75	#local misassemblies	#misassemblies	#misassembled contigs	Misassembled contigs length	Misassemblies inter-contig overlap	#unaligned contigs	Unaligned contigs length	#ambiguously mapped contigs	Extra bases in ambiguously mapped contigs	#N's	#N's per 100 kbp	Genome fraction (%)	Duplication ratio	#genes	#predicted genes (unique)	#predicted genes (>= 0 bp)	#predicted genes (>= 300 bp)	#predicted genes (>= 1500 bp)	#predicted genes (>= 3000 bp)	#mismatches	#indels	Indels length	#mismatches per 100 kbp	#indels per 100 kbp	GC (%)	Reference GC (%)	Average %IDY	Largest alignment	NA50	NGA50	NA75	NGA75	LA50	LGA50	LA75	LGA75	#Mis_misassemblies	#Mis_relocations	#Mis_translocations	#Mis_inversions	#Mis_misassembled contigs	Mis_Misassembled contigs length	#Mis_local misassemblies	#Mis_short indels (<= 5 bp)	#Mis_long indels (> 5 bp)	#Una_fully unaligned contigs	Una_Fully unaligned length	#Una_partially unaligned contigs	#Una_with misassembly	#Una_both parts are significant	Una_Partially unaligned length	GAGE_Contigs #	GAGE_Min contig	GAGE_Max contig	GAGE_N50	GAGE_Genome size	GAGE_Assembly size	GAGE_Chaff bases	GAGE_Missing reference bases	GAGE_Missing assembly bases	GAGE_Missing assembly contigs	GAGE_Duplicated reference bases	GAGE_Compressed reference bases	GAGE_Bad trim	GAGE_Avg idy	GAGE_SNPs	GAGE_Indels < 5bp	GAGE_Indels >= 5	GAGE_Inversions	GAGE_Relocation	GAGE_Translocation	GAGE_Corrected contig #	GAGE_Corrected assembly size	GAGE_Min correct contig	GAGE_Max correct contig	GAGE_Corrected N50
CLC_MIS_PE_mtbh37-1_mis_2x250bp_nextera_default__mtbh37-2_mis_2x250bp_nextera_default.0.850percent.result_broken	352	796	120	233015	4403956	4438606	4333045	4411532	83248	83248	41180	41180	20	20	37	37	9	1	1	3618	32374	108 + 28 part	32726	26	-16709	361	8.20	98.245	1.012	3975 + 78 part	4135	4136	3562	583	75	368	70	272	8.49	1.62	65.74	65.61	99.276	232991	83230	83230	41180	41003	20	20	37	38	1	1	0	0	1	3618	9	62	8	108	29625	28	0	2	3101	352	200	233015	83248 COUNT: 20	4411532	4403956	0	12784(0.29%)	33346(0.76%)	107(30.40%)	18688	50225	3927	99.98	228	40	16	0	4	0	181	4353954	213	188071	70478 COUNT: 22
CLC_MIS_PE_mtbh37-1_mis_2x250bp_nextera_default__mtbh37-2_mis_2x250bp_nextera_default.0.850percent.result	478	478	98	233304	4451792	4451792	4339929	4411532	90295	90295	63382	64048	16	16	31	30	21	1	1	3618	32334	241 + 54 part	75324	24	-15895	13793	309.83	98.278	1.013	3984 + 69 part	4128	4130	3558	582	77	378	145	521	8.72	3.34	65.93	65.61	99.213	232991	90196	90196	63382	64048	16	16	31	30	1	1	0	0	1	3618	21	129	16	241	66939	54	0	4	8385	478	200	233304	90295 COUNT: 16	4411532	4451792	0	12536(0.28%)	77512(1.74%)	237(49.58%)	21744	50037	10049	99.98	232	46	39	0	5	0	173	4354183	212	188071	74594 COUNT: 22
