Assembly	SOAP2_MIS_PE_mrsa_mis-1_bi_2x250bp_default.0.460percent_117.final.scaf_broken	SOAP2_MIS_PE_mrsa_mis-1_bi_2x250bp_default.0.460percent_117.final.scaf
#Contigs (>= 0 bp)	1523	1499
#Contigs (>= 1000 bp)	119	107
Total length (>= 0 bp)	3018168	3018991
Total length (>= 1000 bp)	2764620	2768252
#Contigs	724	703
Largest contig	169983	169983
Total length	2914837	2916126
Reference length	2813862	2813862
GC (%)	32.72	32.72
Reference GC (%)	32.81	32.81
N50	34049	43011
NG50	40245	44425
N75	20620	22512
NG75	21782	23141
#misassemblies	17	19
#local misassemblies	8	19
#unaligned contigs	4 + 7 part	4 + 7 part
Unaligned contigs length	6509	6509
Genome fraction (%)	98.652	98.685
Duplication ratio	1.041	1.041
#N's per 100 kbp	1.54	29.77
#mismatches per 100 kbp	2.67	2.88
#indels per 100 kbp	0.61	4.86
#genes	2600 + 108 part	2605 + 105 part
#predicted genes (unique)	3180	3176
#predicted genes (>= 0 bp)	3193	3188
#predicted genes (>= 300 bp)	2314	2311
#predicted genes (>= 1500 bp)	296	296
#predicted genes (>= 3000 bp)	32	32
Largest alignment	169983	169983
NA50	34049	42950
NGA50	40240	44425
NA75	20620	22512
NGA75	21782	23141
