Assembly	ABYSS_PE_MIS_PE_mtbh37-1_mis_2x250bp_nextera_default__mtbh37-2_mis_2x250bp_nextera_default_56-scaffolds_broken	ABYSS_PE_MIS_PE_mtbh37-1_mis_2x250bp_nextera_default__mtbh37-2_mis_2x250bp_nextera_default_56-scaffolds
#Mis_misassemblies	3	3
#Mis_relocations	3	3
#Mis_translocations	0	0
#Mis_inversions	0	0
#Mis_misassembled contigs	3	3
Mis_Misassembled contigs length	145232	145232
#Mis_local misassemblies	23	34
#mismatches	350	352
#indels	104	179
#Mis_short indels (<= 5 bp)	92	156
#Mis_long indels (> 5 bp)	12	23
Indels length	440	758
