Assembly	NEWBLER_PGM_mrsa_pgm_400bp_es_318_IKA_ts3.2_morestringent.0.200percent.contigs
#Contigs	70
#Contigs (>= 0 bp)	157
#Contigs (>= 1000 bp)	44
Largest contig	369204
Total length	2775617
Total length (>= 0 bp)	2788595
Total length (>= 1000 bp)	2765911
Reference length	2813862
N50	155278
NG50	155278
N75	63892
NG75	61353
L50	6
LG50	6
L75	13
LG75	14
#local misassemblies	2
#misassemblies	2
#misassembled contigs	2
Misassembled contigs length	156092
Misassemblies inter-contig overlap	623
#unaligned contigs	1 + 1 part
Unaligned contigs length	310
#ambiguously mapped contigs	12
Extra bases in ambiguously mapped contigs	-10238
#N's	0
#N's per 100 kbp	0.00
Genome fraction (%)	98.143
Duplication ratio	1.001
#genes	2671 + 26 part
#predicted genes (unique)	3109
#predicted genes (>= 0 bp)	3110
#predicted genes (>= 300 bp)	2499
#predicted genes (>= 1500 bp)	209
#predicted genes (>= 3000 bp)	20
#mismatches	48
#indels	1347
Indels length	1407
#mismatches per 100 kbp	1.74
#indels per 100 kbp	48.78
GC (%)	32.63
Reference GC (%)	32.81
Average %IDY	98.566
Largest alignment	369204
NA50	133093
NGA50	133093
NA75	61353
NGA75	61234
LA50	6
LGA50	6
LA75	14
LGA75	15
#Mis_misassemblies	2
#Mis_relocations	2
#Mis_translocations	0
#Mis_inversions	0
#Mis_misassembled contigs	2
Mis_Misassembled contigs length	156092
#Mis_local misassemblies	2
#Mis_short indels (<= 5 bp)	1346
#Mis_long indels (> 5 bp)	1
#Una_fully unaligned contigs	1
Una_Fully unaligned length	246
#Una_partially unaligned contigs	1
#Una_with misassembly	0
#Una_both parts are significant	0
Una_Partially unaligned length	64
GAGE_Contigs #	70
GAGE_Min contig	200
GAGE_Max contig	369204
GAGE_N50	155278 COUNT: 6
GAGE_Genome size	2813862
GAGE_Assembly size	2775617
GAGE_Chaff bases	0
GAGE_Missing reference bases	6900(0.25%)
GAGE_Missing assembly bases	313(0.01%)
GAGE_Missing assembly contigs	1(1.43%)
GAGE_Duplicated reference bases	2988
GAGE_Compressed reference bases	37380
GAGE_Bad trim	67
GAGE_Avg idy	99.95
GAGE_SNPs	42
GAGE_Indels < 5bp	1358
GAGE_Indels >= 5	3
GAGE_Inversions	0
GAGE_Relocation	2
GAGE_Translocation	0
GAGE_Corrected contig #	63
GAGE_Corrected assembly size	2772121
GAGE_Min correct contig	211
GAGE_Max correct contig	369045
GAGE_Corrected N50	106626 COUNT: 7
