Assembly	ABYSS_PE_MIS_PE_sakai_mis-2_bi_2x150bp_default__sakai_mis-1_bi_2x150bp_default.0.750percent_50.final_broken	ABYSS_PE_MIS_PE_sakai_mis-2_bi_2x150bp_default__sakai_mis-1_bi_2x150bp_default.0.750percent_50.final
#Contigs	251	198
#Contigs (>= 0 bp)	1210	1154
#Contigs (>= 1000 bp)	181	158
Largest contig	290568	374989
Total length	5442079	5445444
Total length (>= 0 bp)	5533651	5536658
Total length (>= 1000 bp)	5403364	5421546
Reference length	5594470	5594470
N50	99977	149678
NG50	99977	148449
N75	46768	49886
NG75	41777	46768
L50	18	12
LG50	18	13
L75	36	27
LG75	39	29
#local misassemblies	8	29
#misassemblies	5	16
#misassembled contigs	5	13
Misassembled contigs length	553398	664688
Misassemblies inter-contig overlap	5258	5637
#unaligned contigs	0 + 0 part	0 + 1 part
Unaligned contigs length	0	1135
#ambiguously mapped contigs	43	23
Extra bases in ambiguously mapped contigs	-50733	-23648
#N's	43	3050
#N's per 100 kbp	0.79	56.01
Genome fraction (%)	95.331	95.783
Duplication ratio	1.012	1.013
#genes	5013 + 162 part	5046 + 166 part
#predicted genes (unique)	5198	5190
#predicted genes (>= 0 bp)	5302	5295
#predicted genes (>= 300 bp)	4485	4487
#predicted genes (>= 1500 bp)	683	682
#predicted genes (>= 3000 bp)	71	70
#mismatches	1085	1150
#indels	52	204
Indels length	139	597
#mismatches per 100 kbp	20.34	21.46
#indels per 100 kbp	0.98	3.81
GC (%)	50.38	50.38
Reference GC (%)	50.48	50.48
Average %IDY	98.984	98.945
Largest alignment	226921	353764
NA50	99977	148449
NGA50	98998	148068
NA75	43978	49886
NGA75	41491	45656
LA50	18	13
LGA50	19	14
LA75	38	28
LGA75	40	30
#Mis_misassemblies	5	16
#Mis_relocations	5	16
#Mis_translocations	0	0
#Mis_inversions	0	0
#Mis_misassembled contigs	5	13
Mis_Misassembled contigs length	553398	664688
#Mis_local misassemblies	8	29
#Mis_short indels (<= 5 bp)	48	188
#Mis_long indels (> 5 bp)	4	16
#Una_fully unaligned contigs	0	0
Una_Fully unaligned length	0	0
#Una_partially unaligned contigs	0	1
#Una_with misassembly	0	0
#Una_both parts are significant	0	1
Una_Partially unaligned length	0	1135
GAGE_Contigs #	251	198
GAGE_Min contig	200	200
GAGE_Max contig	290568	374989
GAGE_N50	99977 COUNT: 18	148449 COUNT: 13
GAGE_Genome size	5594470	5594470
GAGE_Assembly size	5442079	5445444
GAGE_Chaff bases	0	0
GAGE_Missing reference bases	77138(1.38%)	78044(1.40%)
GAGE_Missing assembly bases	6(0.00%)	2778(0.05%)
GAGE_Missing assembly contigs	0(0.00%)	0(0.00%)
GAGE_Duplicated reference bases	9864	9076
GAGE_Compressed reference bases	209460	205939
GAGE_Bad trim	0	265
GAGE_Avg idy	99.97	99.96
GAGE_SNPs	688	674
GAGE_Indels < 5bp	31	41
GAGE_Indels >= 5	12	38
GAGE_Inversions	1	8
GAGE_Relocation	3	14
GAGE_Translocation	0	0
GAGE_Corrected contig #	256	255
GAGE_Corrected assembly size	5437158	5439788
GAGE_Min correct contig	200	200
GAGE_Max correct contig	226925	226925
GAGE_Corrected N50	98998 COUNT: 19	98998 COUNT: 19
