calling: java -cp /vol/ngscomparison/software/analysis/quast-2.1/libs/gage:. SizeFasta /vol/codine-tmp/juene/tmp.lWGNQpveMT/quast/corrected_input/Mycobacterium_tuberculosis_H37Rv.fasta |awk '{SUM+=; print SUM}'|tail -n 1
Contig Stats
Total units: 2419
Reference: 4411532
BasesInFasta: 4003072
Min: 200
Max: 16023
N10: 6319 COUNT: 55
N25: 4150 COUNT: 187
N50: 2404 COUNT: 540
N75: 1121 COUNT: 1200
E-size:2979.19

Genome Size: 4411532
Assembly Size: 4003072
Chaff bases: 0
Missing Reference Bases: 386770(8.77%)
Missing Assembly Bases: 890(0.02%)
Missing Assembly Contigs: 2(0.08%)
Duplicated Reference Bases: 0
Compressed Reference Bases: 28021
Bad Trim: 127
Avg Idy: 99.96
SNPs: 109
Indels < 5bp: 1282
Indels >= 5: 9
Inversions: 0
Relocation: 5
Translocation: 0

Corrected Contig Stats
calling: java -cp /vol/ngscomparison/software/analysis/quast-2.1/libs/gage:.:. GetFastaStats -o -min 199 -genomeSize 4411532 /vol/codine-tmp/juene/tmp.lWGNQpveMT/quast/gage/tmp/ABYSS_PE_PGM_mtbh37_pgm_400bp_es_318v2_OT2_tsv3.6_morestringent.0.175percent_36.final.matches.lens 2> /dev/null
Total units: 2428
Reference: 4411532
BasesInFasta: 4003802
Min: 200
Max: 16027
N10: 6289 COUNT: 56
N25: 4144 COUNT: 188
N50: 2396 COUNT: 544
N75: 1121 COUNT: 1206
E-size:2947.97

Done
