All statistics are based on contigs of size >= 200 bp, unless otherwise noted (e.g., "# contigs (>= 0 bp)" and "Total length (>= 0 bp)" include all contigs).

Assembly                                                                      GAGE_Contigs #  GAGE_Min contig  GAGE_Max contig  GAGE_N50         GAGE_Genome size  GAGE_Assembly size  GAGE_Chaff bases  GAGE_Missing reference bases  GAGE_Missing assembly bases  GAGE_Missing assembly contigs  GAGE_Duplicated reference bases  GAGE_Compressed reference bases  GAGE_Bad trim  GAGE_Avg idy  GAGE_SNPs  GAGE_Indels < 5bp  GAGE_Indels >= 5  GAGE_Inversions  GAGE_Relocation  GAGE_Translocation  GAGE_Corrected contig #  GAGE_Corrected assembly size  GAGE_Min correct contig  GAGE_Max correct contig  GAGE_Corrected N50
SOAP2_MIS_PE_mrsa_mis-1_bi_2x150bp_default.0.527percent_83.final.scaf_broken  134             200              207778           73269 COUNT: 12  2813862           2773859             0                 13069(0.46%)                  5419(0.20%)                  1(0.75%)                       257                              41563                            1              99.99         31         16                 3                 0                2                0                   137                      2767758                       200                      207778                   73269 COUNT: 12   
SOAP2_MIS_PE_mrsa_mis-1_bi_2x150bp_default.0.527percent_83.final.scaf         54              206              524597           307389 COUNT: 4  2813862           2781500             0                 12252(0.44%)                  9979(0.36%)                  1(1.85%)                       1675                             39452                            1617           99.98         30         37                 54                0                10               0                   130                      2767308                       200                      207778                   75054 COUNT: 12   
