Assembly	VELVET_MIS_PE_sakai_mis-both_bi_2x250bp_SI_default.0.64percent_55.final.contigs_broken	VELVET_MIS_PE_sakai_mis-both_bi_2x250bp_SI_default.0.64percent_55.final.contigs
#Contigs	610	398
#Contigs (>= 0 bp)	859	639
#Contigs (>= 1000 bp)	345	166
Largest contig	131546	312838
Total length	5343250	5358459
Total length (>= 0 bp)	5379280	5393488
Total length (>= 1000 bp)	5232290	5263104
Reference length	5594470	5594470
N50	28522	103970
NG50	27027	99715
N75	16060	40849
NG75	13804	35958
L50	55	15
LG50	60	16
L75	117	36
LG75	130	41
#local misassemblies	12	116
#misassemblies	6	12
#misassembled contigs	6	9
Misassembled contigs length	181252	1039442
Misassemblies inter-contig overlap	2788	2637
#unaligned contigs	1 + 0 part	1 + 0 part
Unaligned contigs length	5440	5440
#ambiguously mapped contigs	149	148
Extra bases in ambiguously mapped contigs	-91469	-91060
#N's	0	14208
#N's per 100 kbp	0.00	265.15
Genome fraction (%)	93.731	93.825
Duplication ratio	1.001	1.003
#genes	4767 + 338 part	4855 + 254 part
#predicted genes (unique)	5502	5443
#predicted genes (>= 0 bp)	5505	5446
#predicted genes (>= 300 bp)	4506	4487
#predicted genes (>= 1500 bp)	647	651
#predicted genes (>= 3000 bp)	59	58
#mismatches	628	643
#indels	56	696
Indels length	108	2500
#mismatches per 100 kbp	11.98	12.25
#indels per 100 kbp	1.07	13.26
GC (%)	50.28	50.28
Reference GC (%)	50.48	50.48
Average %IDY	99.227	99.171
Largest alignment	131546	306985
NA50	27512	99223
NGA50	26883	94894
NA75	15689	39821
NGA75	13755	35679
LA50	56	17
LGA50	61	19
LA75	119	40
LGA75	132	44
#Mis_misassemblies	6	12
#Mis_relocations	6	12
#Mis_translocations	0	0
#Mis_inversions	0	0
#Mis_misassembled contigs	6	9
Mis_Misassembled contigs length	181252	1039442
#Mis_local misassemblies	12	116
#Mis_short indels (<= 5 bp)	54	629
#Mis_long indels (> 5 bp)	2	67
#Una_fully unaligned contigs	1	1
Una_Fully unaligned length	5440	5440
#Una_partially unaligned contigs	0	0
#Una_with misassembly	0	0
#Una_both parts are significant	0	0
Una_Partially unaligned length	0	0
GAGE_Contigs #	610	398
GAGE_Min contig	201	201
GAGE_Max contig	131546	312838
GAGE_N50	27027 COUNT: 60	99715 COUNT: 16
GAGE_Genome size	5594470	5594470
GAGE_Assembly size	5343250	5358459
GAGE_Chaff bases	0	0
GAGE_Missing reference bases	59192(1.06%)	58136(1.04%)
GAGE_Missing assembly bases	5455(0.10%)	18964(0.35%)
GAGE_Missing assembly contigs	1(0.16%)	1(0.25%)
GAGE_Duplicated reference bases	10417	11028
GAGE_Compressed reference bases	241803	241436
GAGE_Bad trim	15	368
GAGE_Avg idy	99.98	99.97
GAGE_SNPs	541	542
GAGE_Indels < 5bp	45	132
GAGE_Indels >= 5	8	161
GAGE_Inversions	1	3
GAGE_Relocation	9	23
GAGE_Translocation	0	0
GAGE_Corrected contig #	592	562
GAGE_Corrected assembly size	5330165	5330644
GAGE_Min correct contig	201	201
GAGE_Max correct contig	123430	123430
GAGE_Corrected N50	26485 COUNT: 62	27438 COUNT: 59
