Assembly	ABYSS_PE_PGM_sakai_pgm_mu_318_400bp_IO_TS3.4_ms_0.395percent_106-unitigs
#Contigs (>= 0 bp)	4437
#Contigs (>= 1000 bp)	688
Total length (>= 0 bp)	5890757
Total length (>= 1000 bp)	5105671
#Contigs	2691
Largest contig	48938
Total length	5643129
Reference length	5594470
GC (%)	50.41
Reference GC (%)	50.48
N50	11596
NG50	11654
N75	4868
NG75	5017
#misassemblies	5
#local misassemblies	7
#unaligned contigs	0 + 6 part
Unaligned contigs length	271
Genome fraction (%)	94.373
Duplication ratio	1.039
#N's per 100 kbp	0.00
#mismatches per 100 kbp	1.52
#indels per 100 kbp	7.60
#genes	4443 + 719 part
#predicted genes (unique)	7278
#predicted genes (>= 0 bp)	7321
#predicted genes (>= 300 bp)	4656
#predicted genes (>= 1500 bp)	586
#predicted genes (>= 3000 bp)	45
Largest alignment	48938
NA50	11549
NGA50	11618
NA75	4864
NGA75	4990
