Assembly	CLC_PGM_sakai_pgm_mu_200bp_IO_TS3.0Disabled_stringent.26coverage.result
#Mis_misassemblies	15
#Mis_relocations	4
#Mis_translocations	0
#Mis_inversions	11
#Mis_misassembled contigs	15
Mis_Misassembled contigs length	95182
#Mis_local misassemblies	5
#mismatches	139
#indels	1738
#Mis_short indels (<= 5 bp)	1737
#Mis_long indels (> 5 bp)	1
Indels length	1809
