Assembly	VELVET_PGM_sakai_pgm_mu_200bp_IO_TS3.0Disabled_stringent.0.34percent_73.final.contigs
#Contigs	1528
#Contigs (>= 0 bp)	1712
#Contigs (>= 1000 bp)	869
Largest contig	32736
Total length	5344186
Total length (>= 0 bp)	5375906
Total length (>= 1000 bp)	5050323
Reference length	5594470
N50	8516
NG50	8071
N75	4319
NG75	3647
L50	192
LG50	208
L75	411
LG75	459
#local misassemblies	28
#misassemblies	58
#misassembled contigs	55
Misassembled contigs length	488240
Misassemblies inter-contig overlap	1413
#unaligned contigs	1 + 3 part
Unaligned contigs length	904
#ambiguously mapped contigs	196
Extra bases in ambiguously mapped contigs	-85918
#N's	1140
#N's per 100 kbp	21.33
Genome fraction (%)	93.379
Duplication ratio	1.007
#genes	4277 + 801 part
#predicted genes (unique)	6793
#predicted genes (>= 0 bp)	6797
#predicted genes (>= 300 bp)	4998
#predicted genes (>= 1500 bp)	443
#predicted genes (>= 3000 bp)	28
#mismatches	211
#indels	2521
Indels length	4096
#mismatches per 100 kbp	4.04
#indels per 100 kbp	48.26
GC (%)	50.32
Reference GC (%)	50.48
Average %IDY	99.314
Largest alignment	32736
NA50	8229
NGA50	7781
NA75	4169
NGA75	3478
LA50	201
LGA50	216
LA75	428
LGA75	478
#Mis_misassemblies	58
#Mis_relocations	54
#Mis_translocations	0
#Mis_inversions	4
#Mis_misassembled contigs	55
Mis_Misassembled contigs length	488240
#Mis_local misassemblies	28
#Mis_short indels (<= 5 bp)	2496
#Mis_long indels (> 5 bp)	25
#Una_fully unaligned contigs	1
Una_Fully unaligned length	542
#Una_partially unaligned contigs	3
#Una_with misassembly	0
#Una_both parts are significant	1
Una_Partially unaligned length	362
GAGE_Contigs #	1528
GAGE_Min contig	200
GAGE_Max contig	32736
GAGE_N50	8071 COUNT: 208
GAGE_Genome size	5594470
GAGE_Assembly size	5344186
GAGE_Chaff bases	0
GAGE_Missing reference bases	90083(1.61%)
GAGE_Missing assembly bases	1300(0.02%)
GAGE_Missing assembly contigs	0(0.00%)
GAGE_Duplicated reference bases	8928
GAGE_Compressed reference bases	242725
GAGE_Bad trim	340
GAGE_Avg idy	99.95
GAGE_SNPs	133
GAGE_Indels < 5bp	2180
GAGE_Indels >= 5	41
GAGE_Inversions	4
GAGE_Relocation	64
GAGE_Translocation	0
GAGE_Corrected contig #	1597
GAGE_Corrected assembly size	5336931
GAGE_Min correct contig	201
GAGE_Max correct contig	32749
GAGE_Corrected N50	7240 COUNT: 235
