All statistics are based on contigs of size >= 200 bp, unless otherwise noted (e.g., "# contigs (>= 0 bp)" and "Total length (>= 0 bp)" include all contigs).

Assembly                                                                      #Contigs (>= 0 bp)  #Contigs (>= 1000 bp)  Total length (>= 0 bp)  Total length (>= 1000 bp)  #Contigs  Largest contig  Total length  Reference length  GC (%)  Reference GC (%)  N50    NG50   N75    NG75   #misassemblies  #local misassemblies  #unaligned contigs  Unaligned contigs length  Genome fraction (%)  Duplication ratio  #N's per 100 kbp  #mismatches per 100 kbp  #indels per 100 kbp  #genes           #predicted genes (unique)  #predicted genes (>= 0 bp)  #predicted genes (>= 300 bp)  #predicted genes (>= 1500 bp)  #predicted genes (>= 3000 bp)  Largest alignment  NA50   NGA50  NA75   NGA75
NEWBLER_PGM_sakai_pgm_mu_200bp_IO_TS3.0Disabled_stringent.96coverage.contigs  525                 193                    5332103                 5234302                    379       226262          5312081       5594470           50.27   50.48             83012  81061  37980  32594  8               6                     0 + 3 part          291                       93.404               1.000              0.00              1.38                     16.80                4880 + 192 part  5673                       5673                        4648                          569                            49                             226262             81579  81061  37392  32594
