Assembly	ABYSS_PE_MIS_PE_mrsa_mis-1_bi_2x250bp_default__mrsa_mis-2_bi_2x250bp_default.0.050percent_36.final_broken	ABYSS_PE_MIS_PE_mrsa_mis-1_bi_2x250bp_default__mrsa_mis-2_bi_2x250bp_default.0.050percent_36.final
#Mis_misassemblies	3	3
#Mis_relocations	3	3
#Mis_translocations	0	0
#Mis_inversions	0	0
#Mis_misassembled contigs	3	3
Mis_Misassembled contigs length	4626	4626
#Mis_local misassemblies	2	2
#mismatches	213	213
#indels	15	15
#Mis_short indels (<= 5 bp)	13	13
#Mis_long indels (> 5 bp)	2	2
Indels length	73	73
