All statistics are based on contigs of size >= 200 bp, unless otherwise noted (e.g., "# contigs (>= 0 bp)" and "Total length (>= 0 bp)" include all contigs).

Assembly                         ABYSS_PE_MIS_PE_sakai_mis-1_bi_2x150bp_default__sakai_mis-2_bi_2x150bp_default.96coverage_70.final_broken  ABYSS_PE_MIS_PE_sakai_mis-1_bi_2x150bp_default__sakai_mis-2_bi_2x150bp_default.96coverage_70.final
#Mis_misassemblies               5                                                                                                          24                                                                                                
#Mis_relocations                 5                                                                                                          24                                                                                                
#Mis_translocations              0                                                                                                          0                                                                                                 
#Mis_inversions                  0                                                                                                          0                                                                                                 
#Mis_misassembled contigs        5                                                                                                          17                                                                                                
Mis_Misassembled contigs length  401802                                                                                                     629404                                                                                            
#Mis_local misassemblies         5                                                                                                          19                                                                                                
#mismatches                      879                                                                                                        1051                                                                                              
#indels                          58                                                                                                         154                                                                                               
#Mis_short indels (<= 5 bp)      54                                                                                                         132                                                                                               
#Mis_long indels (> 5 bp)        4                                                                                                          22                                                                                                
Indels length                    178                                                                                                        668                                                                                               
