All statistics are based on contigs of size >= 200 bp, unless otherwise noted (e.g., "# contigs (>= 0 bp)" and "Total length (>= 0 bp)" include all contigs).

Assembly                                                                                                         GAGE_Contigs #  GAGE_Min contig  GAGE_Max contig  GAGE_N50         GAGE_Genome size  GAGE_Assembly size  GAGE_Chaff bases  GAGE_Missing reference bases  GAGE_Missing assembly bases  GAGE_Missing assembly contigs  GAGE_Duplicated reference bases  GAGE_Compressed reference bases  GAGE_Bad trim  GAGE_Avg idy  GAGE_SNPs  GAGE_Indels < 5bp  GAGE_Indels >= 5  GAGE_Inversions  GAGE_Relocation  GAGE_Translocation  GAGE_Corrected contig #  GAGE_Corrected assembly size  GAGE_Min correct contig  GAGE_Max correct contig  GAGE_Corrected N50
VELVET_MIS_PE_mrsa_mis-1_bi_2x150bp_default__mrsa_mis-2_bi_2x150bp_default.0.527percent_93.final.contigs_broken  86              200              274391           80401 COUNT: 9   2813862           2790513             0                 2108(0.07%)                   5394(0.19%)                  1(1.16%)                       1179                             36284                            9              99.99         47         9                  2                 0                2                0                   86                       2784413                       200                      274390                   76546 COUNT: 10   
VELVET_MIS_PE_mrsa_mis-1_bi_2x150bp_default__mrsa_mis-2_bi_2x150bp_default.0.527percent_93.final.contigs         53              200              697411           251435 COUNT: 4  2813862           2792057             0                 2108(0.07%)                   6940(0.25%)                  1(1.89%)                       1629                             36004                            10             99.99         47         9                  26                3                5                0                   85                       2784411                       200                      274390                   76546 COUNT: 10   
