1: PREPARING DATA
2,3: RUNNING mummer AND CREATING CLUSTERS
# reading input file "/vol/codine-tmp/juene/tmp.LQablWjCoy/quast/gage/tmp/NEWBLER_PGM_sakai_pgm_mu_318_400bp_IO_TS3.4_ms.0.975percent.contigs.ntref" of length 5594473
# construct suffix tree for sequence of length 5594473
# (maximum reference length is 536870908)
# (maximum query length is 4294967295)
# process 55944 characters per dot
#....................................................................................................
# CONSTRUCTIONTIME /vol/ngscomparison/software/analysis/quast-2.1/libs/MUMmer3.23-linux/mummer /vol/codine-tmp/juene/tmp.LQablWjCoy/quast/gage/tmp/NEWBLER_PGM_sakai_pgm_mu_318_400bp_IO_TS3.4_ms.0.975percent.contigs.ntref 3.45
# reading input file "/vol/codine-tmp/juene/tmp.LQablWjCoy/quast/corrected_input/NEWBLER_PGM_sakai_pgm_mu_318_400bp_IO_TS3.4_ms.0.975percent.contigs" of length 5356227
# matching query-file "/vol/codine-tmp/juene/tmp.LQablWjCoy/quast/corrected_input/NEWBLER_PGM_sakai_pgm_mu_318_400bp_IO_TS3.4_ms.0.975percent.contigs"
# against subject-file "/vol/codine-tmp/juene/tmp.LQablWjCoy/quast/gage/tmp/NEWBLER_PGM_sakai_pgm_mu_318_400bp_IO_TS3.4_ms.0.975percent.contigs.ntref"
# COMPLETETIME /vol/ngscomparison/software/analysis/quast-2.1/libs/MUMmer3.23-linux/mummer /vol/codine-tmp/juene/tmp.LQablWjCoy/quast/gage/tmp/NEWBLER_PGM_sakai_pgm_mu_318_400bp_IO_TS3.4_ms.0.975percent.contigs.ntref 10.22
# SPACE /vol/ngscomparison/software/analysis/quast-2.1/libs/MUMmer3.23-linux/mummer /vol/codine-tmp/juene/tmp.LQablWjCoy/quast/gage/tmp/NEWBLER_PGM_sakai_pgm_mu_318_400bp_IO_TS3.4_ms.0.975percent.contigs.ntref 10.63
4: FINISHING DATA
Filtering alignments
Extracting alignment coordinates
Analyzing SNPs
Extracting alignment breakpoints
Generating report file
Found genome size at position 4 with value 5594470 aka 5594470
Calculating point at 0 and the sum is 1111935 and i is300 and lens is 306 and length is 148119
Calculating point at 1 and the sum is 2116795 and i is293 and lens is 306 and length is 134786
Calculating point at 2 and the sum is 3032702 and i is285 and lens is 306 and length is 99586
Calculating point at 3 and the sum is 4026153 and i is270 and lens is 306 and length is 46444
Calculating point at 4 and the sum is 5005410 and i is236 and lens is 306 and length is 11584
