calling: java -cp /vol/ngscomparison/software/analysis/quast-2.1/libs/gage:. SizeFasta /vol/codine-tmp/juene/tmp.ki78rFn8qy/quast/corrected_input/Mycobacterium_tuberculosis_H37Rv.fasta |awk '{SUM+=; print SUM}'|tail -n 1
Contig Stats
Total units: 5538
Reference: 4411532
BasesInFasta: 4748543
Min: 200
Max: 16648
N10: 6148 COUNT: 56
N25: 4215 COUNT: 190
N50: 2491 COUNT: 532
N75: 1250 COUNT: 1148
E-size:3045.9

Genome Size: 4411532
Assembly Size: 4748543
Chaff bases: 0
Missing Reference Bases: 145632(3.30%)
Missing Assembly Bases: 1225(0.03%)
Missing Assembly Contigs: 4(0.07%)
Duplicated Reference Bases: 293484
Compressed Reference Bases: 54071
Bad Trim: 348
Avg Idy: 99.94
SNPs: 77
Indels < 5bp: 1481
Indels >= 5: 10
Inversions: 0
Relocation: 5
Translocation: 0

Corrected Contig Stats
calling: java -cp /vol/ngscomparison/software/analysis/quast-2.1/libs/gage:.:. GetFastaStats -o -min 199 -genomeSize 4411532 /vol/codine-tmp/juene/tmp.ki78rFn8qy/quast/gage/tmp/ABYSS_PE_PGM_mtbh37_pgm_400bp_es_318v2_OT2_tsv3.6_morestringent_102-unitigs.matches.lens 2> /dev/null
Total units: 3948
Reference: 4411532
BasesInFasta: 4426059
Min: 200
Max: 16658
N10: 5945 COUNT: 58
N25: 4155 COUNT: 193
N50: 2461 COUNT: 538
N75: 1250 COUNT: 1156
E-size:2993.49

Done
