Assembly	VELVET_PGM_mrsa_pgm_400bp_es_318_IKA_ts3.2_morestringent.0.165percent_63.final.contigs
#Mis_misassemblies	0
#Mis_relocations	0
#Mis_translocations	0
#Mis_inversions	0
#Mis_misassembled contigs	0
Mis_Misassembled contigs length	0
#Mis_local misassemblies	0
#mismatches	2
#indels	31
#Mis_short indels (<= 5 bp)	31
#Mis_long indels (> 5 bp)	0
Indels length	31
