Assembly	ABYSS_PE_PGM_sakai_pgm_mu_200bp_IO_TS3.0Disabled_stringent.0.7percent_136.final
GAGE_Contigs #	3669
GAGE_Min contig	200
GAGE_Max contig	35796
GAGE_N50	7845 COUNT: 214
GAGE_Genome size	5594470
GAGE_Assembly size	5924416
GAGE_Chaff bases	0
GAGE_Missing reference bases	19237(0.34%)
GAGE_Missing assembly bases	44(0.00%)
GAGE_Missing assembly contigs	0(0.00%)
GAGE_Duplicated reference bases	382040
GAGE_Compressed reference bases	248759
GAGE_Bad trim	44
GAGE_Avg idy	99.97
GAGE_SNPs	53
GAGE_Indels < 5bp	1625
GAGE_Indels >= 5	1
GAGE_Inversions	0
GAGE_Relocation	2
GAGE_Translocation	0
GAGE_Corrected contig #	2218
GAGE_Corrected assembly size	5542143
GAGE_Min correct contig	200
GAGE_Max correct contig	35803
GAGE_Corrected N50	7848 COUNT: 214
