All statistics are based on contigs of size >= 200 bp, unless otherwise noted (e.g., "# contigs (>= 0 bp)" and "Total length (>= 0 bp)" include all contigs).

Assembly                         VELVET_MIS_PE_sakai_mis-1_bi_2x150bp_default__sakai_mis-2_bi_2x150bp_default.0.826percent_135.final.contigs_broken  VELVET_MIS_PE_sakai_mis-1_bi_2x150bp_default__sakai_mis-2_bi_2x150bp_default.0.826percent_135.final.contigs
GAGE_Contigs #                   6660                                                                                                                3178                                                                                                       
GAGE_Min contig                  226                                                                                                                 269                                                                                                        
GAGE_Max contig                  4921                                                                                                                10941                                                                                                      
GAGE_N50                         467 COUNT: 3899                                                                                                     1310 COUNT: 1166                                                                                           
GAGE_Genome size                 5594470                                                                                                             5594470                                                                                                    
GAGE_Assembly size               3833105                                                                                                             4238063                                                                                                    
GAGE_Chaff bases                 0                                                                                                                   0                                                                                                          
GAGE_Missing reference bases     1557372(27.84%)                                                                                                     1558719(27.86%)                                                                                            
GAGE_Missing assembly bases      5118(0.13%)                                                                                                         410975(9.70%)                                                                                              
GAGE_Missing assembly contigs    8(0.12%)                                                                                                            3(0.09%)                                                                                                   
GAGE_Duplicated reference bases  10262                                                                                                               11396                                                                                                      
GAGE_Compressed reference bases  297079                                                                                                              295573                                                                                                     
GAGE_Bad trim                    342                                                                                                                 2623                                                                                                       
GAGE_Avg idy                     99.99                                                                                                               99.99                                                                                                      
GAGE_SNPs                        237                                                                                                                 239                                                                                                        
GAGE_Indels < 5bp                13                                                                                                                  13                                                                                                         
GAGE_Indels >= 5                 2                                                                                                                   3418                                                                                                       
GAGE_Inversions                  2                                                                                                                   18                                                                                                         
GAGE_Relocation                  4                                                                                                                   21                                                                                                         
GAGE_Translocation               0                                                                                                                   0                                                                                                          
GAGE_Corrected contig #          6636                                                                                                                6634                                                                                                       
GAGE_Corrected assembly size     3826033                                                                                                             3825607                                                                                                    
GAGE_Min correct contig          201                                                                                                                 201                                                                                                        
GAGE_Max correct contig          4921                                                                                                                4921                                                                                                       
GAGE_Corrected N50               467 COUNT: 3895                                                                                                     467 COUNT: 3895                                                                                            
