Assembly	NEWBLER_MIS_PE_mrsa_mis-1_bi_2x150bp_default__mrsa_mis-2_bi_2x150bp_default.0.990percent.contigs_broken	NEWBLER_MIS_PE_mrsa_mis-1_bi_2x150bp_default__mrsa_mis-2_bi_2x150bp_default.0.990percent.contigs
#Contigs	62	24
#Contigs (>= 0 bp)	62	24
#Contigs (>= 1000 bp)	60	24
Largest contig	207718	802317
Total length	2760557	2786783
Total length (>= 0 bp)	2760557	2786783
Total length (>= 1000 bp)	2758933	2786783
Reference length	2813862	2813862
N50	79714	309256
NG50	78866	309256
N75	48905	133424
NG75	43807	130095
L50	11	3
LG50	12	3
L75	22	7
LG75	23	8
#local misassemblies	2	40
#misassemblies	2	2
#misassembled contigs	2	2
Misassembled contigs length	72614	313696
Misassemblies inter-contig overlap	282	282
#unaligned contigs	1 + 0 part	1 + 0 part
Unaligned contigs length	5386	5386
#ambiguously mapped contigs	3	0
Extra bases in ambiguously mapped contigs	-4678	0
#N's	0	26226
#N's per 100 kbp	0.00	941.09
Genome fraction (%)	97.755	97.921
Duplication ratio	1.000	1.010
#genes	2648 + 27 part	2649 + 28 part
#predicted genes (unique)	2608	2605
#predicted genes (>= 0 bp)	2608	2605
#predicted genes (>= 300 bp)	2270	2270
#predicted genes (>= 1500 bp)	299	299
#predicted genes (>= 3000 bp)	29	29
#mismatches	30	35
#indels	9	9
Indels length	9	9
#mismatches per 100 kbp	1.09	1.27
#indels per 100 kbp	0.33	0.33
GC (%)	32.66	32.66
Reference GC (%)	32.81	32.81
Average %IDY	99.012	99.012
Largest alignment	207718	794785
NA50	79714	236049
NGA50	78866	236049
NA75	43807	129491
NGA75	43575	129491
LA50	11	4
LGA50	12	4
LA75	23	8
LGA75	24	8
#Mis_misassemblies	2	2
#Mis_relocations	2	2
#Mis_translocations	0	0
#Mis_inversions	0	0
#Mis_misassembled contigs	2	2
Mis_Misassembled contigs length	72614	313696
#Mis_local misassemblies	2	40
#Mis_short indels (<= 5 bp)	9	9
#Mis_long indels (> 5 bp)	0	0
#Una_fully unaligned contigs	1	1
Una_Fully unaligned length	5386	5386
#Una_partially unaligned contigs	0	0
#Una_with misassembly	0	0
#Una_both parts are significant	0	0
Una_Partially unaligned length	0	0
GAGE_Contigs #	62	24
GAGE_Min contig	751	4440
GAGE_Max contig	207718	802317
GAGE_N50	78866 COUNT: 12	309256 COUNT: 3
GAGE_Genome size	2813862	2813862
GAGE_Assembly size	2760557	2786783
GAGE_Chaff bases	0	0
GAGE_Missing reference bases	29670(1.05%)	29931(1.06%)
GAGE_Missing assembly bases	5386(0.20%)	31612(1.13%)
GAGE_Missing assembly contigs	1(1.61%)	1(4.17%)
GAGE_Duplicated reference bases	0	0
GAGE_Compressed reference bases	29558	29297
GAGE_Bad trim	0	0
GAGE_Avg idy	99.99	99.99
GAGE_SNPs	30	30
GAGE_Indels < 5bp	9	9
GAGE_Indels >= 5	2	28
GAGE_Inversions	0	0
GAGE_Relocation	2	10
GAGE_Translocation	0	0
GAGE_Corrected contig #	65	65
GAGE_Corrected assembly size	2755459	2755459
GAGE_Min correct contig	751	751
GAGE_Max correct contig	207718	207718
GAGE_Corrected N50	77180 COUNT: 12	77180 COUNT: 12
