Assembly	ABYSS_PE_MIS_PE_mrsa_mis-1_bi_2x150bp_default__mrsa_mis-2_bi_2x150bp_default.1coverage_126.final_broken	ABYSS_PE_MIS_PE_mrsa_mis-1_bi_2x150bp_default__mrsa_mis-2_bi_2x150bp_default.1coverage_126.final
#Contigs (>= 0 bp)	5	5
#Contigs (>= 1000 bp)	2	2
Total length (>= 0 bp)	5176	5176
Total length (>= 1000 bp)	4103	4103
#Contigs	5	5
Largest contig	2236	2236
Total length	5176	5176
Reference length	2813862	2813862
GC (%)	30.97	30.97
Reference GC (%)	32.81	32.81
N50	1867	1867
NG50	None	None
N75	1867	1867
NG75	None	None
#misassemblies	1	1
#local misassemblies	0	0
#unaligned contigs	0 + 0 part	0 + 0 part
Unaligned contigs length	0	0
Genome fraction (%)	0.158	0.158
Duplication ratio	1.109	1.109
#N's per 100 kbp	0.00	0.00
#mismatches per 100 kbp	0.00	0.00
#indels per 100 kbp	0.00	0.00
#genes	1 + 2 part	1 + 2 part
#predicted genes (unique)	7	7
#predicted genes (>= 0 bp)	7	7
#predicted genes (>= 300 bp)	5	5
#predicted genes (>= 1500 bp)	0	0
#predicted genes (>= 3000 bp)	0	0
Largest alignment	2236	2236
NA50	1268	1268
NGA50	None	None
NA75	599	599
NGA75	None	None
