1: PREPARING DATA
2,3: RUNNING mummer AND CREATING CLUSTERS
# reading input file "/vol/codine-tmp/juene/tmp.6dqDdNiYfY/quast/gage/tmp/VELVET_PGM_mrsa_pgm_400bp_es_318_IKA_ts3.2_morestringent.0.165percent_103.final.contigs.ntref" of length 2813864
# construct suffix tree for sequence of length 2813864
# (maximum reference length is 536870908)
# (maximum query length is 4294967295)
# process 28138 characters per dot
#....................................................................................................
# CONSTRUCTIONTIME /vol/ngscomparison/software/analysis/quast-2.1/libs/MUMmer3.23-linux/mummer /vol/codine-tmp/juene/tmp.6dqDdNiYfY/quast/gage/tmp/VELVET_PGM_mrsa_pgm_400bp_es_318_IKA_ts3.2_morestringent.0.165percent_103.final.contigs.ntref 1.05
# reading input file "/vol/codine-tmp/juene/tmp.6dqDdNiYfY/quast/corrected_input/VELVET_PGM_mrsa_pgm_400bp_es_318_IKA_ts3.2_morestringent.0.165percent_103.final.contigs" of length 11132858
# matching query-file "/vol/codine-tmp/juene/tmp.6dqDdNiYfY/quast/corrected_input/VELVET_PGM_mrsa_pgm_400bp_es_318_IKA_ts3.2_morestringent.0.165percent_103.final.contigs"
# against subject-file "/vol/codine-tmp/juene/tmp.6dqDdNiYfY/quast/gage/tmp/VELVET_PGM_mrsa_pgm_400bp_es_318_IKA_ts3.2_morestringent.0.165percent_103.final.contigs.ntref"
# COMPLETETIME /vol/ngscomparison/software/analysis/quast-2.1/libs/MUMmer3.23-linux/mummer /vol/codine-tmp/juene/tmp.6dqDdNiYfY/quast/gage/tmp/VELVET_PGM_mrsa_pgm_400bp_es_318_IKA_ts3.2_morestringent.0.165percent_103.final.contigs.ntref 11.63
# SPACE /vol/ngscomparison/software/analysis/quast-2.1/libs/MUMmer3.23-linux/mummer /vol/codine-tmp/juene/tmp.6dqDdNiYfY/quast/gage/tmp/VELVET_PGM_mrsa_pgm_400bp_es_318_IKA_ts3.2_morestringent.0.165percent_103.final.contigs.ntref 15.08
4: FINISHING DATA
Filtering alignments
Extracting alignment coordinates
Analyzing SNPs
Extracting alignment breakpoints
Generating report file
Found genome size at position 4 with value 2813862 aka 2813862
Calculating point at 0 and the sum is 1000248 and i is11173 and lens is 14470 and length is 268
Calculating point at 1 and the sum is 2000176 and i is7102 and lens is 14470 and length is 227
Calculating point at 2 and the sum is 3000200 and i is2410 and lens is 14470 and length is 205
