calling: java -cp /vol/ngscomparison/software/analysis/quast-2.1/libs/gage:. SizeFasta /vol/codine-tmp/juene/tmp.6dqDdNiYfY/quast/corrected_input/MRSA_COL_Plasmid.fasta |awk '{SUM+=; print SUM}'|tail -n 1
Contig Stats
Total units: 45183
Reference: 2813862
BasesInFasta: 11087676
Min: 205
Max: 622
N10: 365 COUNT: 717
N25: 337 COUNT: 1925
N50: 310 COUNT: 4110
N75: 291 COUNT: 6454
E-size:995.37

Genome Size: 2813862
Assembly Size: 11087676
Chaff bases: 0
Missing Reference Bases: 137446(4.88%)
Missing Assembly Bases: 26072(0.24%)
Missing Assembly Contigs: 62(0.14%)
Duplicated Reference Bases: 7596011
Compressed Reference Bases: 42011
Bad Trim: 9231
Avg Idy: 98.94
SNPs: 2030
Indels < 5bp: 23152
Indels >= 5: 2
Inversions: 25
Relocation: 24
Translocation: 1

Corrected Contig Stats
calling: java -cp /vol/ngscomparison/software/analysis/quast-2.1/libs/gage:.:. GetFastaStats -o -min 199 -genomeSize 2813862 /vol/codine-tmp/juene/tmp.6dqDdNiYfY/quast/gage/tmp/VELVET_PGM_mrsa_pgm_400bp_es_318_IKA_ts3.2_morestringent.0.165percent_103.final.contigs.matches.lens 2> /dev/null
Total units: 14105
Reference: 2813862
BasesInFasta: 3417655
Min: 200
Max: 534
N10: 319 COUNT: 802
N25: 283 COUNT: 2220
N50: 250 COUNT: 4871
N75: 223 COUNT: 7858
E-size:302.74

Done
