Assembly	CLC_PGM_mrsa_pgm_200bp_es_316_IonOnev2_ts3.0_morestringent.96coverage.result
#Una_fully unaligned contigs	2
Una_Fully unaligned length	446
#Una_partially unaligned contigs	14
#Una_with misassembly	0
#Una_both parts are significant	0
Una_Partially unaligned length	421
#N's	22
