All statistics are based on contigs of size >= 200 bp, unless otherwise noted (e.g., "# contigs (>= 0 bp)" and "Total length (>= 0 bp)" include all contigs).

Assembly                         CLC_MIS_PE_mtbh37-1_mis_2x250bp_nextera_default__mtbh37-2_mis_2x250bp_nextera_default.0.650percent.result_broken  CLC_MIS_PE_mtbh37-1_mis_2x250bp_nextera_default__mtbh37-2_mis_2x250bp_nextera_default.0.650percent.result
#Mis_misassemblies               0                                                                                                                 2                                                                                                        
#Mis_relocations                 0                                                                                                                 2                                                                                                        
#Mis_translocations              0                                                                                                                 0                                                                                                        
#Mis_inversions                  0                                                                                                                 0                                                                                                        
#Mis_misassembled contigs        0                                                                                                                 2                                                                                                        
Mis_Misassembled contigs length  0                                                                                                                 990                                                                                                      
#Mis_local misassemblies         12                                                                                                                32                                                                                                       
#mismatches                      366                                                                                                               376                                                                                                      
#indels                          122                                                                                                               302                                                                                                      
#Mis_short indels (<= 5 bp)      107                                                                                                               280                                                                                                      
#Mis_long indels (> 5 bp)        15                                                                                                                22                                                                                                       
Indels length                    389                                                                                                               735                                                                                                      
