Assembly	#Contigs (>= 0 bp)	#Contigs (>= 1000 bp)	Total length (>= 0 bp)	Total length (>= 1000 bp)	#Contigs	Largest contig	Total length	Reference length	GC (%)	Reference GC (%)	N50	NG50	N75	NG75	#misassemblies	#local misassemblies	#unaligned contigs	Unaligned contigs length	Genome fraction (%)	Duplication ratio	#N's per 100 kbp	#mismatches per 100 kbp	#indels per 100 kbp	#genes	#predicted genes (unique)	#predicted genes (>= 0 bp)	#predicted genes (>= 300 bp)	#predicted genes (>= 1500 bp)	#predicted genes (>= 3000 bp)	Largest alignment	NA50	NGA50	NA75	NGA75
VELVET_MIS_PE_sakai_mis-both_bi_2x250bp_SI_default.0.64percent_115.final.contigs_broken	837	482	5422747	5281476	831	57143	5421858	5594470	50.34	50.48	18397	17846	10074	9270	4	4	1 + 0 part	5407	94.733	1.001	0.00	3.43	0.34	4736 + 474 part	5741	5756	4622	629	56	57143	18397	17846	9880	9164
VELVET_MIS_PE_sakai_mis-both_bi_2x250bp_SI_default.0.64percent_115.final.contigs	603	295	5446744	5329030	603	126629	5446744	5594470	50.34	50.48	36055	35618	17964	16831	20	181	1 + 0 part	5407	94.878	1.006	440.58	3.49	15.39	4783 + 440 part	5703	5719	4622	631	56	126157	35489	35161	17599	16195
