1: PREPARING DATA
2,3: RUNNING mummer AND CREATING CLUSTERS
# reading input file "/vol/codine-tmp/juene/tmp.6Qg6dC3LXw/quast/contigs_reports/nucmer_output/CLC_PGM_sakai_pgm_mu_318_400bp_IO_TS3.4_ms.100coverage.result.ntref" of length 5594473
# construct suffix tree for sequence of length 5594473
# (maximum reference length is 536870908)
# (maximum query length is 4294967295)
# process 55944 characters per dot
#....................................................................................................
# CONSTRUCTIONTIME /vol/ngscomparison/software/analysis/quast-2.1/libs/MUMmer3.23-linux/mummer /vol/codine-tmp/juene/tmp.6Qg6dC3LXw/quast/contigs_reports/nucmer_output/CLC_PGM_sakai_pgm_mu_318_400bp_IO_TS3.4_ms.100coverage.result.ntref 2.76
# reading input file "/vol/codine-tmp/juene/tmp.6Qg6dC3LXw/quast/corrected_input/CLC_PGM_sakai_pgm_mu_318_400bp_IO_TS3.4_ms.100coverage.result" of length 5490680
# matching query-file "/vol/codine-tmp/juene/tmp.6Qg6dC3LXw/quast/corrected_input/CLC_PGM_sakai_pgm_mu_318_400bp_IO_TS3.4_ms.100coverage.result"
# against subject-file "/vol/codine-tmp/juene/tmp.6Qg6dC3LXw/quast/contigs_reports/nucmer_output/CLC_PGM_sakai_pgm_mu_318_400bp_IO_TS3.4_ms.100coverage.result.ntref"
# COMPLETETIME /vol/ngscomparison/software/analysis/quast-2.1/libs/MUMmer3.23-linux/mummer /vol/codine-tmp/juene/tmp.6Qg6dC3LXw/quast/contigs_reports/nucmer_output/CLC_PGM_sakai_pgm_mu_318_400bp_IO_TS3.4_ms.100coverage.result.ntref 11.76
# SPACE /vol/ngscomparison/software/analysis/quast-2.1/libs/MUMmer3.23-linux/mummer /vol/codine-tmp/juene/tmp.6Qg6dC3LXw/quast/contigs_reports/nucmer_output/CLC_PGM_sakai_pgm_mu_318_400bp_IO_TS3.4_ms.100coverage.result.ntref 10.76
4: FINISHING DATA
