Assembly	#Contigs	#Contigs (>= 0 bp)	#Contigs (>= 1000 bp)	Largest contig	Total length	Total length (>= 0 bp)	Total length (>= 1000 bp)	Reference length	N50	NG50	N75	NG75	L50	LG50	L75	LG75	#local misassemblies	#misassemblies	#misassembled contigs	Misassembled contigs length	Misassemblies inter-contig overlap	#unaligned contigs	Unaligned contigs length	#ambiguously mapped contigs	Extra bases in ambiguously mapped contigs	#N's	#N's per 100 kbp	Genome fraction (%)	Duplication ratio	#genes	#predicted genes (unique)	#predicted genes (>= 0 bp)	#predicted genes (>= 300 bp)	#predicted genes (>= 1500 bp)	#predicted genes (>= 3000 bp)	#mismatches	#indels	Indels length	#mismatches per 100 kbp	#indels per 100 kbp	GC (%)	Reference GC (%)	Average %IDY	Largest alignment	NA50	NGA50	NA75	NGA75	LA50	LGA50	LA75	LGA75	#Mis_misassemblies	#Mis_relocations	#Mis_translocations	#Mis_inversions	#Mis_misassembled contigs	Mis_Misassembled contigs length	#Mis_local misassemblies	#Mis_short indels (<= 5 bp)	#Mis_long indels (> 5 bp)	#Una_fully unaligned contigs	Una_Fully unaligned length	#Una_partially unaligned contigs	#Una_with misassembly	#Una_both parts are significant	Una_Partially unaligned length	GAGE_Contigs #	GAGE_Min contig	GAGE_Max contig	GAGE_N50	GAGE_Genome size	GAGE_Assembly size	GAGE_Chaff bases	GAGE_Missing reference bases	GAGE_Missing assembly bases	GAGE_Missing assembly contigs	GAGE_Duplicated reference bases	GAGE_Compressed reference bases	GAGE_Bad trim	GAGE_Avg idy	GAGE_SNPs	GAGE_Indels < 5bp	GAGE_Indels >= 5	GAGE_Inversions	GAGE_Relocation	GAGE_Translocation	GAGE_Corrected contig #	GAGE_Corrected assembly size	GAGE_Min correct contig	GAGE_Max correct contig	GAGE_Corrected N50
ABYSS_PE_MIS_PE_sakai_mis-1_bi_2x150bp_default__sakai_mis-2_bi_2x150bp_default.0.826percent_110-scaffolds_broken	333	422	239	292295	5640990	5654536	5590191	5594470	67414	67808	33316	33334	25	24	56	55	4	3	3	293212	21127	2 + 0 part	438	62	-71360	45	0.80	97.556	1.024	5136 + 207 part	5420	5611	4688	699	74	558	96	329	10.22	1.76	50.49	50.48	98.611	228658	66512	67414	33316	33334	26	25	57	56	3	3	0	0	3	293212	4	87	9	2	438	0	0	0	0	333	201	292295	67808 COUNT: 24	5594470	5640990	0	5865(0.10%)	16(0.00%)	0(0.00%)	75587	176814	2	99.98	314	82	11	0	2	0	306	5566923	213	228653	59947 COUNT: 28
ABYSS_PE_MIS_PE_sakai_mis-1_bi_2x150bp_default__sakai_mis-2_bi_2x150bp_default.0.826percent_110-scaffolds	264	353	197	376955	5645176	5658722	5609514	5594470	100169	100169	44562	44562	18	18	38	38	30	19	14	472624	21791	2 + 0 part	438	47	-58326	4231	74.95	97.776	1.025	5169 + 187 part	5411	5599	4687	703	74	578	685	1257	10.57	12.52	50.49	50.48	98.601	263115	100169	100169	44562	44562	19	19	39	39	19	19	0	0	14	472624	30	664	21	2	438	0	0	0	0	264	201	376955	100169 COUNT: 18	5594470	5645176	0	5845(0.10%)	4143(0.07%)	0(0.00%)	74572	174911	650	99.98	318	90	55	6	8	0	306	5568572	213	228653	59947 COUNT: 28
