Assembly	VELVET_MIS_PE_sakai_mis-1_bi_2x150bp_default__sakai_mis-2_bi_2x150bp_default.0.826percent_67.final.contigs_broken	VELVET_MIS_PE_sakai_mis-1_bi_2x150bp_default__sakai_mis-2_bi_2x150bp_default.0.826percent_67.final.contigs
#Una_fully unaligned contigs	1	1
Una_Fully unaligned length	5452	5452
#Una_partially unaligned contigs	0	2
#Una_with misassembly	0	0
#Una_both parts are significant	0	1
Una_Partially unaligned length	0	2490
#N's	0	5060
