calling: java -cp /vol/ngscomparison/software/analysis/quast-2.1/libs/gage:. SizeFasta /vol/codine-tmp/juene/tmp.eJa24DH3ZB/quast/corrected_input/MRSA_COL_Plasmid.fasta |awk '{SUM+=; print SUM}'|tail -n 1
Contig Stats
Total units: 60
Reference: 2813862
BasesInFasta: 2776584
Min: 201
Max: 369030
N10: 369030 COUNT: 1
N25: 259543 COUNT: 3
N50: 156773 COUNT: 6
N75: 69052 COUNT: 12
E-size:179446.67

Genome Size: 2813862
Assembly Size: 2776584
Chaff bases: 0
Missing Reference Bases: 5158(0.18%)
Missing Assembly Bases: 2(0.00%)
Missing Assembly Contigs: 0(0.00%)
Duplicated Reference Bases: 1176
Compressed Reference Bases: 34720
Bad Trim: 2
Avg Idy: 99.99
SNPs: 42
Indels < 5bp: 88
Indels >= 5: 4
Inversions: 0
Relocation: 1
Translocation: 0

Corrected Contig Stats
calling: java -cp /vol/ngscomparison/software/analysis/quast-2.1/libs/gage:.:. GetFastaStats -o -min 199 -genomeSize 2813862 /vol/codine-tmp/juene/tmp.eJa24DH3ZB/quast/gage/tmp/NEWBLER_PGM_mrsa_pgm_400bp_es_318_IKA_ts3.2_morestringent.96coverage.contigs.matches.lens 2> /dev/null
Total units: 61
Reference: 2813862
BasesInFasta: 2776304
Min: 203
Max: 369039
N10: 369039 COUNT: 1
N25: 259552 COUNT: 3
N50: 110544 COUNT: 6
N75: 57860 COUNT: 15
E-size:166768.36

Done
