Assembly	MIRA_PGM_mtbh37_pgm_400bp_es_318v2_OT2_tsv3.6_morestringent.0.075percent_out.unpadded
#Mis_misassemblies	29
#Mis_relocations	29
#Mis_translocations	0
#Mis_inversions	0
#Mis_misassembled contigs	29
Mis_Misassembled contigs length	76692
#Mis_local misassemblies	6
#mismatches	772
#indels	3523
#Mis_short indels (<= 5 bp)	3514
#Mis_long indels (> 5 bp)	9
Indels length	3810
