Assembly	VELVET_MIS_PE_mtbh37-1_mis_2x250bp_nextera_default__mtbh37-2_mis_2x250bp_nextera_default_75.final.contigs_broken	VELVET_MIS_PE_mtbh37-1_mis_2x250bp_nextera_default__mtbh37-2_mis_2x250bp_nextera_default_75.final.contigs
#Contigs	396	178
#Contigs (>= 0 bp)	408	189
#Contigs (>= 1000 bp)	330	139
Largest contig	70389	206130
Total length	4252534	4272654
Total length (>= 0 bp)	4254481	4274526
Total length (>= 1000 bp)	4216281	4251970
Reference length	4411532	4411532
N50	22609	66822
NG50	21522	66259
N75	11784	33953
NG75	10684	28994
L50	63	20
LG50	67	22
L75	129	42
LG75	140	45
#local misassemblies	19	159
#misassemblies	7	12
#misassembled contigs	6	9
Misassembled contigs length	41974	489780
Misassemblies inter-contig overlap	14454	14454
#unaligned contigs	0 + 0 part	0 + 1 part
Unaligned contigs length	0	345
#ambiguously mapped contigs	24	23
Extra bases in ambiguously mapped contigs	-17139	-16542
#N's	0	20045
#N's per 100 kbp	0.00	469.15
Genome fraction (%)	96.000	96.063
Duplication ratio	1.003	1.008
#genes	3730 + 309 part	3793 + 244 part
#predicted genes (unique)	4187	4151
#predicted genes (>= 0 bp)	4190	4154
#predicted genes (>= 300 bp)	3620	3606
#predicted genes (>= 1500 bp)	525	527
#predicted genes (>= 3000 bp)	64	64
#mismatches	281	260
#indels	38	732
Indels length	254	2049
#mismatches per 100 kbp	6.64	6.14
#indels per 100 kbp	0.90	17.27
GC (%)	65.38	65.38
Reference GC (%)	65.61	65.61
Average %IDY	99.793	99.770
Largest alignment	70389	191640
NA50	22609	65343
NGA50	21522	63892
NA75	11727	31998
NGA75	10671	27127
LA50	63	22
LGA50	67	23
LA75	130	45
LGA75	141	48
#Mis_misassemblies	7	12
#Mis_relocations	7	12
#Mis_translocations	0	0
#Mis_inversions	0	0
#Mis_misassembled contigs	6	9
Mis_Misassembled contigs length	41974	489780
#Mis_local misassemblies	19	159
#Mis_short indels (<= 5 bp)	29	681
#Mis_long indels (> 5 bp)	9	51
#Una_fully unaligned contigs	0	0
Una_Fully unaligned length	0	0
#Una_partially unaligned contigs	0	1
#Una_with misassembly	0	0
#Una_both parts are significant	0	1
Una_Partially unaligned length	0	345
GAGE_Contigs #	396	178
GAGE_Min contig	224	237
GAGE_Max contig	70389	206130
GAGE_N50	21522 COUNT: 67	66259 COUNT: 22
GAGE_Genome size	4411532	4411532
GAGE_Assembly size	4252534	4272654
GAGE_Chaff bases	0	0
GAGE_Missing reference bases	115264(2.61%)	115182(2.61%)
GAGE_Missing assembly bases	885(0.02%)	20587(0.48%)
GAGE_Missing assembly contigs	0(0.00%)	0(0.00%)
GAGE_Duplicated reference bases	1657	1657
GAGE_Compressed reference bases	55897	54884
GAGE_Bad trim	885	863
GAGE_Avg idy	99.99	99.98
GAGE_SNPs	220	220
GAGE_Indels < 5bp	29	53
GAGE_Indels >= 5	16	211
GAGE_Inversions	1	5
GAGE_Relocation	10	21
GAGE_Translocation	0	0
GAGE_Corrected contig #	418	412
GAGE_Corrected assembly size	4255116	4255717
GAGE_Min correct contig	224	224
GAGE_Max correct contig	70389	70389
GAGE_Corrected N50	20107 COUNT: 69	20586 COUNT: 68
