All statistics are based on contigs of size >= 200 bp, unless otherwise noted (e.g., "# contigs (>= 0 bp)" and "Total length (>= 0 bp)" include all contigs).

Assembly                                                                                                          #Contigs (>= 0 bp)  #Contigs (>= 1000 bp)  Total length (>= 0 bp)  Total length (>= 1000 bp)  #Contigs  Largest contig  Total length  Reference length  GC (%)  Reference GC (%)  N50    NG50   N75    NG75   #misassemblies  #local misassemblies  #unaligned contigs  Unaligned contigs length  Genome fraction (%)  Duplication ratio  #N's per 100 kbp  #mismatches per 100 kbp  #indels per 100 kbp  #genes           #predicted genes (unique)  #predicted genes (>= 0 bp)  #predicted genes (>= 300 bp)  #predicted genes (>= 1500 bp)  #predicted genes (>= 3000 bp)  Largest alignment  NA50   NGA50  NA75   NGA75
VELVET_MIS_PE_mtbh37-1_mis_2x250bp_nextera_default__mtbh37-2_mis_2x250bp_nextera_default_75.final.contigs_broken  408                 330                    4254481                 4216281                    396       70389           4252534       4411532           65.38   65.61             22609  21522  11784  10684  7               19                    0 + 0 part          0                         96.000               1.003              0.00              6.64                     0.90                 3730 + 309 part  4187                       4190                        3620                          525                            64                             70389              22609  21522  11727  10671
VELVET_MIS_PE_mtbh37-1_mis_2x250bp_nextera_default__mtbh37-2_mis_2x250bp_nextera_default_75.final.contigs         189                 139                    4274526                 4251970                    178       206130          4272654       4411532           65.38   65.61             66822  66259  33953  28994  12              159                   0 + 1 part          345                       96.063               1.008              469.15            6.14                     17.27                3793 + 244 part  4151                       4154                        3606                          527                            64                             191640             65343  63892  31998  27127
