calling: java -cp /vol/ngscomparison/software/analysis/quast-2.1/libs/gage:. SizeFasta /vol/codine-tmp/juene/tmp.SDm4fx1LUo/quast/corrected_input/MRSA_COL_Plasmid.fasta |awk '{SUM+=; print SUM}'|tail -n 1
Contig Stats
Total units: 2173
Reference: 2813862
BasesInFasta: 4496872
Min: 204
Max: 139294
N10: 123237 COUNT: 3
N25: 66207 COUNT: 8
N50: 19193 COUNT: 29
N75: 7900 COUNT: 84
E-size:41485.68

Genome Size: 2813862
Assembly Size: 4496872
Chaff bases: 0
Missing Reference Bases: 1212(0.04%)
Missing Assembly Bases: 10670(0.24%)
Missing Assembly Contigs: 5(0.23%)
Duplicated Reference Bases: 1549726
Compressed Reference Bases: 23707
Bad Trim: 8488
Avg Idy: 99.96
SNPs: 78
Indels < 5bp: 277
Indels >= 5: 5
Inversions: 3
Relocation: 3
Translocation: 0

Corrected Contig Stats
calling: java -cp /vol/ngscomparison/software/analysis/quast-2.1/libs/gage:.:. GetFastaStats -o -min 199 -genomeSize 2813862 /vol/codine-tmp/juene/tmp.SDm4fx1LUo/quast/gage/tmp/SEQMAN_PGM_mrsa_pgm_400bp_es_318_IKA_ts3.2_morestringent.0.165percent.matches.lens 2> /dev/null
Total units: 395
Reference: 2813862
BasesInFasta: 2951245
Min: 226
Max: 139302
N10: 123246 COUNT: 3
N25: 61314 COUNT: 8
N50: 18458 COUNT: 31
N75: 7426 COUNT: 90
E-size:39134.57

Done
