All statistics are based on contigs of size >= 200 bp, unless otherwise noted (e.g., "# contigs (>= 0 bp)" and "Total length (>= 0 bp)" include all contigs).

Assembly                       ABYSS_PE_MIS_PE_mrsa_mis-1_bi_2x250bp_default__mrsa_mis-2_bi_2x250bp_default.86coverage_124.final_broken  ABYSS_PE_MIS_PE_mrsa_mis-1_bi_2x250bp_default__mrsa_mis-2_bi_2x250bp_default.86coverage_124.final
#Contigs (>= 0 bp)             151                                                                                                       147                                                                                              
#Contigs (>= 1000 bp)          47                                                                                                        44                                                                                               
Total length (>= 0 bp)         2819245                                                                                                   2819445                                                                                          
Total length (>= 1000 bp)      2791475                                                                                                   2792484                                                                                          
#Contigs                       108                                                                                                       104                                                                                              
Largest contig                 662691                                                                                                    662691                                                                                           
Total length                   2812627                                                                                                   2812827                                                                                          
Reference length               2813862                                                                                                   2813862                                                                                          
GC (%)                         32.76                                                                                                     32.76                                                                                            
Reference GC (%)               32.81                                                                                                     32.81                                                                                            
N50                            112519                                                                                                    161475                                                                                           
NG50                           112519                                                                                                    161475                                                                                           
N75                            68519                                                                                                     68519                                                                                            
NG75                           68519                                                                                                     68519                                                                                            
#misassemblies                 3                                                                                                         4                                                                                                
#local misassemblies           0                                                                                                         1                                                                                                
#unaligned contigs             0 + 0 part                                                                                                0 + 0 part                                                                                       
Unaligned contigs length       0                                                                                                         0                                                                                                
Genome fraction (%)            99.098                                                                                                    99.098                                                                                           
Duplication ratio              1.005                                                                                                     1.005                                                                                            
#N's per 100 kbp               0.04                                                                                                      7.15                                                                                             
#mismatches per 100 kbp        1.43                                                                                                      1.36                                                                                             
#indels per 100 kbp            0.36                                                                                                      0.43                                                                                             
#genes                         2687 + 31 part                                                                                            2689 + 29 part                                                                                   
#predicted genes (unique)      2680                                                                                                      2680                                                                                             
#predicted genes (>= 0 bp)     2683                                                                                                      2683                                                                                             
#predicted genes (>= 300 bp)   2296                                                                                                      2296                                                                                             
#predicted genes (>= 1500 bp)  296                                                                                                       296                                                                                              
#predicted genes (>= 3000 bp)  30                                                                                                        30                                                                                               
Largest alignment              662691                                                                                                    662691                                                                                           
NA50                           112519                                                                                                    161425                                                                                           
NGA50                          112519                                                                                                    161425                                                                                           
NA75                           61564                                                                                                     61564                                                                                            
NGA75                          61564                                                                                                     61564                                                                                            
