Assembly	CLC_PGM_sakai_pgm_mu_318_400bp_IO_TS3.4_ms.0.95percent.result
#Una_fully unaligned contigs	18
Una_Fully unaligned length	4778
#Una_partially unaligned contigs	7
#Una_with misassembly	0
#Una_both parts are significant	0
Una_Partially unaligned length	674
#N's	2193
