Assembly	SOAP2_MIS_PE_mrsa_mis-1_bi_2x250bp_default.0.460percent_13.final.scaf_broken	SOAP2_MIS_PE_mrsa_mis-1_bi_2x250bp_default.0.460percent_13.final.scaf
GAGE_Contigs #	43	43
GAGE_Min contig	200	200
GAGE_Max contig	316	316
GAGE_N50	0 COUNT: 0	0 COUNT: 0
GAGE_Genome size	2813862	2813862
GAGE_Assembly size	9836	9836
GAGE_Chaff bases	0	0
GAGE_Missing reference bases	2813409(99.98%)	2813409(99.98%)
GAGE_Missing assembly bases	9383(95.39%)	9383(95.39%)
GAGE_Missing assembly contigs	41(95.35%)	41(95.35%)
GAGE_Duplicated reference bases	0	0
GAGE_Compressed reference bases	0	0
GAGE_Bad trim	0	0
GAGE_Avg idy	100.00	100.00
GAGE_SNPs	0	0
GAGE_Indels < 5bp	0	0
GAGE_Indels >= 5	0	0
GAGE_Inversions	0	0
GAGE_Relocation	0	0
GAGE_Translocation	0	0
GAGE_Corrected contig #	2	2
GAGE_Corrected assembly size	453	453
GAGE_Min correct contig	223	223
GAGE_Max correct contig	230	230
GAGE_Corrected N50	0 COUNT: 0	0 COUNT: 0
