All statistics are based on contigs of size >= 200 bp, unless otherwise noted (e.g., "# contigs (>= 0 bp)" and "Total length (>= 0 bp)" include all contigs).

Assembly                                                                                                          GAGE_Contigs #  GAGE_Min contig  GAGE_Max contig  GAGE_N50         GAGE_Genome size  GAGE_Assembly size  GAGE_Chaff bases  GAGE_Missing reference bases  GAGE_Missing assembly bases  GAGE_Missing assembly contigs  GAGE_Duplicated reference bases  GAGE_Compressed reference bases  GAGE_Bad trim  GAGE_Avg idy  GAGE_SNPs  GAGE_Indels < 5bp  GAGE_Indels >= 5  GAGE_Inversions  GAGE_Relocation  GAGE_Translocation  GAGE_Corrected contig #  GAGE_Corrected assembly size  GAGE_Min correct contig  GAGE_Max correct contig  GAGE_Corrected N50
VELVET_MIS_PE_mrsa_mis-1_bi_2x150bp_default__mrsa_mis-2_bi_2x150bp_default.0.527percent_121.final.contigs_broken  1325            241              30045            3218 COUNT: 249  2813862           2742951             0                 57138(2.03%)                  5392(0.20%)                  1(0.08%)                       2356                             39546                            7              100.00        41         10                 1                 1                2                0                   1321                     2736761                       241                      30045                    3197 COUNT: 251   
VELVET_MIS_PE_mrsa_mis-1_bi_2x150bp_default__mrsa_mis-2_bi_2x150bp_default.0.527percent_121.final.contigs         313             241              77492            19830 COUNT: 41  2813862           2810512             0                 56743(2.02%)                  72575(2.58%)                 1(0.32%)                       2023                             39251                            22             99.98         41         45                 994               3                3                0                   1310                     2737475                       241                      30045                    3246 COUNT: 248   
