calling: java -cp /vol/ngscomparison/software/analysis/quast-2.1/libs/gage:. SizeFasta /vol/codine-tmp/juene/tmp.k6zr2bB2Tt/quast/corrected_input/MRSA_COL_Plasmid.fasta |awk '{SUM+=; print SUM}'|tail -n 1
Contig Stats
Total units: 8001
Reference: 2813862
BasesInFasta: 3722556
Min: 200
Max: 5744
N10: 2754 COUNT: 81
N25: 1741 COUNT: 280
N50: 1031 COUNT: 816
N75: 521 COUNT: 1773
E-size:1370.12

Genome Size: 2813862
Assembly Size: 3722556
Chaff bases: 0
Missing Reference Bases: 231658(8.23%)
Missing Assembly Bases: 1011983(27.19%)
Missing Assembly Contigs: 4231(52.88%)
Duplicated Reference Bases: 65560
Compressed Reference Bases: 21287
Bad Trim: 4321
Avg Idy: 99.92
SNPs: 1049
Indels < 5bp: 411
Indels >= 5: 189
Inversions: 0
Relocation: 0
Translocation: 0

Corrected Contig Stats
calling: java -cp /vol/ngscomparison/software/analysis/quast-2.1/libs/gage:.:. GetFastaStats -o -min 199 -genomeSize 2813862 /vol/codine-tmp/juene/tmp.k6zr2bB2Tt/quast/gage/tmp/SOAP2_MIS_PE_mrsa_mis-1_bi_2x250bp_default.0.460percent_49.final.scaf_broken.matches.lens 2> /dev/null
Total units: 3572
Reference: 2813862
BasesInFasta: 2631222
Min: 200
Max: 4985
N10: 2569 COUNT: 86
N25: 1637 COUNT: 298
N50: 960 COUNT: 870
N75: 491 COUNT: 1888
E-size:1200.18

Done
