Assembly	VELVET_PGM_mrsa_pgm_200bp_es_316_IonOnev2_ts3.0_morestringent.0.230percent_161.final.contigs
GAGE_Contigs #	335
GAGE_Min contig	326
GAGE_Max contig	1489
GAGE_N50	0 COUNT: 0
GAGE_Genome size	2813862
GAGE_Assembly size	194509
GAGE_Chaff bases	0
GAGE_Missing reference bases	2598500(92.35%)
GAGE_Missing assembly bases	450(0.23%)
GAGE_Missing assembly contigs	0(0.00%)
GAGE_Duplicated reference bases	69
GAGE_Compressed reference bases	22798
GAGE_Bad trim	450
GAGE_Avg idy	99.91
GAGE_SNPs	28
GAGE_Indels < 5bp	142
GAGE_Indels >= 5	0
GAGE_Inversions	0
GAGE_Relocation	1
GAGE_Translocation	0
GAGE_Corrected contig #	335
GAGE_Corrected assembly size	193932
GAGE_Min correct contig	301
GAGE_Max correct contig	1491
GAGE_Corrected N50	0 COUNT: 0
