Assembly	ABYSS_PE_MIS_PE_mrsa_mis-1_bi_2x250bp_default__mrsa_mis-2_bi_2x250bp_default.0.550percent_124.final_broken	ABYSS_PE_MIS_PE_mrsa_mis-1_bi_2x250bp_default__mrsa_mis-2_bi_2x250bp_default.0.550percent_124.final
#Contigs	130	130
#Contigs (>= 0 bp)	189	189
#Contigs (>= 1000 bp)	54	54
Largest contig	457339	457339
Total length	2798617	2798617
Total length (>= 0 bp)	2807739	2807739
Total length (>= 1000 bp)	2773066	2773066
Reference length	2813862	2813862
N50	112519	112519
NG50	112519	112519
N75	52938	52938
NG75	52938	52938
L50	7	7
LG50	7	7
L75	16	16
LG75	16	16
#local misassemblies	0	0
#misassemblies	3	3
#misassembled contigs	3	3
Misassembled contigs length	72468	72468
Misassemblies inter-contig overlap	1	1
#unaligned contigs	0 + 0 part	0 + 0 part
Unaligned contigs length	0	0
#ambiguously mapped contigs	28	28
Extra bases in ambiguously mapped contigs	-12882	-12882
#N's	0	0
#N's per 100 kbp	0.00	0.00
Genome fraction (%)	98.722	98.722
Duplication ratio	1.003	1.003
#genes	2673 + 38 part	2673 + 38 part
#predicted genes (unique)	2685	2685
#predicted genes (>= 0 bp)	2690	2690
#predicted genes (>= 300 bp)	2291	2291
#predicted genes (>= 1500 bp)	297	297
#predicted genes (>= 3000 bp)	30	30
#mismatches	35	35
#indels	9	9
Indels length	9	9
#mismatches per 100 kbp	1.26	1.26
#indels per 100 kbp	0.32	0.32
GC (%)	32.69	32.69
Reference GC (%)	32.81	32.81
Average %IDY	98.762	98.762
Largest alignment	457339	457339
NA50	112519	112519
NGA50	112519	112519
NA75	52938	52938
NGA75	52938	52938
LA50	7	7
LGA50	7	7
LA75	16	16
LGA75	16	16
#Mis_misassemblies	3	3
#Mis_relocations	3	3
#Mis_translocations	0	0
#Mis_inversions	0	0
#Mis_misassembled contigs	3	3
Mis_Misassembled contigs length	72468	72468
#Mis_local misassemblies	0	0
#Mis_short indels (<= 5 bp)	9	9
#Mis_long indels (> 5 bp)	0	0
#Una_fully unaligned contigs	0	0
Una_Fully unaligned length	0	0
#Una_partially unaligned contigs	0	0
#Una_with misassembly	0	0
#Una_both parts are significant	0	0
Una_Partially unaligned length	0	0
GAGE_Contigs #	130	130
GAGE_Min contig	202	202
GAGE_Max contig	457339	457339
GAGE_N50	112519 COUNT: 7	112519 COUNT: 7
GAGE_Genome size	2813862	2813862
GAGE_Assembly size	2798617	2798617
GAGE_Chaff bases	0	0
GAGE_Missing reference bases	193(0.01%)	193(0.01%)
GAGE_Missing assembly bases	0(0.00%)	0(0.00%)
GAGE_Missing assembly contigs	0(0.00%)	0(0.00%)
GAGE_Duplicated reference bases	4779	4779
GAGE_Compressed reference bases	32134	32134
GAGE_Bad trim	0	0
GAGE_Avg idy	99.99	99.99
GAGE_SNPs	33	33
GAGE_Indels < 5bp	9	9
GAGE_Indels >= 5	0	0
GAGE_Inversions	0	0
GAGE_Relocation	2	2
GAGE_Translocation	0	0
GAGE_Corrected contig #	112	112
GAGE_Corrected assembly size	2793844	2793844
GAGE_Min correct contig	214	214
GAGE_Max correct contig	457338	457338
GAGE_Corrected N50	112519 COUNT: 7	112519 COUNT: 7
