All statistics are based on contigs of size >= 200 bp, unless otherwise noted (e.g., "# contigs (>= 0 bp)" and "Total length (>= 0 bp)" include all contigs).

Assembly                         ABYSS_PE_MIS_PE_mrsa_mis-1_bi_2x250bp_default__mrsa_mis-2_bi_2x250bp_default.0.550percent_124.final_broken  ABYSS_PE_MIS_PE_mrsa_mis-1_bi_2x250bp_default__mrsa_mis-2_bi_2x250bp_default.0.550percent_124.final
GAGE_Contigs #                   130                                                                                                         130                                                                                                
GAGE_Min contig                  202                                                                                                         202                                                                                                
GAGE_Max contig                  457339                                                                                                      457339                                                                                             
GAGE_N50                         112519 COUNT: 7                                                                                             112519 COUNT: 7                                                                                    
GAGE_Genome size                 2813862                                                                                                     2813862                                                                                            
GAGE_Assembly size               2798617                                                                                                     2798617                                                                                            
GAGE_Chaff bases                 0                                                                                                           0                                                                                                  
GAGE_Missing reference bases     193(0.01%)                                                                                                  193(0.01%)                                                                                         
GAGE_Missing assembly bases      0(0.00%)                                                                                                    0(0.00%)                                                                                           
GAGE_Missing assembly contigs    0(0.00%)                                                                                                    0(0.00%)                                                                                           
GAGE_Duplicated reference bases  4779                                                                                                        4779                                                                                               
GAGE_Compressed reference bases  32134                                                                                                       32134                                                                                              
GAGE_Bad trim                    0                                                                                                           0                                                                                                  
GAGE_Avg idy                     99.99                                                                                                       99.99                                                                                              
GAGE_SNPs                        33                                                                                                          33                                                                                                 
GAGE_Indels < 5bp                9                                                                                                           9                                                                                                  
GAGE_Indels >= 5                 0                                                                                                           0                                                                                                  
GAGE_Inversions                  0                                                                                                           0                                                                                                  
GAGE_Relocation                  2                                                                                                           2                                                                                                  
GAGE_Translocation               0                                                                                                           0                                                                                                  
GAGE_Corrected contig #          112                                                                                                         112                                                                                                
GAGE_Corrected assembly size     2793844                                                                                                     2793844                                                                                            
GAGE_Min correct contig          214                                                                                                         214                                                                                                
GAGE_Max correct contig          457338                                                                                                      457338                                                                                             
GAGE_Corrected N50               112519 COUNT: 7                                                                                             112519 COUNT: 7                                                                                    
