Assembly	#Contigs (>= 0 bp)	#Contigs (>= 1000 bp)	Total length (>= 0 bp)	Total length (>= 1000 bp)	#Contigs	Largest contig	Total length	Reference length	GC (%)	Reference GC (%)	N50	NG50	N75	NG75	#misassemblies	#local misassemblies	#unaligned contigs	Unaligned contigs length	Genome fraction (%)	Duplication ratio	#N's per 100 kbp	#mismatches per 100 kbp	#indels per 100 kbp	#genes	#predicted genes (unique)	#predicted genes (>= 0 bp)	#predicted genes (>= 300 bp)	#predicted genes (>= 1500 bp)	#predicted genes (>= 3000 bp)	Largest alignment	NA50	NGA50	NA75	NGA75
ABYSS_PE_MIS_PE_mrsa_mis-1_bi_2x250bp_default__mrsa_mis-2_bi_2x250bp_default.0.550percent_124.final_broken	189	54	2807739	2773066	130	457339	2798617	2813862	32.69	32.81	112519	112519	52938	52938	3	0	0 + 0 part	0	98.722	1.003	0.00	1.26	0.32	2673 + 38 part	2685	2690	2291	297	30	457339	112519	112519	52938	52938
ABYSS_PE_MIS_PE_mrsa_mis-1_bi_2x250bp_default__mrsa_mis-2_bi_2x250bp_default.0.550percent_124.final	189	54	2807739	2773066	130	457339	2798617	2813862	32.69	32.81	112519	112519	52938	52938	3	0	0 + 0 part	0	98.722	1.003	0.00	1.26	0.32	2673 + 38 part	2685	2690	2291	297	30	457339	112519	112519	52938	52938
