Assembly	VELVET_PGM_sakai_pgm_mu_200bp_IO_TS3.0Disabled_stringent.0.34percent_33.final.contigs
#Contigs	1525
#Contigs (>= 0 bp)	2571
#Contigs (>= 1000 bp)	949
Largest contig	31139
Total length	5227556
Total length (>= 0 bp)	5343264
Total length (>= 1000 bp)	4965098
Reference length	5594470
N50	7255
NG50	6716
N75	4013
NG75	3185
L50	224
LG50	251
L75	466
LG75	544
#local misassemblies	7
#misassemblies	11
#misassembled contigs	10
Misassembled contigs length	37236
Misassemblies inter-contig overlap	1494
#unaligned contigs	0 + 1 part
Unaligned contigs length	42
#ambiguously mapped contigs	153
Extra bases in ambiguously mapped contigs	-73179
#N's	30
#N's per 100 kbp	0.57
Genome fraction (%)	91.889
Duplication ratio	1.003
#genes	4174 + 775 part
#predicted genes (unique)	6811
#predicted genes (>= 0 bp)	6812
#predicted genes (>= 300 bp)	5026
#predicted genes (>= 1500 bp)	394
#predicted genes (>= 3000 bp)	16
#mismatches	382
#indels	2783
Indels length	3064
#mismatches per 100 kbp	7.43
#indels per 100 kbp	54.14
GC (%)	50.24
Reference GC (%)	50.48
Average %IDY	99.716
Largest alignment	31139
NA50	7255
NGA50	6706
NA75	4009
NGA75	3158
LA50	224
LGA50	251
LA75	467
LGA75	546
#Mis_misassemblies	11
#Mis_relocations	11
#Mis_translocations	0
#Mis_inversions	0
#Mis_misassembled contigs	10
Mis_Misassembled contigs length	37236
#Mis_local misassemblies	7
#Mis_short indels (<= 5 bp)	2779
#Mis_long indels (> 5 bp)	4
#Una_fully unaligned contigs	0
Una_Fully unaligned length	0
#Una_partially unaligned contigs	1
#Una_with misassembly	0
#Una_both parts are significant	0
Una_Partially unaligned length	42
GAGE_Contigs #	1525
GAGE_Min contig	200
GAGE_Max contig	31139
GAGE_N50	6716 COUNT: 251
GAGE_Genome size	5594470
GAGE_Assembly size	5227556
GAGE_Chaff bases	0
GAGE_Missing reference bases	227003(4.06%)
GAGE_Missing assembly bases	139(0.00%)
GAGE_Missing assembly contigs	0(0.00%)
GAGE_Duplicated reference bases	299
GAGE_Compressed reference bases	159760
GAGE_Bad trim	109
GAGE_Avg idy	99.93
GAGE_SNPs	389
GAGE_Indels < 5bp	3069
GAGE_Indels >= 5	7
GAGE_Inversions	3
GAGE_Relocation	9
GAGE_Translocation	0
GAGE_Corrected contig #	1545
GAGE_Corrected assembly size	5231729
GAGE_Min correct contig	200
GAGE_Max correct contig	31157
GAGE_Corrected N50	6694 COUNT: 251
