All statistics are based on contigs of size >= 200 bp, unless otherwise noted (e.g., "# contigs (>= 0 bp)" and "Total length (>= 0 bp)" include all contigs).

Assembly                                                                                 #Mis_misassemblies  #Mis_relocations  #Mis_translocations  #Mis_inversions  #Mis_misassembled contigs  Mis_Misassembled contigs length  #Mis_local misassemblies  #mismatches  #indels  #Mis_short indels (<= 5 bp)  #Mis_long indels (> 5 bp)  Indels length
VELVET_MIS_PE_sakai_mis-both_bi_2x250bp_SI_default.0.64percent_189.final.contigs_broken  5                   4                 1                    0                5                          45707                            3                         162          18       18                           0                          18           
VELVET_MIS_PE_sakai_mis-both_bi_2x250bp_SI_default.0.64percent_189.final.contigs         7                   6                 1                    0                7                          72787                            266                       168          883      860                          23                         2069         
