All statistics are based on contigs of size >= 200 bp, unless otherwise noted (e.g., "# contigs (>= 0 bp)" and "Total length (>= 0 bp)" include all contigs).

Assembly                         VELVET_MIS_PE_mrsa_mis-1_bi_2x150bp_default__mrsa_mis-2_bi_2x150bp_default.0.527percent_71.final.contigs_broken  VELVET_MIS_PE_mrsa_mis-1_bi_2x150bp_default__mrsa_mis-2_bi_2x150bp_default.0.527percent_71.final.contigs
#Mis_misassemblies               2                                                                                                                8                                                                                                       
#Mis_relocations                 2                                                                                                                8                                                                                                       
#Mis_translocations              0                                                                                                                0                                                                                                       
#Mis_inversions                  0                                                                                                                0                                                                                                       
#Mis_misassembled contigs        2                                                                                                                6                                                                                                       
Mis_Misassembled contigs length  161751                                                                                                           1405883                                                                                                 
#Mis_local misassemblies         3                                                                                                                12                                                                                                      
#mismatches                      110                                                                                                              99                                                                                                      
#indels                          15                                                                                                               152                                                                                                     
#Mis_short indels (<= 5 bp)      15                                                                                                               142                                                                                                     
#Mis_long indels (> 5 bp)        0                                                                                                                10                                                                                                      
Indels length                    15                                                                                                               457                                                                                                     
