Assembly	ABYSS_PE_PGM_mrsa_pgm_200bp_es_316_IonOnev2_ts3.0_morestringent.0.230percent_76-unitigs
#Contigs	559
#Contigs (>= 0 bp)	2386
#Contigs (>= 1000 bp)	397
Largest contig	51282
Total length	2760007
Total length (>= 0 bp)	2966810
Total length (>= 1000 bp)	2682815
Reference length	2813862
N50	10241
NG50	10127
N75	5247
NG75	4911
L50	83
LG50	86
L75	175
LG75	183
#local misassemblies	2
#misassemblies	6
#misassembled contigs	6
Misassembled contigs length	21841
Misassemblies inter-contig overlap	386
#unaligned contigs	0 + 0 part
Unaligned contigs length	0
#ambiguously mapped contigs	9
Extra bases in ambiguously mapped contigs	-4791
#N's	0
#N's per 100 kbp	0.00
Genome fraction (%)	97.600
Duplication ratio	1.003
#genes	2384 + 278 part
#predicted genes (unique)	2970
#predicted genes (>= 0 bp)	2974
#predicted genes (>= 300 bp)	2402
#predicted genes (>= 1500 bp)	265
#predicted genes (>= 3000 bp)	23
#mismatches	72
#indels	414
Indels length	419
#mismatches per 100 kbp	2.62
#indels per 100 kbp	15.07
GC (%)	32.60
Reference GC (%)	32.81
Average %IDY	99.417
Largest alignment	51282
NA50	10241
NGA50	10127
NA75	5247
NGA75	4911
LA50	83
LGA50	86
LA75	175
LGA75	183
#Mis_misassemblies	6
#Mis_relocations	3
#Mis_translocations	0
#Mis_inversions	3
#Mis_misassembled contigs	6
Mis_Misassembled contigs length	21841
#Mis_local misassemblies	2
#Mis_short indels (<= 5 bp)	414
#Mis_long indels (> 5 bp)	0
#Una_fully unaligned contigs	0
Una_Fully unaligned length	0
#Una_partially unaligned contigs	0
#Una_with misassembly	0
#Una_both parts are significant	0
Una_Partially unaligned length	0
GAGE_Contigs #	559
GAGE_Min contig	203
GAGE_Max contig	51282
GAGE_N50	10127 COUNT: 86
GAGE_Genome size	2813862
GAGE_Assembly size	2760007
GAGE_Chaff bases	0
GAGE_Missing reference bases	41294(1.47%)
GAGE_Missing assembly bases	12(0.00%)
GAGE_Missing assembly contigs	0(0.00%)
GAGE_Duplicated reference bases	1674
GAGE_Compressed reference bases	29340
GAGE_Bad trim	12
GAGE_Avg idy	99.98
GAGE_SNPs	68
GAGE_Indels < 5bp	410
GAGE_Indels >= 5	2
GAGE_Inversions	0
GAGE_Relocation	1
GAGE_Translocation	0
GAGE_Corrected contig #	558
GAGE_Corrected assembly size	2759196
GAGE_Min correct contig	201
GAGE_Max correct contig	51288
GAGE_Corrected N50	10127 COUNT: 86
