All statistics are based on contigs of size >= 200 bp, unless otherwise noted (e.g., "# contigs (>= 0 bp)" and "Total length (>= 0 bp)" include all contigs).

Assembly                                                                                                        #Contigs (>= 0 bp)  #Contigs (>= 1000 bp)  Total length (>= 0 bp)  Total length (>= 1000 bp)  #Contigs  Largest contig  Total length  Reference length  GC (%)  Reference GC (%)  N50    NG50   N75    NG75   #misassemblies  #local misassemblies  #unaligned contigs  Unaligned contigs length  Genome fraction (%)  Duplication ratio  #N's per 100 kbp  #mismatches per 100 kbp  #indels per 100 kbp  #genes           #predicted genes (unique)  #predicted genes (>= 0 bp)  #predicted genes (>= 300 bp)  #predicted genes (>= 1500 bp)  #predicted genes (>= 3000 bp)  Largest alignment  NA50   NGA50  NA75   NGA75
ABYSS_PE_MIS_PE_mtbh37-1_mis_2x250bp_nextera_default__mtbh37-2_mis_2x250bp_nextera_default_60-scaffolds_broken  311                 158                    4430339                 4402215                    191       170848          4417497       4411532           65.55   65.61             66428  66428  32920  33274  3               26                    0 + 1 part          56                        99.242               1.013              1.25              7.86                     1.85                 3990 + 120 part  4091                       4173                        3655                          572                            76                             170848             63420  63420  32920  33274
ABYSS_PE_MIS_PE_mtbh37-1_mis_2x250bp_nextera_default__mtbh37-2_mis_2x250bp_nextera_default_60-scaffolds         268                 126                    4432476                 4408305                    151       207576          4420051       4411532           65.55   65.61             78339  78339  43604  43604  3               37                    1 + 1 part          914                       99.276               1.016              49.59             7.90                     3.56                 4011 + 99 part   4079                       4161                        3653                          574                            76                             207387             76257  76257  43604  43604
