calling: java -cp /vol/ngscomparison/software/analysis/quast-2.1/libs/gage:. SizeFasta /vol/codine-tmp/juene/tmp.ghpfx6YPX6/quast/corrected_input/MRSA_COL_Plasmid.fasta |awk '{SUM+=; print SUM}'|tail -n 1
Contig Stats
Total units: 61
Reference: 2813862
BasesInFasta: 2790893
Min: 224
Max: 289009
N10: 289009 COUNT: 1
N25: 208060 COUNT: 3
N50: 139157 COUNT: 8
N75: 61473 COUNT: 15
E-size:138204.85

Genome Size: 2813862
Assembly Size: 2790893
Chaff bases: 0
Missing Reference Bases: 2014(0.07%)
Missing Assembly Bases: 3(0.00%)
Missing Assembly Contigs: 0(0.00%)
Duplicated Reference Bases: 0
Compressed Reference Bases: 31984
Bad Trim: 0
Avg Idy: 99.99
SNPs: 58
Indels < 5bp: 11
Indels >= 5: 7
Inversions: 1
Relocation: 2
Translocation: 0

Corrected Contig Stats
calling: java -cp /vol/ngscomparison/software/analysis/quast-2.1/libs/gage:.:. GetFastaStats -o -min 199 -genomeSize 2813862 /vol/codine-tmp/juene/tmp.ghpfx6YPX6/quast/gage/tmp/ABYSS_PE_MIS_PE_mrsa_mis-1_bi_2x150bp_default__mrsa_mis-2_bi_2x150bp_default.0.527percent_78-scaffolds_broken.matches.lens 2> /dev/null
Total units: 70
Reference: 2813862
BasesInFasta: 2792581
Min: 224
Max: 289008
N10: 289008 COUNT: 1
N25: 163771 COUNT: 4
N50: 139157 COUNT: 8
N75: 56492 COUNT: 17
E-size:125116.91

Done
