Assembly	SOAP2_MIS_PE_sakai_mis-1_bi_2x250bp_SI_default.0.64percent_95.final.scaf_broken	SOAP2_MIS_PE_sakai_mis-1_bi_2x250bp_SI_default.0.64percent_95.final.scaf
#Mis_misassemblies	6	24
#Mis_relocations	6	24
#Mis_translocations	0	0
#Mis_inversions	0	0
#Mis_misassembled contigs	6	19
Mis_Misassembled contigs length	17787	203870
#Mis_local misassemblies	44	686
#mismatches	144	222
#indels	74	2090
#Mis_short indels (<= 5 bp)	63	1996
#Mis_long indels (> 5 bp)	11	94
Indels length	345	4754
