calling: java -cp /vol/ngscomparison/software/analysis/quast-2.1/libs/gage:. SizeFasta /vol/codine-tmp/juene/tmp.6xJ1ofJj1y/quast/corrected_input/MRSA_COL_Plasmid.fasta |awk '{SUM+=; print SUM}'|tail -n 1
Contig Stats
Total units: 7743
Reference: 2813862
BasesInFasta: 3622835
Min: 200
Max: 6736
N10: 2629 COUNT: 82
N25: 1667 COUNT: 289
N50: 975 COUNT: 851
N75: 490 COUNT: 1854
E-size:1322.29

Genome Size: 2813862
Assembly Size: 3622835
Chaff bases: 0
Missing Reference Bases: 268946(9.56%)
Missing Assembly Bases: 969490(26.76%)
Missing Assembly Contigs: 4059(52.42%)
Duplicated Reference Bases: 50225
Compressed Reference Bases: 12897
Bad Trim: 3400
Avg Idy: 99.93
SNPs: 879
Indels < 5bp: 318
Indels >= 5: 184
Inversions: 0
Relocation: 0
Translocation: 0

Corrected Contig Stats
calling: java -cp /vol/ngscomparison/software/analysis/quast-2.1/libs/gage:.:. GetFastaStats -o -min 199 -genomeSize 2813862 /vol/codine-tmp/juene/tmp.6xJ1ofJj1y/quast/gage/tmp/SOAP2_MIS_PE_mrsa_mis-1_bi_2x250bp_default.0.460percent_47.final.scaf_broken.matches.lens 2> /dev/null
Total units: 3561
Reference: 2813862
BasesInFasta: 2590977
Min: 200
Max: 5445
N10: 2538 COUNT: 87
N25: 1599 COUNT: 304
N50: 914 COUNT: 897
N75: 461 COUNT: 1968
E-size:1167.36

Done
