All statistics are based on contigs of size >= 200 bp, unless otherwise noted (e.g., "# contigs (>= 0 bp)" and "Total length (>= 0 bp)" include all contigs).

Assembly                                   ABYSS_PE_MIS_PE_mrsa_mis-1_bi_2x150bp_default__mrsa_mis-2_bi_2x150bp_default.0.527percent_126-scaffolds_broken  ABYSS_PE_MIS_PE_mrsa_mis-1_bi_2x150bp_default__mrsa_mis-2_bi_2x150bp_default.0.527percent_126-scaffolds
#Contigs                                   665                                                                                                             627                                                                                                    
#Contigs (>= 0 bp)                         680                                                                                                             642                                                                                                    
#Contigs (>= 1000 bp)                      501                                                                                                             473                                                                                                    
Largest contig                             39684                                                                                                           53793                                                                                                  
Total length                               2789922                                                                                                         2792399                                                                                                
Total length (>= 0 bp)                     2792302                                                                                                         2794779                                                                                                
Total length (>= 1000 bp)                  2693793                                                                                                         2702912                                                                                                
Reference length                           2813862                                                                                                         2813862                                                                                                
N50                                        7496                                                                                                            8590                                                                                                   
NG50                                       7407                                                                                                            8586                                                                                                   
N75                                        3964                                                                                                            4227                                                                                                   
NG75                                       3853                                                                                                            4152                                                                                                   
L50                                        100                                                                                                             87                                                                                                     
LG50                                       101                                                                                                             88                                                                                                     
L75                                        230                                                                                                             209                                                                                                    
LG75                                       235                                                                                                             213                                                                                                    
#local misassemblies                       3                                                                                                               14                                                                                                     
#misassemblies                             3                                                                                                               3                                                                                                      
#misassembled contigs                      3                                                                                                               3                                                                                                      
Misassembled contigs length                17652                                                                                                           31233                                                                                                  
Misassemblies inter-contig overlap         1199                                                                                                            1199                                                                                                   
#unaligned contigs                         2 + 0 part                                                                                                      2 + 0 part                                                                                             
Unaligned contigs length                   5749                                                                                                            5749                                                                                                   
#ambiguously mapped contigs                12                                                                                                              12                                                                                                     
Extra bases in ambiguously mapped contigs  -15109                                                                                                          -15109                                                                                                 
#N's                                       30                                                                                                              2507                                                                                                   
#N's per 100 kbp                           1.08                                                                                                            89.78                                                                                                  
Genome fraction (%)                        97.858                                                                                                          97.871                                                                                                 
Duplication ratio                          1.006                                                                                                           1.007                                                                                                  
#genes                                     2258 + 448 part                                                                                                 2278 + 429 part                                                                                        
#predicted genes (unique)                  2969                                                                                                            2963                                                                                                   
#predicted genes (>= 0 bp)                 2975                                                                                                            2969                                                                                                   
#predicted genes (>= 300 bp)               2379                                                                                                            2379                                                                                                   
#predicted genes (>= 1500 bp)              250                                                                                                             251                                                                                                    
#predicted genes (>= 3000 bp)              26                                                                                                              26                                                                                                     
#mismatches                                58                                                                                                              58                                                                                                     
#indels                                    35                                                                                                              433                                                                                                    
Indels length                              189                                                                                                             1134                                                                                                   
#mismatches per 100 kbp                    2.11                                                                                                            2.11                                                                                                   
#indels per 100 kbp                        1.27                                                                                                            15.72                                                                                                  
GC (%)                                     32.98                                                                                                           32.98                                                                                                  
Reference GC (%)                           32.81                                                                                                           32.81                                                                                                  
Average %IDY                               99.334                                                                                                          99.306                                                                                                 
Largest alignment                          39684                                                                                                           53793                                                                                                  
NA50                                       7407                                                                                                            8590                                                                                                   
NGA50                                      7262                                                                                                            8488                                                                                                   
NA75                                       3868                                                                                                            4152                                                                                                   
NGA75                                      3810                                                                                                            4079                                                                                                   
LA50                                       100                                                                                                             87                                                                                                     
LGA50                                      102                                                                                                             89                                                                                                     
LA75                                       232                                                                                                             211                                                                                                    
LGA75                                      236                                                                                                             215                                                                                                    
#Mis_misassemblies                         3                                                                                                               3                                                                                                      
#Mis_relocations                           3                                                                                                               3                                                                                                      
#Mis_translocations                        0                                                                                                               0                                                                                                      
#Mis_inversions                            0                                                                                                               0                                                                                                      
#Mis_misassembled contigs                  3                                                                                                               3                                                                                                      
Mis_Misassembled contigs length            17652                                                                                                           31233                                                                                                  
#Mis_local misassemblies                   3                                                                                                               14                                                                                                     
#Mis_short indels (<= 5 bp)                25                                                                                                              411                                                                                                    
#Mis_long indels (> 5 bp)                  10                                                                                                              22                                                                                                     
#Una_fully unaligned contigs               2                                                                                                               2                                                                                                      
Una_Fully unaligned length                 5749                                                                                                            5749                                                                                                   
#Una_partially unaligned contigs           0                                                                                                               0                                                                                                      
#Una_with misassembly                      0                                                                                                               0                                                                                                      
#Una_both parts are significant            0                                                                                                               0                                                                                                      
Una_Partially unaligned length             0                                                                                                               0                                                                                                      
GAGE_Contigs #                             665                                                                                                             627                                                                                                    
GAGE_Min contig                            206                                                                                                             206                                                                                                    
GAGE_Max contig                            39684                                                                                                           53793                                                                                                  
GAGE_N50                                   7407 COUNT: 101                                                                                                 8586 COUNT: 88                                                                                         
GAGE_Genome size                           2813862                                                                                                         2813862                                                                                                
GAGE_Assembly size                         2789922                                                                                                         2792399                                                                                                
GAGE_Chaff bases                           0                                                                                                               0                                                                                                      
GAGE_Missing reference bases               44149(1.57%)                                                                                                    44087(1.57%)                                                                                           
GAGE_Missing assembly bases                5509(0.20%)                                                                                                     7917(0.28%)                                                                                            
GAGE_Missing assembly contigs              1(0.15%)                                                                                                        1(0.16%)                                                                                               
GAGE_Duplicated reference bases            13445                                                                                                           13445                                                                                                  
GAGE_Compressed reference bases            17275                                                                                                           17275                                                                                                  
GAGE_Bad trim                              3                                                                                                               3                                                                                                      
GAGE_Avg idy                               100.00                                                                                                          99.99                                                                                                  
GAGE_SNPs                                  38                                                                                                              38                                                                                                     
GAGE_Indels < 5bp                          38                                                                                                              45                                                                                                     
GAGE_Indels >= 5                           11                                                                                                              47                                                                                                     
GAGE_Inversions                            0                                                                                                               0                                                                                                      
GAGE_Relocation                            2                                                                                                               2                                                                                                      
GAGE_Translocation                         0                                                                                                               0                                                                                                      
GAGE_Corrected contig #                    662                                                                                                             660                                                                                                    
GAGE_Corrected assembly size               2772171                                                                                                         2772233                                                                                                
GAGE_Min correct contig                    253                                                                                                             253                                                                                                    
GAGE_Max correct contig                    39685                                                                                                           39685                                                                                                  
GAGE_Corrected N50                         7080 COUNT: 106                                                                                                 7080 COUNT: 106                                                                                        
