Assembly	#Una_fully unaligned contigs	Una_Fully unaligned length	#Una_partially unaligned contigs	#Una_with misassembly	#Una_both parts are significant	Una_Partially unaligned length	#N's
SOAP2_MIS_PE_sakai_mis-1_bi_2x150bp_default.0.826percent_63.final.scaf_broken	2	5615	0	0	0	0	70
SOAP2_MIS_PE_sakai_mis-1_bi_2x150bp_default.0.826percent_63.final.scaf	21	23827	19	0	7	26217	43683
