Assembly	CLC_MIS_PE_mrsa_mis-1_bi_2x250bp_default__mrsa_mis-2_bi_2x250bp_default.81coverage.result_broken	CLC_MIS_PE_mrsa_mis-1_bi_2x250bp_default__mrsa_mis-2_bi_2x250bp_default.81coverage.result
#Contigs (>= 0 bp)	266	263
#Contigs (>= 1000 bp)	33	33
Total length (>= 0 bp)	2843264	2843725
Total length (>= 1000 bp)	2779395	2779563
#Contigs	264	263
Largest contig	389455	389455
Total length	2843051	2843725
Reference length	2813862	2813862
GC (%)	33.12	33.11
Reference GC (%)	32.81	32.81
N50	179644	179644
NG50	179644	179644
N75	93333	93333
NG75	93333	93333
#misassemblies	2	2
#local misassemblies	4	6
#unaligned contigs	222 + 0 part	223 + 0 part
Unaligned contigs length	64698	64925
Genome fraction (%)	98.365	98.401
Duplication ratio	1.002	1.002
#N's per 100 kbp	0.32	16.53
#mismatches per 100 kbp	6.21	6.21
#indels per 100 kbp	0.76	0.76
#genes	2686 + 19 part	2686 + 20 part
#predicted genes (unique)	2849	2850
#predicted genes (>= 0 bp)	2852	2853
#predicted genes (>= 300 bp)	2303	2303
#predicted genes (>= 1500 bp)	298	298
#predicted genes (>= 3000 bp)	29	29
Largest alignment	389455	389455
NA50	179302	179302
NGA50	179302	179302
NA75	88755	88755
NGA75	88755	88755
