All statistics are based on contigs of size >= 200 bp, unless otherwise noted (e.g., "# contigs (>= 0 bp)" and "Total length (>= 0 bp)" include all contigs).

Assembly                                                                                          #Contigs  #Contigs (>= 0 bp)  #Contigs (>= 1000 bp)  Largest contig  Total length  Total length (>= 0 bp)  Total length (>= 1000 bp)  Reference length  N50     NG50    N75    NG75   L50  LG50  L75  LG75  #local misassemblies  #misassemblies  #misassembled contigs  Misassembled contigs length  Misassemblies inter-contig overlap  #unaligned contigs  Unaligned contigs length  #ambiguously mapped contigs  Extra bases in ambiguously mapped contigs  #N's  #N's per 100 kbp  Genome fraction (%)  Duplication ratio  #genes          #predicted genes (unique)  #predicted genes (>= 0 bp)  #predicted genes (>= 300 bp)  #predicted genes (>= 1500 bp)  #predicted genes (>= 3000 bp)  #mismatches  #indels  Indels length  #mismatches per 100 kbp  #indels per 100 kbp  GC (%)  Reference GC (%)  Average %IDY  Largest alignment  NA50    NGA50   NA75   NGA75  LA50  LGA50  LA75  LGA75  #Mis_misassemblies  #Mis_relocations  #Mis_translocations  #Mis_inversions  #Mis_misassembled contigs  Mis_Misassembled contigs length  #Mis_local misassemblies  #Mis_short indels (<= 5 bp)  #Mis_long indels (> 5 bp)  #Una_fully unaligned contigs  Una_Fully unaligned length  #Una_partially unaligned contigs  #Una_with misassembly  #Una_both parts are significant  Una_Partially unaligned length  GAGE_Contigs #  GAGE_Min contig  GAGE_Max contig  GAGE_N50         GAGE_Genome size  GAGE_Assembly size  GAGE_Chaff bases  GAGE_Missing reference bases  GAGE_Missing assembly bases  GAGE_Missing assembly contigs  GAGE_Duplicated reference bases  GAGE_Compressed reference bases  GAGE_Bad trim  GAGE_Avg idy  GAGE_SNPs  GAGE_Indels < 5bp  GAGE_Indels >= 5  GAGE_Inversions  GAGE_Relocation  GAGE_Translocation  GAGE_Corrected contig #  GAGE_Corrected assembly size  GAGE_Min correct contig  GAGE_Max correct contig  GAGE_Corrected N50
CLC_MIS_PE_mrsa_mis-1_bi_2x250bp_default__mrsa_mis-2_bi_2x250bp_default.81coverage.result_broken  264       266                 33                     389455          2843051       2843264                 2779395                    2813862           179644  179644  93333  93333  5    5     10   10    4                     2               2                      159546                       2035                                222 + 0 part        64698                     9                            -7897                                      9     0.32              98.365               1.002              2686 + 19 part  2849                       2852                        2303                          298                            29                             172          21       106            6.21                     0.76                 33.12   32.81             98.540        389455             179302  179302  88755  88755  5     5      11    11     2                   2                 0                    0                2                          159546                           4                         14                           7                          222                           64698                       0                                 0                      0                                0                               264             200              389455           179644 COUNT: 5  2813862           2843051             0                 5754(0.20%)                   64455(2.27%)                 221(83.71%)                    559                              34940                            6              99.99         47         9                  4                 1                3                0                   49                       2779874                       231                      389456                   146639 COUNT: 6   
CLC_MIS_PE_mrsa_mis-1_bi_2x250bp_default__mrsa_mis-2_bi_2x250bp_default.81coverage.result         263       263                 33                     389455          2843725       2843725                 2779563                    2813862           179644  179644  93333  93333  5    5     10   10    6                     2               2                      159546                       2035                                223 + 0 part        64925                     6                            -6883                                      470   16.53             98.401               1.002              2686 + 20 part  2850                       2853                        2303                          298                            29                             172          21       106            6.21                     0.76                 33.11   32.81             98.540        389455             179302  179302  88755  88755  5     5      11    11     2                   2                 0                    0                2                          159546                           6                         14                           7                          223                           64925                       0                                 0                      0                                0                               263             200              389455           179644 COUNT: 5  2813862           2843725             0                 5754(0.20%)                   65129(2.29%)                 222(84.41%)                    559                              34940                            174            99.99         47         9                  4                 1                3                0                   49                       2779874                       231                      389456                   146639 COUNT: 6   
