calling: java -cp /vol/ngscomparison/software/analysis/quast-2.1/libs/gage:. SizeFasta /vol/codine-tmp/juene/tmp.ikglhpvQkY/quast/corrected_input/Ecoli_Sakai_editedNew_plasmids.fasta |awk '{SUM+=; print SUM}'|tail -n 1
Contig Stats
Total units: 367
Reference: 5594470
BasesInFasta: 5632007
Min: 201
Max: 202088
N10: 168480 COUNT: 4
N25: 145531 COUNT: 9
N50: 87550 COUNT: 21
N75: 47685 COUNT: 42
E-size:94703.38

Genome Size: 5594470
Assembly Size: 5632007
Chaff bases: 0
Missing Reference Bases: 6926(0.12%)
Missing Assembly Bases: 11(0.00%)
Missing Assembly Contigs: 0(0.00%)
Duplicated Reference Bases: 123481
Compressed Reference Bases: 204029
Bad Trim: 1
Avg Idy: 99.98
SNPs: 436
Indels < 5bp: 33
Indels >= 5: 10
Inversions: 3
Relocation: 3
Translocation: 0

Corrected Contig Stats
calling: java -cp /vol/ngscomparison/software/analysis/quast-2.1/libs/gage:.:. GetFastaStats -o -min 199 -genomeSize 5594470 /vol/codine-tmp/juene/tmp.ikglhpvQkY/quast/gage/tmp/ABYSS_PE_MIS_PE_sakai_mis-both_bi_2x250bp_SI_default.0.64percent.NEWBLER_122-scaffolds_broken.matches.lens 2> /dev/null
Total units: 336
Reference: 5594470
BasesInFasta: 5514930
Min: 202
Max: 202088
N10: 149407 COUNT: 4
N25: 141889 COUNT: 9
N50: 72334 COUNT: 24
N75: 36824 COUNT: 49
E-size:83885.21

Done
