calling: java -cp /vol/ngscomparison/software/analysis/quast-2.1/libs/gage:. SizeFasta /vol/codine-tmp/juene/tmp.vRhS72Ua4u/quast/corrected_input/MRSA_COL_Plasmid.fasta |awk '{SUM+=; print SUM}'|tail -n 1
Contig Stats
Total units: 101
Reference: 2813862
BasesInFasta: 2765004
Min: 200
Max: 150312
N10: 149667 COUNT: 2
N25: 79141 COUNT: 6
N50: 57531 COUNT: 17
N75: 37380 COUNT: 31
E-size:66959.41

Genome Size: 2813862
Assembly Size: 2765004
Chaff bases: 0
Missing Reference Bases: 12178(0.43%)
Missing Assembly Bases: 1(0.00%)
Missing Assembly Contigs: 0(0.00%)
Duplicated Reference Bases: 214
Compressed Reference Bases: 39634
Bad Trim: 1
Avg Idy: 99.98
SNPs: 41
Indels < 5bp: 261
Indels >= 5: 7
Inversions: 0
Relocation: 2
Translocation: 0

Corrected Contig Stats
calling: java -cp /vol/ngscomparison/software/analysis/quast-2.1/libs/gage:.:. GetFastaStats -o -min 199 -genomeSize 2813862 /vol/codine-tmp/juene/tmp.vRhS72Ua4u/quast/gage/tmp/NEWBLER_PGM_mrsa_pgm_200bp_es_316_IonOnev2_ts3.0_morestringent.0.230percent.contigs.matches.lens 2> /dev/null
Total units: 110
Reference: 2813862
BasesInFasta: 2766375
Min: 200
Max: 150321
N10: 149674 COUNT: 2
N25: 74050 COUNT: 7
N50: 51264 COUNT: 19
N75: 31420 COUNT: 36
E-size:60524.72

Done
