Assembly	GAGE_Contigs #	GAGE_Min contig	GAGE_Max contig	GAGE_N50	GAGE_Genome size	GAGE_Assembly size	GAGE_Chaff bases	GAGE_Missing reference bases	GAGE_Missing assembly bases	GAGE_Missing assembly contigs	GAGE_Duplicated reference bases	GAGE_Compressed reference bases	GAGE_Bad trim	GAGE_Avg idy	GAGE_SNPs	GAGE_Indels < 5bp	GAGE_Indels >= 5	GAGE_Inversions	GAGE_Relocation	GAGE_Translocation	GAGE_Corrected contig #	GAGE_Corrected assembly size	GAGE_Min correct contig	GAGE_Max correct contig	GAGE_Corrected N50
ABYSS_PE_MIS_PE_mrsa_mis-1_bi_2x150bp_default__mrsa_mis-2_bi_2x150bp_default.0.527percent_76-scaffolds_broken	66	220	341120	117468 COUNT: 8	2813862	2789254	0	3012(0.11%)	3(0.00%)	0(0.00%)	249	32969	0	99.99	110	11	7	0	2	0	73	2789986	220	341119	117468 COUNT: 8
ABYSS_PE_MIS_PE_mrsa_mis-1_bi_2x150bp_default__mrsa_mis-2_bi_2x150bp_default.0.527percent_76-scaffolds	49	220	572034	148698 COUNT: 6	2813862	2790571	0	4205(0.15%)	1647(0.06%)	0(0.00%)	249	32088	0	99.99	112	11	17	1	6	0	71	2789502	220	341119	117468 COUNT: 8
