calling: java -cp /vol/ngscomparison/software/analysis/quast-2.1/libs/gage:. SizeFasta /vol/codine-tmp/juene/tmp.mYMGilsu04/quast/corrected_input/MRSA_COL_Plasmid.fasta |awk '{SUM+=; print SUM}'|tail -n 1
Contig Stats
Total units: 13040
Reference: 2813862
BasesInFasta: 3938023
Min: 200
Max: 1900
N10: 839 COUNT: 272
N25: 600 COUNT: 875
N50: 385 COUNT: 2367
N75: 255 COUNT: 4657
E-size:552.81

Genome Size: 2813862
Assembly Size: 3938023
Chaff bases: 0
Missing Reference Bases: 294249(10.46%)
Missing Assembly Bases: 467878(11.88%)
Missing Assembly Contigs: 1562(11.98%)
Duplicated Reference Bases: 697071
Compressed Reference Bases: 37092
Bad Trim: 125322
Avg Idy: 99.49
SNPs: 858
Indels < 5bp: 7208
Indels >= 5: 2
Inversions: 45
Relocation: 2
Translocation: 0

Corrected Contig Stats
calling: java -cp /vol/ngscomparison/software/analysis/quast-2.1/libs/gage:.:. GetFastaStats -o -min 199 -genomeSize 2813862 /vol/codine-tmp/juene/tmp.mYMGilsu04/quast/gage/tmp/SOAP2_PGM_mrsa_pgm_200bp_es_316_IonOnev2_ts3.0_morestringent.0.230percent_65.final.contig.matches.lens 2> /dev/null
Total units: 7122
Reference: 2813862
BasesInFasta: 2644081
Min: 200
Max: 1901
N10: 839 COUNT: 272
N25: 600 COUNT: 875
N50: 384 COUNT: 2368
N75: 245 COUNT: 4676
E-size:451.55

Done
