All statistics are based on contigs of size >= 200 bp, unless otherwise noted (e.g., "# contigs (>= 0 bp)" and "Total length (>= 0 bp)" include all contigs).

Assembly                                                                                                           #Contigs  #Contigs (>= 0 bp)  #Contigs (>= 1000 bp)  Largest contig  Total length  Total length (>= 0 bp)  Total length (>= 1000 bp)  Reference length  N50   NG50  N75   NG75  L50  LG50  L75   LG75  #local misassemblies  #misassemblies  #misassembled contigs  Misassembled contigs length  Misassemblies inter-contig overlap  #unaligned contigs  Unaligned contigs length  #ambiguously mapped contigs  Extra bases in ambiguously mapped contigs  #N's    #N's per 100 kbp  Genome fraction (%)  Duplication ratio  #genes            #predicted genes (unique)  #predicted genes (>= 0 bp)  #predicted genes (>= 300 bp)  #predicted genes (>= 1500 bp)  #predicted genes (>= 3000 bp)  #mismatches  #indels  Indels length  #mismatches per 100 kbp  #indels per 100 kbp  GC (%)  Reference GC (%)  Average %IDY  Largest alignment  NA50  NGA50  NA75  NGA75  LA50  LGA50  LA75  LGA75  #Mis_misassemblies  #Mis_relocations  #Mis_translocations  #Mis_inversions  #Mis_misassembled contigs  Mis_Misassembled contigs length  #Mis_local misassemblies  #Mis_short indels (<= 5 bp)  #Mis_long indels (> 5 bp)  #Una_fully unaligned contigs  Una_Fully unaligned length  #Una_partially unaligned contigs  #Una_with misassembly  #Una_both parts are significant  Una_Partially unaligned length  GAGE_Contigs #  GAGE_Min contig  GAGE_Max contig  GAGE_N50          GAGE_Genome size  GAGE_Assembly size  GAGE_Chaff bases  GAGE_Missing reference bases  GAGE_Missing assembly bases  GAGE_Missing assembly contigs  GAGE_Duplicated reference bases  GAGE_Compressed reference bases  GAGE_Bad trim  GAGE_Avg idy  GAGE_SNPs  GAGE_Indels < 5bp  GAGE_Indels >= 5  GAGE_Inversions  GAGE_Relocation  GAGE_Translocation  GAGE_Corrected contig #  GAGE_Corrected assembly size  GAGE_Min correct contig  GAGE_Max correct contig  GAGE_Corrected N50
VELVET_MIS_PE_mtbh37-1_mis_2x250bp_nextera_default__mtbh37-2_mis_2x250bp_nextera_default_217.final.contigs_broken  3101      3101                1478                   5007            3530118       3530118                 2293387                    4411532           1226  1033  877   676   999  1392  1858  2718  1                     5               5                      6655                         2997                                0 + 12 part         1346                      6                            -4197                                      0       0.00              78.040               1.025              1273 + 2551 part  5576                       5584                        4026                          115                            1                              358          34       59             10.40                    0.99                 65.20   65.61             99.943        5007               1222  1031   876   674    1000  1394   1860  2723   5                   5                 0                    0                5                          6655                             1                         33                           1                          0                             0                           12                                0                      1                                1346                            3101            433              5007             1033 COUNT: 1392  4411532           3530118             0                 924402(20.95%)                1907(0.05%)                  0(0.00%)                       382                              52305                            1907           99.99         297        21                 1                 2                4                0                   3108                     3531032                       240                      5007                     1032 COUNT: 1394  
VELVET_MIS_PE_mtbh37-1_mis_2x250bp_nextera_default__mtbh37-2_mis_2x250bp_nextera_default_217.final.contigs         2343      2343                1488                   9710            3660475       3660475                 2974688                    4411532           1828  1534  1156  816   647  870   1275  1859  751                   8               7                      14958                        2376                                0 + 10 part         1058                      6                            -4197                                      130357  3561.20           78.041               1.062              1275 + 2549 part  5507                       5515                        4050                          116                            1                              356          246      346            10.34                    7.15                 65.20   65.61             99.938        8924               1665  1395   1070  747    709   956    1396  2032   8                   8                 0                    0                7                          14958                            751                       244                          2                          0                             0                           10                                0                      0                                1058                            2343            433              9710             1534 COUNT: 870   4411532           3660475             0                 924403(20.95%)                132309(3.61%)                0(0.00%)                       382                              52245                            1585           99.99         296        21                 756               4                4                0                   3108                     3530987                       240                      5007                     1032 COUNT: 1394  
