Assembly	VELVET_MIS_PE_mtbh37-1_mis_2x250bp_nextera_default__mtbh37-2_mis_2x250bp_nextera_default_31.final.contigs_broken	VELVET_MIS_PE_mtbh37-1_mis_2x250bp_nextera_default__mtbh37-2_mis_2x250bp_nextera_default_31.final.contigs
#Una_fully unaligned contigs	2	4
Una_Fully unaligned length	1189	2650
#Una_partially unaligned contigs	7	5
#Una_with misassembly	0	0
#Una_both parts are significant	1	2
Una_Partially unaligned length	1169	2623
#N's	0	2131
