calling: java -cp /vol/ngscomparison/software/analysis/quast-2.1/libs/gage:. SizeFasta /vol/codine-tmp/juene/tmp.SLjObuzx8x/quast/corrected_input/Mycobacterium_tuberculosis_H37Rv.fasta |awk '{SUM+=; print SUM}'|tail -n 1
Contig Stats
Total units: 191
Reference: 4411532
BasesInFasta: 4413063
Min: 207
Max: 162948
N10: 129270 COUNT: 4
N25: 84875 COUNT: 10
N50: 64353 COUNT: 25
N75: 33119 COUNT: 49
E-size:65652.29

Genome Size: 4411532
Assembly Size: 4413063
Chaff bases: 0
Missing Reference Bases: 29201(0.66%)
Missing Assembly Bases: 911(0.02%)
Missing Assembly Contigs: 0(0.00%)
Duplicated Reference Bases: 9752
Compressed Reference Bases: 16730
Bad Trim: 874
Avg Idy: 99.99
SNPs: 241
Indels < 5bp: 56
Indels >= 5: 32
Inversions: 1
Relocation: 1
Translocation: 0

Corrected Contig Stats
calling: java -cp /vol/ngscomparison/software/analysis/quast-2.1/libs/gage:.:. GetFastaStats -o -min 199 -genomeSize 4411532 /vol/codine-tmp/juene/tmp.SLjObuzx8x/quast/gage/tmp/ABYSS_PE_MIS_PE_mtbh37-1_mis_2x250bp_nextera_default__mtbh37-2_mis_2x250bp_nextera_default.0.925percent_82.final_broken.matches.lens 2> /dev/null
Total units: 220
Reference: 4411532
BasesInFasta: 4406988
Min: 208
Max: 134525
N10: 104766 COUNT: 4
N25: 71756 COUNT: 12
N50: 47276 COUNT: 30
N75: 25266 COUNT: 62
E-size:52823.85

Done
