Assembly	SOAP2_MIS_PE_sakai_mis-1_bi_2x150bp_default.0.826percent_15.final.scaf_broken	SOAP2_MIS_PE_sakai_mis-1_bi_2x150bp_default.0.826percent_15.final.scaf
#Contigs	2303	1685
#Contigs (>= 0 bp)	43562	9086
#Contigs (>= 1000 bp)	1	1027
Largest contig	1011	52270
Total length	614006	6677730
Total length (>= 0 bp)	4103669	7598622
Total length (>= 1000 bp)	1011	6437326
Reference length	5594470	5594470
N50	255	8947
NG50	None	10588
N75	224	4771
NG75	None	6575
L50	932	230
LG50	None	174
L75	1576	484
LG75	None	340
#local misassemblies	11	6832
#misassemblies	3	68
#misassembled contigs	3	63
Misassembled contigs length	1285	870959
Misassemblies inter-contig overlap	73	73
#unaligned contigs	69 + 106 part	121 + 307 part
Unaligned contigs length	23744	1033241
#ambiguously mapped contigs	0	0
Extra bases in ambiguously mapped contigs	0	0
#N's	699	3497954
#N's per 100 kbp	113.84	52382.38
Genome fraction (%)	10.525	18.903
Duplication ratio	1.003	5.338
#genes	23 + 1499 part	16 + 2287 part
#predicted genes (unique)	2154	6332
#predicted genes (>= 0 bp)	2154	6332
#predicted genes (>= 300 bp)	228	635
#predicted genes (>= 1500 bp)	0	0
#predicted genes (>= 3000 bp)	0	0
#mismatches	319	673
#indels	134	514
Indels length	274	930
#mismatches per 100 kbp	54.18	67.77
#indels per 100 kbp	22.76	51.76
GC (%)	45.21	49.37
Reference GC (%)	50.48	50.48
Average %IDY	99.885	99.903
Largest alignment	1011	7314
NA50	251	None
NGA50	None	None
NA75	219	None
NGA75	None	None
LA50	946	None
LGA50	None	None
LA75	1602	None
LGA75	None	None
#Mis_misassemblies	3	68
#Mis_relocations	3	67
#Mis_translocations	0	1
#Mis_inversions	0	0
#Mis_misassembled contigs	3	63
Mis_Misassembled contigs length	1285	870959
#Mis_local misassemblies	11	6832
#Mis_short indels (<= 5 bp)	114	482
#Mis_long indels (> 5 bp)	20	32
#Una_fully unaligned contigs	69	121
Una_Fully unaligned length	17391	107862
#Una_partially unaligned contigs	106	307
#Una_with misassembly	0	131
#Una_both parts are significant	0	119
Una_Partially unaligned length	6353	925379
GAGE_Contigs #	2303	1685
GAGE_Min contig	200	200
GAGE_Max contig	1011	52270
GAGE_N50	0 COUNT: 0	10588 COUNT: 174
GAGE_Genome size	5594470	5594470
GAGE_Assembly size	614006	6677730
GAGE_Chaff bases	0	0
GAGE_Missing reference bases	4998453(89.35%)	3394781(60.68%)
GAGE_Missing assembly bases	17308(2.82%)	4478687(67.07%)
GAGE_Missing assembly contigs	36(1.56%)	28(1.66%)
GAGE_Duplicated reference bases	269	269
GAGE_Compressed reference bases	0	3705
GAGE_Bad trim	6600	399763
GAGE_Avg idy	99.92	99.92
GAGE_SNPs	315	1344
GAGE_Indels < 5bp	73	286
GAGE_Indels >= 5	55	16074
GAGE_Inversions	1	6
GAGE_Relocation	11	113
GAGE_Translocation	0	1
GAGE_Corrected contig #	2150	2002
GAGE_Corrected assembly size	572462	535062
GAGE_Min correct contig	200	200
GAGE_Max correct contig	1011	1011
GAGE_Corrected N50	0 COUNT: 0	0 COUNT: 0
