All statistics are based on contigs of size >= 200 bp, unless otherwise noted (e.g., "# contigs (>= 0 bp)" and "Total length (>= 0 bp)" include all contigs).

Assembly                                                                       #Contigs  #Contigs (>= 0 bp)  #Contigs (>= 1000 bp)  Largest contig  Total length  Total length (>= 0 bp)  Total length (>= 1000 bp)  Reference length  N50   NG50   N75   NG75  L50  LG50  L75   LG75  #local misassemblies  #misassemblies  #misassembled contigs  Misassembled contigs length  Misassemblies inter-contig overlap  #unaligned contigs  Unaligned contigs length  #ambiguously mapped contigs  Extra bases in ambiguously mapped contigs  #N's     #N's per 100 kbp  Genome fraction (%)  Duplication ratio  #genes          #predicted genes (unique)  #predicted genes (>= 0 bp)  #predicted genes (>= 300 bp)  #predicted genes (>= 1500 bp)  #predicted genes (>= 3000 bp)  #mismatches  #indels  Indels length  #mismatches per 100 kbp  #indels per 100 kbp  GC (%)  Reference GC (%)  Average %IDY  Largest alignment  NA50  NGA50  NA75  NGA75  LA50  LGA50  LA75  LGA75  #Mis_misassemblies  #Mis_relocations  #Mis_translocations  #Mis_inversions  #Mis_misassembled contigs  Mis_Misassembled contigs length  #Mis_local misassemblies  #Mis_short indels (<= 5 bp)  #Mis_long indels (> 5 bp)  #Una_fully unaligned contigs  Una_Fully unaligned length  #Una_partially unaligned contigs  #Una_with misassembly  #Una_both parts are significant  Una_Partially unaligned length  GAGE_Contigs #  GAGE_Min contig  GAGE_Max contig  GAGE_N50          GAGE_Genome size  GAGE_Assembly size  GAGE_Chaff bases  GAGE_Missing reference bases  GAGE_Missing assembly bases  GAGE_Missing assembly contigs  GAGE_Duplicated reference bases  GAGE_Compressed reference bases  GAGE_Bad trim  GAGE_Avg idy  GAGE_SNPs  GAGE_Indels < 5bp  GAGE_Indels >= 5  GAGE_Inversions  GAGE_Relocation  GAGE_Translocation  GAGE_Corrected contig #  GAGE_Corrected assembly size  GAGE_Min correct contig  GAGE_Max correct contig  GAGE_Corrected N50
SOAP2_MIS_PE_sakai_mis-1_bi_2x150bp_default.0.826percent_15.final.scaf_broken  2303      43562               1                      1011            614006        4103669                 1011                       5594470           255   None   224   None  932  None  1576  None  11                    3               3                      1285                         73                                  69 + 106 part       23744                     0                            0                                          699      113.84            10.525               1.003              23 + 1499 part  2154                       2154                        228                           0                              0                              319          134      274            54.18                    22.76                45.21   50.48             99.885        1011               251   None   219   None   946   None   1602  None   3                   3                 0                    0                3                          1285                             11                        114                          20                         69                            17391                       106                               0                      0                                6353                            2303            200              1011             0 COUNT: 0        5594470           614006              0                 4998453(89.35%)               17308(2.82%)                 36(1.56%)                      269                              0                                6600           99.92         315        73                 55                1                11               0                   2150                     572462                        200                      1011                     0 COUNT: 0        
SOAP2_MIS_PE_sakai_mis-1_bi_2x150bp_default.0.826percent_15.final.scaf         1685      9086                1027                   52270           6677730       7598622                 6437326                    5594470           8947  10588  4771  6575  230  174   484   340   6832                  68              63                     870959                       73                                  121 + 307 part      1033241                   0                            0                                          3497954  52382.38          18.903               5.338              16 + 2287 part  6332                       6332                        635                           0                              0                              673          514      930            67.77                    51.76                49.37   50.48             99.903        7314               None  None   None  None   None  None   None  None   68                  67                1                    0                63                         870959                           6832                      482                          32                         121                           107862                      307                               131                    119                              925379                          1685            200              52270            10588 COUNT: 174  5594470           6677730             0                 3394781(60.68%)               4478687(67.07%)              28(1.66%)                      269                              3705                             399763         99.92         1344       286                16074             6                113              1                   2002                     535062                        200                      1011                     0 COUNT: 0        
