1: PREPARING DATA
2,3: RUNNING mummer AND CREATING CLUSTERS
# reading input file "/vol/codine-tmp/juene/tmp.VI7isg3doq/quast/gage/tmp/VELVET_MIS_PE_mrsa_mis-1_bi_2x150bp_default__mrsa_mis-2_bi_2x150bp_default.0.527percent_89.final.contigs.ntref" of length 2813864
# construct suffix tree for sequence of length 2813864
# (maximum reference length is 536870908)
# (maximum query length is 4294967295)
# process 28138 characters per dot
#....................................................................................................
# CONSTRUCTIONTIME /vol/ngscomparison/software/analysis/quast-2.1/libs/MUMmer3.23-linux/mummer /vol/codine-tmp/juene/tmp.VI7isg3doq/quast/gage/tmp/VELVET_MIS_PE_mrsa_mis-1_bi_2x150bp_default__mrsa_mis-2_bi_2x150bp_default.0.527percent_89.final.contigs.ntref 1.37
# reading input file "/vol/codine-tmp/juene/tmp.VI7isg3doq/quast/corrected_input/VELVET_MIS_PE_mrsa_mis-1_bi_2x150bp_default__mrsa_mis-2_bi_2x150bp_default.0.527percent_89.final.contigs" of length 2790665
# matching query-file "/vol/codine-tmp/juene/tmp.VI7isg3doq/quast/corrected_input/VELVET_MIS_PE_mrsa_mis-1_bi_2x150bp_default__mrsa_mis-2_bi_2x150bp_default.0.527percent_89.final.contigs"
# against subject-file "/vol/codine-tmp/juene/tmp.VI7isg3doq/quast/gage/tmp/VELVET_MIS_PE_mrsa_mis-1_bi_2x150bp_default__mrsa_mis-2_bi_2x150bp_default.0.527percent_89.final.contigs.ntref"
# COMPLETETIME /vol/ngscomparison/software/analysis/quast-2.1/libs/MUMmer3.23-linux/mummer /vol/codine-tmp/juene/tmp.VI7isg3doq/quast/gage/tmp/VELVET_MIS_PE_mrsa_mis-1_bi_2x150bp_default__mrsa_mis-2_bi_2x150bp_default.0.527percent_89.final.contigs.ntref 4.79
# SPACE /vol/ngscomparison/software/analysis/quast-2.1/libs/MUMmer3.23-linux/mummer /vol/codine-tmp/juene/tmp.VI7isg3doq/quast/gage/tmp/VELVET_MIS_PE_mrsa_mis-1_bi_2x150bp_default__mrsa_mis-2_bi_2x150bp_default.0.527percent_89.final.contigs.ntref 5.44
4: FINISHING DATA
Filtering alignments
Extracting alignment coordinates
Analyzing SNPs
Extracting alignment breakpoints
Generating report file
Found genome size at position 4 with value 2813862 aka 2813862
Calculating point at 0 and the sum is 1123139 and i is76 and lens is 82 and length is 127045
Calculating point at 1 and the sum is 2034832 and i is64 and lens is 82 and length is 56418
