calling: java -cp /vol/ngscomparison/software/analysis/quast-2.1/libs/gage:. SizeFasta /vol/codine-tmp/juene/tmp.VI7isg3doq/quast/corrected_input/MRSA_COL_Plasmid.fasta |awk '{SUM+=; print SUM}'|tail -n 1
Contig Stats
Total units: 50
Reference: 2813862
BasesInFasta: 2790616
Min: 216
Max: 767419
N10: 767419 COUNT: 1
N25: 767419 COUNT: 1
N50: 308160 COUNT: 3
N75: 106627 COUNT: 7
E-size:345987.98

Genome Size: 2813862
Assembly Size: 2790616
Chaff bases: 0
Missing Reference Bases: 1612(0.06%)
Missing Assembly Bases: 6534(0.23%)
Missing Assembly Contigs: 1(2.00%)
Duplicated Reference Bases: 804
Compressed Reference Bases: 35672
Bad Trim: 0
Avg Idy: 99.99
SNPs: 33
Indels < 5bp: 17
Indels >= 5: 22
Inversions: 3
Relocation: 9
Translocation: 0

Corrected Contig Stats
calling: java -cp /vol/ngscomparison/software/analysis/quast-2.1/libs/gage:.:. GetFastaStats -o -min 199 -genomeSize 2813862 /vol/codine-tmp/juene/tmp.VI7isg3doq/quast/gage/tmp/VELVET_MIS_PE_mrsa_mis-1_bi_2x150bp_default__mrsa_mis-2_bi_2x150bp_default.0.527percent_89.final.contigs.matches.lens 2> /dev/null
Total units: 82
Reference: 2813862
BasesInFasta: 2784674
Min: 205
Max: 301384
N10: 301384 COUNT: 1
N25: 158127 COUNT: 4
N50: 90480 COUNT: 9
N75: 46023 COUNT: 20
E-size:116189.54

Done
