All statistics are based on contigs of size >= 200 bp, unless otherwise noted (e.g., "# contigs (>= 0 bp)" and "Total length (>= 0 bp)" include all contigs).

Assembly                                                                                                           GAGE_Contigs #  GAGE_Min contig  GAGE_Max contig  GAGE_N50          GAGE_Genome size  GAGE_Assembly size  GAGE_Chaff bases  GAGE_Missing reference bases  GAGE_Missing assembly bases  GAGE_Missing assembly contigs  GAGE_Duplicated reference bases  GAGE_Compressed reference bases  GAGE_Bad trim  GAGE_Avg idy  GAGE_SNPs  GAGE_Indels < 5bp  GAGE_Indels >= 5  GAGE_Inversions  GAGE_Relocation  GAGE_Translocation  GAGE_Corrected contig #  GAGE_Corrected assembly size  GAGE_Min correct contig  GAGE_Max correct contig  GAGE_Corrected N50
VELVET_MIS_PE_mtbh37-1_mis_2x250bp_nextera_default__mtbh37-2_mis_2x250bp_nextera_default_107.final.contigs_broken  586             213              48774            12412 COUNT: 109  4411532           4228859             0                 146559(3.32%)                 1031(0.02%)                  0(0.00%)                       1758                             56973                            1031           99.99         144        28                 15                1                3                0                   602                      4230452                       213                      46359                    12080 COUNT: 113  
VELVET_MIS_PE_mtbh37-1_mis_2x250bp_nextera_default__mtbh37-2_mis_2x250bp_nextera_default_107.final.contigs         277             213              104271           34157 COUNT: 40   4411532           4267313             0                 146393(3.32%)                 38918(0.91%)                 0(0.00%)                       2154                             56973                            1246           99.99         144        43                 313               2                9                0                   599                      4230618                       213                      46359                    12207 COUNT: 112  
