calling: java -cp /vol/ngscomparison/software/analysis/quast-2.1/libs/gage:. SizeFasta /vol/codine-tmp/juene/tmp.g6kZdLdLF7/quast/corrected_input/MRSA_COL_Plasmid.fasta |awk '{SUM+=; print SUM}'|tail -n 1
Contig Stats
Total units: 141
Reference: 2813862
BasesInFasta: 2753775
Min: 2167
Max: 109399
N10: 89853 COUNT: 3
N25: 47458 COUNT: 11
N50: 33031 COUNT: 28
N75: 15758 COUNT: 60
E-size:37283.79

Genome Size: 2813862
Assembly Size: 2753775
Chaff bases: 0
Missing Reference Bases: 41181(1.46%)
Missing Assembly Bases: 14550(0.53%)
Missing Assembly Contigs: 1(0.71%)
Duplicated Reference Bases: 0
Compressed Reference Bases: 35826
Bad Trim: 0
Avg Idy: 99.99
SNPs: 41
Indels < 5bp: 13
Indels >= 5: 18
Inversions: 1
Relocation: 5
Translocation: 0

Corrected Contig Stats
calling: java -cp /vol/ngscomparison/software/analysis/quast-2.1/libs/gage:.:. GetFastaStats -o -min 199 -genomeSize 2813862 /vol/codine-tmp/juene/tmp.g6kZdLdLF7/quast/gage/tmp/NEWBLER_MIS_PE_mrsa_mis-1_bi_2x250bp_default__mrsa_mis-2_bi_2x250bp_default.0.125percent.contigs.matches.lens 2> /dev/null
Total units: 165
Reference: 2813862
BasesInFasta: 2739685
Min: 646
Max: 101577
N10: 73277 COUNT: 4
N25: 44431 COUNT: 11
N50: 28721 COUNT: 31
N75: 14779 COUNT: 65
E-size:33800.67

Done
