Assembly	ABYSS_PE_MIS_PE_mrsa_mis-1_bi_2x250bp_default__mrsa_mis-2_bi_2x250bp_default.0.850percent_128.final_broken	ABYSS_PE_MIS_PE_mrsa_mis-1_bi_2x250bp_default__mrsa_mis-2_bi_2x250bp_default.0.850percent_128.final
GAGE_Contigs #	173	173
GAGE_Min contig	202	202
GAGE_Max contig	457343	457343
GAGE_N50	107624 COUNT: 7	107624 COUNT: 7
GAGE_Genome size	2813862	2813862
GAGE_Assembly size	2808161	2808161
GAGE_Chaff bases	0	0
GAGE_Missing reference bases	198(0.01%)	198(0.01%)
GAGE_Missing assembly bases	16(0.00%)	16(0.00%)
GAGE_Missing assembly contigs	0(0.00%)	0(0.00%)
GAGE_Duplicated reference bases	12357	12357
GAGE_Compressed reference bases	32068	32068
GAGE_Bad trim	16	16
GAGE_Avg idy	99.99	99.99
GAGE_SNPs	34	34
GAGE_Indels < 5bp	9	9
GAGE_Indels >= 5	0	0
GAGE_Inversions	0	0
GAGE_Relocation	1	1
GAGE_Translocation	0	0
GAGE_Corrected contig #	124	124
GAGE_Corrected assembly size	2795812	2795812
GAGE_Min correct contig	202	202
GAGE_Max correct contig	457342	457342
GAGE_Corrected N50	107625 COUNT: 7	107625 COUNT: 7
