All statistics are based on contigs of size >= 200 bp, unless otherwise noted (e.g., "# contigs (>= 0 bp)" and "Total length (>= 0 bp)" include all contigs).

Assembly                                                                                                          #Contigs  #Contigs (>= 0 bp)  #Contigs (>= 1000 bp)  Largest contig  Total length  Total length (>= 0 bp)  Total length (>= 1000 bp)  Reference length  N50     NG50    N75     NG75    L50  LG50  L75  LG75  #local misassemblies  #misassemblies  #misassembled contigs  Misassembled contigs length  Misassemblies inter-contig overlap  #unaligned contigs  Unaligned contigs length  #ambiguously mapped contigs  Extra bases in ambiguously mapped contigs  #N's  #N's per 100 kbp  Genome fraction (%)  Duplication ratio  #genes          #predicted genes (unique)  #predicted genes (>= 0 bp)  #predicted genes (>= 300 bp)  #predicted genes (>= 1500 bp)  #predicted genes (>= 3000 bp)  #mismatches  #indels  Indels length  #mismatches per 100 kbp  #indels per 100 kbp  GC (%)  Reference GC (%)  Average %IDY  Largest alignment  NA50    NGA50   NA75   NGA75  LA50  LGA50  LA75  LGA75  #Mis_misassemblies  #Mis_relocations  #Mis_translocations  #Mis_inversions  #Mis_misassembled contigs  Mis_Misassembled contigs length  #Mis_local misassemblies  #Mis_short indels (<= 5 bp)  #Mis_long indels (> 5 bp)  #Una_fully unaligned contigs  Una_Fully unaligned length  #Una_partially unaligned contigs  #Una_with misassembly  #Una_both parts are significant  Una_Partially unaligned length  GAGE_Contigs #  GAGE_Min contig  GAGE_Max contig  GAGE_N50         GAGE_Genome size  GAGE_Assembly size  GAGE_Chaff bases  GAGE_Missing reference bases  GAGE_Missing assembly bases  GAGE_Missing assembly contigs  GAGE_Duplicated reference bases  GAGE_Compressed reference bases  GAGE_Bad trim  GAGE_Avg idy  GAGE_SNPs  GAGE_Indels < 5bp  GAGE_Indels >= 5  GAGE_Inversions  GAGE_Relocation  GAGE_Translocation  GAGE_Corrected contig #  GAGE_Corrected assembly size  GAGE_Min correct contig  GAGE_Max correct contig  GAGE_Corrected N50
VELVET_MIS_PE_mrsa_mis-1_bi_2x150bp_default__mrsa_mis-2_bi_2x150bp_default.0.527percent_103.final.contigs_broken  172       172                 122                    194481          2792050       2792050                 2776610                    2813862           39065   39065   21283   21283   18   18    40   40    1                     2               2                      48480                        132                                 1 + 0 part          5385                      38                           -12563                                     0     0.00              98.548               1.000              2618 + 87 part  2688                       2690                        2306                          296                            28                             42           9        9              1.51                     0.32                 32.73   32.81             98.981        194481             38865   38865   20724  20724  18    18     41    41     2                   2                 0                    0                2                          48480                            1                         9                            0                          1                             5385                        0                                 0                      0                                0                               172             205              194481           39065 COUNT: 18  2813862           2792050             0                 4082(0.15%)                   5397(0.19%)                  1(0.58%)                       1879                             41587                            12             100.00        44         9                  1                 0                2                0                   166                      2785016                       205                      189490                   38865 COUNT: 19   
VELVET_MIS_PE_mrsa_mis-1_bi_2x150bp_default__mrsa_mis-2_bi_2x150bp_default.0.527percent_103.final.contigs         83        83                  38                     312034          2796563       2796563                 2783472                    2813862           189490  189490  104308  104308  6    6     10   10    13                    8               6                      889321                       237                                 1 + 0 part          5385                      37                           -12344                                     4513  161.38            98.575               1.002              2678 + 30 part  2665                       2667                        2304                          296                            28                             37           1559     2768           1.33                     56.21                32.73   32.81             98.876        312034             154921  154921  80547  80547  7     7      13    13     8                   8                 0                    0                6                          889321                           13                        1528                         31                         1                             5385                        0                                 0                      0                                0                               83              205              312034           189490 COUNT: 6  2813862           2796563             0                 4045(0.14%)                   9872(0.35%)                  1(1.20%)                       1879                             41630                            12             99.99         44         17                 79                4                3                0                   163                      2785050                       205                      189490                   38865 COUNT: 19   
