Assembly	CLC_MIS_PE_sakai_mis-1_bi_2x250bp_SI_default__sakai_mis-2_bi_2x250bp_SI_default.0.55percent.result_broken	CLC_MIS_PE_sakai_mis-1_bi_2x250bp_SI_default__sakai_mis-2_bi_2x250bp_SI_default.0.55percent.result
GAGE_Contigs #	484	473
GAGE_Min contig	200	200
GAGE_Max contig	355393	374753
GAGE_N50	142815 COUNT: 14	148302 COUNT: 11
GAGE_Genome size	5594470	5594470
GAGE_Assembly size	5445684	5447711
GAGE_Chaff bases	0	0
GAGE_Missing reference bases	11766(0.21%)	11714(0.21%)
GAGE_Missing assembly bases	63373(1.16%)	65215(1.20%)
GAGE_Missing assembly contigs	217(44.83%)	219(46.30%)
GAGE_Duplicated reference bases	14108	14550
GAGE_Compressed reference bases	242370	242679
GAGE_Bad trim	47	314
GAGE_Avg idy	99.99	99.99
GAGE_SNPs	81	81
GAGE_Indels < 5bp	16	16
GAGE_Indels >= 5	12	21
GAGE_Inversions	0	0
GAGE_Relocation	3	4
GAGE_Translocation	0	0
GAGE_Corrected contig #	246	244
GAGE_Corrected assembly size	5369310	5368826
GAGE_Min correct contig	202	202
GAGE_Max correct contig	315310	315310
GAGE_Corrected N50	122267 COUNT: 15	122267 COUNT: 15
