Assembly	ABYSS_PE_MIS_PE_mtbh37-1_mis_2x250bp_nextera_default__mtbh37-2_mis_2x250bp_nextera_default_102-scaffolds_broken	ABYSS_PE_MIS_PE_mtbh37-1_mis_2x250bp_nextera_default__mtbh37-2_mis_2x250bp_nextera_default_102-scaffolds
#Una_fully unaligned contigs	2	2
Una_Fully unaligned length	406	406
#Una_partially unaligned contigs	1	1
#Una_with misassembly	0	0
#Una_both parts are significant	0	0
Una_Partially unaligned length	18	18
#N's	72	2788
