calling: java -cp /vol/ngscomparison/software/analysis/quast-2.1/libs/gage:. SizeFasta /vol/codine-tmp/juene/tmp.pOH6Q6H7Mq/quast/corrected_input/Ecoli_Sakai_editedNew_plasmids.fasta |awk '{SUM+=; print SUM}'|tail -n 1
Contig Stats
Total units: 104
Reference: 5594470
BasesInFasta: 5289912
Min: 2010
Max: 376595
N10: 363714 COUNT: 2
N25: 238176 COUNT: 5
N50: 111908 COUNT: 14
N75: 56441 COUNT: 30
E-size:148369.88

Genome Size: 5594470
Assembly Size: 5289912
Chaff bases: 0
Missing Reference Bases: 188972(3.38%)
Missing Assembly Bases: 57111(1.08%)
Missing Assembly Contigs: 1(0.96%)
Duplicated Reference Bases: 0
Compressed Reference Bases: 175486
Bad Trim: 1
Avg Idy: 99.99
SNPs: 173
Indels < 5bp: 18
Indels >= 5: 62
Inversions: 11
Relocation: 19
Translocation: 0

Corrected Contig Stats
calling: java -cp /vol/ngscomparison/software/analysis/quast-2.1/libs/gage:.:. GetFastaStats -o -min 199 -genomeSize 5594470 /vol/codine-tmp/juene/tmp.pOH6Q6H7Mq/quast/gage/tmp/NEWBLER_MIS_PE_sakai_mis-1_bi_2x250bp_SI_default__sakai_mis-2_bi_2x250bp_SI_default.0.175percent.contigs.matches.lens 2> /dev/null
Total units: 196
Reference: 5594470
BasesInFasta: 5233236
Min: 329
Max: 238176
N10: 204620 COUNT: 3
N25: 139123 COUNT: 8
N50: 84224 COUNT: 21
N75: 30695 COUNT: 47
E-size:94186.98

Done
