1: PREPARING DATA
2,3: RUNNING mummer AND CREATING CLUSTERS
# reading input file "/vol/codine-tmp/juene/tmp.pOH6Q6H7Mq/quast/gage/tmp/NEWBLER_MIS_PE_sakai_mis-1_bi_2x250bp_SI_default__sakai_mis-2_bi_2x250bp_SI_default.0.175percent.contigs_broken.ntref" of length 5594473
# construct suffix tree for sequence of length 5594473
# (maximum reference length is 536870908)
# (maximum query length is 4294967295)
# process 55944 characters per dot
#....................................................................................................
# CONSTRUCTIONTIME /vol/ngscomparison/software/analysis/quast-2.1/libs/MUMmer3.23-linux/mummer /vol/codine-tmp/juene/tmp.pOH6Q6H7Mq/quast/gage/tmp/NEWBLER_MIS_PE_sakai_mis-1_bi_2x250bp_SI_default__sakai_mis-2_bi_2x250bp_SI_default.0.175percent.contigs_broken.ntref 4.12
# reading input file "/vol/codine-tmp/juene/tmp.pOH6Q6H7Mq/quast/corrected_input/NEWBLER_MIS_PE_sakai_mis-1_bi_2x250bp_SI_default__sakai_mis-2_bi_2x250bp_SI_default.0.175percent.contigs_broken" of length 5238433
# matching query-file "/vol/codine-tmp/juene/tmp.pOH6Q6H7Mq/quast/corrected_input/NEWBLER_MIS_PE_sakai_mis-1_bi_2x250bp_SI_default__sakai_mis-2_bi_2x250bp_SI_default.0.175percent.contigs_broken"
# against subject-file "/vol/codine-tmp/juene/tmp.pOH6Q6H7Mq/quast/gage/tmp/NEWBLER_MIS_PE_sakai_mis-1_bi_2x250bp_SI_default__sakai_mis-2_bi_2x250bp_SI_default.0.175percent.contigs_broken.ntref"
# COMPLETETIME /vol/ngscomparison/software/analysis/quast-2.1/libs/MUMmer3.23-linux/mummer /vol/codine-tmp/juene/tmp.pOH6Q6H7Mq/quast/gage/tmp/NEWBLER_MIS_PE_sakai_mis-1_bi_2x250bp_SI_default__sakai_mis-2_bi_2x250bp_SI_default.0.175percent.contigs_broken.ntref 10.98
# SPACE /vol/ngscomparison/software/analysis/quast-2.1/libs/MUMmer3.23-linux/mummer /vol/codine-tmp/juene/tmp.pOH6Q6H7Mq/quast/gage/tmp/NEWBLER_MIS_PE_sakai_mis-1_bi_2x250bp_SI_default__sakai_mis-2_bi_2x250bp_SI_default.0.175percent.contigs_broken.ntref 10.51
4: FINISHING DATA
Filtering alignments
Extracting alignment coordinates
Analyzing SNPs
Extracting alignment breakpoints
Generating report file
Found genome size at position 4 with value 5594470 aka 5594470
Calculating point at 0 and the sum is 1027387 and i is191 and lens is 196 and length is 170608
Calculating point at 1 and the sum is 2098114 and i is183 and lens is 196 and length is 119895
Calculating point at 2 and the sum is 3014129 and i is173 and lens is 196 and length is 72097
Calculating point at 3 and the sum is 4026008 and i is155 and lens is 196 and length is 39988
Calculating point at 4 and the sum is 5004721 and i is103 and lens is 196 and length is 7315
