Assembly	#Contigs	#Contigs (>= 0 bp)	#Contigs (>= 1000 bp)	Largest contig	Total length	Total length (>= 0 bp)	Total length (>= 1000 bp)	Reference length	N50	NG50	N75	NG75	L50	LG50	L75	LG75	#local misassemblies	#misassemblies	#misassembled contigs	Misassembled contigs length	Misassemblies inter-contig overlap	#unaligned contigs	Unaligned contigs length	#ambiguously mapped contigs	Extra bases in ambiguously mapped contigs	#N's	#N's per 100 kbp	Genome fraction (%)	Duplication ratio	#genes	#predicted genes (unique)	#predicted genes (>= 0 bp)	#predicted genes (>= 300 bp)	#predicted genes (>= 1500 bp)	#predicted genes (>= 3000 bp)	#mismatches	#indels	Indels length	#mismatches per 100 kbp	#indels per 100 kbp	GC (%)	Reference GC (%)	Average %IDY	Largest alignment	NA50	NGA50	NA75	NGA75	LA50	LGA50	LA75	LGA75	#Mis_misassemblies	#Mis_relocations	#Mis_translocations	#Mis_inversions	#Mis_misassembled contigs	Mis_Misassembled contigs length	#Mis_local misassemblies	#Mis_short indels (<= 5 bp)	#Mis_long indels (> 5 bp)	#Una_fully unaligned contigs	Una_Fully unaligned length	#Una_partially unaligned contigs	#Una_with misassembly	#Una_both parts are significant	Una_Partially unaligned length	GAGE_Contigs #	GAGE_Min contig	GAGE_Max contig	GAGE_N50	GAGE_Genome size	GAGE_Assembly size	GAGE_Chaff bases	GAGE_Missing reference bases	GAGE_Missing assembly bases	GAGE_Missing assembly contigs	GAGE_Duplicated reference bases	GAGE_Compressed reference bases	GAGE_Bad trim	GAGE_Avg idy	GAGE_SNPs	GAGE_Indels < 5bp	GAGE_Indels >= 5	GAGE_Inversions	GAGE_Relocation	GAGE_Translocation	GAGE_Corrected contig #	GAGE_Corrected assembly size	GAGE_Min correct contig	GAGE_Max correct contig	GAGE_Corrected N50
VELVET_MIS_PE_sakai_mis-1_bi_2x150bp_default__sakai_mis-2_bi_2x150bp_default.0.826percent_99.final.contigs_broken	487	501	207	217608	5435092	5437637	5323530	5594470	60155	58006	32890	30794	28	29	57	61	2	4	4	120844	1885	1 + 0 part	5385	223	-113702	0	0.00	94.998	1.001	4993 + 204 part	5512	5524	4534	663	68	140	14	14	2.63	0.26	50.33	50.48	98.775	217608	60154	57284	32446	30710	28	30	58	62	4	4	0	0	4	120844	2	14	0	1	5385	0	0	0	0	487	200	217608	58006 COUNT: 29	5594470	5435092	0	4295(0.08%)	5396(0.10%)	1(0.21%)	11631	244036	11	99.99	84	14	2	1	3	0	446	5419374	200	217608	57284 COUNT: 30
VELVET_MIS_PE_sakai_mis-1_bi_2x150bp_default__sakai_mis-2_bi_2x150bp_default.0.826percent_99.final.contigs	386	396	126	423347	5442122	5444098	5340952	5594470	145867	145867	76665	74917	11	11	23	25	43	17	12	1121716	2490	1 + 0 part	5385	218	-110870	6461	118.72	95.077	1.002	5037 + 163 part	5471	5483	4525	665	67	241	722	1929	4.53	13.57	50.33	50.48	98.765	362862	145672	144989	75399	71796	13	14	26	28	17	17	0	0	12	1121716	43	688	34	1	5385	0	0	0	0	386	200	423347	145867 COUNT: 11	5594470	5442122	0	4204(0.08%)	11757(0.22%)	1(0.26%)	10742	241764	329	99.99	103	44	70	9	9	0	447	5421312	200	217608	60153 COUNT: 29
