Assembly	VELVET_MIS_PE_mrsa_mis-1_bi_2x150bp_default__mrsa_mis-2_bi_2x150bp_default.0.527percent_43.final.contigs_broken	VELVET_MIS_PE_mrsa_mis-1_bi_2x150bp_default__mrsa_mis-2_bi_2x150bp_default.0.527percent_43.final.contigs
GAGE_Contigs #	133	85
GAGE_Min contig	203	203
GAGE_Max contig	159089	317282
GAGE_N50	46532 COUNT: 19	101143 COUNT: 9
GAGE_Genome size	2813862	2813862
GAGE_Assembly size	2766829	2769346
GAGE_Chaff bases	0	0
GAGE_Missing reference bases	16077(0.57%)	15843(0.56%)
GAGE_Missing assembly bases	5433(0.20%)	7338(0.26%)
GAGE_Missing assembly contigs	1(0.75%)	1(1.18%)
GAGE_Duplicated reference bases	1980	2597
GAGE_Compressed reference bases	41312	40924
GAGE_Bad trim	5	334
GAGE_Avg idy	99.97	99.97
GAGE_SNPs	210	195
GAGE_Indels < 5bp	35	53
GAGE_Indels >= 5	9	41
GAGE_Inversions	0	0
GAGE_Relocation	4	8
GAGE_Translocation	0	0
GAGE_Corrected contig #	144	137
GAGE_Corrected assembly size	2763850	2764213
GAGE_Min correct contig	203	203
GAGE_Max correct contig	159089	161758
GAGE_Corrected N50	42896 COUNT: 21	43059 COUNT: 20
