All statistics are based on contigs of size >= 200 bp, unless otherwise noted (e.g., "# contigs (>= 0 bp)" and "Total length (>= 0 bp)" include all contigs).

Assembly                         ABYSS_PE_MIS_PE_mrsa_mis-1_bi_2x150bp_default__mrsa_mis-2_bi_2x150bp_default.61coverage_82.final_broken  ABYSS_PE_MIS_PE_mrsa_mis-1_bi_2x150bp_default__mrsa_mis-2_bi_2x150bp_default.61coverage_82.final
#Mis_misassemblies               3                                                                                                        4                                                                                               
#Mis_relocations                 3                                                                                                        4                                                                                               
#Mis_translocations              0                                                                                                        0                                                                                               
#Mis_inversions                  0                                                                                                        0                                                                                               
#Mis_misassembled contigs        3                                                                                                        4                                                                                               
Mis_Misassembled contigs length  278494                                                                                                   380961                                                                                          
#Mis_local misassemblies         4                                                                                                        11                                                                                              
#mismatches                      97                                                                                                       106                                                                                             
#indels                          18                                                                                                       113                                                                                             
#Mis_short indels (<= 5 bp)      17                                                                                                       110                                                                                             
#Mis_long indels (> 5 bp)        1                                                                                                        3                                                                                               
Indels length                    26                                                                                                       239                                                                                             
