1: PREPARING DATA
2,3: RUNNING mummer AND CREATING CLUSTERS
# reading input file "/vol/codine-tmp/juene/tmp.KRCIk7i30a/quast/contigs_reports/nucmer_output/NEWBLER_PGM_mtbh37_pgm_400bp_es_318v2_OT2_tsv3.6_morestringent.1.000percent.contigs.ntref" of length 4411533
# construct suffix tree for sequence of length 4411533
# (maximum reference length is 536870908)
# (maximum query length is 4294967295)
# process 44115 characters per dot
#....................................................................................................
# CONSTRUCTIONTIME /vol/ngscomparison/software/analysis/quast-2.1/libs/MUMmer3.23-linux/mummer /vol/codine-tmp/juene/tmp.KRCIk7i30a/quast/contigs_reports/nucmer_output/NEWBLER_PGM_mtbh37_pgm_400bp_es_318v2_OT2_tsv3.6_morestringent.1.000percent.contigs.ntref 2.23
# reading input file "/vol/codine-tmp/juene/tmp.KRCIk7i30a/quast/corrected_input/NEWBLER_PGM_mtbh37_pgm_400bp_es_318v2_OT2_tsv3.6_morestringent.1.000percent.contigs" of length 4300171
# matching query-file "/vol/codine-tmp/juene/tmp.KRCIk7i30a/quast/corrected_input/NEWBLER_PGM_mtbh37_pgm_400bp_es_318v2_OT2_tsv3.6_morestringent.1.000percent.contigs"
# against subject-file "/vol/codine-tmp/juene/tmp.KRCIk7i30a/quast/contigs_reports/nucmer_output/NEWBLER_PGM_mtbh37_pgm_400bp_es_318v2_OT2_tsv3.6_morestringent.1.000percent.contigs.ntref"
# COMPLETETIME /vol/ngscomparison/software/analysis/quast-2.1/libs/MUMmer3.23-linux/mummer /vol/codine-tmp/juene/tmp.KRCIk7i30a/quast/contigs_reports/nucmer_output/NEWBLER_PGM_mtbh37_pgm_400bp_es_318v2_OT2_tsv3.6_morestringent.1.000percent.contigs.ntref 10.30
# SPACE /vol/ngscomparison/software/analysis/quast-2.1/libs/MUMmer3.23-linux/mummer /vol/codine-tmp/juene/tmp.KRCIk7i30a/quast/contigs_reports/nucmer_output/NEWBLER_PGM_mtbh37_pgm_400bp_es_318v2_OT2_tsv3.6_morestringent.1.000percent.contigs.ntref 8.45
4: FINISHING DATA
