All statistics are based on contigs of size >= 200 bp, unless otherwise noted (e.g., "# contigs (>= 0 bp)" and "Total length (>= 0 bp)" include all contigs).

Assembly                                   ABYSS_PE_MIS_PE_mrsa_mis-1_bi_2x250bp_default__mrsa_mis-2_bi_2x250bp_default.0.460percent_118-scaffolds_broken  ABYSS_PE_MIS_PE_mrsa_mis-1_bi_2x250bp_default__mrsa_mis-2_bi_2x250bp_default.0.460percent_118-scaffolds
#Contigs                                   127                                                                                                             122                                                                                                    
#Contigs (>= 0 bp)                         178                                                                                                             173                                                                                                    
#Contigs (>= 1000 bp)                      61                                                                                                              58                                                                                                     
Largest contig                             548012                                                                                                          548012                                                                                                 
Total length                               2811807                                                                                                         2812057                                                                                                
Total length (>= 0 bp)                     2819266                                                                                                         2819516                                                                                                
Total length (>= 1000 bp)                  2789820                                                                                                         2791462                                                                                                
Reference length                           2813862                                                                                                         2813862                                                                                                
N50                                        107773                                                                                                          107773                                                                                                 
NG50                                       107773                                                                                                          107773                                                                                                 
N75                                        47038                                                                                                           47038                                                                                                  
NG75                                       47038                                                                                                           47038                                                                                                  
L50                                        7                                                                                                               7                                                                                                      
LG50                                       7                                                                                                               7                                                                                                      
L75                                        17                                                                                                              17                                                                                                     
LG75                                       17                                                                                                              17                                                                                                     
#local misassemblies                       0                                                                                                               3                                                                                                      
#misassemblies                             5                                                                                                               7                                                                                                      
#misassembled contigs                      5                                                                                                               6                                                                                                      
Misassembled contigs length                230883                                                                                                          238623                                                                                                 
Misassemblies inter-contig overlap         1749                                                                                                            1749                                                                                                   
#unaligned contigs                         0 + 0 part                                                                                                      0 + 0 part                                                                                             
Unaligned contigs length                   0                                                                                                               0                                                                                                      
#ambiguously mapped contigs                21                                                                                                              19                                                                                                     
Extra bases in ambiguously mapped contigs  -12749                                                                                                          -10659                                                                                                 
#N's                                       0                                                                                                               250                                                                                                    
#N's per 100 kbp                           0.00                                                                                                            8.89                                                                                                   
Genome fraction (%)                        99.161                                                                                                          99.231                                                                                                 
Duplication ratio                          1.004                                                                                                           1.004                                                                                                  
#genes                                     2679 + 40 part                                                                                                  2679 + 41 part                                                                                         
#predicted genes (unique)                  2689                                                                                                            2689                                                                                                   
#predicted genes (>= 0 bp)                 2693                                                                                                            2693                                                                                                   
#predicted genes (>= 300 bp)               2292                                                                                                            2292                                                                                                   
#predicted genes (>= 1500 bp)              298                                                                                                             298                                                                                                    
#predicted genes (>= 3000 bp)              30                                                                                                              30                                                                                                     
#mismatches                                65                                                                                                              65                                                                                                     
#indels                                    9                                                                                                               9                                                                                                      
Indels length                              9                                                                                                               9                                                                                                      
#mismatches per 100 kbp                    2.33                                                                                                            2.33                                                                                                   
#indels per 100 kbp                        0.32                                                                                                            0.32                                                                                                   
GC (%)                                     32.77                                                                                                           32.77                                                                                                  
Reference GC (%)                           32.81                                                                                                           32.81                                                                                                  
Average %IDY                               98.755                                                                                                          98.755                                                                                                 
Largest alignment                          548012                                                                                                          548012                                                                                                 
NA50                                       107773                                                                                                          107773                                                                                                 
NGA50                                      107773                                                                                                          107773                                                                                                 
NA75                                       46228                                                                                                           46228                                                                                                  
NGA75                                      46228                                                                                                           46228                                                                                                  
LA50                                       7                                                                                                               7                                                                                                      
LGA50                                      7                                                                                                               7                                                                                                      
LA75                                       18                                                                                                              18                                                                                                     
LGA75                                      18                                                                                                              18                                                                                                     
#Mis_misassemblies                         5                                                                                                               7                                                                                                      
#Mis_relocations                           5                                                                                                               7                                                                                                      
#Mis_translocations                        0                                                                                                               0                                                                                                      
#Mis_inversions                            0                                                                                                               0                                                                                                      
#Mis_misassembled contigs                  5                                                                                                               6                                                                                                      
Mis_Misassembled contigs length            230883                                                                                                          238623                                                                                                 
#Mis_local misassemblies                   0                                                                                                               3                                                                                                      
#Mis_short indels (<= 5 bp)                9                                                                                                               9                                                                                                      
#Mis_long indels (> 5 bp)                  0                                                                                                               0                                                                                                      
#Una_fully unaligned contigs               0                                                                                                               0                                                                                                      
Una_Fully unaligned length                 0                                                                                                               0                                                                                                      
#Una_partially unaligned contigs           0                                                                                                               0                                                                                                      
#Una_with misassembly                      0                                                                                                               0                                                                                                      
#Una_both parts are significant            0                                                                                                               0                                                                                                      
Una_Partially unaligned length             0                                                                                                               0                                                                                                      
GAGE_Contigs #                             127                                                                                                             122                                                                                                    
GAGE_Min contig                            202                                                                                                             202                                                                                                    
GAGE_Max contig                            548012                                                                                                          548012                                                                                                 
GAGE_N50                                   107773 COUNT: 7                                                                                                 107773 COUNT: 7                                                                                        
GAGE_Genome size                           2813862                                                                                                         2813862                                                                                                
GAGE_Assembly size                         2811807                                                                                                         2812057                                                                                                
GAGE_Chaff bases                           0                                                                                                               0                                                                                                      
GAGE_Missing reference bases               322(0.01%)                                                                                                      322(0.01%)                                                                                             
GAGE_Missing assembly bases                0(0.00%)                                                                                                        250(0.01%)                                                                                             
GAGE_Missing assembly contigs              0(0.00%)                                                                                                        0(0.00%)                                                                                               
GAGE_Duplicated reference bases            12570                                                                                                           12836                                                                                                  
GAGE_Compressed reference bases            21684                                                                                                           22113                                                                                                  
GAGE_Bad trim                              0                                                                                                               50                                                                                                     
GAGE_Avg idy                               99.99                                                                                                           99.99                                                                                                  
GAGE_SNPs                                  41                                                                                                              41                                                                                                     
GAGE_Indels < 5bp                          9                                                                                                               9                                                                                                      
GAGE_Indels >= 5                           0                                                                                                               2                                                                                                      
GAGE_Inversions                            1                                                                                                               1                                                                                                      
GAGE_Relocation                            2                                                                                                               3                                                                                                      
GAGE_Translocation                         0                                                                                                               0                                                                                                      
GAGE_Corrected contig #                    99                                                                                                              100                                                                                                    
GAGE_Corrected assembly size               2800991                                                                                                         2800890                                                                                                
GAGE_Min correct contig                    202                                                                                                             202                                                                                                    
GAGE_Max correct contig                    548011                                                                                                          548011                                                                                                 
GAGE_Corrected N50                         107774 COUNT: 7                                                                                                 107774 COUNT: 7                                                                                        
