Assembly	ABYSS_PE_MIS_PE_mrsa_mis-1_bi_2x250bp_default__mrsa_mis-2_bi_2x250bp_default.0.460percent_118-scaffolds_broken	ABYSS_PE_MIS_PE_mrsa_mis-1_bi_2x250bp_default__mrsa_mis-2_bi_2x250bp_default.0.460percent_118-scaffolds
GAGE_Contigs #	127	122
GAGE_Min contig	202	202
GAGE_Max contig	548012	548012
GAGE_N50	107773 COUNT: 7	107773 COUNT: 7
GAGE_Genome size	2813862	2813862
GAGE_Assembly size	2811807	2812057
GAGE_Chaff bases	0	0
GAGE_Missing reference bases	322(0.01%)	322(0.01%)
GAGE_Missing assembly bases	0(0.00%)	250(0.01%)
GAGE_Missing assembly contigs	0(0.00%)	0(0.00%)
GAGE_Duplicated reference bases	12570	12836
GAGE_Compressed reference bases	21684	22113
GAGE_Bad trim	0	50
GAGE_Avg idy	99.99	99.99
GAGE_SNPs	41	41
GAGE_Indels < 5bp	9	9
GAGE_Indels >= 5	0	2
GAGE_Inversions	1	1
GAGE_Relocation	2	3
GAGE_Translocation	0	0
GAGE_Corrected contig #	99	100
GAGE_Corrected assembly size	2800991	2800890
GAGE_Min correct contig	202	202
GAGE_Max correct contig	548011	548011
GAGE_Corrected N50	107774 COUNT: 7	107774 COUNT: 7
