1: PREPARING DATA
2,3: RUNNING mummer AND CREATING CLUSTERS
# reading input file "/vol/codine-tmp/juene/tmp.JdrGyDzvPe/quast/gage/tmp/NEWBLER_PGM_sakai_pgm_mu_318_400bp_IO_TS3.4_ms.56coverage.contigs.ntref" of length 5594473
# construct suffix tree for sequence of length 5594473
# (maximum reference length is 536870908)
# (maximum query length is 4294967295)
# process 55944 characters per dot
#....................................................................................................
# CONSTRUCTIONTIME /vol/ngscomparison/software/analysis/quast-2.1/libs/MUMmer3.23-linux/mummer /vol/codine-tmp/juene/tmp.JdrGyDzvPe/quast/gage/tmp/NEWBLER_PGM_sakai_pgm_mu_318_400bp_IO_TS3.4_ms.56coverage.contigs.ntref 4.71
# reading input file "/vol/codine-tmp/juene/tmp.JdrGyDzvPe/quast/corrected_input/NEWBLER_PGM_sakai_pgm_mu_318_400bp_IO_TS3.4_ms.56coverage.contigs" of length 5358336
# matching query-file "/vol/codine-tmp/juene/tmp.JdrGyDzvPe/quast/corrected_input/NEWBLER_PGM_sakai_pgm_mu_318_400bp_IO_TS3.4_ms.56coverage.contigs"
# against subject-file "/vol/codine-tmp/juene/tmp.JdrGyDzvPe/quast/gage/tmp/NEWBLER_PGM_sakai_pgm_mu_318_400bp_IO_TS3.4_ms.56coverage.contigs.ntref"
# COMPLETETIME /vol/ngscomparison/software/analysis/quast-2.1/libs/MUMmer3.23-linux/mummer /vol/codine-tmp/juene/tmp.JdrGyDzvPe/quast/gage/tmp/NEWBLER_PGM_sakai_pgm_mu_318_400bp_IO_TS3.4_ms.56coverage.contigs.ntref 13.55
# SPACE /vol/ngscomparison/software/analysis/quast-2.1/libs/MUMmer3.23-linux/mummer /vol/codine-tmp/juene/tmp.JdrGyDzvPe/quast/gage/tmp/NEWBLER_PGM_sakai_pgm_mu_318_400bp_IO_TS3.4_ms.56coverage.contigs.ntref 10.63
4: FINISHING DATA
Filtering alignments
Extracting alignment coordinates
Analyzing SNPs
Extracting alignment breakpoints
Generating report file
Found genome size at position 4 with value 5594470 aka 5594470
Calculating point at 0 and the sum is 1118885 and i is280 and lens is 285 and length is 184907
Calculating point at 1 and the sum is 2019171 and i is274 and lens is 285 and length is 144906
Calculating point at 2 and the sum is 3021171 and i is265 and lens is 285 and length is 95577
Calculating point at 3 and the sum is 4002327 and i is251 and lens is 285 and length is 53936
Calculating point at 4 and the sum is 5007044 and i is218 and lens is 285 and length is 9795
