All statistics are based on contigs of size >= 200 bp, unless otherwise noted (e.g., "# contigs (>= 0 bp)" and "Total length (>= 0 bp)" include all contigs).

Assembly                                                                                                        GAGE_Contigs #  GAGE_Min contig  GAGE_Max contig  GAGE_N50         GAGE_Genome size  GAGE_Assembly size  GAGE_Chaff bases  GAGE_Missing reference bases  GAGE_Missing assembly bases  GAGE_Missing assembly contigs  GAGE_Duplicated reference bases  GAGE_Compressed reference bases  GAGE_Bad trim  GAGE_Avg idy  GAGE_SNPs  GAGE_Indels < 5bp  GAGE_Indels >= 5  GAGE_Inversions  GAGE_Relocation  GAGE_Translocation  GAGE_Corrected contig #  GAGE_Corrected assembly size  GAGE_Min correct contig  GAGE_Max correct contig  GAGE_Corrected N50
ABYSS_PE_MIS_PE_mrsa_mis-1_bi_2x250bp_default__mrsa_mis-2_bi_2x250bp_default.0.460percent_108-scaffolds_broken  120             200              548002           112477 COUNT: 7  2813862           2804456             0                 204(0.01%)                    1(0.00%)                     0(0.00%)                       7810                             27834                            0              99.99         41         6                  1                 1                2                0                   105                      2798187                       200                      548001                   112477 COUNT: 7   
ABYSS_PE_MIS_PE_mrsa_mis-1_bi_2x250bp_default__mrsa_mis-2_bi_2x250bp_default.0.460percent_108-scaffolds         114             200              548002           112477 COUNT: 7  2813862           2804756             0                 204(0.01%)                    251(0.01%)                   0(0.00%)                       8418                             28253                            100            99.99         40         11                 2                 1                4                0                   102                      2797586                       200                      548001                   112477 COUNT: 7   
