calling: java -cp /vol/ngscomparison/software/analysis/quast-2.1/libs/gage:. SizeFasta /vol/codine-tmp/juene/tmp.VW5hHPOAVU/quast/corrected_input/MRSA_COL_Plasmid.fasta |awk '{SUM+=; print SUM}'|tail -n 1
Contig Stats
Total units: 476
Reference: 2813862
BasesInFasta: 2750723
Min: 202
Max: 61574
N10: 29601 COUNT: 8
N25: 19662 COUNT: 27
N50: 11384 COUNT: 74
N75: 5922 COUNT: 155
E-size:14227.02

Genome Size: 2813862
Assembly Size: 2750723
Chaff bases: 0
Missing Reference Bases: 52746(1.87%)
Missing Assembly Bases: 13(0.00%)
Missing Assembly Contigs: 0(0.00%)
Duplicated Reference Bases: 880
Compressed Reference Bases: 21287
Bad Trim: 13
Avg Idy: 99.98
SNPs: 62
Indels < 5bp: 306
Indels >= 5: 4
Inversions: 0
Relocation: 2
Translocation: 0

Corrected Contig Stats
calling: java -cp /vol/ngscomparison/software/analysis/quast-2.1/libs/gage:.:. GetFastaStats -o -min 199 -genomeSize 2813862 /vol/codine-tmp/juene/tmp.VW5hHPOAVU/quast/gage/tmp/ABYSS_PE_PGM_mrsa_pgm_200bp_es_316_IonOnev2_ts3.0_morestringent.0.230percent_60-unitigs.matches.lens 2> /dev/null
Total units: 478
Reference: 2813862
BasesInFasta: 2750913
Min: 203
Max: 61583
N10: 29607 COUNT: 8
N25: 19455 COUNT: 27
N50: 11336 COUNT: 75
N75: 5859 COUNT: 158
E-size:14126.24

Done
