Assembly	VELVET_MIS_PE_mtbh37-1_mis_2x250bp_nextera_default__mtbh37-2_mis_2x250bp_nextera_default_25.final.contigs_broken	VELVET_MIS_PE_mtbh37-1_mis_2x250bp_nextera_default__mtbh37-2_mis_2x250bp_nextera_default_25.final.contigs
#Contigs (>= 0 bp)	127108	127108
#Contigs (>= 1000 bp)	8	8
Total length (>= 0 bp)	11178606	11178606
Total length (>= 1000 bp)	9465	9465
#Contigs	5022	5022
Largest contig	1536	1536
Total length	1602059	1602059
Reference length	4411532	4411532
GC (%)	64.56	64.56
Reference GC (%)	65.61	65.61
N50	320	320
NG50	None	None
N75	248	248
NG75	None	None
#misassemblies	0	0
#local misassemblies	1	1
#unaligned contigs	379 + 1 part	379 + 1 part
Unaligned contigs length	88993	88993
Genome fraction (%)	34.158	34.158
Duplication ratio	1.003	1.003
#N's per 100 kbp	0.00	0.00
#mismatches per 100 kbp	5.04	5.04
#indels per 100 kbp	0.93	0.93
#genes	78 + 2821 part	78 + 2821 part
#predicted genes (unique)	4431	4370
#predicted genes (>= 0 bp)	4431	4370
#predicted genes (>= 300 bp)	1315	1294
#predicted genes (>= 1500 bp)	0	0
#predicted genes (>= 3000 bp)	0	0
Largest alignment	1536	1536
NA50	318	318
NGA50	None	None
NA75	245	245
NGA75	None	None
