Assembly	CLC_PGM_mtbh37_pgm_400bp_es_318v2_OT2_tsv3.6_morestringent.0.800percent.result
GAGE_Contigs #	804
GAGE_Min contig	200
GAGE_Max contig	71501
GAGE_N50	19368 COUNT: 67
GAGE_Genome size	4411532
GAGE_Assembly size	4336012
GAGE_Chaff bases	0
GAGE_Missing reference bases	110498(2.50%)
GAGE_Missing assembly bases	3556(0.08%)
GAGE_Missing assembly contigs	5(0.62%)
GAGE_Duplicated reference bases	68097
GAGE_Compressed reference bases	48322
GAGE_Bad trim	1326
GAGE_Avg idy	99.96
GAGE_SNPs	126
GAGE_Indels < 5bp	1225
GAGE_Indels >= 5	10
GAGE_Inversions	10
GAGE_Relocation	4
GAGE_Translocation	0
GAGE_Corrected contig #	583
GAGE_Corrected assembly size	4265782
GAGE_Min correct contig	200
GAGE_Max correct contig	71514
GAGE_Corrected N50	19011 COUNT: 68
