Assembly	ABYSS_PE_MIS_PE_sakai_mis-2_bi_2x150bp_default__sakai_mis-1_bi_2x150bp_default.0.300percent_44.final_broken	ABYSS_PE_MIS_PE_sakai_mis-2_bi_2x150bp_default__sakai_mis-1_bi_2x150bp_default.0.300percent_44.final
GAGE_Contigs #	312	281
GAGE_Min contig	204	204
GAGE_Max contig	292279	301017
GAGE_N50	74088 COUNT: 22	85903 COUNT: 20
GAGE_Genome size	5594470	5594470
GAGE_Assembly size	5380633	5383286
GAGE_Chaff bases	0	0
GAGE_Missing reference bases	104539(1.87%)	107164(1.92%)
GAGE_Missing assembly bases	1982(0.04%)	5258(0.10%)
GAGE_Missing assembly contigs	0(0.00%)	2(0.71%)
GAGE_Duplicated reference bases	17078	15482
GAGE_Compressed reference bases	222387	219291
GAGE_Bad trim	1979	2188
GAGE_Avg idy	99.97	99.97
GAGE_SNPs	648	643
GAGE_Indels < 5bp	33	37
GAGE_Indels >= 5	12	27
GAGE_Inversions	3	6
GAGE_Relocation	5	10
GAGE_Translocation	0	0
GAGE_Corrected contig #	320	316
GAGE_Corrected assembly size	5371141	5371981
GAGE_Min correct contig	204	204
GAGE_Max correct contig	218512	218512
GAGE_Corrected N50	65318 COUNT: 25	65318 COUNT: 25
