Assembly	#Contigs (>= 0 bp)	#Contigs (>= 1000 bp)	Total length (>= 0 bp)	Total length (>= 1000 bp)	#Contigs	Largest contig	Total length	Reference length	GC (%)	Reference GC (%)	N50	NG50	N75	NG75	#misassemblies	#local misassemblies	#unaligned contigs	Unaligned contigs length	Genome fraction (%)	Duplication ratio	#N's per 100 kbp	#mismatches per 100 kbp	#indels per 100 kbp	#genes	#predicted genes (unique)	#predicted genes (>= 0 bp)	#predicted genes (>= 300 bp)	#predicted genes (>= 1500 bp)	#predicted genes (>= 3000 bp)	Largest alignment	NA50	NGA50	NA75	NGA75
ABYSS_PE_MIS_PE_sakai_mis-2_bi_2x150bp_default__sakai_mis-1_bi_2x150bp_default.0.300percent_44.final_broken	1518	216	5486994	5329231	312	292279	5380633	5594470	50.33	50.48	74931	74088	31627	28877	9	8	0 + 1 part	1979	94.705	1.010	1.97	20.57	1.72	4939 + 178 part	5186	5278	4438	677	67	228644	74088	69929	30798	28502
ABYSS_PE_MIS_PE_sakai_mis-2_bi_2x150bp_default__sakai_mis-1_bi_2x150bp_default.0.300percent_44.final	1481	205	5488783	5342254	281	301017	5383286	5594470	50.33	50.48	86548	85903	32952	30136	13	23	1 + 2 part	3008	94.806	1.011	35.20	21.19	3.36	4953 + 175 part	5182	5274	4437	678	67	228644	85903	74931	31627	29821
