Assembly	VELVET_PGM_sakai_pgm_mu_200bp_IO_TS3.0Disabled_stringent.0.34percent_145.final.contigs
#Contigs	3765
#Contigs (>= 0 bp)	3765
#Contigs (>= 1000 bp)	1791
Largest contig	11044
Total length	4709258
Total length (>= 0 bp)	4709258
Total length (>= 1000 bp)	3403677
Reference length	5594470
N50	1547
NG50	1304
N75	943
NG75	649
L50	948
LG50	1261
L75	1923
LG75	2770
#local misassemblies	12
#misassemblies	25
#misassembled contigs	24
Misassembled contigs length	73470
Misassemblies inter-contig overlap	3012
#unaligned contigs	0 + 60 part
Unaligned contigs length	1781
#ambiguously mapped contigs	147
Extra bases in ambiguously mapped contigs	-73310
#N's	260
#N's per 100 kbp	5.52
Genome fraction (%)	80.268
Duplication ratio	1.033
#genes	2146 + 2643 part
#predicted genes (unique)	7517
#predicted genes (>= 0 bp)	7528
#predicted genes (>= 300 bp)	5158
#predicted genes (>= 1500 bp)	194
#predicted genes (>= 3000 bp)	2
#mismatches	440
#indels	2958
Indels length	3034
#mismatches per 100 kbp	9.80
#indels per 100 kbp	65.87
GC (%)	51.04
Reference GC (%)	50.48
Average %IDY	99.453
Largest alignment	11044
NA50	1535
NGA50	1293
NA75	923
NGA75	633
LA50	954
LGA50	1269
LA75	1939
LGA75	2804
#Mis_misassemblies	25
#Mis_relocations	21
#Mis_translocations	1
#Mis_inversions	3
#Mis_misassembled contigs	24
Mis_Misassembled contigs length	73470
#Mis_local misassemblies	12
#Mis_short indels (<= 5 bp)	2957
#Mis_long indels (> 5 bp)	1
#Una_fully unaligned contigs	0
Una_Fully unaligned length	0
#Una_partially unaligned contigs	60
#Una_with misassembly	0
#Una_both parts are significant	0
Una_Partially unaligned length	1781
GAGE_Contigs #	3765
GAGE_Min contig	289
GAGE_Max contig	11044
GAGE_N50	1304 COUNT: 1261
GAGE_Genome size	5594470
GAGE_Assembly size	4709258
GAGE_Chaff bases	0
GAGE_Missing reference bases	860619(15.38%)
GAGE_Missing assembly bases	3012(0.06%)
GAGE_Missing assembly contigs	0(0.00%)
GAGE_Duplicated reference bases	25648
GAGE_Compressed reference bases	262265
GAGE_Bad trim	2932
GAGE_Avg idy	99.92
GAGE_SNPs	290
GAGE_Indels < 5bp	2594
GAGE_Indels >= 5	6
GAGE_Inversions	1
GAGE_Relocation	6
GAGE_Translocation	1
GAGE_Corrected contig #	3734
GAGE_Corrected assembly size	4685822
GAGE_Min correct contig	235
GAGE_Max correct contig	11045
GAGE_Corrected N50	1294 COUNT: 1269
