Assembly	NEWBLER_PGM_mrsa_pgm_200bp_es_316_IonOnev2_ts3.0_morestringent.0.350percent.contigs
GAGE_Contigs #	124
GAGE_Min contig	205
GAGE_Max contig	171287
GAGE_N50	50350 COUNT: 17
GAGE_Genome size	2813862
GAGE_Assembly size	2764705
GAGE_Chaff bases	0
GAGE_Missing reference bases	12621(0.45%)
GAGE_Missing assembly bases	147(0.01%)
GAGE_Missing assembly contigs	0(0.00%)
GAGE_Duplicated reference bases	524
GAGE_Compressed reference bases	39749
GAGE_Bad trim	147
GAGE_Avg idy	99.99
GAGE_SNPs	43
GAGE_Indels < 5bp	238
GAGE_Indels >= 5	5
GAGE_Inversions	1
GAGE_Relocation	1
GAGE_Translocation	0
GAGE_Corrected contig #	125
GAGE_Corrected assembly size	2764825
GAGE_Min correct contig	207
GAGE_Max correct contig	171294
GAGE_Corrected N50	49091 COUNT: 19
