Assembly	NEWBLER_PGM_mrsa_pgm_200bp_es_316_IonOnev2_ts3.0_morestringent.0.350percent.contigs
#Contigs (>= 0 bp)	201
#Contigs (>= 1000 bp)	93
Total length (>= 0 bp)	2774699
Total length (>= 1000 bp)	2752886
#Contigs	124
Largest contig	171287
Total length	2764705
Reference length	2813862
GC (%)	32.64
Reference GC (%)	32.81
N50	51312
NG50	50350
N75	29076
NG75	28478
#misassemblies	2
#local misassemblies	5
#unaligned contigs	0 + 4 part
Unaligned contigs length	240
Genome fraction (%)	97.922
Duplication ratio	1.001
#N's per 100 kbp	0.00
#mismatches per 100 kbp	3.99
#indels per 100 kbp	7.33
#genes	2631 + 58 part
#predicted genes (unique)	2709
#predicted genes (>= 0 bp)	2709
#predicted genes (>= 300 bp)	2324
#predicted genes (>= 1500 bp)	289
#predicted genes (>= 3000 bp)	26
Largest alignment	171287
NA50	51312
NGA50	50350
NA75	29076
NGA75	27217
