All statistics are based on contigs of size >= 200 bp, unless otherwise noted (e.g., "# contigs (>= 0 bp)" and "Total length (>= 0 bp)" include all contigs).

Assembly                         CLC_MIS_PE_sakai_mis-2_bi_2x150bp_default__sakai_mis-1_bi_2x150bp_default.0.900percent.result_broken  CLC_MIS_PE_sakai_mis-2_bi_2x150bp_default__sakai_mis-1_bi_2x150bp_default.0.900percent.result
GAGE_Contigs #                   300                                                                                                   275                                                                                          
GAGE_Min contig                  201                                                                                                   201                                                                                          
GAGE_Max contig                  313894                                                                                                374713                                                                                       
GAGE_N50                         124190 COUNT: 15                                                                                      145332 COUNT: 13                                                                             
GAGE_Genome size                 5594470                                                                                               5594470                                                                                      
GAGE_Assembly size               5360196                                                                                               5366409                                                                                      
GAGE_Chaff bases                 0                                                                                                     0                                                                                            
GAGE_Missing reference bases     23655(0.42%)                                                                                          20744(0.37%)                                                                                 
GAGE_Missing assembly bases      6039(0.11%)                                                                                           10439(0.19%)                                                                                 
GAGE_Missing assembly contigs    3(1.00%)                                                                                              4(1.45%)                                                                                     
GAGE_Duplicated reference bases  7696                                                                                                  8193                                                                                         
GAGE_Compressed reference bases  249804                                                                                                251631                                                                                       
GAGE_Bad trim                    57                                                                                                    972                                                                                          
GAGE_Avg idy                     99.99                                                                                                 99.99                                                                                        
GAGE_SNPs                        89                                                                                                    89                                                                                           
GAGE_Indels < 5bp                15                                                                                                    15                                                                                           
GAGE_Indels >= 5                 7                                                                                                     17                                                                                           
GAGE_Inversions                  1                                                                                                     2                                                                                            
GAGE_Relocation                  3                                                                                                     8                                                                                            
GAGE_Translocation               0                                                                                                     0                                                                                            
GAGE_Corrected contig #          291                                                                                                   290                                                                                          
GAGE_Corrected assembly size     5347381                                                                                               5347180                                                                                      
GAGE_Min correct contig          201                                                                                                   201                                                                                          
GAGE_Max correct contig          313894                                                                                                313894                                                                                       
GAGE_Corrected N50               111384 COUNT: 16                                                                                      111384 COUNT: 16                                                                             
