Assembly	ABYSS_PE_PGM_sakai_pgm_mu_200bp_IO_TS3.0Disabled_stringent.0.34percent_96-unitigs
#Contigs (>= 0 bp)	4513
#Contigs (>= 1000 bp)	773
Total length (>= 0 bp)	5838296
Total length (>= 1000 bp)	5081105
#Contigs	1423
Largest contig	48090
Total length	5346429
Reference length	5594470
GC (%)	50.27
Reference GC (%)	50.48
N50	9318
NG50	8898
N75	5086
NG75	4373
#misassemblies	6
#local misassemblies	1
#unaligned contigs	0 + 1 part
Unaligned contigs length	30
Genome fraction (%)	93.789
Duplication ratio	1.004
#N's per 100 kbp	0.00
#mismatches per 100 kbp	1.43
#indels per 100 kbp	31.29
#genes	4335 + 792 part
#predicted genes (unique)	6677
#predicted genes (>= 0 bp)	6688
#predicted genes (>= 300 bp)	4968
#predicted genes (>= 1500 bp)	462
#predicted genes (>= 3000 bp)	24
Largest alignment	48090
NA50	9300
NGA50	8891
NA75	5086
NGA75	4373
