Assembly	GAGE_Contigs #	GAGE_Min contig	GAGE_Max contig	GAGE_N50	GAGE_Genome size	GAGE_Assembly size	GAGE_Chaff bases	GAGE_Missing reference bases	GAGE_Missing assembly bases	GAGE_Missing assembly contigs	GAGE_Duplicated reference bases	GAGE_Compressed reference bases	GAGE_Bad trim	GAGE_Avg idy	GAGE_SNPs	GAGE_Indels < 5bp	GAGE_Indels >= 5	GAGE_Inversions	GAGE_Relocation	GAGE_Translocation	GAGE_Corrected contig #	GAGE_Corrected assembly size	GAGE_Min correct contig	GAGE_Max correct contig	GAGE_Corrected N50
NEWBLER_MIS_PE_mtbh37-1_mis_2x250bp_nextera_default__mtbh37-2_mis_2x250bp_nextera_default.0.800percent.contigs_broken	138	499	187144	64195 COUNT: 21	4411532	4323030	0	79547(1.80%)	1101(0.03%)	1(0.72%)	0	11701	250	99.99	106	29	4	0	1	0	142	4322257	499	187140	63591 COUNT: 23
NEWBLER_MIS_PE_mtbh37-1_mis_2x250bp_nextera_default__mtbh37-2_mis_2x250bp_nextera_default.0.800percent.contigs	61	2464	297682	150760 COUNT: 11	4411532	4366781	0	79550(1.80%)	44866(1.03%)	0(0.00%)	0	10572	4	99.99	105	28	74	0	6	0	143	4323370	499	187140	63591 COUNT: 23
