All statistics are based on contigs of size >= 200 bp, unless otherwise noted (e.g., "# contigs (>= 0 bp)" and "Total length (>= 0 bp)" include all contigs).

Assembly                                   VELVET_MIS_PE_mtbh37-1_mis_2x250bp_nextera_default__mtbh37-2_mis_2x250bp_nextera_default_101.final.contigs_broken  VELVET_MIS_PE_mtbh37-1_mis_2x250bp_nextera_default__mtbh37-2_mis_2x250bp_nextera_default_101.final.contigs
#Contigs                                   637                                                                                                                275                                                                                                       
#Contigs (>= 0 bp)                         638                                                                                                                275                                                                                                       
#Contigs (>= 1000 bp)                      514                                                                                                                219                                                                                                       
Largest contig                             48874                                                                                                              121605                                                                                                    
Total length                               4221315                                                                                                            4263654                                                                                                   
Total length (>= 0 bp)                     4221506                                                                                                            4263654                                                                                                   
Total length (>= 1000 bp)                  4152381                                                                                                            4235642                                                                                                   
Reference length                           4411532                                                                                                            4411532                                                                                                   
N50                                        11858                                                                                                              35090                                                                                                     
NG50                                       11330                                                                                                              33539                                                                                                     
N75                                        6858                                                                                                               18207                                                                                                     
NG75                                       6375                                                                                                               16796                                                                                                     
L50                                        110                                                                                                                36                                                                                                        
LG50                                       119                                                                                                                38                                                                                                        
L75                                        229                                                                                                                77                                                                                                        
LG75                                       250                                                                                                                84                                                                                                        
#local misassemblies                       15                                                                                                                 314                                                                                                       
#misassemblies                             6                                                                                                                  13                                                                                                        
#misassembled contigs                      6                                                                                                                  9                                                                                                         
Misassembled contigs length                26820                                                                                                              212815                                                                                                    
Misassemblies inter-contig overlap         24349                                                                                                              24349                                                                                                     
#unaligned contigs                         0 + 0 part                                                                                                         0 + 0 part                                                                                                
Unaligned contigs length                   0                                                                                                                  0                                                                                                         
#ambiguously mapped contigs                33                                                                                                                 33                                                                                                        
Extra bases in ambiguously mapped contigs  -17480                                                                                                             -17480                                                                                                    
#N's                                       0                                                                                                                  42148                                                                                                     
#N's per 100 kbp                           0.00                                                                                                               988.54                                                                                                    
Genome fraction (%)                        95.267                                                                                                             95.322                                                                                                    
Duplication ratio                          1.006                                                                                                              1.016                                                                                                     
#genes                                     3509 + 535 part                                                                                                    3553 + 491 part                                                                                           
#predicted genes (unique)                  4341                                                                                                               4299                                                                                                      
#predicted genes (>= 0 bp)                 4348                                                                                                               4304                                                                                                      
#predicted genes (>= 300 bp)               3666                                                                                                               3671                                                                                                      
#predicted genes (>= 1500 bp)              492                                                                                                                495                                                                                                       
#predicted genes (>= 3000 bp)              59                                                                                                                 59                                                                                                        
#mismatches                                394                                                                                                                371                                                                                                       
#indels                                    50                                                                                                                 1048                                                                                                      
Indels length                              129                                                                                                                2069                                                                                                      
#mismatches per 100 kbp                    9.37                                                                                                               8.82                                                                                                      
#indels per 100 kbp                        1.19                                                                                                               24.92                                                                                                     
GC (%)                                     65.36                                                                                                              65.36                                                                                                     
Reference GC (%)                           65.61                                                                                                              65.61                                                                                                     
Average %IDY                               99.822                                                                                                             99.787                                                                                                    
Largest alignment                          48874                                                                                                              119936                                                                                                    
NA50                                       11741                                                                                                              32566                                                                                                     
NGA50                                      11271                                                                                                              32456                                                                                                     
NA75                                       6855                                                                                                               16919                                                                                                     
NGA75                                      6337                                                                                                               16231                                                                                                     
LA50                                       111                                                                                                                38                                                                                                        
LGA50                                      119                                                                                                                40                                                                                                        
LA75                                       229                                                                                                                81                                                                                                        
LGA75                                      251                                                                                                                88                                                                                                        
#Mis_misassemblies                         6                                                                                                                  13                                                                                                        
#Mis_relocations                           6                                                                                                                  13                                                                                                        
#Mis_translocations                        0                                                                                                                  0                                                                                                         
#Mis_inversions                            0                                                                                                                  0                                                                                                         
#Mis_misassembled contigs                  6                                                                                                                  9                                                                                                         
Mis_Misassembled contigs length            26820                                                                                                              212815                                                                                                    
#Mis_local misassemblies                   15                                                                                                                 314                                                                                                       
#Mis_short indels (<= 5 bp)                48                                                                                                                 1019                                                                                                      
#Mis_long indels (> 5 bp)                  2                                                                                                                  29                                                                                                        
#Una_fully unaligned contigs               0                                                                                                                  0                                                                                                         
Una_Fully unaligned length                 0                                                                                                                  0                                                                                                         
#Una_partially unaligned contigs           0                                                                                                                  0                                                                                                         
#Una_with misassembly                      0                                                                                                                  0                                                                                                         
#Una_both parts are significant            0                                                                                                                  0                                                                                                         
Una_Partially unaligned length             0                                                                                                                  0                                                                                                         
GAGE_Contigs #                             637                                                                                                                275                                                                                                       
GAGE_Min contig                            201                                                                                                                201                                                                                                       
GAGE_Max contig                            48874                                                                                                              121605                                                                                                    
GAGE_N50                                   11330 COUNT: 119                                                                                                   33539 COUNT: 38                                                                                           
GAGE_Genome size                           4411532                                                                                                            4411532                                                                                                   
GAGE_Assembly size                         4221315                                                                                                            4263654                                                                                                   
GAGE_Chaff bases                           0                                                                                                                  0                                                                                                         
GAGE_Missing reference bases               154210(3.50%)                                                                                                      153917(3.49%)                                                                                             
GAGE_Missing assembly bases                898(0.02%)                                                                                                         42747(1.00%)                                                                                              
GAGE_Missing assembly contigs              0(0.00%)                                                                                                           0(0.00%)                                                                                                  
GAGE_Duplicated reference bases            2488                                                                                                               2679                                                                                                      
GAGE_Compressed reference bases            57954                                                                                                              57954                                                                                                     
GAGE_Bad trim                              898                                                                                                                867                                                                                                       
GAGE_Avg idy                               99.99                                                                                                              99.98                                                                                                     
GAGE_SNPs                                  142                                                                                                                142                                                                                                       
GAGE_Indels < 5bp                          25                                                                                                                 37                                                                                                        
GAGE_Indels >= 5                           15                                                                                                                 363                                                                                                       
GAGE_Inversions                            0                                                                                                                  2                                                                                                         
GAGE_Relocation                            5                                                                                                                  12                                                                                                        
GAGE_Translocation                         0                                                                                                                  0                                                                                                         
GAGE_Corrected contig #                    652                                                                                                                647                                                                                                       
GAGE_Corrected assembly size               4224057                                                                                                            4224219                                                                                                   
GAGE_Min correct contig                    201                                                                                                                201                                                                                                       
GAGE_Max correct contig                    36595                                                                                                              36595                                                                                                     
GAGE_Corrected N50                         10348 COUNT: 125                                                                                                   10348 COUNT: 125                                                                                          
