1: PREPARING DATA
2,3: RUNNING mummer AND CREATING CLUSTERS
# reading input file "/vol/codine-tmp/juene/tmp.8t4Z1BmyvG/quast/gage/tmp/SOAP2_MIS_PE_mrsa_mis-1_bi_2x150bp_default.0.527percent_123.final.scaf.ntref" of length 2813864
# construct suffix tree for sequence of length 2813864
# (maximum reference length is 536870908)
# (maximum query length is 4294967295)
# process 28138 characters per dot
#....................................................................................................
# CONSTRUCTIONTIME /vol/ngscomparison/software/analysis/quast-2.1/libs/MUMmer3.23-linux/mummer /vol/codine-tmp/juene/tmp.8t4Z1BmyvG/quast/gage/tmp/SOAP2_MIS_PE_mrsa_mis-1_bi_2x150bp_default.0.527percent_123.final.scaf.ntref 1.44
# reading input file "/vol/codine-tmp/juene/tmp.8t4Z1BmyvG/quast/corrected_input/SOAP2_MIS_PE_mrsa_mis-1_bi_2x150bp_default.0.527percent_123.final.scaf" of length 2768175
# matching query-file "/vol/codine-tmp/juene/tmp.8t4Z1BmyvG/quast/corrected_input/SOAP2_MIS_PE_mrsa_mis-1_bi_2x150bp_default.0.527percent_123.final.scaf"
# against subject-file "/vol/codine-tmp/juene/tmp.8t4Z1BmyvG/quast/gage/tmp/SOAP2_MIS_PE_mrsa_mis-1_bi_2x150bp_default.0.527percent_123.final.scaf.ntref"
# COMPLETETIME /vol/ngscomparison/software/analysis/quast-2.1/libs/MUMmer3.23-linux/mummer /vol/codine-tmp/juene/tmp.8t4Z1BmyvG/quast/gage/tmp/SOAP2_MIS_PE_mrsa_mis-1_bi_2x150bp_default.0.527percent_123.final.scaf.ntref 3.95
# SPACE /vol/ngscomparison/software/analysis/quast-2.1/libs/MUMmer3.23-linux/mummer /vol/codine-tmp/juene/tmp.8t4Z1BmyvG/quast/gage/tmp/SOAP2_MIS_PE_mrsa_mis-1_bi_2x150bp_default.0.527percent_123.final.scaf.ntref 5.42
4: FINISHING DATA
Filtering alignments
Extracting alignment coordinates
Analyzing SNPs
Extracting alignment breakpoints
Generating report file
Found genome size at position 4 with value 2813862 aka 2813862
Calculating point at 0 and the sum is 1003590 and i is1372 and lens is 1536 and length is 3838
Calculating point at 1 and the sum is 2000600 and i is955 and lens is 1536 and length is 1545
