Assembly	#Contigs	#Contigs (>= 0 bp)	#Contigs (>= 1000 bp)	Largest contig	Total length	Total length (>= 0 bp)	Total length (>= 1000 bp)	Reference length	N50	NG50	N75	NG75	L50	LG50	L75	LG75	#local misassemblies	#misassemblies	#misassembled contigs	Misassembled contigs length	Misassemblies inter-contig overlap	#unaligned contigs	Unaligned contigs length	#ambiguously mapped contigs	Extra bases in ambiguously mapped contigs	#N's	#N's per 100 kbp	Genome fraction (%)	Duplication ratio	#genes	#predicted genes (unique)	#predicted genes (>= 0 bp)	#predicted genes (>= 300 bp)	#predicted genes (>= 1500 bp)	#predicted genes (>= 3000 bp)	#mismatches	#indels	Indels length	#mismatches per 100 kbp	#indels per 100 kbp	GC (%)	Reference GC (%)	Average %IDY	Largest alignment	NA50	NGA50	NA75	NGA75	LA50	LGA50	LA75	LGA75	#Mis_misassemblies	#Mis_relocations	#Mis_translocations	#Mis_inversions	#Mis_misassembled contigs	Mis_Misassembled contigs length	#Mis_local misassemblies	#Mis_short indels (<= 5 bp)	#Mis_long indels (> 5 bp)	#Una_fully unaligned contigs	Una_Fully unaligned length	#Una_partially unaligned contigs	#Una_with misassembly	#Una_both parts are significant	Una_Partially unaligned length	GAGE_Contigs #	GAGE_Min contig	GAGE_Max contig	GAGE_N50	GAGE_Genome size	GAGE_Assembly size	GAGE_Chaff bases	GAGE_Missing reference bases	GAGE_Missing assembly bases	GAGE_Missing assembly contigs	GAGE_Duplicated reference bases	GAGE_Compressed reference bases	GAGE_Bad trim	GAGE_Avg idy	GAGE_SNPs	GAGE_Indels < 5bp	GAGE_Indels >= 5	GAGE_Inversions	GAGE_Relocation	GAGE_Translocation	GAGE_Corrected contig #	GAGE_Corrected assembly size	GAGE_Min correct contig	GAGE_Max correct contig	GAGE_Corrected N50
CLC_MIS_PE_sakai_mis-1_bi_2x250bp_SI_default__sakai_mis-2_bi_2x250bp_SI_default.0.4percent.result_broken	431	438	146	354849	5425793	5426696	5326225	5594470	149754	149754	72356	71653	13	13	26	27	6	4	4	220184	2457	141 + 4 part	43004	88	-76097	88	1.62	94.777	1.001	5031 + 138 part	5434	5437	4475	673	68	222	33	657	4.19	0.62	50.27	50.48	98.628	354849	148204	147892	72356	66273	13	14	26	28	4	4	0	0	4	220184	6	21	12	141	42453	4	0	0	551	431	200	354849	149754 COUNT: 13	5594470	5425793	0	10848(0.19%)	42392(0.78%)	140(32.48%)	11893	241397	590	99.99	157	14	16	0	5	0	272	5373376	201	313894	108915 COUNT: 15
CLC_MIS_PE_sakai_mis-1_bi_2x250bp_SI_default__sakai_mis-2_bi_2x250bp_SI_default.0.4percent.result	421	421	139	374740	5427856	5427856	5330727	5594470	149754	149754	75473	73838	11	11	23	24	16	4	4	431576	2850	142 + 6 part	43869	85	-70887	1248	22.99	94.883	1.001	5038 + 135 part	5424	5427	4474	673	67	277	55	904	5.22	1.04	50.27	50.48	98.624	361729	148204	148204	75473	73736	12	12	24	25	4	4	0	0	4	431576	16	37	18	142	42306	6	0	0	1563	421	200	374740	149754 COUNT: 11	5594470	5427856	0	10654(0.19%)	44155(0.81%)	142(33.73%)	12475	241873	946	99.99	157	14	22	0	9	0	271	5372900	201	313894	108915 COUNT: 15
