1: PREPARING DATA
2,3: RUNNING mummer AND CREATING CLUSTERS
# reading input file "/vol/codine-tmp/juene/tmp.1Fv2GXkswG/quast/contigs_reports/nucmer_output/CLC_PGM_mtbh37_pgm_200bp_es_IonOne_tsv2.0_morestringent.0.025percent.result.ntref" of length 4411533
# construct suffix tree for sequence of length 4411533
# (maximum reference length is 536870908)
# (maximum query length is 4294967295)
# process 44115 characters per dot
#....................................................................................................
# CONSTRUCTIONTIME /vol/ngscomparison/software/analysis/quast-2.1/libs/MUMmer3.23-linux/mummer /vol/codine-tmp/juene/tmp.1Fv2GXkswG/quast/contigs_reports/nucmer_output/CLC_PGM_mtbh37_pgm_200bp_es_IonOne_tsv2.0_morestringent.0.025percent.result.ntref 2.47
# reading input file "/vol/codine-tmp/juene/tmp.1Fv2GXkswG/quast/corrected_input/CLC_PGM_mtbh37_pgm_200bp_es_IonOne_tsv2.0_morestringent.0.025percent.result" of length 122452
# matching query-file "/vol/codine-tmp/juene/tmp.1Fv2GXkswG/quast/corrected_input/CLC_PGM_mtbh37_pgm_200bp_es_IonOne_tsv2.0_morestringent.0.025percent.result"
# against subject-file "/vol/codine-tmp/juene/tmp.1Fv2GXkswG/quast/contigs_reports/nucmer_output/CLC_PGM_mtbh37_pgm_200bp_es_IonOne_tsv2.0_morestringent.0.025percent.result.ntref"
# COMPLETETIME /vol/ngscomparison/software/analysis/quast-2.1/libs/MUMmer3.23-linux/mummer /vol/codine-tmp/juene/tmp.1Fv2GXkswG/quast/contigs_reports/nucmer_output/CLC_PGM_mtbh37_pgm_200bp_es_IonOne_tsv2.0_morestringent.0.025percent.result.ntref 2.60
# SPACE /vol/ngscomparison/software/analysis/quast-2.1/libs/MUMmer3.23-linux/mummer /vol/codine-tmp/juene/tmp.1Fv2GXkswG/quast/contigs_reports/nucmer_output/CLC_PGM_mtbh37_pgm_200bp_es_IonOne_tsv2.0_morestringent.0.025percent.result.ntref 4.40
4: FINISHING DATA
