All statistics are based on contigs of size >= 200 bp, unless otherwise noted (e.g., "# contigs (>= 0 bp)" and "Total length (>= 0 bp)" include all contigs).

Assembly                         CLC_MIS_PE_mrsa_mis-1_bi_2x150bp_default__mrsa_mis-2_bi_2x150bp_default.0.300percent.result_broken  CLC_MIS_PE_mrsa_mis-1_bi_2x150bp_default__mrsa_mis-2_bi_2x150bp_default.0.300percent.result
#Mis_misassemblies               3                                                                                                   3                                                                                          
#Mis_relocations                 3                                                                                                   3                                                                                          
#Mis_translocations              0                                                                                                   0                                                                                          
#Mis_inversions                  0                                                                                                   0                                                                                          
#Mis_misassembled contigs        3                                                                                                   3                                                                                          
Mis_Misassembled contigs length  460876                                                                                              613743                                                                                     
#Mis_local misassemblies         8                                                                                                   10                                                                                         
#mismatches                      58                                                                                                  57                                                                                         
#indels                          28                                                                                                  28                                                                                         
#Mis_short indels (<= 5 bp)      16                                                                                                  16                                                                                         
#Mis_long indels (> 5 bp)        12                                                                                                  12                                                                                         
Indels length                    332                                                                                                 332                                                                                        
