Assembly	NEWBLER_MIS_PE_sakai_mis-1_bi_2x150bp_default__sakai_mis-2_bi_2x150bp_default.6coverage.contigs
#Mis_misassemblies	7
#Mis_relocations	6
#Mis_translocations	1
#Mis_inversions	0
#Mis_misassembled contigs	7
Mis_Misassembled contigs length	15161
#Mis_local misassemblies	7
#mismatches	793
#indels	59
#Mis_short indels (<= 5 bp)	59
#Mis_long indels (> 5 bp)	0
Indels length	64
