All statistics are based on contigs of size >= 200 bp, unless otherwise noted (e.g., "# contigs (>= 0 bp)" and "Total length (>= 0 bp)" include all contigs).

Assembly                       ABYSS_PE_MIS_PE_sakai_mis-2_bi_2x150bp_default__sakai_mis-1_bi_2x150bp_default.0.990percent_60.final_broken  ABYSS_PE_MIS_PE_sakai_mis-2_bi_2x150bp_default__sakai_mis-1_bi_2x150bp_default.0.990percent_60.final
#Contigs (>= 0 bp)             1055                                                                                                         993                                                                                                 
#Contigs (>= 1000 bp)          189                                                                                                          160                                                                                                 
Total length (>= 0 bp)         5549856                                                                                                      5554179                                                                                             
Total length (>= 1000 bp)      5418894                                                                                                      5438318                                                                                             
#Contigs                       273                                                                                                          212                                                                                                 
Largest contig                 290859                                                                                                       375484                                                                                              
Total length                   5462961                                                                                                      5467413                                                                                             
Reference length               5594470                                                                                                      5594470                                                                                             
GC (%)                         50.38                                                                                                        50.38                                                                                               
Reference GC (%)               50.48                                                                                                        50.48                                                                                               
N50                            100084                                                                                                       149516                                                                                              
NG50                           98911                                                                                                        148469                                                                                              
N75                            42289                                                                                                        66512                                                                                               
NG75                           41413                                                                                                        48393                                                                                               
#misassemblies                 4                                                                                                            16                                                                                                  
#local misassemblies           4                                                                                                            28                                                                                                  
#unaligned contigs             0 + 0 part                                                                                                   1 + 1 part                                                                                          
Unaligned contigs length       0                                                                                                            1300                                                                                                
Genome fraction (%)            95.723                                                                                                       95.961                                                                                              
Duplication ratio              1.010                                                                                                        1.013                                                                                               
#N's per 100 kbp               0.57                                                                                                         79.64                                                                                               
#mismatches per 100 kbp        19.59                                                                                                        21.24                                                                                               
#indels per 100 kbp            0.78                                                                                                         3.41                                                                                                
#genes                         5036 + 177 part                                                                                              5067 + 171 part                                                                                     
#predicted genes (unique)      5246                                                                                                         5236                                                                                                
#predicted genes (>= 0 bp)     5349                                                                                                         5339                                                                                                
#predicted genes (>= 300 bp)   4509                                                                                                         4511                                                                                                
#predicted genes (>= 1500 bp)  687                                                                                                          687                                                                                                 
#predicted genes (>= 3000 bp)  75                                                                                                           74                                                                                                  
Largest alignment              227212                                                                                                       353964                                                                                              
NA50                           98911                                                                                                        148469                                                                                              
NGA50                          95730                                                                                                        148272                                                                                              
NA75                           41857                                                                                                        66512                                                                                               
NGA75                          41238                                                                                                        48393                                                                                               
