1: PREPARING DATA
2,3: RUNNING mummer AND CREATING CLUSTERS
# reading input file "/vol/codine-tmp/juene/tmp.BDDUqR2Xwn/quast/contigs_reports/nucmer_output/CLC_PGM_sakai_pgm_mu_318_400bp_IO_TS3.4_ms.0.975percent.result.ntref" of length 5594473
# construct suffix tree for sequence of length 5594473
# (maximum reference length is 536870908)
# (maximum query length is 4294967295)
# process 55944 characters per dot
#....................................................................................................
# CONSTRUCTIONTIME /vol/ngscomparison/software/analysis/quast-2.1/libs/MUMmer3.23-linux/mummer /vol/codine-tmp/juene/tmp.BDDUqR2Xwn/quast/contigs_reports/nucmer_output/CLC_PGM_sakai_pgm_mu_318_400bp_IO_TS3.4_ms.0.975percent.result.ntref 3.96
# reading input file "/vol/codine-tmp/juene/tmp.BDDUqR2Xwn/quast/corrected_input/CLC_PGM_sakai_pgm_mu_318_400bp_IO_TS3.4_ms.0.975percent.result" of length 5529624
# matching query-file "/vol/codine-tmp/juene/tmp.BDDUqR2Xwn/quast/corrected_input/CLC_PGM_sakai_pgm_mu_318_400bp_IO_TS3.4_ms.0.975percent.result"
# against subject-file "/vol/codine-tmp/juene/tmp.BDDUqR2Xwn/quast/contigs_reports/nucmer_output/CLC_PGM_sakai_pgm_mu_318_400bp_IO_TS3.4_ms.0.975percent.result.ntref"
# COMPLETETIME /vol/ngscomparison/software/analysis/quast-2.1/libs/MUMmer3.23-linux/mummer /vol/codine-tmp/juene/tmp.BDDUqR2Xwn/quast/contigs_reports/nucmer_output/CLC_PGM_sakai_pgm_mu_318_400bp_IO_TS3.4_ms.0.975percent.result.ntref 11.52
# SPACE /vol/ngscomparison/software/analysis/quast-2.1/libs/MUMmer3.23-linux/mummer /vol/codine-tmp/juene/tmp.BDDUqR2Xwn/quast/contigs_reports/nucmer_output/CLC_PGM_sakai_pgm_mu_318_400bp_IO_TS3.4_ms.0.975percent.result.ntref 10.80
4: FINISHING DATA
