Assembly	ABYSS_PE_PGM_sakai_pgm_mu_200bp_IO_TS3.0Disabled_stringent.0.34percent_114-unitigs
#Contigs	2510
#Contigs (>= 0 bp)	3506
#Contigs (>= 1000 bp)	820
Largest contig	49197
Total length	5598616
Total length (>= 0 bp)	5746979
Total length (>= 1000 bp)	5080435
Reference length	5594470
N50	8654
NG50	8654
N75	4148
NG75	4148
L50	192
LG50	192
L75	424
LG75	424
#local misassemblies	2
#misassemblies	8
#misassembled contigs	8
Misassembled contigs length	19816
Misassemblies inter-contig overlap	113
#unaligned contigs	0 + 0 part
Unaligned contigs length	0
#ambiguously mapped contigs	532
Extra bases in ambiguously mapped contigs	-160297
#N's	0
#N's per 100 kbp	0.00
Genome fraction (%)	94.366
Duplication ratio	1.030
#genes	4349 + 832 part
#predicted genes (unique)	7740
#predicted genes (>= 0 bp)	7777
#predicted genes (>= 300 bp)	5021
#predicted genes (>= 1500 bp)	437
#predicted genes (>= 3000 bp)	27
#mismatches	51
#indels	1908
Indels length	1976
#mismatches per 100 kbp	0.97
#indels per 100 kbp	36.14
GC (%)	50.43
Reference GC (%)	50.48
Average %IDY	99.102
Largest alignment	49197
NA50	8654
NGA50	8654
NA75	4148
NGA75	4148
LA50	192
LGA50	192
LA75	424
LGA75	424
#Mis_misassemblies	8
#Mis_relocations	4
#Mis_translocations	0
#Mis_inversions	4
#Mis_misassembled contigs	8
Mis_Misassembled contigs length	19816
#Mis_local misassemblies	2
#Mis_short indels (<= 5 bp)	1908
#Mis_long indels (> 5 bp)	0
#Una_fully unaligned contigs	0
Una_Fully unaligned length	0
#Una_partially unaligned contigs	0
#Una_with misassembly	0
#Una_both parts are significant	0
Una_Partially unaligned length	0
GAGE_Contigs #	2510
GAGE_Min contig	200
GAGE_Max contig	49197
GAGE_N50	8654 COUNT: 192
GAGE_Genome size	5594470
GAGE_Assembly size	5598616
GAGE_Chaff bases	0
GAGE_Missing reference bases	29638(0.53%)
GAGE_Missing assembly bases	17(0.00%)
GAGE_Missing assembly contigs	0(0.00%)
GAGE_Duplicated reference bases	150793
GAGE_Compressed reference bases	270922
GAGE_Bad trim	17
GAGE_Avg idy	99.96
GAGE_SNPs	56
GAGE_Indels < 5bp	1961
GAGE_Indels >= 5	2
GAGE_Inversions	0
GAGE_Relocation	3
GAGE_Translocation	0
GAGE_Corrected contig #	1849
GAGE_Corrected assembly size	5448711
GAGE_Min correct contig	200
GAGE_Max correct contig	49212
GAGE_Corrected N50	8657 COUNT: 192
