Assembly	CLC_MIS_PE_mtbh37-1_mis_2x250bp_nextera_default__mtbh37-2_mis_2x250bp_nextera_default.0.650percent.result_broken	CLC_MIS_PE_mtbh37-1_mis_2x250bp_nextera_default__mtbh37-2_mis_2x250bp_nextera_default.0.650percent.result
#Contigs	318	408
#Contigs (>= 0 bp)	697	408
#Contigs (>= 1000 bp)	133	103
Largest contig	193057	228047
Total length	4391570	4433511
Total length (>= 0 bp)	4420482	4433511
Total length (>= 1000 bp)	4332713	4342289
Reference length	4411532	4411532
N50	70251	87271
NG50	70251	87646
N75	40168	61473
NG75	38835	61473
L50	20	17
LG50	20	16
L75	40	32
LG75	41	32
#local misassemblies	12	32
#misassemblies	0	2
#misassembled contigs	0	2
Misassembled contigs length	0	990
Misassemblies inter-contig overlap	21566	21789
#unaligned contigs	87 + 26 part	178 + 64 part
Unaligned contigs length	25112	57959
#ambiguously mapped contigs	29	26
Extra bases in ambiguously mapped contigs	-19490	-18055
#N's	284	13559
#N's per 100 kbp	6.47	305.83
Genome fraction (%)	98.157	98.234
Duplication ratio	1.009	1.011
#genes	3961 + 87 part	3972 + 77 part
#predicted genes (unique)	4127	4115
#predicted genes (>= 0 bp)	4129	4116
#predicted genes (>= 300 bp)	3564	3562
#predicted genes (>= 1500 bp)	574	573
#predicted genes (>= 3000 bp)	75	76
#mismatches	366	376
#indels	122	302
Indels length	389	735
#mismatches per 100 kbp	8.45	8.68
#indels per 100 kbp	2.82	6.97
GC (%)	65.70	65.86
Reference GC (%)	65.61	65.61
Average %IDY	99.375	99.281
Largest alignment	192521	227930
NA50	70251	87271
NGA50	70251	87547
NA75	40168	61473
NGA75	38835	61473
LA50	20	17
LGA50	20	16
LA75	40	32
LGA75	41	32
#Mis_misassemblies	0	2
#Mis_relocations	0	2
#Mis_translocations	0	0
#Mis_inversions	0	0
#Mis_misassembled contigs	0	2
Mis_Misassembled contigs length	0	990
#Mis_local misassemblies	12	32
#Mis_short indels (<= 5 bp)	107	280
#Mis_long indels (> 5 bp)	15	22
#Una_fully unaligned contigs	87	178
Una_Fully unaligned length	22508	47513
#Una_partially unaligned contigs	26	64
#Una_with misassembly	0	0
#Una_both parts are significant	1	3
Una_Partially unaligned length	2604	10446
GAGE_Contigs #	318	408
GAGE_Min contig	200	200
GAGE_Max contig	193057	228047
GAGE_N50	70251 COUNT: 20	87646 COUNT: 16
GAGE_Genome size	4411532	4411532
GAGE_Assembly size	4391570	4433511
GAGE_Chaff bases	0	0
GAGE_Missing reference bases	16193(0.37%)	15540(0.35%)
GAGE_Missing assembly bases	25734(0.59%)	62745(1.42%)
GAGE_Missing assembly contigs	86(27.04%)	177(43.38%)
GAGE_Duplicated reference bases	16293	20362
GAGE_Compressed reference bases	51075	51196
GAGE_Bad trim	3229	11893
GAGE_Avg idy	99.98	99.98
GAGE_SNPs	217	222
GAGE_Indels < 5bp	43	48
GAGE_Indels >= 5	23	49
GAGE_Inversions	0	0
GAGE_Relocation	3	5
GAGE_Translocation	0	0
GAGE_Corrected contig #	191	182
GAGE_Corrected assembly size	4350236	4350503
GAGE_Min correct contig	220	220
GAGE_Max correct contig	192521	192521
GAGE_Corrected N50	58142 COUNT: 25	61473 COUNT: 24
