Assembly	CLC_MIS_PE_mtbh37-1_mis_2x250bp_nextera_default__mtbh37-2_mis_2x250bp_nextera_default.0.650percent.result_broken	CLC_MIS_PE_mtbh37-1_mis_2x250bp_nextera_default__mtbh37-2_mis_2x250bp_nextera_default.0.650percent.result
#Contigs (>= 0 bp)	697	408
#Contigs (>= 1000 bp)	133	103
Total length (>= 0 bp)	4420482	4433511
Total length (>= 1000 bp)	4332713	4342289
#Contigs	318	408
Largest contig	193057	228047
Total length	4391570	4433511
Reference length	4411532	4411532
GC (%)	65.70	65.86
Reference GC (%)	65.61	65.61
N50	70251	87271
NG50	70251	87646
N75	40168	61473
NG75	38835	61473
#misassemblies	0	2
#local misassemblies	12	32
#unaligned contigs	87 + 26 part	178 + 64 part
Unaligned contigs length	25112	57959
Genome fraction (%)	98.157	98.234
Duplication ratio	1.009	1.011
#N's per 100 kbp	6.47	305.83
#mismatches per 100 kbp	8.45	8.68
#indels per 100 kbp	2.82	6.97
#genes	3961 + 87 part	3972 + 77 part
#predicted genes (unique)	4127	4115
#predicted genes (>= 0 bp)	4129	4116
#predicted genes (>= 300 bp)	3564	3562
#predicted genes (>= 1500 bp)	574	573
#predicted genes (>= 3000 bp)	75	76
Largest alignment	192521	227930
NA50	70251	87271
NGA50	70251	87547
NA75	40168	61473
NGA75	38835	61473
