Assembly	#Contigs	#Contigs (>= 0 bp)	#Contigs (>= 1000 bp)	Largest contig	Total length	Total length (>= 0 bp)	Total length (>= 1000 bp)	Reference length	N50	NG50	N75	NG75	L50	LG50	L75	LG75	#local misassemblies	#misassemblies	#misassembled contigs	Misassembled contigs length	Misassemblies inter-contig overlap	#unaligned contigs	Unaligned contigs length	#ambiguously mapped contigs	Extra bases in ambiguously mapped contigs	#N's	#N's per 100 kbp	Genome fraction (%)	Duplication ratio	#genes	#predicted genes (unique)	#predicted genes (>= 0 bp)	#predicted genes (>= 300 bp)	#predicted genes (>= 1500 bp)	#predicted genes (>= 3000 bp)	#mismatches	#indels	Indels length	#mismatches per 100 kbp	#indels per 100 kbp	GC (%)	Reference GC (%)	Average %IDY	Largest alignment	NA50	NGA50	NA75	NGA75	LA50	LGA50	LA75	LGA75	#Mis_misassemblies	#Mis_relocations	#Mis_translocations	#Mis_inversions	#Mis_misassembled contigs	Mis_Misassembled contigs length	#Mis_local misassemblies	#Mis_short indels (<= 5 bp)	#Mis_long indels (> 5 bp)	#Una_fully unaligned contigs	Una_Fully unaligned length	#Una_partially unaligned contigs	#Una_with misassembly	#Una_both parts are significant	Una_Partially unaligned length	GAGE_Contigs #	GAGE_Min contig	GAGE_Max contig	GAGE_N50	GAGE_Genome size	GAGE_Assembly size	GAGE_Chaff bases	GAGE_Missing reference bases	GAGE_Missing assembly bases	GAGE_Missing assembly contigs	GAGE_Duplicated reference bases	GAGE_Compressed reference bases	GAGE_Bad trim	GAGE_Avg idy	GAGE_SNPs	GAGE_Indels < 5bp	GAGE_Indels >= 5	GAGE_Inversions	GAGE_Relocation	GAGE_Translocation	GAGE_Corrected contig #	GAGE_Corrected assembly size	GAGE_Min correct contig	GAGE_Max correct contig	GAGE_Corrected N50
SOAP2_MIS_PE_mrsa_mis-1_bi_2x150bp_default.0.527percent_51.final.scaf_broken	346	2179	260	74358	2733271	2925048	2695014	2813862	16483	16338	9340	8846	52	54	107	113	0	2	2	15645	0	1 + 1 part	5504	9	-4025	132	4.83	96.814	1.000	2412 + 222 part	2789	2790	2317	280	28	45	39	815	1.65	1.43	32.60	32.81	99.931	74358	16483	16338	9340	8846	52	54	107	113	2	2	0	0	2	15645	0	19	20	1	5437	1	0	0	67	346	201	74358	16338 COUNT: 54	2813862	2733271	0	75475(2.68%)	5657(0.21%)	1(0.29%)	0	12538	135	100.00	45	27	20	1	1	0	364	2727306	201	74354	15656 COUNT: 57
SOAP2_MIS_PE_mrsa_mis-1_bi_2x150bp_default.0.527percent_51.final.scaf	69	1753	43	318080	2767471	2943832	2757261	2813862	133202	133202	68120	61442	7	7	14	15	71	3	2	469736	95	6 + 2 part	7883	8	-3790	18918	683.58	97.178	1.008	2582 + 58 part	2734	2734	2303	283	29	45	2645	7080	1.65	96.73	32.63	32.81	99.575	317467	133155	133155	58988	58988	7	7	16	16	3	3	0	0	2	469736	71	2468	177	6	7197	2	0	0	686	69	201	318080	133202 COUNT: 7	2813862	2767471	0	56800(2.02%)	24754(0.89%)	1(1.45%)	780	19128	730	99.94	47	135	352	2	5	0	334	2729423	201	74354	16329 COUNT: 52
