Assembly	VELVET_PGM_mrsa_pgm_400bp_es_318_IKA_ts3.2_morestringent.0.165percent_103.final.contigs
#Contigs (>= 0 bp)	45183
#Contigs (>= 1000 bp)	0
Total length (>= 0 bp)	11087676
Total length (>= 1000 bp)	0
#Contigs	45183
Largest contig	622
Total length	11087676
Reference length	2813862
GC (%)	32.88
Reference GC (%)	32.81
N50	239
NG50	310
N75	215
NG75	291
#misassemblies	514
#local misassemblies	3
#unaligned contigs	381 + 114 part
Unaligned contigs length	105348
Genome fraction (%)	94.001
Duplication ratio	4.085
#N's per 100 kbp	0.00
#mismatches per 100 kbp	72.89
#indels per 100 kbp	1033.36
#genes	204 + 2453 part
#predicted genes (unique)	44172
#predicted genes (>= 0 bp)	44557
#predicted genes (>= 300 bp)	51
#predicted genes (>= 1500 bp)	0
#predicted genes (>= 3000 bp)	0
Largest alignment	622
NA50	237
NGA50	309
NA75	213
NGA75	290
