All statistics are based on contigs of size >= 200 bp, unless otherwise noted (e.g., "# contigs (>= 0 bp)" and "Total length (>= 0 bp)" include all contigs).

Assembly                         VELVET_MIS_PE_mrsa_mis-1_bi_2x150bp_default__mrsa_mis-2_bi_2x150bp_default.0.527percent_83.final.contigs_broken  VELVET_MIS_PE_mrsa_mis-1_bi_2x150bp_default__mrsa_mis-2_bi_2x150bp_default.0.527percent_83.final.contigs
#Mis_misassemblies               3                                                                                                                5                                                                                                       
#Mis_relocations                 3                                                                                                                5                                                                                                       
#Mis_translocations              0                                                                                                                0                                                                                                       
#Mis_inversions                  0                                                                                                                0                                                                                                       
#Mis_misassembled contigs        3                                                                                                                4                                                                                                       
Mis_Misassembled contigs length  599154                                                                                                           1492608                                                                                                 
#Mis_local misassemblies         2                                                                                                                5                                                                                                       
#mismatches                      92                                                                                                               95                                                                                                      
#indels                          10                                                                                                               137                                                                                                     
#Mis_short indels (<= 5 bp)      10                                                                                                               128                                                                                                     
#Mis_long indels (> 5 bp)        0                                                                                                                9                                                                                                       
Indels length                    12                                                                                                               369                                                                                                     
