1: PREPARING DATA
2,3: RUNNING mummer AND CREATING CLUSTERS
# reading input file "/vol/codine-tmp/juene/tmp.bQ3MKNS62p/quast/gage/tmp/CLC_MIS_PE_mtbh37-1_mis_2x250bp_nextera_default__mtbh37-2_mis_2x250bp_nextera_default.0.650percent.result.ntref" of length 4411533
# construct suffix tree for sequence of length 4411533
# (maximum reference length is 536870908)
# (maximum query length is 4294967295)
# process 44115 characters per dot
#....................................................................................................
# CONSTRUCTIONTIME /vol/ngscomparison/software/analysis/quast-2.1/libs/MUMmer3.23-linux/mummer /vol/codine-tmp/juene/tmp.bQ3MKNS62p/quast/gage/tmp/CLC_MIS_PE_mtbh37-1_mis_2x250bp_nextera_default__mtbh37-2_mis_2x250bp_nextera_default.0.650percent.result.ntref 2.45
# reading input file "/vol/codine-tmp/juene/tmp.bQ3MKNS62p/quast/corrected_input/CLC_MIS_PE_mtbh37-1_mis_2x250bp_nextera_default__mtbh37-2_mis_2x250bp_nextera_default.0.650percent.result" of length 4433918
# matching query-file "/vol/codine-tmp/juene/tmp.bQ3MKNS62p/quast/corrected_input/CLC_MIS_PE_mtbh37-1_mis_2x250bp_nextera_default__mtbh37-2_mis_2x250bp_nextera_default.0.650percent.result"
# against subject-file "/vol/codine-tmp/juene/tmp.bQ3MKNS62p/quast/gage/tmp/CLC_MIS_PE_mtbh37-1_mis_2x250bp_nextera_default__mtbh37-2_mis_2x250bp_nextera_default.0.650percent.result.ntref"
# COMPLETETIME /vol/ngscomparison/software/analysis/quast-2.1/libs/MUMmer3.23-linux/mummer /vol/codine-tmp/juene/tmp.bQ3MKNS62p/quast/gage/tmp/CLC_MIS_PE_mtbh37-1_mis_2x250bp_nextera_default__mtbh37-2_mis_2x250bp_nextera_default.0.650percent.result.ntref 6.69
# SPACE /vol/ngscomparison/software/analysis/quast-2.1/libs/MUMmer3.23-linux/mummer /vol/codine-tmp/juene/tmp.bQ3MKNS62p/quast/gage/tmp/CLC_MIS_PE_mtbh37-1_mis_2x250bp_nextera_default__mtbh37-2_mis_2x250bp_nextera_default.0.650percent.result.ntref 8.58
4: FINISHING DATA
Filtering alignments
Extracting alignment coordinates
Analyzing SNPs
Extracting alignment breakpoints
Generating report file
Found genome size at position 4 with value 4411532 aka 4411532
Calculating point at 0 and the sum is 1025100 and i is183 and lens is 191 and length is 93632
Calculating point at 1 and the sum is 2029069 and i is170 and lens is 191 and length is 64677
Calculating point at 2 and the sum is 3028331 and i is151 and lens is 191 and length is 41808
Calculating point at 3 and the sum is 4015661 and i is114 and lens is 191 and length is 15681
