1: PREPARING DATA
2,3: RUNNING mummer AND CREATING CLUSTERS
# reading input file "/vol/codine-tmp/juene/tmp.9TP4BzVBSb/quast/contigs_reports/nucmer_output/CLC_MIS_PE_sakai_mis-1_bi_2x250bp_SI_default__sakai_mis-2_bi_2x250bp_SI_default.0.05percent.result.ntref" of length 5594473
# construct suffix tree for sequence of length 5594473
# (maximum reference length is 536870908)
# (maximum query length is 4294967295)
# process 55944 characters per dot
#....................................................................................................
# CONSTRUCTIONTIME /vol/ngscomparison/software/analysis/quast-2.1/libs/MUMmer3.23-linux/mummer /vol/codine-tmp/juene/tmp.9TP4BzVBSb/quast/contigs_reports/nucmer_output/CLC_MIS_PE_sakai_mis-1_bi_2x250bp_SI_default__sakai_mis-2_bi_2x250bp_SI_default.0.05percent.result.ntref 3.25
# reading input file "/vol/codine-tmp/juene/tmp.9TP4BzVBSb/quast/corrected_input/CLC_MIS_PE_sakai_mis-1_bi_2x250bp_SI_default__sakai_mis-2_bi_2x250bp_SI_default.0.05percent.result" of length 5292676
# matching query-file "/vol/codine-tmp/juene/tmp.9TP4BzVBSb/quast/corrected_input/CLC_MIS_PE_sakai_mis-1_bi_2x250bp_SI_default__sakai_mis-2_bi_2x250bp_SI_default.0.05percent.result"
# against subject-file "/vol/codine-tmp/juene/tmp.9TP4BzVBSb/quast/contigs_reports/nucmer_output/CLC_MIS_PE_sakai_mis-1_bi_2x250bp_SI_default__sakai_mis-2_bi_2x250bp_SI_default.0.05percent.result.ntref"
# COMPLETETIME /vol/ngscomparison/software/analysis/quast-2.1/libs/MUMmer3.23-linux/mummer /vol/codine-tmp/juene/tmp.9TP4BzVBSb/quast/contigs_reports/nucmer_output/CLC_MIS_PE_sakai_mis-1_bi_2x250bp_SI_default__sakai_mis-2_bi_2x250bp_SI_default.0.05percent.result.ntref 10.00
# SPACE /vol/ngscomparison/software/analysis/quast-2.1/libs/MUMmer3.23-linux/mummer /vol/codine-tmp/juene/tmp.9TP4BzVBSb/quast/contigs_reports/nucmer_output/CLC_MIS_PE_sakai_mis-1_bi_2x250bp_SI_default__sakai_mis-2_bi_2x250bp_SI_default.0.05percent.result.ntref 10.58
4: FINISHING DATA
