Assembly	VELVET_PGM_sakai_pgm_mu_200bp_IO_TS3.0Disabled_stringent.0.34percent_169.final.contigs
GAGE_Contigs #	3408
GAGE_Min contig	337
GAGE_Max contig	2644
GAGE_N50	0 COUNT: 0
GAGE_Genome size	5594470
GAGE_Assembly size	2609263
GAGE_Chaff bases	0
GAGE_Missing reference bases	2887712(51.62%)
GAGE_Missing assembly bases	3460(0.13%)
GAGE_Missing assembly contigs	0(0.00%)
GAGE_Duplicated reference bases	7079
GAGE_Compressed reference bases	216306
GAGE_Bad trim	3460
GAGE_Avg idy	99.91
GAGE_SNPs	133
GAGE_Indels < 5bp	1808
GAGE_Indels >= 5	0
GAGE_Inversions	3
GAGE_Relocation	2
GAGE_Translocation	0
GAGE_Corrected contig #	3400
GAGE_Corrected assembly size	2602492
GAGE_Min correct contig	264
GAGE_Max correct contig	2645
GAGE_Corrected N50	0 COUNT: 0
