All statistics are based on contigs of size >= 200 bp, unless otherwise noted (e.g., "# contigs (>= 0 bp)" and "Total length (>= 0 bp)" include all contigs).

Assembly                                                                                            GAGE_Contigs #  GAGE_Min contig  GAGE_Max contig  GAGE_N50         GAGE_Genome size  GAGE_Assembly size  GAGE_Chaff bases  GAGE_Missing reference bases  GAGE_Missing assembly bases  GAGE_Missing assembly contigs  GAGE_Duplicated reference bases  GAGE_Compressed reference bases  GAGE_Bad trim  GAGE_Avg idy  GAGE_SNPs  GAGE_Indels < 5bp  GAGE_Indels >= 5  GAGE_Inversions  GAGE_Relocation  GAGE_Translocation  GAGE_Corrected contig #  GAGE_Corrected assembly size  GAGE_Min correct contig  GAGE_Max correct contig  GAGE_Corrected N50
CLC_MIS_PE_mrsa_mis-1_bi_2x250bp_default__mrsa_mis-2_bi_2x250bp_default.0.300percent.result_broken  208             200              326523           149860 COUNT: 7  2813862           2820151             0                 6209(0.22%)                   44422(1.58%)                 146(70.19%)                    552                              34572                            134            99.99         42         10                 8                 0                2                0                   71                       2776615                       204                      326524                   124927 COUNT: 8   
CLC_MIS_PE_mrsa_mis-1_bi_2x250bp_default__mrsa_mis-2_bi_2x250bp_default.0.300percent.result         207             200              328788           155026 COUNT: 6  2813862           2820822             0                 6209(0.22%)                   45093(1.60%)                 147(71.01%)                    552                              34551                            380            99.99         42         10                 10                0                2                0                   71                       2776615                       204                      326524                   124927 COUNT: 8   
