Assembly	#Contigs (>= 0 bp)	#Contigs (>= 1000 bp)	Total length (>= 0 bp)	Total length (>= 1000 bp)	#Contigs	Largest contig	Total length	Reference length	GC (%)	Reference GC (%)	N50	NG50	N75	NG75	#misassemblies	#local misassemblies	#unaligned contigs	Unaligned contigs length	Genome fraction (%)	Duplication ratio	#N's per 100 kbp	#mismatches per 100 kbp	#indels per 100 kbp	#genes	#predicted genes (unique)	#predicted genes (>= 0 bp)	#predicted genes (>= 300 bp)	#predicted genes (>= 1500 bp)	#predicted genes (>= 3000 bp)	Largest alignment	NA50	NGA50	NA75	NGA75
CLC_MIS_PE_mrsa_mis-1_bi_2x250bp_default__mrsa_mis-2_bi_2x250bp_default.0.300percent.result_broken	210	44	2820381	2772072	208	326523	2820151	2813862	32.95	32.81	149860	149860	107559	107559	2	5	147 + 0 part	44544	98.376	1.000	0.85	4.05	0.69	2672 + 30 part	2774	2774	2298	297	29	326523	146224	146224	97479	97479
CLC_MIS_PE_mrsa_mis-1_bi_2x250bp_default__mrsa_mis-2_bi_2x250bp_default.0.300percent.result	207	42	2820822	2772376	207	328788	2820822	2813862	32.95	32.81	155026	155026	107559	107559	2	6	148 + 0 part	44911	98.378	1.000	16.48	4.05	0.72	2673 + 29 part	2774	2774	2298	297	29	328755	149860	149860	97479	97479
