All statistics are based on contigs of size >= 200 bp, unless otherwise noted (e.g., "# contigs (>= 0 bp)" and "Total length (>= 0 bp)" include all contigs).

Assembly                                                                                                    #Contigs (>= 0 bp)  #Contigs (>= 1000 bp)  Total length (>= 0 bp)  Total length (>= 1000 bp)  #Contigs  Largest contig  Total length  Reference length  GC (%)  Reference GC (%)  N50  NG50  N75  NG75  #misassemblies  #local misassemblies  #unaligned contigs  Unaligned contigs length  Genome fraction (%)  Duplication ratio  #N's per 100 kbp  #mismatches per 100 kbp  #indels per 100 kbp  #genes        #predicted genes (unique)  #predicted genes (>= 0 bp)  #predicted genes (>= 300 bp)  #predicted genes (>= 1500 bp)  #predicted genes (>= 3000 bp)  Largest alignment  NA50  NGA50  NA75  NGA75
ABYSS_PE_MIS_PE_mrsa_mis-1_bi_2x150bp_default__mrsa_mis-2_bi_2x150bp_default.0.025percent_116.final_broken  170                 2                      53394                   5219                       170       3305            53394         2813862           36.60   32.81             282  None  246  None  0               0                     0 + 0 part          0                         1.718                1.006              0.00              0.00                     0.00                 5 + 133 part  170                        170                         32                            0                              0                              1914               269   None   240   None 
ABYSS_PE_MIS_PE_mrsa_mis-1_bi_2x150bp_default__mrsa_mis-2_bi_2x150bp_default.0.025percent_116.final         170                 2                      53394                   5219                       170       3305            53394         2813862           36.60   32.81             282  None  246  None  0               0                     0 + 0 part          0                         1.718                1.006              0.00              0.00                     0.00                 5 + 133 part  170                        170                         32                            0                              0                              1914               269   None   240   None 
