All statistics are based on contigs of size >= 200 bp, unless otherwise noted (e.g., "# contigs (>= 0 bp)" and "Total length (>= 0 bp)" include all contigs).

Assembly                                                                                 GAGE_Contigs #  GAGE_Min contig  GAGE_Max contig  GAGE_N50         GAGE_Genome size  GAGE_Assembly size  GAGE_Chaff bases  GAGE_Missing reference bases  GAGE_Missing assembly bases  GAGE_Missing assembly contigs  GAGE_Duplicated reference bases  GAGE_Compressed reference bases  GAGE_Bad trim  GAGE_Avg idy  GAGE_SNPs  GAGE_Indels < 5bp  GAGE_Indels >= 5  GAGE_Inversions  GAGE_Relocation  GAGE_Translocation  GAGE_Corrected contig #  GAGE_Corrected assembly size  GAGE_Min correct contig  GAGE_Max correct contig  GAGE_Corrected N50
VELVET_MIS_PE_sakai_mis-both_bi_2x250bp_SI_default.0.64percent_161.final.contigs_broken  510             321              150466           36640 COUNT: 47  5594470           5462892             0                 9577(0.17%)                   5764(0.11%)                  1(0.20%)                       8097                             233875                           218            99.99         105        17                 2                 1                3                1                   495                      5451271                       263                      150466                   36633 COUNT: 48   
VELVET_MIS_PE_sakai_mis-both_bi_2x250bp_SI_default.0.64percent_161.final.contigs         397             321              223587           63393 COUNT: 28  5594470           5477113             0                 9577(0.17%)                   19996(0.37%)                 1(0.25%)                       7773                             233483                           121            99.99         108        17                 96                4                11               1                   498                      5452226                       263                      150466                   36633 COUNT: 48   
