All statistics are based on contigs of size >= 200 bp, unless otherwise noted (e.g., "# contigs (>= 0 bp)" and "Total length (>= 0 bp)" include all contigs).

Assembly                                                                      #Contigs (>= 0 bp)  #Contigs (>= 1000 bp)  Total length (>= 0 bp)  Total length (>= 1000 bp)  #Contigs  Largest contig  Total length  Reference length  GC (%)  Reference GC (%)  N50   NG50  N75   NG75  #misassemblies  #local misassemblies  #unaligned contigs  Unaligned contigs length  Genome fraction (%)  Duplication ratio  #N's per 100 kbp  #mismatches per 100 kbp  #indels per 100 kbp  #genes            #predicted genes (unique)  #predicted genes (>= 0 bp)  #predicted genes (>= 300 bp)  #predicted genes (>= 1500 bp)  #predicted genes (>= 3000 bp)  Largest alignment  NA50  NGA50  NA75  NGA75
VELVET_PGM_sakai_pgm_mu_318_400bp_IO_TS3.4_ms_0.395percent_183.final.contigs  2021                1354                   4525052                 4095502                    2021      16197           4525052       5594470           50.97   50.48             3473  2642  1880  875   42              18                    0 + 1 part          559                       77.780               1.022              7.73              2.37                     17.40                2896 + 1601 part  5895                       5928                        4415                          356                            25                             16197              3448  2611   1837  828  
