All statistics are based on contigs of size >= 200 bp, unless otherwise noted (e.g., "# contigs (>= 0 bp)" and "Total length (>= 0 bp)" include all contigs).

Assembly                                                                                                  #Contigs (>= 0 bp)  #Contigs (>= 1000 bp)  Total length (>= 0 bp)  Total length (>= 1000 bp)  #Contigs  Largest contig  Total length  Reference length  GC (%)  Reference GC (%)  N50     NG50    N75    NG75   #misassemblies  #local misassemblies  #unaligned contigs  Unaligned contigs length  Genome fraction (%)  Duplication ratio  #N's per 100 kbp  #mismatches per 100 kbp  #indels per 100 kbp  #genes           #predicted genes (unique)  #predicted genes (>= 0 bp)  #predicted genes (>= 300 bp)  #predicted genes (>= 1500 bp)  #predicted genes (>= 3000 bp)  Largest alignment  NA50    NGA50   NA75   NGA75
CLC_MIS_PE_sakai_mis-1_bi_2x250bp_SI_default__sakai_mis-2_bi_2x250bp_SI_default.41coverage.result_broken  397                 144                    5411510                 5320234                    391       378188          5410792       5594470           50.27   50.48             146592  144810  70453  51181  4               3                     107 + 2 part        33109                     94.827               1.001              0.87              1.73                     0.45                 5026 + 150 part  5406                       5406                        4465                          670                            68                             377435             145461  144810  70453  51181
CLC_MIS_PE_sakai_mis-1_bi_2x250bp_SI_default__sakai_mis-2_bi_2x250bp_SI_default.41coverage.result         381                 136                    5412745                 5323048                    381       378188          5412745       5594470           50.27   50.48             157699  149531  76386  75426  4               11                    107 + 4 part        33304                     94.933               1.001              23.68             2.01                     0.58                 5034 + 148 part  5407                       5407                        4465                          670                            68                             377435             149531  148364  76386  75426
