Assembly	SOAP2_PGM_mrsa_pgm_200bp_es_316_IonOnev2_ts3.0_morestringent.0.230percent_23.final.contig
#Contigs (>= 0 bp)	273184
#Contigs (>= 1000 bp)	0
Total length (>= 0 bp)	12898848
Total length (>= 1000 bp)	0
#Contigs	201
Largest contig	415
Total length	46836
Reference length	2813862
GC (%)	34.01
Reference GC (%)	32.81
N50	225
NG50	None
N75	209
NG75	None
#misassemblies	0
#local misassemblies	0
#unaligned contigs	11 + 1 part
Unaligned contigs length	2513
Genome fraction (%)	1.574
Duplication ratio	1.000
#N's per 100 kbp	0.00
#mismatches per 100 kbp	27.09
#indels per 100 kbp	171.55
#genes	2 + 171 part
#predicted genes (unique)	196
#predicted genes (>= 0 bp)	196
#predicted genes (>= 300 bp)	8
#predicted genes (>= 1500 bp)	0
#predicted genes (>= 3000 bp)	0
Largest alignment	415
NA50	221
NGA50	None
NA75	208
NGA75	None
