All statistics are based on contigs of size >= 200 bp, unless otherwise noted (e.g., "# contigs (>= 0 bp)" and "Total length (>= 0 bp)" include all contigs).

Assembly                                                                                            #Contigs  #Contigs (>= 0 bp)  #Contigs (>= 1000 bp)  Largest contig  Total length  Total length (>= 0 bp)  Total length (>= 1000 bp)  Reference length  N50     NG50    N75     NG75    L50  LG50  L75  LG75  #local misassemblies  #misassemblies  #misassembled contigs  Misassembled contigs length  Misassemblies inter-contig overlap  #unaligned contigs  Unaligned contigs length  #ambiguously mapped contigs  Extra bases in ambiguously mapped contigs  #N's  #N's per 100 kbp  Genome fraction (%)  Duplication ratio  #genes          #predicted genes (unique)  #predicted genes (>= 0 bp)  #predicted genes (>= 300 bp)  #predicted genes (>= 1500 bp)  #predicted genes (>= 3000 bp)  #mismatches  #indels  Indels length  #mismatches per 100 kbp  #indels per 100 kbp  GC (%)  Reference GC (%)  Average %IDY  Largest alignment  NA50    NGA50   NA75   NGA75  LA50  LGA50  LA75  LGA75  #Mis_misassemblies  #Mis_relocations  #Mis_translocations  #Mis_inversions  #Mis_misassembled contigs  Mis_Misassembled contigs length  #Mis_local misassemblies  #Mis_short indels (<= 5 bp)  #Mis_long indels (> 5 bp)  #Una_fully unaligned contigs  Una_Fully unaligned length  #Una_partially unaligned contigs  #Una_with misassembly  #Una_both parts are significant  Una_Partially unaligned length  GAGE_Contigs #  GAGE_Min contig  GAGE_Max contig  GAGE_N50         GAGE_Genome size  GAGE_Assembly size  GAGE_Chaff bases  GAGE_Missing reference bases  GAGE_Missing assembly bases  GAGE_Missing assembly contigs  GAGE_Duplicated reference bases  GAGE_Compressed reference bases  GAGE_Bad trim  GAGE_Avg idy  GAGE_SNPs  GAGE_Indels < 5bp  GAGE_Indels >= 5  GAGE_Inversions  GAGE_Relocation  GAGE_Translocation  GAGE_Corrected contig #  GAGE_Corrected assembly size  GAGE_Min correct contig  GAGE_Max correct contig  GAGE_Corrected N50
CLC_MIS_PE_mrsa_mis-1_bi_2x150bp_default__mrsa_mis-2_bi_2x150bp_default.0.500percent.result_broken  48        48                  36                     338474          2778884       2778884                 2773686                    2813862           155109  155109  87721   87721   7    7     12   12    11                    2               2                      159549                       2129                                1 + 0 part          5386                      9                            -8887                                      31    1.12              98.277               1.000              2675 + 23 part  2625                       2626                        2289                          298                            29                             118          14       100            4.27                     0.51                 32.67   32.81             98.531        338470             148186  148186  87721  75439  7     7      12    13     2                   2                 0                    0                2                          159549                           11                        9                            5                          1                             5386                        0                                 0                      0                                0                               48              211              338474           155109 COUNT: 7  2813862           2778884             0                 6313(0.22%)                   5432(0.20%)                  1(2.08%)                       792                              37493                            27             99.99         39         9                  13                0                2                0                   61                       2774606                       233                      297827                   113086 COUNT: 8   
CLC_MIS_PE_mrsa_mis-1_bi_2x150bp_default__mrsa_mis-2_bi_2x150bp_default.0.500percent.result         45        45                  34                     553308          2779014       2779014                 2774061                    2813862           155109  155109  129827  129827  6    6     10   10    13                    2               2                      159549                       2129                                1 + 0 part          5386                      9                            -8887                                      161   5.79              98.269               1.001              2675 + 23 part  2626                       2627                        2288                          298                            29                             118          14       100            4.27                     0.51                 32.67   32.81             98.531        553249             149535  149535  97555  97555  6     6      11    11     2                   2                 0                    0                2                          159549                           13                        9                            5                          1                             5386                        0                                 0                      0                                0                               45              211              553308           155109 COUNT: 6  2813862           2779014             0                 6313(0.22%)                   5562(0.20%)                  1(2.22%)                       792                              37493                            42             99.99         39         9                  15                0                2                0                   61                       2774606                       233                      297827                   113086 COUNT: 8   
