calling: java -cp /vol/ngscomparison/software/analysis/quast-2.1/libs/gage:. SizeFasta /vol/codine-tmp/juene/tmp.MEK9IYhc5R/quast/corrected_input/Mycobacterium_tuberculosis_H37Rv.fasta |awk '{SUM+=; print SUM}'|tail -n 1
Contig Stats
Total units: 1919
Reference: 4411532
BasesInFasta: 2965047
Min: 389
Max: 9905
N10: 3701 COUNT: 93
N25: 2304 COUNT: 328
N50: 1179 COUNT: 997
N75: 0 COUNT: 0
E-size:1509.67

Genome Size: 4411532
Assembly Size: 2965047
Chaff bases: 0
Missing Reference Bases: 1527775(34.63%)
Missing Assembly Bases: 611(0.02%)
Missing Assembly Contigs: 0(0.00%)
Duplicated Reference Bases: 27973
Compressed Reference Bases: 29540
Bad Trim: 431
Avg Idy: 99.93
SNPs: 57
Indels < 5bp: 1647
Indels >= 5: 17
Inversions: 1
Relocation: 2
Translocation: 0

Corrected Contig Stats
calling: java -cp /vol/ngscomparison/software/analysis/quast-2.1/libs/gage:.:. GetFastaStats -o -min 199 -genomeSize 4411532 /vol/codine-tmp/juene/tmp.MEK9IYhc5R/quast/gage/tmp/VELVET_PGM_mtbh37_pgm_400bp_es_318v2_OT2_tsv3.6_morestringent_195.final.contigs.matches.lens 2> /dev/null
Total units: 1900
Reference: 4411532
BasesInFasta: 2938028
Min: 248
Max: 9908
N10: 3588 COUNT: 95
N25: 2258 COUNT: 336
N50: 1167 COUNT: 1019
N75: 0 COUNT: 0
E-size:1474.85

Done
