Assembly	ABYSS_PE_MIS_PE_mrsa_mis-1_bi_2x250bp_default__mrsa_mis-2_bi_2x250bp_default.0.650percent_126.final_broken	ABYSS_PE_MIS_PE_mrsa_mis-1_bi_2x250bp_default__mrsa_mis-2_bi_2x250bp_default.0.650percent_126.final
#Mis_misassemblies	3	3
#Mis_relocations	3	3
#Mis_translocations	0	0
#Mis_inversions	0	0
#Mis_misassembled contigs	3	3
Mis_Misassembled contigs length	69566	69566
#Mis_local misassemblies	0	0
#mismatches	40	41
#indels	9	9
#Mis_short indels (<= 5 bp)	9	9
#Mis_long indels (> 5 bp)	0	0
Indels length	9	9
