Assembly	ABYSS_PE_MIS_PE_sakai_mis-1_bi_2x150bp_default__sakai_mis-2_bi_2x150bp_default.0.826percent_64-scaffolds_broken	ABYSS_PE_MIS_PE_sakai_mis-1_bi_2x150bp_default__sakai_mis-2_bi_2x150bp_default.0.826percent_64-scaffolds
#Mis_misassemblies	5	21
#Mis_relocations	4	19
#Mis_translocations	1	2
#Mis_inversions	0	0
#Mis_misassembled contigs	5	16
Mis_Misassembled contigs length	429601	853262
#Mis_local misassemblies	4	25
#mismatches	1160	1220
#indels	48	212
#Mis_short indels (<= 5 bp)	45	199
#Mis_long indels (> 5 bp)	3	13
Indels length	104	523
