1: PREPARING DATA
2,3: RUNNING mummer AND CREATING CLUSTERS
# reading input file "/vol/codine-tmp/juene/tmp.8BZP0ds2QP/quast/gage/tmp/SOAP2_PGM_sakai_pgm_mu_200bp_IO_TS3.0Disabled_stringent.0.34percent_127.final.contig.ntref" of length 5594473
# construct suffix tree for sequence of length 5594473
# (maximum reference length is 536870908)
# (maximum query length is 4294967295)
# process 55944 characters per dot
#....................................................................................................
# CONSTRUCTIONTIME /vol/ngscomparison/software/analysis/quast-2.1/libs/MUMmer3.23-linux/mummer /vol/codine-tmp/juene/tmp.8BZP0ds2QP/quast/gage/tmp/SOAP2_PGM_sakai_pgm_mu_200bp_IO_TS3.0Disabled_stringent.0.34percent_127.final.contig.ntref 4.12
# reading input file "/vol/codine-tmp/juene/tmp.8BZP0ds2QP/quast/corrected_input/SOAP2_PGM_sakai_pgm_mu_200bp_IO_TS3.0Disabled_stringent.0.34percent_127.final.contig" of length 6932606
# matching query-file "/vol/codine-tmp/juene/tmp.8BZP0ds2QP/quast/corrected_input/SOAP2_PGM_sakai_pgm_mu_200bp_IO_TS3.0Disabled_stringent.0.34percent_127.final.contig"
# against subject-file "/vol/codine-tmp/juene/tmp.8BZP0ds2QP/quast/gage/tmp/SOAP2_PGM_sakai_pgm_mu_200bp_IO_TS3.0Disabled_stringent.0.34percent_127.final.contig.ntref"
# COMPLETETIME /vol/ngscomparison/software/analysis/quast-2.1/libs/MUMmer3.23-linux/mummer /vol/codine-tmp/juene/tmp.8BZP0ds2QP/quast/gage/tmp/SOAP2_PGM_sakai_pgm_mu_200bp_IO_TS3.0Disabled_stringent.0.34percent_127.final.contig.ntref 13.28
# SPACE /vol/ngscomparison/software/analysis/quast-2.1/libs/MUMmer3.23-linux/mummer /vol/codine-tmp/juene/tmp.8BZP0ds2QP/quast/gage/tmp/SOAP2_PGM_sakai_pgm_mu_200bp_IO_TS3.0Disabled_stringent.0.34percent_127.final.contig.ntref 12.49
4: FINISHING DATA
Filtering alignments
Extracting alignment coordinates
Analyzing SNPs
Extracting alignment breakpoints
Generating report file
Found genome size at position 4 with value 5594470 aka 5594470
Calculating point at 0 and the sum is 1000220 and i is5665 and lens is 5969 and length is 2469
Calculating point at 1 and the sum is 2000236 and i is5175 and lens is 5969 and length is 1734
Calculating point at 2 and the sum is 3000426 and i is4489 and lens is 5969 and length is 1234
Calculating point at 3 and the sum is 4000239 and i is3500 and lens is 5969 and length is 834
Calculating point at 4 and the sum is 5000305 and i is1867 and lens is 5969 and length is 431
