Assembly	NEWBLER_PGM_sakai_pgm_mu_318_400bp_IO_TS3.4_ms.0.9percent.contigs
GAGE_Contigs #	330
GAGE_Min contig	200
GAGE_Max contig	313765
GAGE_N50	105970 COUNT: 16
GAGE_Genome size	5594470
GAGE_Assembly size	5354291
GAGE_Chaff bases	0
GAGE_Missing reference bases	41620(0.74%)
GAGE_Missing assembly bases	73(0.00%)
GAGE_Missing assembly contigs	0(0.00%)
GAGE_Duplicated reference bases	11232
GAGE_Compressed reference bases	230567
GAGE_Bad trim	73
GAGE_Avg idy	99.99
GAGE_SNPs	67
GAGE_Indels < 5bp	165
GAGE_Indels >= 5	4
GAGE_Inversions	0
GAGE_Relocation	3
GAGE_Translocation	0
GAGE_Corrected contig #	291
GAGE_Corrected assembly size	5343885
GAGE_Min correct contig	203
GAGE_Max correct contig	313770
GAGE_Corrected N50	99571 COUNT: 18
