All statistics are based on contigs of size >= 200 bp, unless otherwise noted (e.g., "# contigs (>= 0 bp)" and "Total length (>= 0 bp)" include all contigs).

Assembly                         VELVET_MIS_PE_mrsa_mis-1_bi_2x150bp_default__mrsa_mis-2_bi_2x150bp_default.0.527percent_123.final.contigs_broken  VELVET_MIS_PE_mrsa_mis-1_bi_2x150bp_default__mrsa_mis-2_bi_2x150bp_default.0.527percent_123.final.contigs
GAGE_Contigs #                   1681                                                                                                              446                                                                                                      
GAGE_Min contig                  245                                                                                                               245                                                                                                      
GAGE_Max contig                  22470                                                                                                             61750                                                                                                    
GAGE_N50                         2317 COUNT: 346                                                                                                   13651 COUNT: 57                                                                                          
GAGE_Genome size                 2813862                                                                                                           2813862                                                                                                  
GAGE_Assembly size               2700483                                                                                                           2785947                                                                                                  
GAGE_Chaff bases                 0                                                                                                                 0                                                                                                        
GAGE_Missing reference bases     99798(3.55%)                                                                                                      99322(3.53%)                                                                                             
GAGE_Missing assembly bases      5865(0.22%)                                                                                                       90861(3.26%)                                                                                             
GAGE_Missing assembly contigs    1(0.06%)                                                                                                          1(0.22%)                                                                                                 
GAGE_Duplicated reference bases  2305                                                                                                              1992                                                                                                     
GAGE_Compressed reference bases  40350                                                                                                             39857                                                                                                    
GAGE_Bad trim                    480                                                                                                               482                                                                                                      
GAGE_Avg idy                     100.00                                                                                                            99.98                                                                                                    
GAGE_SNPs                        51                                                                                                                53                                                                                                       
GAGE_Indels < 5bp                9                                                                                                                 45                                                                                                       
GAGE_Indels >= 5                 1                                                                                                                 1217                                                                                                     
GAGE_Inversions                  1                                                                                                                 2                                                                                                        
GAGE_Relocation                  3                                                                                                                 7                                                                                                        
GAGE_Translocation               0                                                                                                                 0                                                                                                        
GAGE_Corrected contig #          1678                                                                                                              1667                                                                                                     
GAGE_Corrected assembly size     2693430                                                                                                           2694457                                                                                                  
GAGE_Min correct contig          245                                                                                                               245                                                                                                      
GAGE_Max correct contig          22470                                                                                                             22470                                                                                                    
GAGE_Corrected N50               2277 COUNT: 349                                                                                                   2317 COUNT: 345                                                                                          
