All statistics are based on contigs of size >= 200 bp, unless otherwise noted (e.g., "# contigs (>= 0 bp)" and "Total length (>= 0 bp)" include all contigs).

Assembly                                                                                                 #Contigs  #Contigs (>= 0 bp)  #Contigs (>= 1000 bp)  Largest contig  Total length  Total length (>= 0 bp)  Total length (>= 1000 bp)  Reference length  N50    NG50   N75    NG75   L50  LG50  L75  LG75  #local misassemblies  #misassemblies  #misassembled contigs  Misassembled contigs length  Misassemblies inter-contig overlap  #unaligned contigs  Unaligned contigs length  #ambiguously mapped contigs  Extra bases in ambiguously mapped contigs  #N's  #N's per 100 kbp  Genome fraction (%)  Duplication ratio  #genes          #predicted genes (unique)  #predicted genes (>= 0 bp)  #predicted genes (>= 300 bp)  #predicted genes (>= 1500 bp)  #predicted genes (>= 3000 bp)  #mismatches  #indels  Indels length  #mismatches per 100 kbp  #indels per 100 kbp  GC (%)  Reference GC (%)  Average %IDY  Largest alignment  NA50   NGA50  NA75   NGA75  LA50  LGA50  LA75  LGA75  #Mis_misassemblies  #Mis_relocations  #Mis_translocations  #Mis_inversions  #Mis_misassembled contigs  Mis_Misassembled contigs length  #Mis_local misassemblies  #Mis_short indels (<= 5 bp)  #Mis_long indels (> 5 bp)  #Una_fully unaligned contigs  Una_Fully unaligned length  #Una_partially unaligned contigs  #Una_with misassembly  #Una_both parts are significant  Una_Partially unaligned length  GAGE_Contigs #  GAGE_Min contig  GAGE_Max contig  GAGE_N50         GAGE_Genome size  GAGE_Assembly size  GAGE_Chaff bases  GAGE_Missing reference bases  GAGE_Missing assembly bases  GAGE_Missing assembly contigs  GAGE_Duplicated reference bases  GAGE_Compressed reference bases  GAGE_Bad trim  GAGE_Avg idy  GAGE_SNPs  GAGE_Indels < 5bp  GAGE_Indels >= 5  GAGE_Inversions  GAGE_Relocation  GAGE_Translocation  GAGE_Corrected contig #  GAGE_Corrected assembly size  GAGE_Min correct contig  GAGE_Max correct contig  GAGE_Corrected N50
ABYSS_PE_MIS_PE_mrsa_mis-1_bi_2x250bp_default__mrsa_mis-2_bi_2x250bp_default.41coverage_84.final_broken  171       346                 113                    148135          2781306       2803733                 2758015                    2813862           45876  45045  26100  25470  19   20    39   40    0                     2               2                      68069                        0                                   1 + 0 part          201                       12                           -8913                                      0     0.00              98.389               1.001              2623 + 76 part  2702                       2708                        2289                          295                            27                             31           9        9              1.12                     0.33                 32.67   32.81             98.821        148135             45045  45045  26100  25470  20    20     39    40     2                   2                 0                    0                2                          68069                            0                         9                            0                          1                             201                         0                                 0                      0                                0                               171             201              148135           45045 COUNT: 20  2813862           2781306             0                 3202(0.11%)                   201(0.01%)                   1(0.58%)                       487                              40247                            0              100.00        32         9                  0                 0                2                0                   170                      2780623                       202                      148135                   45045 COUNT: 20   
ABYSS_PE_MIS_PE_mrsa_mis-1_bi_2x250bp_default__mrsa_mis-2_bi_2x250bp_default.41coverage_84.final         169       344                 111                    148135          2781376       2803803                 2758085                    2813862           45876  45045  26100  25470  19   20    39   40    0                     2               2                      68069                        0                                   1 + 0 part          201                       11                           -6663                                      70    2.52              98.472               1.001              2623 + 76 part  2702                       2708                        2289                          295                            27                             34           26       37             1.23                     0.94                 32.67   32.81             98.795        148135             45045  45045  26100  25470  20    20     39    40     2                   2                 0                    0                2                          68069                            0                         25                           1                          1                             201                         0                                 0                      0                                0                               169             201              148135           45045 COUNT: 20  2813862           2781376             0                 3202(0.11%)                   271(0.01%)                   1(0.59%)                       487                              40247                            0              100.00        32         9                  1                 0                3                0                   170                      2780623                       202                      148135                   45045 COUNT: 20   
