All statistics are based on contigs of size >= 200 bp, unless otherwise noted (e.g., "# contigs (>= 0 bp)" and "Total length (>= 0 bp)" include all contigs).

Assembly                          SOAP2_MIS_PE_mtbh37-1_mis_2x250bp_nextera_default_87.final.scaf_broken  SOAP2_MIS_PE_mtbh37-1_mis_2x250bp_nextera_default_87.final.scaf
#Una_fully unaligned contigs      1                                                                       2                                                              
Una_Fully unaligned length        262                                                                     1051                                                           
#Una_partially unaligned contigs  6                                                                       1                                                              
#Una_with misassembly             0                                                                       0                                                              
#Una_both parts are significant   0                                                                       0                                                              
Una_Partially unaligned length    471                                                                     193                                                            
#N's                              227                                                                     48078                                                          
