All statistics are based on contigs of size >= 200 bp, unless otherwise noted (e.g., "# contigs (>= 0 bp)" and "Total length (>= 0 bp)" include all contigs).

Assembly                          ABYSS_PE_MIS_PE_sakai_mis-1_bi_2x250bp_SI_default__sakai_mis-2_bi_2x250bp_SI_default.1coverage_32.final_broken  ABYSS_PE_MIS_PE_sakai_mis-1_bi_2x250bp_SI_default__sakai_mis-2_bi_2x250bp_SI_default.1coverage_32.final
#Una_fully unaligned contigs      6                                                                                                               6                                                                                                      
Una_Fully unaligned length        2123                                                                                                            2123                                                                                                   
#Una_partially unaligned contigs  4                                                                                                               4                                                                                                      
#Una_with misassembly             0                                                                                                               0                                                                                                      
#Una_both parts are significant   1                                                                                                               1                                                                                                      
Una_Partially unaligned length    363                                                                                                             363                                                                                                    
#N's                              0                                                                                                               0                                                                                                      
