All statistics are based on contigs of size >= 200 bp, unless otherwise noted (e.g., "# contigs (>= 0 bp)" and "Total length (>= 0 bp)" include all contigs).

Assembly                                                                                                           GAGE_Contigs #  GAGE_Min contig  GAGE_Max contig  GAGE_N50         GAGE_Genome size  GAGE_Assembly size  GAGE_Chaff bases  GAGE_Missing reference bases  GAGE_Missing assembly bases  GAGE_Missing assembly contigs  GAGE_Duplicated reference bases  GAGE_Compressed reference bases  GAGE_Bad trim  GAGE_Avg idy  GAGE_SNPs  GAGE_Indels < 5bp  GAGE_Indels >= 5  GAGE_Inversions  GAGE_Relocation  GAGE_Translocation  GAGE_Corrected contig #  GAGE_Corrected assembly size  GAGE_Min correct contig  GAGE_Max correct contig  GAGE_Corrected N50
ABYSS_PE_MIS_PE_sakai_mis-1_bi_2x250bp_SI_default__sakai_mis-2_bi_2x250bp_SI_default.0.075percent_48.final_broken  1926            200              39322            4282 COUNT: 373  5594470           5140375             0                 264191(4.72%)                 46(0.00%)                    0(0.00%)                       203                              210193                           46             99.99         410        14                 1                 0                2                0                   1928                     5140127                       200                      39322                    4282 COUNT: 375   
ABYSS_PE_MIS_PE_sakai_mis-1_bi_2x250bp_SI_default__sakai_mis-2_bi_2x250bp_SI_default.0.075percent_48.final         1926            200              39322            4282 COUNT: 373  5594470           5140375             0                 264191(4.72%)                 46(0.00%)                    0(0.00%)                       203                              210193                           46             99.99         410        14                 1                 0                2                0                   1928                     5140127                       200                      39322                    4282 COUNT: 375   
