Assembly	CLC_PGM_sakai_pgm_mu_200bp_IO_TS3.0Disabled_stringent.21coverage.result
#Mis_misassemblies	24
#Mis_relocations	5
#Mis_translocations	0
#Mis_inversions	19
#Mis_misassembled contigs	24
Mis_Misassembled contigs length	93422
#Mis_local misassemblies	4
#mismatches	168
#indels	1953
#Mis_short indels (<= 5 bp)	1952
#Mis_long indels (> 5 bp)	1
Indels length	2026
