All statistics are based on contigs of size >= 200 bp, unless otherwise noted (e.g., "# contigs (>= 0 bp)" and "Total length (>= 0 bp)" include all contigs).

Assembly                                   VELVET_MIS_PE_mrsa_mis-1_bi_2x250bp_default__mrsa_mis-2_bi_2x250bp_default.0.460percent_139.final.contigs_broken  VELVET_MIS_PE_mrsa_mis-1_bi_2x250bp_default__mrsa_mis-2_bi_2x250bp_default.0.460percent_139.final.contigs
#Contigs                                   117                                                                                                               110                                                                                                      
#Contigs (>= 0 bp)                         117                                                                                                               110                                                                                                      
#Contigs (>= 1000 bp)                      73                                                                                                                71                                                                                                       
Largest contig                             238020                                                                                                            238020                                                                                                   
Total length                               2802666                                                                                                           2803009                                                                                                  
Total length (>= 0 bp)                     2802666                                                                                                           2803009                                                                                                  
Total length (>= 1000 bp)                  2786198                                                                                                           2789061                                                                                                  
Reference length                           2813862                                                                                                           2813862                                                                                                  
N50                                        60515                                                                                                             62577                                                                                                    
NG50                                       60515                                                                                                             62577                                                                                                    
N75                                        38633                                                                                                             39868                                                                                                    
NG75                                       38633                                                                                                             39868                                                                                                    
L50                                        12                                                                                                                12                                                                                                       
LG50                                       12                                                                                                                12                                                                                                       
L75                                        26                                                                                                                26                                                                                                       
LG75                                       26                                                                                                                26                                                                                                       
#local misassemblies                       2                                                                                                                 5                                                                                                        
#misassemblies                             4                                                                                                                 5                                                                                                        
#misassembled contigs                      3                                                                                                                 4                                                                                                        
Misassembled contigs length                87726                                                                                                             90323                                                                                                    
Misassemblies inter-contig overlap         1069                                                                                                              1069                                                                                                     
#unaligned contigs                         1 + 0 part                                                                                                        1 + 0 part                                                                                               
Unaligned contigs length                   5329                                                                                                              5329                                                                                                     
#ambiguously mapped contigs                33                                                                                                                32                                                                                                       
Extra bases in ambiguously mapped contigs  -13221                                                                                                            -12434                                                                                                   
#N's                                       0                                                                                                                 343                                                                                                      
#N's per 100 kbp                           0.00                                                                                                              12.24                                                                                                    
Genome fraction (%)                        98.790                                                                                                            98.791                                                                                                   
Duplication ratio                          1.002                                                                                                             1.002                                                                                                    
#genes                                     2667 + 45 part                                                                                                    2668 + 44 part                                                                                           
#predicted genes (unique)                  2667                                                                                                              2666                                                                                                     
#predicted genes (>= 0 bp)                 2669                                                                                                              2668                                                                                                     
#predicted genes (>= 300 bp)               2310                                                                                                              2310                                                                                                     
#predicted genes (>= 1500 bp)              297                                                                                                               297                                                                                                      
#predicted genes (>= 3000 bp)              29                                                                                                                29                                                                                                       
#mismatches                                61                                                                                                                61                                                                                                       
#indels                                    10                                                                                                                29                                                                                                       
Indels length                              22                                                                                                                87                                                                                                       
#mismatches per 100 kbp                    2.19                                                                                                              2.19                                                                                                     
#indels per 100 kbp                        0.36                                                                                                              1.04                                                                                                     
GC (%)                                     32.73                                                                                                             32.73                                                                                                    
Reference GC (%)                           32.81                                                                                                             32.81                                                                                                    
Average %IDY                               98.871                                                                                                            98.868                                                                                                   
Largest alignment                          238020                                                                                                            238020                                                                                                   
NA50                                       60515                                                                                                             62577                                                                                                    
NGA50                                      60515                                                                                                             62577                                                                                                    
NA75                                       38633                                                                                                             39868                                                                                                    
NGA75                                      38003                                                                                                             39868                                                                                                    
LA50                                       12                                                                                                                12                                                                                                       
LGA50                                      12                                                                                                                12                                                                                                       
LA75                                       26                                                                                                                26                                                                                                       
LGA75                                      27                                                                                                                26                                                                                                       
#Mis_misassemblies                         4                                                                                                                 5                                                                                                        
#Mis_relocations                           4                                                                                                                 5                                                                                                        
#Mis_translocations                        0                                                                                                                 0                                                                                                        
#Mis_inversions                            0                                                                                                                 0                                                                                                        
#Mis_misassembled contigs                  3                                                                                                                 4                                                                                                        
Mis_Misassembled contigs length            87726                                                                                                             90323                                                                                                    
#Mis_local misassemblies                   2                                                                                                                 5                                                                                                        
#Mis_short indels (<= 5 bp)                9                                                                                                                 27                                                                                                       
#Mis_long indels (> 5 bp)                  1                                                                                                                 2                                                                                                        
#Una_fully unaligned contigs               1                                                                                                                 1                                                                                                        
Una_Fully unaligned length                 5329                                                                                                              5329                                                                                                     
#Una_partially unaligned contigs           0                                                                                                                 0                                                                                                        
#Una_with misassembly                      0                                                                                                                 0                                                                                                        
#Una_both parts are significant            0                                                                                                                 0                                                                                                        
Una_Partially unaligned length             0                                                                                                                 0                                                                                                        
GAGE_Contigs #                             117                                                                                                               110                                                                                                      
GAGE_Min contig                            274                                                                                                               277                                                                                                      
GAGE_Max contig                            238020                                                                                                            238020                                                                                                   
GAGE_N50                                   60515 COUNT: 12                                                                                                   62577 COUNT: 12                                                                                          
GAGE_Genome size                           2813862                                                                                                           2813862                                                                                                  
GAGE_Assembly size                         2802666                                                                                                           2803009                                                                                                  
GAGE_Chaff bases                           0                                                                                                                 0                                                                                                        
GAGE_Missing reference bases               192(0.01%)                                                                                                        192(0.01%)                                                                                               
GAGE_Missing assembly bases                5332(0.19%)                                                                                                       5675(0.20%)                                                                                              
GAGE_Missing assembly contigs              1(0.85%)                                                                                                          1(0.91%)                                                                                                 
GAGE_Duplicated reference bases            3209                                                                                                              2921                                                                                                     
GAGE_Compressed reference bases            37845                                                                                                             37504                                                                                                    
GAGE_Bad trim                              3                                                                                                                 130                                                                                                      
GAGE_Avg idy                               99.99                                                                                                             99.99                                                                                                    
GAGE_SNPs                                  43                                                                                                                43                                                                                                       
GAGE_Indels < 5bp                          9                                                                                                                 9                                                                                                        
GAGE_Indels >= 5                           2                                                                                                                 6                                                                                                        
GAGE_Inversions                            1                                                                                                                 1                                                                                                        
GAGE_Relocation                            2                                                                                                                 3                                                                                                        
GAGE_Translocation                         0                                                                                                                 0                                                                                                        
GAGE_Corrected contig #                    112                                                                                                               113                                                                                                      
GAGE_Corrected assembly size               2794946                                                                                                           2795234                                                                                                  
GAGE_Min correct contig                    277                                                                                                               277                                                                                                      
GAGE_Max correct contig                    238023                                                                                                            238023                                                                                                   
GAGE_Corrected N50                         60515 COUNT: 12                                                                                                   60515 COUNT: 12                                                                                          
