Assembly	#Contigs	#Contigs (>= 0 bp)	#Contigs (>= 1000 bp)	Largest contig	Total length	Total length (>= 0 bp)	Total length (>= 1000 bp)	Reference length	N50	NG50	N75	NG75	L50	LG50	L75	LG75	#local misassemblies	#misassemblies	#misassembled contigs	Misassembled contigs length	Misassemblies inter-contig overlap	#unaligned contigs	Unaligned contigs length	#ambiguously mapped contigs	Extra bases in ambiguously mapped contigs	#N's	#N's per 100 kbp	Genome fraction (%)	Duplication ratio	#genes	#predicted genes (unique)	#predicted genes (>= 0 bp)	#predicted genes (>= 300 bp)	#predicted genes (>= 1500 bp)	#predicted genes (>= 3000 bp)	#mismatches	#indels	Indels length	#mismatches per 100 kbp	#indels per 100 kbp	GC (%)	Reference GC (%)	Average %IDY	Largest alignment	NA50	NGA50	NA75	NGA75	LA50	LGA50	LA75	LGA75	#Mis_misassemblies	#Mis_relocations	#Mis_translocations	#Mis_inversions	#Mis_misassembled contigs	Mis_Misassembled contigs length	#Mis_local misassemblies	#Mis_short indels (<= 5 bp)	#Mis_long indels (> 5 bp)	#Una_fully unaligned contigs	Una_Fully unaligned length	#Una_partially unaligned contigs	#Una_with misassembly	#Una_both parts are significant	Una_Partially unaligned length	GAGE_Contigs #	GAGE_Min contig	GAGE_Max contig	GAGE_N50	GAGE_Genome size	GAGE_Assembly size	GAGE_Chaff bases	GAGE_Missing reference bases	GAGE_Missing assembly bases	GAGE_Missing assembly contigs	GAGE_Duplicated reference bases	GAGE_Compressed reference bases	GAGE_Bad trim	GAGE_Avg idy	GAGE_SNPs	GAGE_Indels < 5bp	GAGE_Indels >= 5	GAGE_Inversions	GAGE_Relocation	GAGE_Translocation	GAGE_Corrected contig #	GAGE_Corrected assembly size	GAGE_Min correct contig	GAGE_Max correct contig	GAGE_Corrected N50
VELVET_MIS_PE_mrsa_mis-1_bi_2x250bp_default__mrsa_mis-2_bi_2x250bp_default.0.460percent_139.final.contigs_broken	117	117	73	238020	2802666	2802666	2786198	2813862	60515	60515	38633	38633	12	12	26	26	2	4	3	87726	1069	1 + 0 part	5329	33	-13221	0	0.00	98.790	1.002	2667 + 45 part	2667	2669	2310	297	29	61	10	22	2.19	0.36	32.73	32.81	98.871	238020	60515	60515	38633	38003	12	12	26	27	4	4	0	0	3	87726	2	9	1	1	5329	0	0	0	0	117	274	238020	60515 COUNT: 12	2813862	2802666	0	192(0.01%)	5332(0.19%)	1(0.85%)	3209	37845	3	99.99	43	9	2	1	2	0	112	2794946	277	238023	60515 COUNT: 12
VELVET_MIS_PE_mrsa_mis-1_bi_2x250bp_default__mrsa_mis-2_bi_2x250bp_default.0.460percent_139.final.contigs	110	110	71	238020	2803009	2803009	2789061	2813862	62577	62577	39868	39868	12	12	26	26	5	5	4	90323	1069	1 + 0 part	5329	32	-12434	343	12.24	98.791	1.002	2668 + 44 part	2666	2668	2310	297	29	61	29	87	2.19	1.04	32.73	32.81	98.868	238020	62577	62577	39868	39868	12	12	26	26	5	5	0	0	4	90323	5	27	2	1	5329	0	0	0	0	110	277	238020	62577 COUNT: 12	2813862	2803009	0	192(0.01%)	5675(0.20%)	1(0.91%)	2921	37504	130	99.99	43	9	6	1	3	0	113	2795234	277	238023	60515 COUNT: 12
