All statistics are based on contigs of size >= 200 bp, unless otherwise noted (e.g., "# contigs (>= 0 bp)" and "Total length (>= 0 bp)" include all contigs).

Assembly                         CLC_MIS_PE_mrsa_mis-1_bi_2x150bp_default__mrsa_mis-2_bi_2x150bp_default.0.800percent.result_broken  CLC_MIS_PE_mrsa_mis-1_bi_2x150bp_default__mrsa_mis-2_bi_2x150bp_default.0.800percent.result
GAGE_Contigs #                   43                                                                                                  40                                                                                         
GAGE_Min contig                  216                                                                                                 216                                                                                        
GAGE_Max contig                  472139                                                                                              472139                                                                                     
GAGE_N50                         180321 COUNT: 5                                                                                     192298 COUNT: 4                                                                            
GAGE_Genome size                 2813862                                                                                             2813862                                                                                    
GAGE_Assembly size               2780292                                                                                             2780438                                                                                    
GAGE_Chaff bases                 0                                                                                                   0                                                                                          
GAGE_Missing reference bases     3969(0.14%)                                                                                         3969(0.14%)                                                                                
GAGE_Missing assembly bases      5404(0.19%)                                                                                         5550(0.20%)                                                                                
GAGE_Missing assembly contigs    1(2.33%)                                                                                            1(2.50%)                                                                                   
GAGE_Duplicated reference bases  215                                                                                                 215                                                                                        
GAGE_Compressed reference bases  36440                                                                                               36440                                                                                      
GAGE_Bad trim                    8                                                                                                   35                                                                                         
GAGE_Avg idy                     99.99                                                                                               99.99                                                                                      
GAGE_SNPs                        52                                                                                                  52                                                                                         
GAGE_Indels < 5bp                9                                                                                                   9                                                                                          
GAGE_Indels >= 5                 6                                                                                                   9                                                                                          
GAGE_Inversions                  0                                                                                                   0                                                                                          
GAGE_Relocation                  5                                                                                                   5                                                                                          
GAGE_Translocation               0                                                                                                   0                                                                                          
GAGE_Corrected contig #          53                                                                                                  53                                                                                         
GAGE_Corrected assembly size     2776572                                                                                             2776572                                                                                    
GAGE_Min correct contig          216                                                                                                 216                                                                                        
GAGE_Max correct contig          342688                                                                                              342688                                                                                     
GAGE_Corrected N50               133623 COUNT: 7                                                                                     133623 COUNT: 7                                                                            
