All statistics are based on contigs of size >= 200 bp, unless otherwise noted (e.g., "# contigs (>= 0 bp)" and "Total length (>= 0 bp)" include all contigs).

Assembly                       ABYSS_PE_PGM_mrsa_pgm_400bp_es_318_IKA_ts3.2_morestringent.0.165percent_114-unitigs
#Contigs (>= 0 bp)             2945                                                                               
#Contigs (>= 1000 bp)          347                                                                                
Total length (>= 0 bp)         3177971                                                                            
Total length (>= 1000 bp)      2695390                                                                            
#Contigs                       1387                                                                               
Largest contig                 51545                                                                              
Total length                   2963794                                                                            
Reference length               2813862                                                                            
GC (%)                         32.79                                                                              
Reference GC (%)               32.81                                                                              
N50                            11337                                                                              
NG50                           12074                                                                              
N75                            5021                                                                               
NG75                           6107                                                                               
#misassemblies                 9                                                                                  
#local misassemblies           1                                                                                  
#unaligned contigs             0 + 19 part                                                                        
Unaligned contigs length       512                                                                                
Genome fraction (%)            98.325                                                                             
Duplication ratio              1.058                                                                              
#N's per 100 kbp               0.00                                                                               
#mismatches per 100 kbp        1.30                                                                               
#indels per 100 kbp            7.23                                                                               
#genes                         2438 + 263 part                                                                    
#predicted genes (unique)      3679                                                                               
#predicted genes (>= 0 bp)     3717                                                                               
#predicted genes (>= 300 bp)   2397                                                                               
#predicted genes (>= 1500 bp)  254                                                                                
#predicted genes (>= 3000 bp)  25                                                                                 
Largest alignment              51545                                                                              
NA50                           11337                                                                              
NGA50                          12074                                                                              
NA75                           5021                                                                               
NGA75                          6100                                                                               
