Assembly	VELVET_MIS_PE_sakai_mis-1_bi_2x150bp_default__sakai_mis-2_bi_2x150bp_default.0.826percent_101.final.contigs_broken	VELVET_MIS_PE_sakai_mis-1_bi_2x150bp_default__sakai_mis-2_bi_2x150bp_default.0.826percent_101.final.contigs
#Mis_misassemblies	3	16
#Mis_relocations	3	16
#Mis_translocations	0	0
#Mis_inversions	0	0
#Mis_misassembled contigs	3	12
Mis_Misassembled contigs length	113624	1255909
#Mis_local misassemblies	2	70
#mismatches	74	183
#indels	14	863
#Mis_short indels (<= 5 bp)	13	825
#Mis_long indels (> 5 bp)	1	38
Indels length	19	2318
