All statistics are based on contigs of size >= 200 bp, unless otherwise noted (e.g., "# contigs (>= 0 bp)" and "Total length (>= 0 bp)" include all contigs).

Assembly                         CLC_MIS_PE_mrsa_mis-1_bi_2x150bp_default__mrsa_mis-2_bi_2x150bp_default.0.650percent.result_broken  CLC_MIS_PE_mrsa_mis-1_bi_2x150bp_default__mrsa_mis-2_bi_2x150bp_default.0.650percent.result
#Mis_misassemblies               2                                                                                                   2                                                                                          
#Mis_relocations                 2                                                                                                   2                                                                                          
#Mis_translocations              0                                                                                                   0                                                                                          
#Mis_inversions                  0                                                                                                   0                                                                                          
#Mis_misassembled contigs        2                                                                                                   2                                                                                          
Mis_Misassembled contigs length  159576                                                                                              159613                                                                                     
#Mis_local misassemblies         9                                                                                                   13                                                                                         
#mismatches                      166                                                                                                 190                                                                                        
#indels                          15                                                                                                  64                                                                                         
#Mis_short indels (<= 5 bp)      11                                                                                                  60                                                                                         
#Mis_long indels (> 5 bp)        4                                                                                                   4                                                                                          
Indels length                    120                                                                                                 169                                                                                        
