Assembly	CLC_PGM_sakai_pgm_mu_318_400bp_IO_TS3.4_ms.0.6percent.result
#Contigs	843
#Contigs (>= 0 bp)	843
#Contigs (>= 1000 bp)	257
Largest contig	138707
Total length	5470094
Total length (>= 0 bp)	5470094
Total length (>= 1000 bp)	5263579
Reference length	5594470
N50	47242
NG50	44945
N75	24881
NG75	23168
L50	34
LG50	36
L75	75
LG75	79
#local misassemblies	6
#misassemblies	7
#misassembled contigs	7
Misassembled contigs length	76684
Misassemblies inter-contig overlap	3758
#unaligned contigs	5 + 2 part
Unaligned contigs length	1412
#ambiguously mapped contigs	171
Extra bases in ambiguously mapped contigs	-98945
#N's	460
#N's per 100 kbp	8.41
Genome fraction (%)	94.667
Duplication ratio	1.015
#genes	4926 + 247 part
#predicted genes (unique)	5856
#predicted genes (>= 0 bp)	5870
#predicted genes (>= 300 bp)	4600
#predicted genes (>= 1500 bp)	644
#predicted genes (>= 3000 bp)	60
#mismatches	246
#indels	398
Indels length	418
#mismatches per 100 kbp	4.64
#indels per 100 kbp	7.51
GC (%)	50.30
Reference GC (%)	50.48
Average %IDY	98.783
Largest alignment	138707
NA50	47242
NGA50	44945
NA75	24881
NGA75	23168
LA50	34
LGA50	36
LA75	75
LGA75	79
#Mis_misassemblies	7
#Mis_relocations	7
#Mis_translocations	0
#Mis_inversions	0
#Mis_misassembled contigs	7
Mis_Misassembled contigs length	76684
#Mis_local misassemblies	6
#Mis_short indels (<= 5 bp)	397
#Mis_long indels (> 5 bp)	1
#Una_fully unaligned contigs	5
Una_Fully unaligned length	1275
#Una_partially unaligned contigs	2
#Una_with misassembly	0
#Una_both parts are significant	0
Una_Partially unaligned length	137
GAGE_Contigs #	843
GAGE_Min contig	200
GAGE_Max contig	138707
GAGE_N50	44945 COUNT: 36
GAGE_Genome size	5594470
GAGE_Assembly size	5470094
GAGE_Chaff bases	0
GAGE_Missing reference bases	23838(0.43%)
GAGE_Missing assembly bases	1671(0.03%)
GAGE_Missing assembly contigs	6(0.71%)
GAGE_Duplicated reference bases	95511
GAGE_Compressed reference bases	237040
GAGE_Bad trim	136
GAGE_Avg idy	99.98
GAGE_SNPs	109
GAGE_Indels < 5bp	361
GAGE_Indels >= 5	2
GAGE_Inversions	3
GAGE_Relocation	7
GAGE_Translocation	0
GAGE_Corrected contig #	534
GAGE_Corrected assembly size	5377496
GAGE_Min correct contig	200
GAGE_Max correct contig	138713
GAGE_Corrected N50	44053 COUNT: 37
