Assembly	ABYSS_PE_PGM_mtbh37_pgm_400bp_es_318v2_OT2_tsv3.6_morestringent.0.700percent_32.final
GAGE_Contigs #	1783
GAGE_Min contig	200
GAGE_Max contig	27390
GAGE_N50	3903 COUNT: 343
GAGE_Genome size	4411532
GAGE_Assembly size	4180515
GAGE_Chaff bases	0
GAGE_Missing reference bases	213913(4.85%)
GAGE_Missing assembly bases	972(0.02%)
GAGE_Missing assembly contigs	1(0.06%)
GAGE_Duplicated reference bases	0
GAGE_Compressed reference bases	23445
GAGE_Bad trim	58
GAGE_Avg idy	99.98
GAGE_SNPs	95
GAGE_Indels < 5bp	671
GAGE_Indels >= 5	3
GAGE_Inversions	0
GAGE_Relocation	1
GAGE_Translocation	0
GAGE_Corrected contig #	1786
GAGE_Corrected assembly size	4180609
GAGE_Min correct contig	200
GAGE_Max correct contig	27392
GAGE_Corrected N50	3902 COUNT: 343
