All statistics are based on contigs of size >= 200 bp, unless otherwise noted (e.g., "# contigs (>= 0 bp)" and "Total length (>= 0 bp)" include all contigs).

Assembly                                   VELVET_MIS_PE_mrsa_mis-1_bi_2x150bp_default__mrsa_mis-2_bi_2x150bp_default.0.527percent_81.final.contigs_broken  VELVET_MIS_PE_mrsa_mis-1_bi_2x150bp_default__mrsa_mis-2_bi_2x150bp_default.0.527percent_81.final.contigs
#Contigs                                   72                                                                                                               49                                                                                                      
#Contigs (>= 0 bp)                         84                                                                                                               60                                                                                                      
#Contigs (>= 1000 bp)                      50                                                                                                               28                                                                                                      
Largest contig                             325388                                                                                                           807402                                                                                                  
Total length                               2787415                                                                                                          2788666                                                                                                 
Total length (>= 0 bp)                     2789496                                                                                                          2790578                                                                                                 
Total length (>= 1000 bp)                  2779747                                                                                                          2781665                                                                                                 
Reference length                           2813862                                                                                                          2813862                                                                                                 
N50                                        148851                                                                                                           327056                                                                                                  
NG50                                       148321                                                                                                           327056                                                                                                  
N75                                        73346                                                                                                            159130                                                                                                  
NG75                                       68432                                                                                                            159130                                                                                                  
L50                                        6                                                                                                                3                                                                                                       
LG50                                       7                                                                                                                3                                                                                                       
L75                                        12                                                                                                               6                                                                                                       
LG75                                       13                                                                                                               6                                                                                                       
#local misassemblies                       2                                                                                                                8                                                                                                       
#misassemblies                             2                                                                                                                4                                                                                                       
#misassembled contigs                      2                                                                                                                4                                                                                                       
Misassembled contigs length                161737                                                                                                           983587                                                                                                  
Misassemblies inter-contig overlap         729                                                                                                              729                                                                                                     
#unaligned contigs                         1 + 0 part                                                                                                       1 + 0 part                                                                                              
Unaligned contigs length                   5466                                                                                                             5466                                                                                                    
#ambiguously mapped contigs                14                                                                                                               14                                                                                                      
Extra bases in ambiguously mapped contigs  -10418                                                                                                           -10418                                                                                                  
#N's                                       0                                                                                                                1082                                                                                                    
#N's per 100 kbp                           0.00                                                                                                             38.80                                                                                                   
Genome fraction (%)                        98.473                                                                                                           98.495                                                                                                  
Duplication ratio                          1.000                                                                                                            1.001                                                                                                   
#genes                                     2679 + 24 part                                                                                                   2687 + 16 part                                                                                          
#predicted genes (unique)                  2648                                                                                                             2640                                                                                                    
#predicted genes (>= 0 bp)                 2651                                                                                                             2643                                                                                                    
#predicted genes (>= 300 bp)               2293                                                                                                             2295                                                                                                    
#predicted genes (>= 1500 bp)              300                                                                                                              300                                                                                                     
#predicted genes (>= 3000 bp)              28                                                                                                               28                                                                                                      
#mismatches                                88                                                                                                               89                                                                                                      
#indels                                    10                                                                                                               135                                                                                                     
Indels length                              12                                                                                                               394                                                                                                     
#mismatches per 100 kbp                    3.18                                                                                                             3.21                                                                                                    
#indels per 100 kbp                        0.36                                                                                                             4.87                                                                                                    
GC (%)                                     32.70                                                                                                            32.70                                                                                                   
Reference GC (%)                           32.81                                                                                                            32.81                                                                                                   
Average %IDY                               98.605                                                                                                           98.550                                                                                                  
Largest alignment                          325388                                                                                                           807402                                                                                                  
NA50                                       142583                                                                                                           304552                                                                                                  
NGA50                                      142583                                                                                                           304552                                                                                                  
NA75                                       68432                                                                                                            88260                                                                                                   
NGA75                                      68432                                                                                                            88260                                                                                                   
LA50                                       7                                                                                                                3                                                                                                       
LGA50                                      7                                                                                                                3                                                                                                       
LA75                                       13                                                                                                               7                                                                                                       
LGA75                                      13                                                                                                               7                                                                                                       
#Mis_misassemblies                         2                                                                                                                4                                                                                                       
#Mis_relocations                           2                                                                                                                4                                                                                                       
#Mis_translocations                        0                                                                                                                0                                                                                                       
#Mis_inversions                            0                                                                                                                0                                                                                                       
#Mis_misassembled contigs                  2                                                                                                                4                                                                                                       
Mis_Misassembled contigs length            161737                                                                                                           983587                                                                                                  
#Mis_local misassemblies                   2                                                                                                                8                                                                                                       
#Mis_short indels (<= 5 bp)                10                                                                                                               123                                                                                                     
#Mis_long indels (> 5 bp)                  0                                                                                                                12                                                                                                      
#Una_fully unaligned contigs               1                                                                                                                1                                                                                                       
Una_Fully unaligned length                 5466                                                                                                             5466                                                                                                    
#Una_partially unaligned contigs           0                                                                                                                0                                                                                                       
#Una_with misassembly                      0                                                                                                                0                                                                                                       
#Una_both parts are significant            0                                                                                                                0                                                                                                       
Una_Partially unaligned length             0                                                                                                                0                                                                                                       
GAGE_Contigs #                             72                                                                                                               49                                                                                                      
GAGE_Min contig                            200                                                                                                              200                                                                                                     
GAGE_Max contig                            325388                                                                                                           807402                                                                                                  
GAGE_N50                                   148321 COUNT: 7                                                                                                  327056 COUNT: 3                                                                                         
GAGE_Genome size                           2813862                                                                                                          2813862                                                                                                 
GAGE_Assembly size                         2787415                                                                                                          2788666                                                                                                 
GAGE_Chaff bases                           0                                                                                                                0                                                                                                       
GAGE_Missing reference bases               2133(0.08%)                                                                                                      2053(0.07%)                                                                                             
GAGE_Missing assembly bases                5475(0.20%)                                                                                                      6473(0.23%)                                                                                             
GAGE_Missing assembly contigs              1(1.39%)                                                                                                         1(2.04%)                                                                                                
GAGE_Duplicated reference bases            742                                                                                                              742                                                                                                     
GAGE_Compressed reference bases            36242                                                                                                            36242                                                                                                   
GAGE_Bad trim                              9                                                                                                                0                                                                                                       
GAGE_Avg idy                               99.99                                                                                                            99.99                                                                                                   
GAGE_SNPs                                  41                                                                                                               42                                                                                                      
GAGE_Indels < 5bp                          9                                                                                                                13                                                                                                      
GAGE_Indels >= 5                           2                                                                                                                15                                                                                                      
GAGE_Inversions                            0                                                                                                                1                                                                                                       
GAGE_Relocation                            2                                                                                                                5                                                                                                       
GAGE_Translocation                         0                                                                                                                0                                                                                                       
GAGE_Corrected contig #                    72                                                                                                               71                                                                                                      
GAGE_Corrected assembly size               2781636                                                                                                          2781716                                                                                                 
GAGE_Min correct contig                    200                                                                                                              200                                                                                                     
GAGE_Max correct contig                    325389                                                                                                           325389                                                                                                  
GAGE_Corrected N50                         141447 COUNT: 8                                                                                                  141447 COUNT: 8                                                                                         
