All statistics are based on contigs of size >= 200 bp, unless otherwise noted (e.g., "# contigs (>= 0 bp)" and "Total length (>= 0 bp)" include all contigs).

Assembly                       VELVET_MIS_PE_mrsa_mis-1_bi_2x150bp_default__mrsa_mis-2_bi_2x150bp_default.0.527percent_81.final.contigs_broken  VELVET_MIS_PE_mrsa_mis-1_bi_2x150bp_default__mrsa_mis-2_bi_2x150bp_default.0.527percent_81.final.contigs
#Contigs (>= 0 bp)             84                                                                                                               60                                                                                                      
#Contigs (>= 1000 bp)          50                                                                                                               28                                                                                                      
Total length (>= 0 bp)         2789496                                                                                                          2790578                                                                                                 
Total length (>= 1000 bp)      2779747                                                                                                          2781665                                                                                                 
#Contigs                       72                                                                                                               49                                                                                                      
Largest contig                 325388                                                                                                           807402                                                                                                  
Total length                   2787415                                                                                                          2788666                                                                                                 
Reference length               2813862                                                                                                          2813862                                                                                                 
GC (%)                         32.70                                                                                                            32.70                                                                                                   
Reference GC (%)               32.81                                                                                                            32.81                                                                                                   
N50                            148851                                                                                                           327056                                                                                                  
NG50                           148321                                                                                                           327056                                                                                                  
N75                            73346                                                                                                            159130                                                                                                  
NG75                           68432                                                                                                            159130                                                                                                  
#misassemblies                 2                                                                                                                4                                                                                                       
#local misassemblies           2                                                                                                                8                                                                                                       
#unaligned contigs             1 + 0 part                                                                                                       1 + 0 part                                                                                              
Unaligned contigs length       5466                                                                                                             5466                                                                                                    
Genome fraction (%)            98.473                                                                                                           98.495                                                                                                  
Duplication ratio              1.000                                                                                                            1.001                                                                                                   
#N's per 100 kbp               0.00                                                                                                             38.80                                                                                                   
#mismatches per 100 kbp        3.18                                                                                                             3.21                                                                                                    
#indels per 100 kbp            0.36                                                                                                             4.87                                                                                                    
#genes                         2679 + 24 part                                                                                                   2687 + 16 part                                                                                          
#predicted genes (unique)      2648                                                                                                             2640                                                                                                    
#predicted genes (>= 0 bp)     2651                                                                                                             2643                                                                                                    
#predicted genes (>= 300 bp)   2293                                                                                                             2295                                                                                                    
#predicted genes (>= 1500 bp)  300                                                                                                              300                                                                                                     
#predicted genes (>= 3000 bp)  28                                                                                                               28                                                                                                      
Largest alignment              325388                                                                                                           807402                                                                                                  
NA50                           142583                                                                                                           304552                                                                                                  
NGA50                          142583                                                                                                           304552                                                                                                  
NA75                           68432                                                                                                            88260                                                                                                   
NGA75                          68432                                                                                                            88260                                                                                                   
