Assembly	#Contigs	#Contigs (>= 0 bp)	#Contigs (>= 1000 bp)	Largest contig	Total length	Total length (>= 0 bp)	Total length (>= 1000 bp)	Reference length	N50	NG50	N75	NG75	L50	LG50	L75	LG75	#local misassemblies	#misassemblies	#misassembled contigs	Misassembled contigs length	Misassemblies inter-contig overlap	#unaligned contigs	Unaligned contigs length	#ambiguously mapped contigs	Extra bases in ambiguously mapped contigs	#N's	#N's per 100 kbp	Genome fraction (%)	Duplication ratio	#genes	#predicted genes (unique)	#predicted genes (>= 0 bp)	#predicted genes (>= 300 bp)	#predicted genes (>= 1500 bp)	#predicted genes (>= 3000 bp)	#mismatches	#indels	Indels length	#mismatches per 100 kbp	#indels per 100 kbp	GC (%)	Reference GC (%)	Average %IDY	Largest alignment	NA50	NGA50	NA75	NGA75	LA50	LGA50	LA75	LGA75	#Mis_misassemblies	#Mis_relocations	#Mis_translocations	#Mis_inversions	#Mis_misassembled contigs	Mis_Misassembled contigs length	#Mis_local misassemblies	#Mis_short indels (<= 5 bp)	#Mis_long indels (> 5 bp)	#Una_fully unaligned contigs	Una_Fully unaligned length	#Una_partially unaligned contigs	#Una_with misassembly	#Una_both parts are significant	Una_Partially unaligned length	GAGE_Contigs #	GAGE_Min contig	GAGE_Max contig	GAGE_N50	GAGE_Genome size	GAGE_Assembly size	GAGE_Chaff bases	GAGE_Missing reference bases	GAGE_Missing assembly bases	GAGE_Missing assembly contigs	GAGE_Duplicated reference bases	GAGE_Compressed reference bases	GAGE_Bad trim	GAGE_Avg idy	GAGE_SNPs	GAGE_Indels < 5bp	GAGE_Indels >= 5	GAGE_Inversions	GAGE_Relocation	GAGE_Translocation	GAGE_Corrected contig #	GAGE_Corrected assembly size	GAGE_Min correct contig	GAGE_Max correct contig	GAGE_Corrected N50
SOAP2_MIS_PE_mrsa_mis-1_bi_2x250bp_default.0.460percent_37.final.scaf_broken	6443	17934	707	4462	3123900	4747075	1110606	2813862	676	775	265	376	1258	1044	3077	2348	37	1	1	1584	0	3063 + 4 part	757833	5	-1342	1173	37.55	83.070	1.012	718 + 1814 part	7561	7561	2779	25	0	36	489	4744	1.54	20.92	33.64	32.81	99.883	4462	658	766	211	341	1269	1051	3270	2413	1	1	0	0	1	1584	37	349	140	3063	757574	4	0	0	259	6443	200	4462	775 COUNT: 1044	2813862	3123900	0	432169(15.36%)	708310(22.67%)	2957(45.89%)	4219	4250	948	99.98	158	270	262	0	1	0	3606	2393284	200	4384	723 COUNT: 1129
SOAP2_MIS_PE_mrsa_mis-1_bi_2x250bp_default.0.460percent_37.final.scaf	5865	16950	827	6005	3215528	4783421	1523377	2813862	911	1118	299	491	916	717	2440	1659	279	1	1	1985	0	3225 + 65 part	968637	5	-1342	37501	1166.25	78.196	1.021	814 + 1621 part	7509	7509	2792	27	0	29	1933	11780	1.32	87.85	33.63	32.81	99.621	5979	709	907	None	285	1050	799	None	2154	1	1	0	0	1	1985	279	1565	368	3225	925707	65	0	36	42930	5865	200	6005	1118 COUNT: 717	2813862	3215528	0	394503(14.02%)	758390(23.59%)	2969(50.62%)	4517	5058	8119	99.91	156	398	1116	0	1	0	3549	2387312	200	4384	730 COUNT: 1101
