Assembly	#Contigs (>= 0 bp)	#Contigs (>= 1000 bp)	Total length (>= 0 bp)	Total length (>= 1000 bp)	#Contigs	Largest contig	Total length	Reference length	GC (%)	Reference GC (%)	N50	NG50	N75	NG75	#misassemblies	#local misassemblies	#unaligned contigs	Unaligned contigs length	Genome fraction (%)	Duplication ratio	#N's per 100 kbp	#mismatches per 100 kbp	#indels per 100 kbp	#genes	#predicted genes (unique)	#predicted genes (>= 0 bp)	#predicted genes (>= 300 bp)	#predicted genes (>= 1500 bp)	#predicted genes (>= 3000 bp)	Largest alignment	NA50	NGA50	NA75	NGA75
ABYSS_PE_MIS_PE_mtbh37-1_mis_2x250bp_nextera_default__mtbh37-2_mis_2x250bp_nextera_default.0.125percent_44.final_broken	1953	1069	4168140	3840440	1598	20682	4133138	4411532	65.39	65.61	4266	4028	2407	2055	2	0	3 + 6 part	2313	93.121	1.001	0.02	9.15	0.68	2817 + 1192 part	4944	4947	3907	395	33	20682	4266	4028	2407	2054
ABYSS_PE_MIS_PE_mtbh37-1_mis_2x250bp_nextera_default__mtbh37-2_mis_2x250bp_nextera_default.0.125percent_44.final	1953	1069	4168140	3840440	1598	20682	4133138	4411532	65.39	65.61	4266	4028	2407	2055	2	0	3 + 6 part	2313	93.121	1.001	0.02	9.15	0.68	2817 + 1192 part	4944	4947	3907	395	33	20682	4266	4028	2407	2054
