calling: java -cp /vol/ngscomparison/software/analysis/quast-2.1/libs/gage:. SizeFasta /vol/codine-tmp/juene/tmp.JyW5q9ghcA/quast/corrected_input/Mycobacterium_tuberculosis_H37Rv.fasta |awk '{SUM+=; print SUM}'|tail -n 1
Contig Stats
Total units: 653
Reference: 4411532
BasesInFasta: 4283928
Min: 200
Max: 101827
N10: 36038 COUNT: 10
N25: 24667 COUNT: 33
N50: 13708 COUNT: 94
N75: 7232 COUNT: 206
E-size:18044.01

Genome Size: 4411532
Assembly Size: 4283928
Chaff bases: 0
Missing Reference Bases: 90345(2.05%)
Missing Assembly Bases: 5392(0.13%)
Missing Assembly Contigs: 1(0.15%)
Duplicated Reference Bases: 2264
Compressed Reference Bases: 53335
Bad Trim: 1117
Avg Idy: 99.97
SNPs: 1047
Indels < 5bp: 136
Indels >= 5: 38
Inversions: 2
Relocation: 10
Translocation: 0

Corrected Contig Stats
calling: java -cp /vol/ngscomparison/software/analysis/quast-2.1/libs/gage:.:. GetFastaStats -o -min 199 -genomeSize 4411532 /vol/codine-tmp/juene/tmp.JyW5q9ghcA/quast/gage/tmp/VELVET_MIS_PE_mtbh37-1_mis_2x250bp_nextera_default__mtbh37-2_mis_2x250bp_nextera_default_31.final.contigs.matches.lens 2> /dev/null
Total units: 683
Reference: 4411532
BasesInFasta: 4274525
Min: 200
Max: 58960
N10: 36038 COUNT: 11
N25: 24424 COUNT: 34
N50: 13711 COUNT: 95
N75: 7129 COUNT: 208
E-size:16821.19

Done
