Assembly	VELVET_PGM_sakai_pgm_mu_200bp_IO_TS3.0Disabled_stringent.0.34percent_153.final.contigs
#Contigs	4390
#Contigs (>= 0 bp)	4390
#Contigs (>= 1000 bp)	1605
Largest contig	6536
Total length	4448903
Total length (>= 0 bp)	4448903
Total length (>= 1000 bp)	2591130
Reference length	5594470
N50	1158
NG50	924
N75	741
NG75	519
L50	1264
LG50	1820
L75	2470
LG75	3854
#local misassemblies	7
#misassemblies	13
#misassembled contigs	13
Misassembled contigs length	25287
Misassemblies inter-contig overlap	1022
#unaligned contigs	0 + 100 part
Unaligned contigs length	2909
#ambiguously mapped contigs	99
Extra bases in ambiguously mapped contigs	-59474
#N's	110
#N's per 100 kbp	2.47
Genome fraction (%)	75.277
Duplication ratio	1.042
#genes	1592 + 3050 part
#predicted genes (unique)	7679
#predicted genes (>= 0 bp)	7686
#predicted genes (>= 300 bp)	5179
#predicted genes (>= 1500 bp)	124
#predicted genes (>= 3000 bp)	0
#mismatches	263
#indels	3144
Indels length	3205
#mismatches per 100 kbp	6.25
#indels per 100 kbp	74.66
GC (%)	51.18
Reference GC (%)	50.48
Average %IDY	99.585
Largest alignment	6376
NA50	1146
NGA50	917
NA75	730
NGA75	504
LA50	1269
LGA50	1830
LA75	2489
LGA75	3898
#Mis_misassemblies	13
#Mis_relocations	8
#Mis_translocations	0
#Mis_inversions	5
#Mis_misassembled contigs	13
Mis_Misassembled contigs length	25287
#Mis_local misassemblies	7
#Mis_short indels (<= 5 bp)	3144
#Mis_long indels (> 5 bp)	0
#Una_fully unaligned contigs	0
Una_Fully unaligned length	0
#Una_partially unaligned contigs	100
#Una_with misassembly	0
#Una_both parts are significant	0
Una_Partially unaligned length	2909
GAGE_Contigs #	4390
GAGE_Min contig	305
GAGE_Max contig	6536
GAGE_N50	924 COUNT: 1820
GAGE_Genome size	5594470
GAGE_Assembly size	4448903
GAGE_Chaff bases	0
GAGE_Missing reference bases	1148857(20.54%)
GAGE_Missing assembly bases	4155(0.09%)
GAGE_Missing assembly contigs	0(0.00%)
GAGE_Duplicated reference bases	14829
GAGE_Compressed reference bases	242501
GAGE_Bad trim	4135
GAGE_Avg idy	99.91
GAGE_SNPs	196
GAGE_Indels < 5bp	2757
GAGE_Indels >= 5	3
GAGE_Inversions	4
GAGE_Relocation	1
GAGE_Translocation	0
GAGE_Corrected contig #	4370
GAGE_Corrected assembly size	4433204
GAGE_Min correct contig	270
GAGE_Max correct contig	6377
GAGE_Corrected N50	923 COUNT: 1825
