All statistics are based on contigs of size >= 200 bp, unless otherwise noted (e.g., "# contigs (>= 0 bp)" and "Total length (>= 0 bp)" include all contigs).

Assembly                                                                                                 #Contigs (>= 0 bp)  #Contigs (>= 1000 bp)  Total length (>= 0 bp)  Total length (>= 1000 bp)  #Contigs  Largest contig  Total length  Reference length  GC (%)  Reference GC (%)  N50    NG50   N75    NG75   #misassemblies  #local misassemblies  #unaligned contigs  Unaligned contigs length  Genome fraction (%)  Duplication ratio  #N's per 100 kbp  #mismatches per 100 kbp  #indels per 100 kbp  #genes          #predicted genes (unique)  #predicted genes (>= 0 bp)  #predicted genes (>= 300 bp)  #predicted genes (>= 1500 bp)  #predicted genes (>= 3000 bp)  Largest alignment  NA50   NGA50  NA75   NGA75
ABYSS_PE_MIS_PE_mrsa_mis-1_bi_2x150bp_default__mrsa_mis-2_bi_2x150bp_default.36coverage_60.final_broken  473                 131                    2803485                 2751778                    176       99860           2772308       2813862           32.65   32.81             37011  37011  23163  21611  4               1                     0 + 0 part          0                         98.186               1.002              0.32              4.16                     0.40                 2589 + 75 part  2677                       2681                        2283                          294                            26                             96947              37011  36115  21611  20768
ABYSS_PE_MIS_PE_mrsa_mis-1_bi_2x150bp_default__mrsa_mis-2_bi_2x150bp_default.36coverage_60.final         460                 125                    2804158                 2755839                    163       99860           2772981       2813862           32.65   32.81             43261  43261  24161  23648  4               6                     0 + 0 part          0                         98.300               1.002              24.59             4.19                     2.28                 2594 + 74 part  2675                       2679                        2283                          294                            26                             96947              43261  43261  23648  23202
