All statistics are based on contigs of size >= 200 bp, unless otherwise noted (e.g., "# contigs (>= 0 bp)" and "Total length (>= 0 bp)" include all contigs).

Assembly                         VELVET_PGM_sakai_pgm_mu_318_400bp_IO_TS3.4_ms_0.395percent_191.final.contigs
#Mis_misassemblies               75                                                                          
#Mis_relocations                 72                                                                          
#Mis_translocations              3                                                                           
#Mis_inversions                  0                                                                           
#Mis_misassembled contigs        73                                                                          
Mis_Misassembled contigs length  322607                                                                      
#Mis_local misassemblies         34                                                                          
#mismatches                      88                                                                          
#indels                          886                                                                         
#Mis_short indels (<= 5 bp)      886                                                                         
#Mis_long indels (> 5 bp)        0                                                                           
Indels length                    904                                                                         
