Assembly	CLC_MIS_PE_mrsa_mis-1_bi_2x250bp_default__mrsa_mis-2_bi_2x250bp_default.41coverage.result_broken	CLC_MIS_PE_mrsa_mis-1_bi_2x250bp_default__mrsa_mis-2_bi_2x250bp_default.41coverage.result
GAGE_Contigs #	179	174
GAGE_Min contig	203	203
GAGE_Max contig	267758	267758
GAGE_N50	146155 COUNT: 8	148698 COUNT: 8
GAGE_Genome size	2813862	2813862
GAGE_Assembly size	2813355	2813809
GAGE_Chaff bases	0	0
GAGE_Missing reference bases	7496(0.27%)	7557(0.27%)
GAGE_Missing assembly bases	37093(1.32%)	37547(1.33%)
GAGE_Missing assembly contigs	119(66.48%)	119(68.39%)
GAGE_Duplicated reference bases	640	640
GAGE_Compressed reference bases	32220	32220
GAGE_Bad trim	147	308
GAGE_Avg idy	99.99	99.99
GAGE_SNPs	73	73
GAGE_Indels < 5bp	14	14
GAGE_Indels >= 5	10	13
GAGE_Inversions	0	0
GAGE_Relocation	2	3
GAGE_Translocation	0	0
GAGE_Corrected contig #	69	69
GAGE_Corrected assembly size	2776533	2776472
GAGE_Min correct contig	229	229
GAGE_Max correct contig	267758	267758
GAGE_Corrected N50	91644 COUNT: 10	91644 COUNT: 10
