calling: java -cp /vol/ngscomparison/software/analysis/quast-2.1/libs/gage:. SizeFasta /vol/codine-tmp/juene/tmp.5HT0NOk9Qp/quast/corrected_input/Ecoli_Sakai_editedNew_plasmids.fasta |awk '{SUM+=; print SUM}'|tail -n 1
Contig Stats
Total units: 161
Reference: 5594470
BasesInFasta: 5265858
Min: 538
Max: 374758
N10: 260358 COUNT: 2
N25: 199214 COUNT: 6
N50: 124153 COUNT: 15
N75: 44606 COUNT: 34
E-size:129510.39

Genome Size: 5594470
Assembly Size: 5265858
Chaff bases: 0
Missing Reference Bases: 186162(3.33%)
Missing Assembly Bases: 5395(0.10%)
Missing Assembly Contigs: 1(0.62%)
Duplicated Reference Bases: 0
Compressed Reference Bases: 159771
Bad Trim: 2
Avg Idy: 100.00
SNPs: 63
Indels < 5bp: 14
Indels >= 5: 5
Inversions: 0
Relocation: 2
Translocation: 0

Corrected Contig Stats
calling: java -cp /vol/ngscomparison/software/analysis/quast-2.1/libs/gage:.:. GetFastaStats -o -min 199 -genomeSize 5594470 /vol/codine-tmp/juene/tmp.5HT0NOk9Qp/quast/gage/tmp/NEWBLER_MIS_PE_sakai_mis-both_bi_2x250bp_SI_default.0.64percent.NEWBLER.contigs_broken.matches.lens 2> /dev/null
Total units: 167
Reference: 5594470
BasesInFasta: 5261349
Min: 267
Max: 260358
N10: 226882 COUNT: 3
N25: 181837 COUNT: 7
N50: 124153 COUNT: 16
N75: 43145 COUNT: 36
E-size:115238.8

Done
