Assembly	VELVET_MIS_PE_sakai_mis-1_bi_2x150bp_default__sakai_mis-2_bi_2x150bp_default.0.826percent_145.final.contigs_broken	VELVET_MIS_PE_sakai_mis-1_bi_2x150bp_default__sakai_mis-2_bi_2x150bp_default.0.826percent_145.final.contigs
#Mis_misassemblies	0	0
#Mis_relocations	0	0
#Mis_translocations	0	0
#Mis_inversions	0	0
#Mis_misassembled contigs	0	0
Mis_Misassembled contigs length	0	0
#Mis_local misassemblies	0	1
#mismatches	1	1
#indels	0	0
#Mis_short indels (<= 5 bp)	0	0
#Mis_long indels (> 5 bp)	0	0
Indels length	0	0
