All statistics are based on contigs of size >= 200 bp, unless otherwise noted (e.g., "# contigs (>= 0 bp)" and "Total length (>= 0 bp)" include all contigs).

Assembly                          VELVET_MIS_PE_sakai_mis-1_bi_2x150bp_default__sakai_mis-2_bi_2x150bp_default.0.826percent_145.final.contigs_broken  VELVET_MIS_PE_sakai_mis-1_bi_2x150bp_default__sakai_mis-2_bi_2x150bp_default.0.826percent_145.final.contigs
#Una_fully unaligned contigs      0                                                                                                                   0                                                                                                          
Una_Fully unaligned length        0                                                                                                                   0                                                                                                          
#Una_partially unaligned contigs  0                                                                                                                   0                                                                                                          
#Una_with misassembly             0                                                                                                                   0                                                                                                          
#Una_both parts are significant   0                                                                                                                   0                                                                                                          
Una_Partially unaligned length    0                                                                                                                   0                                                                                                          
#N's                              0                                                                                                                   125                                                                                                        
