Assembly	VELVET_PGM_sakai_pgm_mu_200bp_IO_TS3.0Disabled_stringent.0.34percent_131.final.contigs
#Una_fully unaligned contigs	0
Una_Fully unaligned length	0
#Una_partially unaligned contigs	23
#Una_with misassembly	0
#Una_both parts are significant	0
Una_Partially unaligned length	710
#N's	1370
