Assembly	GAGE_Contigs #	GAGE_Min contig	GAGE_Max contig	GAGE_N50	GAGE_Genome size	GAGE_Assembly size	GAGE_Chaff bases	GAGE_Missing reference bases	GAGE_Missing assembly bases	GAGE_Missing assembly contigs	GAGE_Duplicated reference bases	GAGE_Compressed reference bases	GAGE_Bad trim	GAGE_Avg idy	GAGE_SNPs	GAGE_Indels < 5bp	GAGE_Indels >= 5	GAGE_Inversions	GAGE_Relocation	GAGE_Translocation	GAGE_Corrected contig #	GAGE_Corrected assembly size	GAGE_Min correct contig	GAGE_Max correct contig	GAGE_Corrected N50
SOAP2_MIS_PE_sakai_mis-1_bi_2x250bp_SI_default.0.64percent_103.final.scaf_broken	4465	200	30064	6254 COUNT: 266	5594470	5848651	0	10864(0.19%)	7702(0.13%)	9(0.20%)	285333	293799	127	99.99	227	51	16	2	4	0	3164	5554126	200	28365	5848 COUNT: 282
SOAP2_MIS_PE_sakai_mis-1_bi_2x250bp_SI_default.0.64percent_103.final.scaf	3471	200	108476	23945 COUNT: 73	5594470	5910274	0	8642(0.15%)	58904(1.00%)	10(0.29%)	285837	286458	3774	99.98	212	95	155	5	10	0	3148	5555716	200	28365	5865 COUNT: 281
