Assembly	SOAP2_MIS_PE_sakai_mis-1_bi_2x250bp_SI_default.0.64percent_103.final.scaf_broken	SOAP2_MIS_PE_sakai_mis-1_bi_2x250bp_SI_default.0.64percent_103.final.scaf
#Contigs (>= 0 bp)	5931	4857
#Contigs (>= 1000 bp)	1024	410
Total length (>= 0 bp)	6055584	6105201
Total length (>= 1000 bp)	4973764	5219353
#Contigs	4465	3471
Largest contig	30064	108476
Total length	5848651	5910274
Reference length	5594470	5594470
GC (%)	50.47	50.48
Reference GC (%)	50.48	50.48
N50	5865	21738
NG50	6254	23945
N75	2519	8290
NG75	2992	9904
#misassemblies	6	21
#local misassemblies	63	905
#unaligned contigs	10 + 4 part	21 + 14 part
Unaligned contigs length	8256	23950
Genome fraction (%)	94.470	94.469
Duplication ratio	1.074	1.087
#N's per 100 kbp	5.13	844.58
#mismatches per 100 kbp	14.61	14.83
#indels per 100 kbp	1.15	28.51
#genes	3940 + 1227 part	3996 + 1164 part
#predicted genes (unique)	8884	8587
#predicted genes (>= 0 bp)	8965	8667
#predicted genes (>= 300 bp)	4828	4767
#predicted genes (>= 1500 bp)	499	531
#predicted genes (>= 3000 bp)	32	38
Largest alignment	30063	107444
NA50	5843	21128
NGA50	6218	23428
NA75	2493	7672
NGA75	2953	9683
