calling: java -cp /vol/ngscomparison/software/analysis/quast-2.1/libs/gage:. SizeFasta /vol/codine-tmp/juene/tmp.1etCQl70Bl/quast/corrected_input/MRSA_COL_Plasmid.fasta |awk '{SUM+=; print SUM}'|tail -n 1
Contig Stats
Total units: 1074
Reference: 2813862
BasesInFasta: 2977985
Min: 200
Max: 133076
N10: 59681 COUNT: 4
N25: 40335 COUNT: 12
N50: 27277 COUNT: 34
N75: 12731 COUNT: 74
E-size:31854.29

Genome Size: 2813862
Assembly Size: 2977985
Chaff bases: 0
Missing Reference Bases: 21846(0.78%)
Missing Assembly Bases: 10457(0.35%)
Missing Assembly Contigs: 28(2.61%)
Duplicated Reference Bases: 202449
Compressed Reference Bases: 43214
Bad Trim: 1861
Avg Idy: 99.98
SNPs: 73
Indels < 5bp: 261
Indels >= 5: 2
Inversions: 1
Relocation: 3
Translocation: 0

Corrected Contig Stats
calling: java -cp /vol/ngscomparison/software/analysis/quast-2.1/libs/gage:.:. GetFastaStats -o -min 199 -genomeSize 2813862 /vol/codine-tmp/juene/tmp.1etCQl70Bl/quast/gage/tmp/CLC_PGM_mrsa_pgm_400bp_es_318_IKA_ts3.2_morestringent.0.800percent.result.matches.lens 2> /dev/null
Total units: 371
Reference: 2813862
BasesInFasta: 2766731
Min: 200
Max: 133084
N10: 59684 COUNT: 4
N25: 40337 COUNT: 12
N50: 27281 COUNT: 34
N75: 11893 COUNT: 75
E-size:31625.58

Done
