1: PREPARING DATA
2,3: RUNNING mummer AND CREATING CLUSTERS
# reading input file "/vol/codine-tmp/juene/tmp.urcAC05Sb7/quast/gage/tmp/SOAP2_MIS_PE_mrsa_mis-1_bi_2x250bp_default.0.460percent_57.final.scaf_broken.ntref" of length 2813864
# construct suffix tree for sequence of length 2813864
# (maximum reference length is 536870908)
# (maximum query length is 4294967295)
# process 28138 characters per dot
#....................................................................................................
# CONSTRUCTIONTIME /vol/ngscomparison/software/analysis/quast-2.1/libs/MUMmer3.23-linux/mummer /vol/codine-tmp/juene/tmp.urcAC05Sb7/quast/gage/tmp/SOAP2_MIS_PE_mrsa_mis-1_bi_2x250bp_default.0.460percent_57.final.scaf_broken.ntref 1.24
# reading input file "/vol/codine-tmp/juene/tmp.urcAC05Sb7/quast/corrected_input/SOAP2_MIS_PE_mrsa_mis-1_bi_2x250bp_default.0.460percent_57.final.scaf_broken" of length 4136920
# matching query-file "/vol/codine-tmp/juene/tmp.urcAC05Sb7/quast/corrected_input/SOAP2_MIS_PE_mrsa_mis-1_bi_2x250bp_default.0.460percent_57.final.scaf_broken"
# against subject-file "/vol/codine-tmp/juene/tmp.urcAC05Sb7/quast/gage/tmp/SOAP2_MIS_PE_mrsa_mis-1_bi_2x250bp_default.0.460percent_57.final.scaf_broken.ntref"
# COMPLETETIME /vol/ngscomparison/software/analysis/quast-2.1/libs/MUMmer3.23-linux/mummer /vol/codine-tmp/juene/tmp.urcAC05Sb7/quast/gage/tmp/SOAP2_MIS_PE_mrsa_mis-1_bi_2x250bp_default.0.460percent_57.final.scaf_broken.ntref 4.93
# SPACE /vol/ngscomparison/software/analysis/quast-2.1/libs/MUMmer3.23-linux/mummer /vol/codine-tmp/juene/tmp.urcAC05Sb7/quast/gage/tmp/SOAP2_MIS_PE_mrsa_mis-1_bi_2x250bp_default.0.460percent_57.final.scaf_broken.ntref 6.83
4: FINISHING DATA
Filtering alignments
Extracting alignment coordinates
Analyzing SNPs
Extracting alignment breakpoints
Generating report file
Found genome size at position 4 with value 2813862 aka 2813862
Calculating point at 0 and the sum is 1000080 and i is3066 and lens is 3498 and length is 1546
Calculating point at 1 and the sum is 2000643 and i is2095 and lens is 3498 and length is 683
