All statistics are based on contigs of size >= 200 bp, unless otherwise noted (e.g., "# contigs (>= 0 bp)" and "Total length (>= 0 bp)" include all contigs).

Assembly                         ABYSS_PE_MIS_PE_mrsa_mis-1_bi_2x150bp_default__mrsa_mis-2_bi_2x150bp_default.0.700percent_92.final_broken  ABYSS_PE_MIS_PE_mrsa_mis-1_bi_2x150bp_default__mrsa_mis-2_bi_2x150bp_default.0.700percent_92.final
GAGE_Contigs #                   47                                                                                                         37                                                                                                
GAGE_Min contig                  222                                                                                                        222                                                                                               
GAGE_Max contig                  357861                                                                                                     774429                                                                                            
GAGE_N50                         202520 COUNT: 5                                                                                            327812 COUNT: 3                                                                                   
GAGE_Genome size                 2813862                                                                                                    2813862                                                                                           
GAGE_Assembly size               2796327                                                                                                    2797137                                                                                           
GAGE_Chaff bases                 0                                                                                                          0                                                                                                 
GAGE_Missing reference bases     946(0.03%)                                                                                                 946(0.03%)                                                                                        
GAGE_Missing assembly bases      2(0.00%)                                                                                                   812(0.03%)                                                                                        
GAGE_Missing assembly contigs    0(0.00%)                                                                                                   0(0.00%)                                                                                          
GAGE_Duplicated reference bases  1290                                                                                                       1290                                                                                              
GAGE_Compressed reference bases  31870                                                                                                      31954                                                                                             
GAGE_Bad trim                    0                                                                                                          0                                                                                                 
GAGE_Avg idy                     99.99                                                                                                      99.99                                                                                             
GAGE_SNPs                        57                                                                                                         57                                                                                                
GAGE_Indels < 5bp                11                                                                                                         11                                                                                                
GAGE_Indels >= 5                 6                                                                                                          12                                                                                                
GAGE_Inversions                  0                                                                                                          0                                                                                                 
GAGE_Relocation                  2                                                                                                          4                                                                                                 
GAGE_Translocation               0                                                                                                          0                                                                                                 
GAGE_Corrected contig #          54                                                                                                         54                                                                                                
GAGE_Corrected assembly size     2796112                                                                                                    2796112                                                                                           
GAGE_Min correct contig          222                                                                                                        222                                                                                               
GAGE_Max correct contig          343038                                                                                                     343038                                                                                            
GAGE_Corrected N50               173642 COUNT: 6                                                                                            173642 COUNT: 6                                                                                   
