Assembly	ABYSS_PE_PGM_sakai_pgm_mu_318_400bp_IO_TS3.4_ms.0.2percent_48.final
#Mis_misassemblies	2
#Mis_relocations	2
#Mis_translocations	0
#Mis_inversions	0
#Mis_misassembled contigs	2
Mis_Misassembled contigs length	34753
#Mis_local misassemblies	7
#mismatches	78
#indels	299
#Mis_short indels (<= 5 bp)	299
#Mis_long indels (> 5 bp)	0
Indels length	304
