calling: java -cp /vol/ngscomparison/software/analysis/quast-2.1/libs/gage:. SizeFasta /vol/codine-tmp/juene/tmp.F14G3UbCja/quast/corrected_input/Mycobacterium_tuberculosis_H37Rv.fasta |awk '{SUM+=; print SUM}'|tail -n 1
Contig Stats
Total units: 3586
Reference: 4411532
BasesInFasta: 947358
Min: 200
Max: 1435
N10: 255 COUNT: 1291
N25: 0 COUNT: 0
N50: 0 COUNT: 0
N75: 0 COUNT: 0
E-size:62.63

Genome Size: 4411532
Assembly Size: 947358
Chaff bases: 0
Missing Reference Bases: 3544975(80.36%)
Missing Assembly Bases: 56538(5.97%)
Missing Assembly Contigs: 219(6.11%)
Duplicated Reference Bases: 12139
Compressed Reference Bases: 2747
Bad Trim: 6676
Avg Idy: 99.30
SNPs: 225
Indels < 5bp: 5578
Indels >= 5: 4
Inversions: 0
Relocation: 0
Translocation: 0

Corrected Contig Stats
calling: java -cp /vol/ngscomparison/software/analysis/quast-2.1/libs/gage:.:. GetFastaStats -o -min 199 -genomeSize 4411532 /vol/codine-tmp/juene/tmp.F14G3UbCja/quast/gage/tmp/SOAP2_PGM_mtbh37_pgm_400bp_es_318v2_OT2_tsv3.6_morestringent_55.final.contig.matches.lens 2> /dev/null
Total units: 3125
Reference: 4411532
BasesInFasta: 843863
Min: 200
Max: 1435
N10: 252 COUNT: 1298
N25: 0 COUNT: 0
N50: 0 COUNT: 0
N75: 0 COUNT: 0
E-size:57.29

Done
