Assembly	VELVET_MIS_PE_sakai_mis-1_bi_2x150bp_default__sakai_mis-2_bi_2x150bp_default.0.826percent_139.final.contigs_broken	VELVET_MIS_PE_sakai_mis-1_bi_2x150bp_default__sakai_mis-2_bi_2x150bp_default.0.826percent_139.final.contigs
#Una_fully unaligned contigs	5	9
Una_Fully unaligned length	2910	7769
#Una_partially unaligned contigs	0	5
#Una_with misassembly	0	0
#Una_both parts are significant	0	5
Una_Partially unaligned length	0	5082
#N's	0	30912
