Assembly	VELVET_PGM_sakai_pgm_mu_318_400bp_IO_TS3.4_ms_0.395percent_67.final.contigs
#Contigs (>= 0 bp)	33060
#Contigs (>= 1000 bp)	0
Total length (>= 0 bp)	5680498
Total length (>= 1000 bp)	0
#Contigs	4174
Largest contig	569
Total length	945650
Reference length	5594470
GC (%)	49.31
Reference GC (%)	50.48
N50	220
NG50	None
N75	208
NG75	None
#misassemblies	88
#local misassemblies	1
#unaligned contigs	442 + 55 part
Unaligned contigs length	104426
Genome fraction (%)	13.882
Duplication ratio	1.069
#N's per 100 kbp	0.00
#mismatches per 100 kbp	61.93
#indels per 100 kbp	1596.66
#genes	9 + 2140 part
#predicted genes (unique)	3153
#predicted genes (>= 0 bp)	3153
#predicted genes (>= 300 bp)	62
#predicted genes (>= 1500 bp)	0
#predicted genes (>= 3000 bp)	0
Largest alignment	569
NA50	216
NGA50	None
NA75	203
NGA75	None
