All statistics are based on contigs of size >= 200 bp, unless otherwise noted (e.g., "# contigs (>= 0 bp)" and "Total length (>= 0 bp)" include all contigs).

Assembly                         VELVET_PGM_mrsa_pgm_200bp_es_316_IonOnev2_ts3.0_morestringent.0.230percent_167.final.contigs
#Mis_misassemblies               1                                                                                           
#Mis_relocations                 1                                                                                           
#Mis_translocations              0                                                                                           
#Mis_inversions                  0                                                                                           
#Mis_misassembled contigs        1                                                                                           
Mis_Misassembled contigs length  380                                                                                         
#Mis_local misassemblies         0                                                                                           
#mismatches                      4                                                                                           
#indels                          42                                                                                          
#Mis_short indels (<= 5 bp)      42                                                                                          
#Mis_long indels (> 5 bp)        0                                                                                           
Indels length                    42                                                                                          
