calling: java -cp /vol/ngscomparison/software/analysis/quast-2.1/libs/gage:. SizeFasta /vol/codine-tmp/juene/tmp.rxQN1YfVUu/quast/corrected_input/Ecoli_Sakai_editedNew_plasmids.fasta |awk '{SUM+=; print SUM}'|tail -n 1
Contig Stats
Total units: 296
Reference: 5594470
BasesInFasta: 5491744
Min: 200
Max: 312274
N10: 263067 COUNT: 2
N25: 199615 COUNT: 6
N50: 117701 COUNT: 16
N75: 48965 COUNT: 33
E-size:124436.18

Genome Size: 5594470
Assembly Size: 5491744
Chaff bases: 0
Missing Reference Bases: 11464(0.20%)
Missing Assembly Bases: 2377(0.04%)
Missing Assembly Contigs: 0(0.00%)
Duplicated Reference Bases: 14733
Compressed Reference Bases: 245763
Bad Trim: 401
Avg Idy: 99.98
SNPs: 297
Indels < 5bp: 34
Indels >= 5: 28
Inversions: 14
Relocation: 10
Translocation: 0

Corrected Contig Stats
calling: java -cp /vol/ngscomparison/software/analysis/quast-2.1/libs/gage:.:. GetFastaStats -o -min 199 -genomeSize 5594470 /vol/codine-tmp/juene/tmp.rxQN1YfVUu/quast/gage/tmp/ABYSS_PE_MIS_PE_sakai_mis-1_bi_2x250bp_SI_default__sakai_mis-2_bi_2x250bp_SI_default.76coverage_96.final.matches.lens 2> /dev/null
Total units: 330
Reference: 5594470
BasesInFasta: 5486337
Min: 200
Max: 245373
N10: 210388 COUNT: 3
N25: 148308 COUNT: 8
N50: 84518 COUNT: 20
N75: 36822 COUNT: 43
E-size:98967.84

Done
