All statistics are based on contigs of size >= 200 bp, unless otherwise noted (e.g., "# contigs (>= 0 bp)" and "Total length (>= 0 bp)" include all contigs).

Assembly                                                                                                         #Contigs  #Contigs (>= 0 bp)  #Contigs (>= 1000 bp)  Largest contig  Total length  Total length (>= 0 bp)  Total length (>= 1000 bp)  Reference length  N50    NG50   N75    NG75   L50  LG50  L75  LG75  #local misassemblies  #misassemblies  #misassembled contigs  Misassembled contigs length  Misassemblies inter-contig overlap  #unaligned contigs  Unaligned contigs length  #ambiguously mapped contigs  Extra bases in ambiguously mapped contigs  #N's  #N's per 100 kbp  Genome fraction (%)  Duplication ratio  #genes          #predicted genes (unique)  #predicted genes (>= 0 bp)  #predicted genes (>= 300 bp)  #predicted genes (>= 1500 bp)  #predicted genes (>= 3000 bp)  #mismatches  #indels  Indels length  #mismatches per 100 kbp  #indels per 100 kbp  GC (%)  Reference GC (%)  Average %IDY  Largest alignment  NA50   NGA50  NA75   NGA75  LA50  LGA50  LA75  LGA75  #Mis_misassemblies  #Mis_relocations  #Mis_translocations  #Mis_inversions  #Mis_misassembled contigs  Mis_Misassembled contigs length  #Mis_local misassemblies  #Mis_short indels (<= 5 bp)  #Mis_long indels (> 5 bp)  #Una_fully unaligned contigs  Una_Fully unaligned length  #Una_partially unaligned contigs  #Una_with misassembly  #Una_both parts are significant  Una_Partially unaligned length  GAGE_Contigs #  GAGE_Min contig  GAGE_Max contig  GAGE_N50         GAGE_Genome size  GAGE_Assembly size  GAGE_Chaff bases  GAGE_Missing reference bases  GAGE_Missing assembly bases  GAGE_Missing assembly contigs  GAGE_Duplicated reference bases  GAGE_Compressed reference bases  GAGE_Bad trim  GAGE_Avg idy  GAGE_SNPs  GAGE_Indels < 5bp  GAGE_Indels >= 5  GAGE_Inversions  GAGE_Relocation  GAGE_Translocation  GAGE_Corrected contig #  GAGE_Corrected assembly size  GAGE_Min correct contig  GAGE_Max correct contig  GAGE_Corrected N50
VELVET_MIS_PE_mrsa_mis-1_bi_2x250bp_default__mrsa_mis-2_bi_2x250bp_default.0.460percent_61.final.contigs_broken  144       187                 104                    136601          2776271       2782685                 2761486                    2813862           51783  51783  29069  29069  19   19    37   37    8                     3               3                      89015                        2212                                3 + 0 part          4790                      14                           -10077                                     0     0.00              98.122               1.001              2611 + 70 part  2678                       2678                        2296                          294                            27                             131          24       26             4.74                     0.87                 32.69   32.81             98.748        136601             51783  51783  29069  27862  19    19     37    38     3                   3                 0                    0                3                          89015                            8                         24                           0                          3                             4790                        0                                 0                      0                                0                               144             210              136601           51783 COUNT: 19  2813862           2776271             0                 9568(0.34%)                   4791(0.17%)                  3(2.08%)                       1572                             40574                            1              99.99         103        23                 8                 0                2                0                   146                      2772074                       210                      100141                   45533 COUNT: 21   
VELVET_MIS_PE_mrsa_mis-1_bi_2x250bp_default__mrsa_mis-2_bi_2x250bp_default.0.460percent_61.final.contigs         117       160                 80                     248881          2777219       2783633                 2763385                    2813862           66104  66104  35456  35033  14   14    28   29    23                    3               3                      271277                       2212                                3 + 0 part          4790                      14                           -10077                                     948   34.13             98.144               1.001              2619 + 63 part  2668                       2668                        2293                          294                            27                             123          36       325            4.45                     1.30                 32.69   32.81             98.732        191217             61514  61514  35456  35033  15    15     29    30     3                   3                 0                    0                3                          271277                           23                        24                           12                         3                             4790                        0                                 0                      0                                0                               117             210              248881           66104 COUNT: 14  2813862           2777219             0                 10096(0.36%)                  6257(0.23%)                  3(2.56%)                       1635                             40472                            407            99.99         103        23                 17                0                7                0                   143                      2771493                       210                      122095                   45726 COUNT: 20   
