Assembly	ABYSS_PE_PGM_sakai_pgm_mu_318_400bp_IO_TS3.4_ms_116.final
GAGE_Contigs #	6840
GAGE_Min contig	200
GAGE_Max contig	22615
GAGE_N50	4569 COUNT: 376
GAGE_Genome size	5594470
GAGE_Assembly size	6321764
GAGE_Chaff bases	0
GAGE_Missing reference bases	14580(0.26%)
GAGE_Missing assembly bases	245(0.00%)
GAGE_Missing assembly contigs	0(0.00%)
GAGE_Duplicated reference bases	683144
GAGE_Compressed reference bases	272497
GAGE_Bad trim	245
GAGE_Avg idy	99.98
GAGE_SNPs	52
GAGE_Indels < 5bp	510
GAGE_Indels >= 5	3
GAGE_Inversions	0
GAGE_Relocation	5
GAGE_Translocation	0
GAGE_Corrected contig #	3809
GAGE_Corrected assembly size	5636231
GAGE_Min correct contig	200
GAGE_Max correct contig	22614
GAGE_Corrected N50	4569 COUNT: 377
