calling: java -cp /vol/ngscomparison/software/analysis/quast-2.1/libs/gage:. SizeFasta /vol/codine-tmp/juene/tmp.9bvr4vX3gm/quast/corrected_input/MRSA_COL_Plasmid.fasta |awk '{SUM+=; print SUM}'|tail -n 1
Contig Stats
Total units: 50
Reference: 2813862
BasesInFasta: 2798581
Min: 214
Max: 467228
N10: 467228 COUNT: 1
N25: 324549 COUNT: 2
N50: 192319 COUNT: 5
N75: 88090 COUNT: 10
E-size:218871.55

Genome Size: 2813862
Assembly Size: 2798581
Chaff bases: 0
Missing Reference Bases: 656(0.02%)
Missing Assembly Bases: 542(0.02%)
Missing Assembly Contigs: 0(0.00%)
Duplicated Reference Bases: 1727
Compressed Reference Bases: 32707
Bad Trim: 0
Avg Idy: 99.99
SNPs: 58
Indels < 5bp: 15
Indels >= 5: 10
Inversions: 0
Relocation: 5
Translocation: 0

Corrected Contig Stats
calling: java -cp /vol/ngscomparison/software/analysis/quast-2.1/libs/gage:.:. GetFastaStats -o -min 199 -genomeSize 2813862 /vol/codine-tmp/juene/tmp.9bvr4vX3gm/quast/gage/tmp/ABYSS_PE_MIS_PE_mrsa_mis-1_bi_2x150bp_default__mrsa_mis-2_bi_2x150bp_default.0.527percent_88-scaffolds.matches.lens 2> /dev/null
Total units: 63
Reference: 2813862
BasesInFasta: 2796992
Min: 214
Max: 324550
N10: 324550 COUNT: 1
N25: 202514 COUNT: 3
N50: 135164 COUNT: 8
N75: 57464 COUNT: 16
E-size:136031.91

Done
