1: PREPARING DATA
2,3: RUNNING mummer AND CREATING CLUSTERS
# reading input file "/vol/codine-tmp/juene/tmp.Y6e6SLXoSB/quast/contigs_reports/nucmer_output/ABYSS_PE_MIS_PE_sakai_mis-1_bi_2x250bp_SI_default__sakai_mis-2_bi_2x250bp_SI_default.0.125percent_66.final_broken.ntref" of length 5594473
# construct suffix tree for sequence of length 5594473
# (maximum reference length is 536870908)
# (maximum query length is 4294967295)
# process 55944 characters per dot
#....................................................................................................
# CONSTRUCTIONTIME /vol/ngscomparison/software/analysis/quast-2.1/libs/MUMmer3.23-linux/mummer /vol/codine-tmp/juene/tmp.Y6e6SLXoSB/quast/contigs_reports/nucmer_output/ABYSS_PE_MIS_PE_sakai_mis-1_bi_2x250bp_SI_default__sakai_mis-2_bi_2x250bp_SI_default.0.125percent_66.final_broken.ntref 3.19
# reading input file "/vol/codine-tmp/juene/tmp.Y6e6SLXoSB/quast/corrected_input/ABYSS_PE_MIS_PE_sakai_mis-1_bi_2x250bp_SI_default__sakai_mis-2_bi_2x250bp_SI_default.0.125percent_66.final_broken" of length 5307513
# matching query-file "/vol/codine-tmp/juene/tmp.Y6e6SLXoSB/quast/corrected_input/ABYSS_PE_MIS_PE_sakai_mis-1_bi_2x250bp_SI_default__sakai_mis-2_bi_2x250bp_SI_default.0.125percent_66.final_broken"
# against subject-file "/vol/codine-tmp/juene/tmp.Y6e6SLXoSB/quast/contigs_reports/nucmer_output/ABYSS_PE_MIS_PE_sakai_mis-1_bi_2x250bp_SI_default__sakai_mis-2_bi_2x250bp_SI_default.0.125percent_66.final_broken.ntref"
# COMPLETETIME /vol/ngscomparison/software/analysis/quast-2.1/libs/MUMmer3.23-linux/mummer /vol/codine-tmp/juene/tmp.Y6e6SLXoSB/quast/contigs_reports/nucmer_output/ABYSS_PE_MIS_PE_sakai_mis-1_bi_2x250bp_SI_default__sakai_mis-2_bi_2x250bp_SI_default.0.125percent_66.final_broken.ntref 9.72
# SPACE /vol/ngscomparison/software/analysis/quast-2.1/libs/MUMmer3.23-linux/mummer /vol/codine-tmp/juene/tmp.Y6e6SLXoSB/quast/contigs_reports/nucmer_output/ABYSS_PE_MIS_PE_sakai_mis-1_bi_2x250bp_SI_default__sakai_mis-2_bi_2x250bp_SI_default.0.125percent_66.final_broken.ntref 10.58
4: FINISHING DATA
