Assembly	VELVET_MIS_PE_mtbh37-1_mis_2x250bp_nextera_default__mtbh37-2_mis_2x250bp_nextera_default_115.final.contigs_broken	VELVET_MIS_PE_mtbh37-1_mis_2x250bp_nextera_default__mtbh37-2_mis_2x250bp_nextera_default_115.final.contigs
GAGE_Contigs #	465	243
GAGE_Min contig	207	229
GAGE_Max contig	58593	151106
GAGE_N50	15843 COUNT: 84	39707 COUNT: 32
GAGE_Genome size	4411532	4411532
GAGE_Assembly size	4259921	4289933
GAGE_Chaff bases	0	0
GAGE_Missing reference bases	118253(2.68%)	118138(2.68%)
GAGE_Missing assembly bases	968(0.02%)	30865(0.72%)
GAGE_Missing assembly contigs	0(0.00%)	0(0.00%)
GAGE_Duplicated reference bases	1520	1585
GAGE_Compressed reference bases	54503	54503
GAGE_Bad trim	968	1304
GAGE_Avg idy	99.99	99.99
GAGE_SNPs	151	151
GAGE_Indels < 5bp	26	26
GAGE_Indels >= 5	15	232
GAGE_Inversions	3	2
GAGE_Relocation	4	8
GAGE_Translocation	0	0
GAGE_Corrected contig #	483	483
GAGE_Corrected assembly size	4261744	4261744
GAGE_Min correct contig	229	229
GAGE_Max correct contig	58593	58593
GAGE_Corrected N50	15132 COUNT: 88	15132 COUNT: 88
