All statistics are based on contigs of size >= 200 bp, unless otherwise noted (e.g., "# contigs (>= 0 bp)" and "Total length (>= 0 bp)" include all contigs).

Assembly                                                                                                         GAGE_Contigs #  GAGE_Min contig  GAGE_Max contig  GAGE_N50          GAGE_Genome size  GAGE_Assembly size  GAGE_Chaff bases  GAGE_Missing reference bases  GAGE_Missing assembly bases  GAGE_Missing assembly contigs  GAGE_Duplicated reference bases  GAGE_Compressed reference bases  GAGE_Bad trim  GAGE_Avg idy  GAGE_SNPs  GAGE_Indels < 5bp  GAGE_Indels >= 5  GAGE_Inversions  GAGE_Relocation  GAGE_Translocation  GAGE_Corrected contig #  GAGE_Corrected assembly size  GAGE_Min correct contig  GAGE_Max correct contig  GAGE_Corrected N50
ABYSS_PE_MIS_PE_sakai_mis-1_bi_2x250bp_SI_default__sakai_mis-2_bi_2x250bp_SI_default.56coverage_98.final_broken  398             200              238050           88037 COUNT: 20   5594470           5446379             0                 12234(0.22%)                  353(0.01%)                   0(0.00%)                       20834                            265261                           333            99.99         305        34                 11                2                2                0                   379                      5427341                       200                      238050                   78436 COUNT: 22   
ABYSS_PE_MIS_PE_sakai_mis-1_bi_2x250bp_SI_default__sakai_mis-2_bi_2x250bp_SI_default.56coverage_98.final         368             200              346518           117562 COUNT: 17  5594470           5447858             0                 12216(0.22%)                  1809(0.03%)                  0(0.00%)                       21227                            265389                           783            99.99         305        39                 23                5                5                0                   377                      5427111                       200                      238050                   84518 COUNT: 21   
