Assembly	VELVET_MIS_PE_mrsa_mis-1_bi_2x150bp_default__mrsa_mis-2_bi_2x150bp_default.0.527percent_105.final.contigs_broken	VELVET_MIS_PE_mrsa_mis-1_bi_2x150bp_default__mrsa_mis-2_bi_2x150bp_default.0.527percent_105.final.contigs
#Mis_misassemblies	2	6
#Mis_relocations	2	6
#Mis_translocations	0	0
#Mis_inversions	0	0
#Mis_misassembled contigs	2	5
Mis_Misassembled contigs length	31397	555366
#Mis_local misassemblies	1	11
#mismatches	34	34
#indels	9	2622
#Mis_short indels (<= 5 bp)	9	2588
#Mis_long indels (> 5 bp)	0	34
Indels length	9	4008
