Assembly	VELVET_PGM_mtbh37_pgm_400bp_es_318v2_OT2_tsv3.6_morestringent_163.final.contigs
GAGE_Contigs #	2791
GAGE_Min contig	325
GAGE_Max contig	5697
GAGE_N50	655 COUNT: 1688
GAGE_Genome size	4411532
GAGE_Assembly size	2713424
GAGE_Chaff bases	0
GAGE_Missing reference bases	1823777(41.34%)
GAGE_Missing assembly bases	162(0.01%)
GAGE_Missing assembly contigs	0(0.00%)
GAGE_Duplicated reference bases	62155
GAGE_Compressed reference bases	26113
GAGE_Bad trim	102
GAGE_Avg idy	99.95
GAGE_SNPs	55
GAGE_Indels < 5bp	1296
GAGE_Indels >= 5	6
GAGE_Inversions	2
GAGE_Relocation	8
GAGE_Translocation	0
GAGE_Corrected contig #	2658
GAGE_Corrected assembly size	2652079
GAGE_Min correct contig	239
GAGE_Max correct contig	5697
GAGE_Corrected N50	651 COUNT: 1696
