Assembly	VELVET_MIS_PE_mrsa_mis-1_bi_2x150bp_default__mrsa_mis-2_bi_2x150bp_default.0.527percent_83.final.contigs_broken	VELVET_MIS_PE_mrsa_mis-1_bi_2x150bp_default__mrsa_mis-2_bi_2x150bp_default.0.527percent_83.final.contigs
GAGE_Contigs #	65	45
GAGE_Min contig	204	204
GAGE_Max contig	361686	853102
GAGE_N50	154028 COUNT: 6	326067 COUNT: 3
GAGE_Genome size	2813862	2813862
GAGE_Assembly size	2787537	2788351
GAGE_Chaff bases	0	0
GAGE_Missing reference bases	2050(0.07%)	1961(0.07%)
GAGE_Missing assembly bases	5394(0.19%)	6057(0.22%)
GAGE_Missing assembly contigs	1(1.54%)	1(2.22%)
GAGE_Duplicated reference bases	550	550
GAGE_Compressed reference bases	34439	34193
GAGE_Bad trim	9	0
GAGE_Avg idy	99.99	99.99
GAGE_SNPs	37	40
GAGE_Indels < 5bp	9	25
GAGE_Indels >= 5	2	11
GAGE_Inversions	1	3
GAGE_Relocation	3	7
GAGE_Translocation	0	0
GAGE_Corrected contig #	68	64
GAGE_Corrected assembly size	2782818	2782969
GAGE_Min correct contig	204	204
GAGE_Max correct contig	325471	325471
GAGE_Corrected N50	142516 COUNT: 7	154027 COUNT: 7
