Assembly	CLC_MIS_PE_sakai_mis-1_bi_2x250bp_SI_default__sakai_mis-2_bi_2x250bp_SI_default.31coverage.result_broken	CLC_MIS_PE_sakai_mis-1_bi_2x250bp_SI_default__sakai_mis-2_bi_2x250bp_SI_default.31coverage.result
#Contigs	365	353
#Contigs (>= 0 bp)	367	353
#Contigs (>= 1000 bp)	152	144
Largest contig	361583	361583
Total length	5404777	5405836
Total length (>= 0 bp)	5404973	5405836
Total length (>= 1000 bp)	5326790	5329818
Reference length	5594470	5594470
N50	146427	149651
NG50	144818	149651
N75	76385	77304
NG75	53593	76385
L50	12	12
LG50	13	12
L75	25	24
LG75	27	25
#local misassemblies	12	17
#misassemblies	6	6
#misassembled contigs	5	5
Misassembled contigs length	215668	215668
Misassemblies inter-contig overlap	64260	64260
#unaligned contigs	82 + 3 part	82 + 4 part
Unaligned contigs length	26613	26659
#ambiguously mapped contigs	84	80
Extra bases in ambiguously mapped contigs	-72987	-67257
#N's	123	986
#N's per 100 kbp	2.28	18.24
Genome fraction (%)	94.808	94.915
Duplication ratio	1.012	1.012
#genes	5032 + 140 part	5040 + 136 part
#predicted genes (unique)	5382	5374
#predicted genes (>= 0 bp)	5382	5374
#predicted genes (>= 300 bp)	4477	4473
#predicted genes (>= 1500 bp)	673	673
#predicted genes (>= 3000 bp)	69	69
#mismatches	246	264
#indels	59	77
Indels length	516	647
#mismatches per 100 kbp	4.64	4.97
#indels per 100 kbp	1.11	1.45
GC (%)	50.28	50.28
Reference GC (%)	50.48	50.48
Average %IDY	98.596	98.587
Largest alignment	361578	361578
NA50	146336	148203
NGA50	144818	148203
NA75	76385	77304
NGA75	46481	75471
LA50	12	12
LGA50	13	12
LA75	25	24
LGA75	28	26
#Mis_misassemblies	6	6
#Mis_relocations	6	6
#Mis_translocations	0	0
#Mis_inversions	0	0
#Mis_misassembled contigs	5	5
Mis_Misassembled contigs length	215668	215668
#Mis_local misassemblies	12	17
#Mis_short indels (<= 5 bp)	50	64
#Mis_long indels (> 5 bp)	9	13
#Una_fully unaligned contigs	82	82
Una_Fully unaligned length	26460	26460
#Una_partially unaligned contigs	3	4
#Una_with misassembly	0	0
#Una_both parts are significant	0	0
Una_Partially unaligned length	153	199
GAGE_Contigs #	365	353
GAGE_Min contig	200	200
GAGE_Max contig	361583	361583
GAGE_N50	144818 COUNT: 13	149651 COUNT: 12
GAGE_Genome size	5594470	5594470
GAGE_Assembly size	5404777	5405836
GAGE_Chaff bases	0	0
GAGE_Missing reference bases	14583(0.26%)	13948(0.25%)
GAGE_Missing assembly bases	26746(0.49%)	27587(0.51%)
GAGE_Missing assembly contigs	82(22.47%)	82(23.23%)
GAGE_Duplicated reference bases	17570	17492
GAGE_Compressed reference bases	248228	248746
GAGE_Bad trim	157	532
GAGE_Avg idy	99.99	99.99
GAGE_SNPs	114	127
GAGE_Indels < 5bp	14	16
GAGE_Indels >= 5	16	24
GAGE_Inversions	0	1
GAGE_Relocation	5	5
GAGE_Translocation	0	0
GAGE_Corrected contig #	267	266
GAGE_Corrected assembly size	5363150	5363279
GAGE_Min correct contig	207	207
GAGE_Max correct contig	351960	351960
GAGE_Corrected N50	105022 COUNT: 17	105022 COUNT: 17
