All statistics are based on contigs of size >= 200 bp, unless otherwise noted (e.g., "# contigs (>= 0 bp)" and "Total length (>= 0 bp)" include all contigs).

Assembly                         CLC_MIS_PE_sakai_mis-1_bi_2x250bp_SI_default__sakai_mis-2_bi_2x250bp_SI_default.31coverage.result_broken  CLC_MIS_PE_sakai_mis-1_bi_2x250bp_SI_default__sakai_mis-2_bi_2x250bp_SI_default.31coverage.result
GAGE_Contigs #                   365                                                                                                       353                                                                                              
GAGE_Min contig                  200                                                                                                       200                                                                                              
GAGE_Max contig                  361583                                                                                                    361583                                                                                           
GAGE_N50                         144818 COUNT: 13                                                                                          149651 COUNT: 12                                                                                 
GAGE_Genome size                 5594470                                                                                                   5594470                                                                                          
GAGE_Assembly size               5404777                                                                                                   5405836                                                                                          
GAGE_Chaff bases                 0                                                                                                         0                                                                                                
GAGE_Missing reference bases     14583(0.26%)                                                                                              13948(0.25%)                                                                                     
GAGE_Missing assembly bases      26746(0.49%)                                                                                              27587(0.51%)                                                                                     
GAGE_Missing assembly contigs    82(22.47%)                                                                                                82(23.23%)                                                                                       
GAGE_Duplicated reference bases  17570                                                                                                     17492                                                                                            
GAGE_Compressed reference bases  248228                                                                                                    248746                                                                                           
GAGE_Bad trim                    157                                                                                                       532                                                                                              
GAGE_Avg idy                     99.99                                                                                                     99.99                                                                                            
GAGE_SNPs                        114                                                                                                       127                                                                                              
GAGE_Indels < 5bp                14                                                                                                        16                                                                                               
GAGE_Indels >= 5                 16                                                                                                        24                                                                                               
GAGE_Inversions                  0                                                                                                         1                                                                                                
GAGE_Relocation                  5                                                                                                         5                                                                                                
GAGE_Translocation               0                                                                                                         0                                                                                                
GAGE_Corrected contig #          267                                                                                                       266                                                                                              
GAGE_Corrected assembly size     5363150                                                                                                   5363279                                                                                          
GAGE_Min correct contig          207                                                                                                       207                                                                                              
GAGE_Max correct contig          351960                                                                                                    351960                                                                                           
GAGE_Corrected N50               105022 COUNT: 17                                                                                          105022 COUNT: 17                                                                                 
