1: PREPARING DATA
2,3: RUNNING mummer AND CREATING CLUSTERS
# reading input file "/vol/codine-tmp/juene/tmp.lzJs5Fsm2B/quast/gage/tmp/VELVET_PGM_sakai_pgm_mu_318_400bp_IO_TS3.4_ms_0.395percent_59.final.contigs.ntref" of length 5594473
# construct suffix tree for sequence of length 5594473
# (maximum reference length is 536870908)
# (maximum query length is 4294967295)
# process 55944 characters per dot
#....................................................................................................
# CONSTRUCTIONTIME /vol/ngscomparison/software/analysis/quast-2.1/libs/MUMmer3.23-linux/mummer /vol/codine-tmp/juene/tmp.lzJs5Fsm2B/quast/gage/tmp/VELVET_PGM_sakai_pgm_mu_318_400bp_IO_TS3.4_ms_0.395percent_59.final.contigs.ntref 3.94
# reading input file "/vol/codine-tmp/juene/tmp.lzJs5Fsm2B/quast/corrected_input/VELVET_PGM_sakai_pgm_mu_318_400bp_IO_TS3.4_ms_0.395percent_59.final.contigs" of length 1985944
# matching query-file "/vol/codine-tmp/juene/tmp.lzJs5Fsm2B/quast/corrected_input/VELVET_PGM_sakai_pgm_mu_318_400bp_IO_TS3.4_ms_0.395percent_59.final.contigs"
# against subject-file "/vol/codine-tmp/juene/tmp.lzJs5Fsm2B/quast/gage/tmp/VELVET_PGM_sakai_pgm_mu_318_400bp_IO_TS3.4_ms_0.395percent_59.final.contigs.ntref"
# COMPLETETIME /vol/ngscomparison/software/analysis/quast-2.1/libs/MUMmer3.23-linux/mummer /vol/codine-tmp/juene/tmp.lzJs5Fsm2B/quast/gage/tmp/VELVET_PGM_sakai_pgm_mu_318_400bp_IO_TS3.4_ms_0.395percent_59.final.contigs.ntref 6.44
# SPACE /vol/ngscomparison/software/analysis/quast-2.1/libs/MUMmer3.23-linux/mummer /vol/codine-tmp/juene/tmp.lzJs5Fsm2B/quast/gage/tmp/VELVET_PGM_sakai_pgm_mu_318_400bp_IO_TS3.4_ms_0.395percent_59.final.contigs.ntref 7.58
4: FINISHING DATA
Filtering alignments
Extracting alignment coordinates
Analyzing SNPs
Extracting alignment breakpoints
Generating report file
Found genome size at position 4 with value 5594470 aka 5594470
Calculating point at 0 and the sum is 1000010 and i is4145 and lens is 6706 and length is 290
