All statistics are based on contigs of size >= 200 bp, unless otherwise noted (e.g., "# contigs (>= 0 bp)" and "Total length (>= 0 bp)" include all contigs).

Assembly                          CLC_MIS_PE_sakai_mis-1_bi_2x250bp_SI_default__sakai_mis-2_bi_2x250bp_SI_default.81coverage.result_broken  CLC_MIS_PE_sakai_mis-1_bi_2x250bp_SI_default__sakai_mis-2_bi_2x250bp_SI_default.81coverage.result
#Una_fully unaligned contigs      206                                                                                                       207                                                                                              
Una_Fully unaligned length        60455                                                                                                     60759                                                                                            
#Una_partially unaligned contigs  6                                                                                                         6                                                                                                
#Una_with misassembly             0                                                                                                         0                                                                                                
#Una_both parts are significant   1                                                                                                         1                                                                                                
Una_Partially unaligned length    667                                                                                                       667                                                                                              
#N's                              35                                                                                                        1345                                                                                             
