Assembly	CLC_PGM_mtbh37_pgm_200bp_es_IonOne_tsv2.0_morestringent.0.550percent.result
#Contigs	4760
#Contigs (>= 0 bp)	4760
#Contigs (>= 1000 bp)	1135
Largest contig	8609
Total length	3744321
Total length (>= 0 bp)	3744321
Total length (>= 1000 bp)	2066741
Reference length	4411532
N50	1132
NG50	893
N75	567
NG75	373
L50	953
LG50	1283
L75	2125
LG75	3225
#local misassemblies	35
#misassemblies	731
#misassembled contigs	686
Misassembled contigs length	735966
Misassemblies inter-contig overlap	9003
#unaligned contigs	9 + 690 part
Unaligned contigs length	37000
#ambiguously mapped contigs	15
Extra bases in ambiguously mapped contigs	-6965
#N's	2529
#N's per 100 kbp	67.54
Genome fraction (%)	79.610
Duplication ratio	1.056
#genes	1187 + 2716 part
#predicted genes (unique)	7762
#predicted genes (>= 0 bp)	7765
#predicted genes (>= 300 bp)	3936
#predicted genes (>= 1500 bp)	53
#predicted genes (>= 3000 bp)	0
#mismatches	1784
#indels	5288
Indels length	5676
#mismatches per 100 kbp	50.80
#indels per 100 kbp	150.57
GC (%)	64.70
Reference GC (%)	65.61
Average %IDY	99.687
Largest alignment	7068
NA50	1044
NGA50	814
NA75	492
NGA75	312
LA50	1022
LGA50	1387
LA75	2342
LGA75	3619
#Mis_misassemblies	731
#Mis_relocations	168
#Mis_translocations	0
#Mis_inversions	563
#Mis_misassembled contigs	686
Mis_Misassembled contigs length	735966
#Mis_local misassemblies	35
#Mis_short indels (<= 5 bp)	5280
#Mis_long indels (> 5 bp)	8
#Una_fully unaligned contigs	9
Una_Fully unaligned length	5510
#Una_partially unaligned contigs	690
#Una_with misassembly	0
#Una_both parts are significant	4
Una_Partially unaligned length	31490
GAGE_Contigs #	4760
GAGE_Min contig	200
GAGE_Max contig	8609
GAGE_N50	893 COUNT: 1283
GAGE_Genome size	4411532
GAGE_Assembly size	3744321
GAGE_Chaff bases	0
GAGE_Missing reference bases	852065(19.31%)
GAGE_Missing assembly bases	40958(1.09%)
GAGE_Missing assembly contigs	6(0.13%)
GAGE_Duplicated reference bases	83647
GAGE_Compressed reference bases	42413
GAGE_Bad trim	34791
GAGE_Avg idy	99.78
GAGE_SNPs	1329
GAGE_Indels < 5bp	4807
GAGE_Indels >= 5	19
GAGE_Inversions	241
GAGE_Relocation	36
GAGE_Translocation	0
GAGE_Corrected contig #	4748
GAGE_Corrected assembly size	3599784
GAGE_Min correct contig	200
GAGE_Max correct contig	7075
GAGE_Corrected N50	811 COUNT: 1393
