Assembly	ABYSS_PE_PGM_sakai_pgm_mu_318_400bp_IO_TS3.4_ms_0.395percent_122-unitigs
#Contigs (>= 0 bp)	3922
#Contigs (>= 1000 bp)	722
Total length (>= 0 bp)	5886286
Total length (>= 1000 bp)	5134446
#Contigs	2656
Largest contig	49534
Total length	5692580
Reference length	5594470
GC (%)	50.49
Reference GC (%)	50.48
N50	10292
NG50	10581
N75	4749
NG75	5094
#misassemblies	7
#local misassemblies	3
#unaligned contigs	1 + 7 part
Unaligned contigs length	466
Genome fraction (%)	94.568
Duplication ratio	1.043
#N's per 100 kbp	0.00
#mismatches per 100 kbp	1.00
#indels per 100 kbp	8.73
#genes	4453 + 721 part
#predicted genes (unique)	7345
#predicted genes (>= 0 bp)	7402
#predicted genes (>= 300 bp)	4700
#predicted genes (>= 1500 bp)	584
#predicted genes (>= 3000 bp)	51
Largest alignment	49534
NA50	10292
NGA50	10581
NA75	4685
NGA75	5051
