1: PREPARING DATA
2,3: RUNNING mummer AND CREATING CLUSTERS
# reading input file "/vol/codine-tmp/juene/tmp.qhQuLKj2Zl/quast/contigs_reports/nucmer_output/CLC_MIS_PE_mrsa_mis-1_bi_2x150bp_default__mrsa_mis-2_bi_2x150bp_default.31coverage.result.ntref" of length 2813864
# construct suffix tree for sequence of length 2813864
# (maximum reference length is 536870908)
# (maximum query length is 4294967295)
# process 28138 characters per dot
#....................................................................................................
# CONSTRUCTIONTIME /vol/ngscomparison/software/analysis/quast-2.1/libs/MUMmer3.23-linux/mummer /vol/codine-tmp/juene/tmp.qhQuLKj2Zl/quast/contigs_reports/nucmer_output/CLC_MIS_PE_mrsa_mis-1_bi_2x150bp_default__mrsa_mis-2_bi_2x150bp_default.31coverage.result.ntref 2.11
# reading input file "/vol/codine-tmp/juene/tmp.qhQuLKj2Zl/quast/corrected_input/CLC_MIS_PE_mrsa_mis-1_bi_2x150bp_default__mrsa_mis-2_bi_2x150bp_default.31coverage.result" of length 2775517
# matching query-file "/vol/codine-tmp/juene/tmp.qhQuLKj2Zl/quast/corrected_input/CLC_MIS_PE_mrsa_mis-1_bi_2x150bp_default__mrsa_mis-2_bi_2x150bp_default.31coverage.result"
# against subject-file "/vol/codine-tmp/juene/tmp.qhQuLKj2Zl/quast/contigs_reports/nucmer_output/CLC_MIS_PE_mrsa_mis-1_bi_2x150bp_default__mrsa_mis-2_bi_2x150bp_default.31coverage.result.ntref"
# COMPLETETIME /vol/ngscomparison/software/analysis/quast-2.1/libs/MUMmer3.23-linux/mummer /vol/codine-tmp/juene/tmp.qhQuLKj2Zl/quast/contigs_reports/nucmer_output/CLC_MIS_PE_mrsa_mis-1_bi_2x150bp_default__mrsa_mis-2_bi_2x150bp_default.31coverage.result.ntref 6.35
# SPACE /vol/ngscomparison/software/analysis/quast-2.1/libs/MUMmer3.23-linux/mummer /vol/codine-tmp/juene/tmp.qhQuLKj2Zl/quast/contigs_reports/nucmer_output/CLC_MIS_PE_mrsa_mis-1_bi_2x150bp_default__mrsa_mis-2_bi_2x150bp_default.31coverage.result.ntref 5.42
4: FINISHING DATA
