Assembly	VELVET_MIS_PE_sakai_mis-1_bi_2x150bp_default__sakai_mis-2_bi_2x150bp_default.0.826percent_105.final.contigs_broken	VELVET_MIS_PE_sakai_mis-1_bi_2x150bp_default__sakai_mis-2_bi_2x150bp_default.0.826percent_105.final.contigs
#Contigs	594	422
#Contigs (>= 0 bp)	602	422
#Contigs (>= 1000 bp)	264	126
Largest contig	142951	484862
Total length	5453866	5467306
Total length (>= 0 bp)	5454782	5467306
Total length (>= 1000 bp)	5334400	5363611
Reference length	5594470	5594470
N50	49504	148396
NG50	46530	148396
N75	22863	81289
NG75	20878	77852
L50	37	12
LG50	39	12
L75	77	24
LG75	81	25
#local misassemblies	2	76
#misassemblies	3	20
#misassembled contigs	3	13
Misassembled contigs length	102063	1099203
Misassemblies inter-contig overlap	373	2198
#unaligned contigs	1 + 0 part	1 + 0 part
Unaligned contigs length	5385	5385
#ambiguously mapped contigs	270	264
Extra bases in ambiguously mapped contigs	-118277	-112916
#N's	0	12524
#N's per 100 kbp	0.00	229.07
Genome fraction (%)	95.233	95.364
Duplication ratio	1.001	1.003
#genes	4965 + 260 part	5039 + 192 part
#predicted genes (unique)	5605	5548
#predicted genes (>= 0 bp)	5620	5564
#predicted genes (>= 300 bp)	4562	4544
#predicted genes (>= 1500 bp)	659	661
#predicted genes (>= 3000 bp)	65	65
#mismatches	100	135
#indels	16	1917
Indels length	21	3658
#mismatches per 100 kbp	1.88	2.53
#indels per 100 kbp	0.30	35.93
GC (%)	50.35	50.35
Reference GC (%)	50.48	50.48
Average %IDY	98.838	98.819
Largest alignment	142951	314187
NA50	49504	145665
NGA50	46530	145170
NA75	22863	74125
NGA75	20344	71914
LA50	37	14
LGA50	39	15
LA75	77	28
LGA75	82	29
#Mis_misassemblies	3	20
#Mis_relocations	3	20
#Mis_translocations	0	0
#Mis_inversions	0	0
#Mis_misassembled contigs	3	13
Mis_Misassembled contigs length	102063	1099203
#Mis_local misassemblies	2	76
#Mis_short indels (<= 5 bp)	15	1866
#Mis_long indels (> 5 bp)	1	51
#Una_fully unaligned contigs	1	1
Una_Fully unaligned length	5385	5385
#Una_partially unaligned contigs	0	0
#Una_with misassembly	0	0
#Una_both parts are significant	0	0
Una_Partially unaligned length	0	0
GAGE_Contigs #	594	422
GAGE_Min contig	202	209
GAGE_Max contig	142951	484862
GAGE_N50	46530 COUNT: 39	148396 COUNT: 12
GAGE_Genome size	5594470	5594470
GAGE_Assembly size	5453866	5467306
GAGE_Chaff bases	0	0
GAGE_Missing reference bases	4778(0.09%)	4889(0.09%)
GAGE_Missing assembly bases	5406(0.10%)	17936(0.33%)
GAGE_Missing assembly contigs	1(0.17%)	1(0.24%)
GAGE_Duplicated reference bases	18767	15595
GAGE_Compressed reference bases	243671	238285
GAGE_Bad trim	21	835
GAGE_Avg idy	100.00	100.00
GAGE_SNPs	50	49
GAGE_Indels < 5bp	14	39
GAGE_Indels >= 5	2	121
GAGE_Inversions	0	16
GAGE_Relocation	3	10
GAGE_Translocation	0	0
GAGE_Corrected contig #	539	540
GAGE_Corrected assembly size	5430722	5434563
GAGE_Min correct contig	209	209
GAGE_Max correct contig	142950	174093
GAGE_Corrected N50	46530 COUNT: 39	49227 COUNT: 37
