All statistics are based on contigs of size >= 200 bp, unless otherwise noted (e.g., "# contigs (>= 0 bp)" and "Total length (>= 0 bp)" include all contigs).

Assembly                       VELVET_MIS_PE_sakai_mis-1_bi_2x150bp_default__sakai_mis-2_bi_2x150bp_default.0.826percent_105.final.contigs_broken  VELVET_MIS_PE_sakai_mis-1_bi_2x150bp_default__sakai_mis-2_bi_2x150bp_default.0.826percent_105.final.contigs
#Contigs (>= 0 bp)             602                                                                                                                 422                                                                                                        
#Contigs (>= 1000 bp)          264                                                                                                                 126                                                                                                        
Total length (>= 0 bp)         5454782                                                                                                             5467306                                                                                                    
Total length (>= 1000 bp)      5334400                                                                                                             5363611                                                                                                    
#Contigs                       594                                                                                                                 422                                                                                                        
Largest contig                 142951                                                                                                              484862                                                                                                     
Total length                   5453866                                                                                                             5467306                                                                                                    
Reference length               5594470                                                                                                             5594470                                                                                                    
GC (%)                         50.35                                                                                                               50.35                                                                                                      
Reference GC (%)               50.48                                                                                                               50.48                                                                                                      
N50                            49504                                                                                                               148396                                                                                                     
NG50                           46530                                                                                                               148396                                                                                                     
N75                            22863                                                                                                               81289                                                                                                      
NG75                           20878                                                                                                               77852                                                                                                      
#misassemblies                 3                                                                                                                   20                                                                                                         
#local misassemblies           2                                                                                                                   76                                                                                                         
#unaligned contigs             1 + 0 part                                                                                                          1 + 0 part                                                                                                 
Unaligned contigs length       5385                                                                                                                5385                                                                                                       
Genome fraction (%)            95.233                                                                                                              95.364                                                                                                     
Duplication ratio              1.001                                                                                                               1.003                                                                                                      
#N's per 100 kbp               0.00                                                                                                                229.07                                                                                                     
#mismatches per 100 kbp        1.88                                                                                                                2.53                                                                                                       
#indels per 100 kbp            0.30                                                                                                                35.93                                                                                                      
#genes                         4965 + 260 part                                                                                                     5039 + 192 part                                                                                            
#predicted genes (unique)      5605                                                                                                                5548                                                                                                       
#predicted genes (>= 0 bp)     5620                                                                                                                5564                                                                                                       
#predicted genes (>= 300 bp)   4562                                                                                                                4544                                                                                                       
#predicted genes (>= 1500 bp)  659                                                                                                                 661                                                                                                        
#predicted genes (>= 3000 bp)  65                                                                                                                  65                                                                                                         
Largest alignment              142951                                                                                                              314187                                                                                                     
NA50                           49504                                                                                                               145665                                                                                                     
NGA50                          46530                                                                                                               145170                                                                                                     
NA75                           22863                                                                                                               74125                                                                                                      
NGA75                          20344                                                                                                               71914                                                                                                      
