Assembly	GAGE_Contigs #	GAGE_Min contig	GAGE_Max contig	GAGE_N50	GAGE_Genome size	GAGE_Assembly size	GAGE_Chaff bases	GAGE_Missing reference bases	GAGE_Missing assembly bases	GAGE_Missing assembly contigs	GAGE_Duplicated reference bases	GAGE_Compressed reference bases	GAGE_Bad trim	GAGE_Avg idy	GAGE_SNPs	GAGE_Indels < 5bp	GAGE_Indels >= 5	GAGE_Inversions	GAGE_Relocation	GAGE_Translocation	GAGE_Corrected contig #	GAGE_Corrected assembly size	GAGE_Min correct contig	GAGE_Max correct contig	GAGE_Corrected N50
ABYSS_PE_MIS_PE_mrsa_mis-1_bi_2x250bp_default__mrsa_mis-2_bi_2x250bp_default.0.460percent_62-scaffolds_broken	146	200	148091	52284 COUNT: 16	2813862	2769391	0	11808(0.42%)	62(0.00%)	0(0.00%)	927	39548	61	99.99	74	7	3	1	1	0	148	2771748	205	148091	52284 COUNT: 16
ABYSS_PE_MIS_PE_mrsa_mis-1_bi_2x250bp_default__mrsa_mis-2_bi_2x250bp_default.0.460percent_62-scaffolds	128	200	148091	52786 COUNT: 15	2813862	2770270	0	12006(0.43%)	1268(0.05%)	0(0.00%)	1037	39481	429	99.99	74	12	16	1	2	0	145	2771200	205	148091	52284 COUNT: 16
