Assembly	#Contigs (>= 0 bp)	#Contigs (>= 1000 bp)	Total length (>= 0 bp)	Total length (>= 1000 bp)	#Contigs	Largest contig	Total length	Reference length	GC (%)	Reference GC (%)	N50	NG50	N75	NG75	#misassemblies	#local misassemblies	#unaligned contigs	Unaligned contigs length	Genome fraction (%)	Duplication ratio	#N's per 100 kbp	#mismatches per 100 kbp	#indels per 100 kbp	#genes	#predicted genes (unique)	#predicted genes (>= 0 bp)	#predicted genes (>= 300 bp)	#predicted genes (>= 1500 bp)	#predicted genes (>= 3000 bp)	Largest alignment	NA50	NGA50	NA75	NGA75
ABYSS_PE_MIS_PE_mrsa_mis-1_bi_2x250bp_default__mrsa_mis-2_bi_2x250bp_default.0.460percent_62-scaffolds_broken	556	92	2811675	2746463	146	148091	2769391	2813862	32.65	32.81	52284	52284	30913	30287	1	1	0 + 1 part	59	98.094	1.002	0.18	3.41	0.33	2606 + 58 part	2668	2668	2278	298	29	148091	52284	52284	30913	29131
ABYSS_PE_MIS_PE_mrsa_mis-1_bi_2x250bp_default__mrsa_mis-2_bi_2x250bp_default.0.460percent_62-scaffolds	538	88	2812554	2752843	128	148091	2770270	2813862	32.65	32.81	52786	52786	33745	31880	3	5	2 + 0 part	1365	98.183	1.003	31.91	4.63	1.70	2609 + 57 part	2660	2660	2279	298	29	148091	52786	52786	31880	30913
