Assembly	#Contigs (>= 0 bp)	#Contigs (>= 1000 bp)	Total length (>= 0 bp)	Total length (>= 1000 bp)	#Contigs	Largest contig	Total length	Reference length	GC (%)	Reference GC (%)	N50	NG50	N75	NG75	#misassemblies	#local misassemblies	#unaligned contigs	Unaligned contigs length	Genome fraction (%)	Duplication ratio	#N's per 100 kbp	#mismatches per 100 kbp	#indels per 100 kbp	#genes	#predicted genes (unique)	#predicted genes (>= 0 bp)	#predicted genes (>= 300 bp)	#predicted genes (>= 1500 bp)	#predicted genes (>= 3000 bp)	Largest alignment	NA50	NGA50	NA75	NGA75
VELVET_MIS_PE_sakai_mis-1_bi_2x150bp_default__sakai_mis-2_bi_2x150bp_default.0.826percent_27.final.contigs_broken	1499	390	5344293	5157389	647	64793	5268908	5594470	50.27	50.48	24355	22813	12956	10825	6	17	1 + 0 part	5412	92.514	1.001	0.00	20.31	2.36	4650 + 354 part	5394	5396	4450	635	58	64793	24355	22813	12562	10710
VELVET_MIS_PE_sakai_mis-1_bi_2x150bp_default__sakai_mis-2_bi_2x150bp_default.0.826percent_27.final.contigs	1176	140	5356381	5199499	343	364665	5283502	5594470	50.27	50.48	99615	98696	44545	41122	14	101	2 + 2 part	7769	92.629	1.002	228.79	20.55	21.38	4812 + 193 part	5302	5304	4425	641	62	226332	99545	95294	42872	39367
