calling: java -cp /vol/ngscomparison/software/analysis/quast-2.1/libs/gage:. SizeFasta /vol/codine-tmp/juene/tmp.gOeCqrQLQJ/quast/corrected_input/Ecoli_Sakai_editedNew_plasmids.fasta |awk '{SUM+=; print SUM}'|tail -n 1
Contig Stats
Total units: 5368
Reference: 5594470
BasesInFasta: 3173963
Min: 200
Max: 5853
N10: 1081 COUNT: 395
N25: 705 COUNT: 1385
N50: 371 COUNT: 4135
N75: 0 COUNT: 0
E-size:437.18

Genome Size: 5594470
Assembly Size: 3173963
Chaff bases: 0
Missing Reference Bases: 2148414(38.40%)
Missing Assembly Bases: 8569(0.27%)
Missing Assembly Contigs: 4(0.07%)
Duplicated Reference Bases: 11184
Compressed Reference Bases: 289056
Bad Trim: 5562
Avg Idy: 99.81
SNPs: 1286
Indels < 5bp: 4266
Indels >= 5: 13
Inversions: 45
Relocation: 5
Translocation: 0

Corrected Contig Stats
calling: java -cp /vol/ngscomparison/software/analysis/quast-2.1/libs/gage:.:. GetFastaStats -o -min 199 -genomeSize 5594470 /vol/codine-tmp/juene/tmp.gOeCqrQLQJ/quast/gage/tmp/NEWBLER_PGM_sakai_pgm_mu_200bp_IO_TS3.0Disabled_stringent.0.025percent.contigs.matches.lens 2> /dev/null
Total units: 5383
Reference: 5594470
BasesInFasta: 3158642
Min: 200
Max: 5855
N10: 1077 COUNT: 398
N25: 697 COUNT: 1396
N50: 364 COUNT: 4181
N75: 0 COUNT: 0
E-size:431.98

Done
