Assembly	VELVET_PGM_sakai_pgm_mu_200bp_IO_TS3.0Disabled_stringent.0.34percent_143.final.contigs
#Contigs (>= 0 bp)	3654
#Contigs (>= 1000 bp)	1831
Total length (>= 0 bp)	4794688
Total length (>= 1000 bp)	3594748
#Contigs	3654
Largest contig	11126
Total length	4794688
Reference length	5594470
GC (%)	50.98
Reference GC (%)	50.48
N50	1654
NG50	1400
N75	999
NG75	714
#misassemblies	26
#local misassemblies	13
#unaligned contigs	0 + 52 part
Unaligned contigs length	1758
Genome fraction (%)	81.751
Duplication ratio	1.032
#N's per 100 kbp	6.47
#mismatches per 100 kbp	8.79
#indels per 100 kbp	63.17
#genes	2284 + 2556 part
#predicted genes (unique)	7581
#predicted genes (>= 0 bp)	7593
#predicted genes (>= 300 bp)	5176
#predicted genes (>= 1500 bp)	204
#predicted genes (>= 3000 bp)	6
Largest alignment	11126
NA50	1645
NGA50	1391
NA75	988
NGA75	692
