calling: java -cp /vol/ngscomparison/software/analysis/quast-2.1/libs/gage:. SizeFasta /vol/codine-tmp/juene/tmp.t5WZCLKySe/quast/corrected_input/Mycobacterium_tuberculosis_H37Rv.fasta |awk '{SUM+=; print SUM}'|tail -n 1
Contig Stats
Total units: 2749
Reference: 4411532
BasesInFasta: 2590423
Min: 321
Max: 5697
N10: 2129 COUNT: 161
N25: 1302 COUNT: 567
N50: 572 COUNT: 1835
N75: 0 COUNT: 0
E-size:808.76

Genome Size: 4411532
Assembly Size: 2590423
Chaff bases: 0
Missing Reference Bases: 1937815(43.93%)
Missing Assembly Bases: 158(0.01%)
Missing Assembly Contigs: 0(0.00%)
Duplicated Reference Bases: 58308
Compressed Reference Bases: 28103
Bad Trim: 98
Avg Idy: 99.94
SNPs: 53
Indels < 5bp: 1264
Indels >= 5: 6
Inversions: 1
Relocation: 9
Translocation: 0

Corrected Contig Stats
calling: java -cp /vol/ngscomparison/software/analysis/quast-2.1/libs/gage:.:. GetFastaStats -o -min 199 -genomeSize 4411532 /vol/codine-tmp/juene/tmp.t5WZCLKySe/quast/gage/tmp/VELVET_PGM_mtbh37_pgm_400bp_es_318v2_OT2_tsv3.6_morestringent_161.final.contigs.matches.lens 2> /dev/null
Total units: 2627
Reference: 4411532
BasesInFasta: 2532924
Min: 239
Max: 5697
N10: 2112 COUNT: 161
N25: 1293 COUNT: 570
N50: 563 COUNT: 1847
N75: 0 COUNT: 0
E-size:799.78

Done
