All statistics are based on contigs of size >= 200 bp, unless otherwise noted (e.g., "# contigs (>= 0 bp)" and "Total length (>= 0 bp)" include all contigs).

Assembly                         NEWBLER_MIS_PE_sakai_mis-2_bi_2x150bp_default__sakai_mis-1_bi_2x150bp_default.0.600percent.contigs_broken  NEWBLER_MIS_PE_sakai_mis-2_bi_2x150bp_default__sakai_mis-1_bi_2x150bp_default.0.600percent.contigs
GAGE_Contigs #                   172                                                                                                        91                                                                                                
GAGE_Min contig                  506                                                                                                        2390                                                                                              
GAGE_Max contig                  259768                                                                                                     376269                                                                                            
GAGE_N50                         93542 COUNT: 20                                                                                            147337 COUNT: 13                                                                                  
GAGE_Genome size                 5594470                                                                                                    5594470                                                                                           
GAGE_Assembly size               5224509                                                                                                    5290702                                                                                           
GAGE_Chaff bases                 0                                                                                                          0                                                                                                 
GAGE_Missing reference bases     245102(4.38%)                                                                                              245102(4.38%)                                                                                     
GAGE_Missing assembly bases      5388(0.10%)                                                                                                71581(1.35%)                                                                                      
GAGE_Missing assembly contigs    1(0.58%)                                                                                                   1(1.10%)                                                                                          
GAGE_Duplicated reference bases  0                                                                                                          0                                                                                                 
GAGE_Compressed reference bases  132651                                                                                                     132651                                                                                            
GAGE_Bad trim                    2                                                                                                          1                                                                                                 
GAGE_Avg idy                     100.00                                                                                                     100.00                                                                                            
GAGE_SNPs                        95                                                                                                         95                                                                                                
GAGE_Indels < 5bp                19                                                                                                         19                                                                                                
GAGE_Indels >= 5                 2                                                                                                          66                                                                                                
GAGE_Inversions                  0                                                                                                          8                                                                                                 
GAGE_Relocation                  5                                                                                                          10                                                                                                
GAGE_Translocation               0                                                                                                          0                                                                                                 
GAGE_Corrected contig #          178                                                                                                        178                                                                                               
GAGE_Corrected assembly size     5219308                                                                                                    5219308                                                                                           
GAGE_Min correct contig          506                                                                                                        506                                                                                               
GAGE_Max correct contig          259768                                                                                                     259768                                                                                            
GAGE_Corrected N50               93543 COUNT: 20                                                                                            93543 COUNT: 20                                                                                   
