Assembly	NEWBLER_PGM_mtbh37_pgm_400bp_es_318v2_OT2_tsv3.6_morestringent.0.900percent.contigs
GAGE_Contigs #	214
GAGE_Min contig	207
GAGE_Max contig	182926
GAGE_N50	62664 COUNT: 23
GAGE_Genome size	4411532
GAGE_Assembly size	4297675
GAGE_Chaff bases	0
GAGE_Missing reference bases	64278(1.46%)
GAGE_Missing assembly bases	875(0.02%)
GAGE_Missing assembly contigs	1(0.47%)
GAGE_Duplicated reference bases	238
GAGE_Compressed reference bases	49419
GAGE_Bad trim	20
GAGE_Avg idy	99.98
GAGE_SNPs	121
GAGE_Indels < 5bp	776
GAGE_Indels >= 5	10
GAGE_Inversions	0
GAGE_Relocation	6
GAGE_Translocation	0
GAGE_Corrected contig #	229
GAGE_Corrected assembly size	4300198
GAGE_Min correct contig	208
GAGE_Max correct contig	182947
GAGE_Corrected N50	53879 COUNT: 26
