All statistics are based on contigs of size >= 200 bp, unless otherwise noted (e.g., "# contigs (>= 0 bp)" and "Total length (>= 0 bp)" include all contigs).

Assembly                                                                 #Mis_misassemblies  #Mis_relocations  #Mis_translocations  #Mis_inversions  #Mis_misassembled contigs  Mis_Misassembled contigs length  #Mis_local misassemblies  #mismatches  #indels  #Mis_short indels (<= 5 bp)  #Mis_long indels (> 5 bp)  Indels length
SOAP2_MIS_PE_mtbh37-1_mis_2x250bp_nextera_default_103.final.scaf_broken  3                   3                 0                    0                3                          12126                            24                        590          75       64                           11                         399          
SOAP2_MIS_PE_mtbh37-1_mis_2x250bp_nextera_default_103.final.scaf         5                   5                 0                    0                5                          117341                           706                       601          1512     1425                         87                         3652         
