All statistics are based on contigs of size >= 200 bp, unless otherwise noted (e.g., "# contigs (>= 0 bp)" and "Total length (>= 0 bp)" include all contigs).

Assembly                                                                                                           GAGE_Contigs #  GAGE_Min contig  GAGE_Max contig  GAGE_N50          GAGE_Genome size  GAGE_Assembly size  GAGE_Chaff bases  GAGE_Missing reference bases  GAGE_Missing assembly bases  GAGE_Missing assembly contigs  GAGE_Duplicated reference bases  GAGE_Compressed reference bases  GAGE_Bad trim  GAGE_Avg idy  GAGE_SNPs  GAGE_Indels < 5bp  GAGE_Indels >= 5  GAGE_Inversions  GAGE_Relocation  GAGE_Translocation  GAGE_Corrected contig #  GAGE_Corrected assembly size  GAGE_Min correct contig  GAGE_Max correct contig  GAGE_Corrected N50
VELVET_MIS_PE_mtbh37-1_mis_2x250bp_nextera_default__mtbh37-2_mis_2x250bp_nextera_default_215.final.contigs_broken  3005            429              5035             1213 COUNT: 1172  4411532           3747956             0                 721860(16.36%)                1969(0.05%)                  0(0.00%)                       380                              52324                            1969           99.99         293        21                 1                 0                4                0                   3009                     3746445                       240                      5035                     1211 COUNT: 1174  
VELVET_MIS_PE_mtbh37-1_mis_2x250bp_nextera_default__mtbh37-2_mis_2x250bp_nextera_default_215.final.contigs         2200            429              13360            1932 COUNT: 710   4411532           3884914             0                 721860(16.36%)                138954(3.58%)                0(0.00%)                       380                              52324                            1623           99.99         293        21                 803               0                4                0                   3009                     3746418                       240                      5035                     1211 COUNT: 1174  
