All statistics are based on contigs of size >= 200 bp, unless otherwise noted (e.g., "# contigs (>= 0 bp)" and "Total length (>= 0 bp)" include all contigs).

Assembly                                                                             GAGE_Contigs #  GAGE_Min contig  GAGE_Max contig  GAGE_N50         GAGE_Genome size  GAGE_Assembly size  GAGE_Chaff bases  GAGE_Missing reference bases  GAGE_Missing assembly bases  GAGE_Missing assembly contigs  GAGE_Duplicated reference bases  GAGE_Compressed reference bases  GAGE_Bad trim  GAGE_Avg idy  GAGE_SNPs  GAGE_Indels < 5bp  GAGE_Indels >= 5  GAGE_Inversions  GAGE_Relocation  GAGE_Translocation  GAGE_Corrected contig #  GAGE_Corrected assembly size  GAGE_Min correct contig  GAGE_Max correct contig  GAGE_Corrected N50
NEWBLER_PGM_mrsa_pgm_200bp_es_316_IonOnev2_ts3.0_morestringent.0.925percent.contigs  623             200              28435            7742 COUNT: 116  2813862           2717651             0                 69443(2.47%)                  286(0.01%)                   1(0.16%)                       2276                             30608                            49             99.99         34         321                3                 3                2                0                   612                      2714949                       200                      28437                    7626 COUNT: 117   
