Assembly	CLC_MIS_PE_mrsa_mis-1_bi_2x250bp_default__mrsa_mis-2_bi_2x250bp_default.0.450percent.result_broken	CLC_MIS_PE_mrsa_mis-1_bi_2x250bp_default__mrsa_mis-2_bi_2x250bp_default.0.450percent.result
#Contigs (>= 0 bp)	271	269
#Contigs (>= 1000 bp)	36	36
Total length (>= 0 bp)	2842822	2843027
Total length (>= 1000 bp)	2777423	2777423
#Contigs	269	269
Largest contig	338564	338564
Total length	2842653	2843027
Reference length	2813862	2813862
GC (%)	33.10	33.10
Reference GC (%)	32.81	32.81
N50	159671	159671
NG50	159671	159671
N75	129974	129974
NG75	129974	129974
#misassemblies	2	2
#local misassemblies	1	2
#unaligned contigs	216 + 0 part	217 + 0 part
Unaligned contigs length	63302	63564
Genome fraction (%)	98.467	98.467
Duplication ratio	1.000	1.001
#N's per 100 kbp	0.07	7.53
#mismatches per 100 kbp	1.59	1.59
#indels per 100 kbp	0.36	0.36
#genes	2682 + 22 part	2682 + 22 part
#predicted genes (unique)	2849	2851
#predicted genes (>= 0 bp)	2849	2851
#predicted genes (>= 300 bp)	2304	2304
#predicted genes (>= 1500 bp)	301	301
#predicted genes (>= 3000 bp)	30	30
Largest alignment	338564	338564
NA50	159671	159671
NGA50	159671	159671
NA75	97480	97480
NGA75	109190	109190
