1: PREPARING DATA
2,3: RUNNING mummer AND CREATING CLUSTERS
# reading input file "/vol/codine-tmp/juene/tmp.1bYqnRtqJL/quast/gage/tmp/ABYSS_PE_PGM_sakai_pgm_mu_318_400bp_IO_TS3.4_ms_0.395percent_92-unitigs.ntref" of length 5594473
# construct suffix tree for sequence of length 5594473
# (maximum reference length is 536870908)
# (maximum query length is 4294967295)
# process 55944 characters per dot
#....................................................................................................
# CONSTRUCTIONTIME /vol/ngscomparison/software/analysis/quast-2.1/libs/MUMmer3.23-linux/mummer /vol/codine-tmp/juene/tmp.1bYqnRtqJL/quast/gage/tmp/ABYSS_PE_PGM_sakai_pgm_mu_318_400bp_IO_TS3.4_ms_0.395percent_92-unitigs.ntref 3.90
# reading input file "/vol/codine-tmp/juene/tmp.1bYqnRtqJL/quast/corrected_input/ABYSS_PE_PGM_sakai_pgm_mu_318_400bp_IO_TS3.4_ms_0.395percent_92-unitigs" of length 5324607
# matching query-file "/vol/codine-tmp/juene/tmp.1bYqnRtqJL/quast/corrected_input/ABYSS_PE_PGM_sakai_pgm_mu_318_400bp_IO_TS3.4_ms_0.395percent_92-unitigs"
# against subject-file "/vol/codine-tmp/juene/tmp.1bYqnRtqJL/quast/gage/tmp/ABYSS_PE_PGM_sakai_pgm_mu_318_400bp_IO_TS3.4_ms_0.395percent_92-unitigs.ntref"
# COMPLETETIME /vol/ngscomparison/software/analysis/quast-2.1/libs/MUMmer3.23-linux/mummer /vol/codine-tmp/juene/tmp.1bYqnRtqJL/quast/gage/tmp/ABYSS_PE_PGM_sakai_pgm_mu_318_400bp_IO_TS3.4_ms_0.395percent_92-unitigs.ntref 10.46
# SPACE /vol/ngscomparison/software/analysis/quast-2.1/libs/MUMmer3.23-linux/mummer /vol/codine-tmp/juene/tmp.1bYqnRtqJL/quast/gage/tmp/ABYSS_PE_PGM_sakai_pgm_mu_318_400bp_IO_TS3.4_ms_0.395percent_92-unitigs.ntref 10.62
4: FINISHING DATA
Filtering alignments
Extracting alignment coordinates
Analyzing SNPs
Extracting alignment breakpoints
Generating report file
Found genome size at position 4 with value 5594470 aka 5594470
Calculating point at 0 and the sum is 1020488 and i is1152 and lens is 1183 and length is 26380
Calculating point at 1 and the sum is 2013126 and i is1104 and lens is 1183 and length is 17012
Calculating point at 2 and the sum is 3007087 and i is1028 and lens is 1183 and length is 10211
Calculating point at 3 and the sum is 4004707 and i is903 and lens is 1183 and length is 5994
Calculating point at 4 and the sum is 5001051 and i is591 and lens is 1183 and length is 1445
