1: PREPARING DATA
2,3: RUNNING mummer AND CREATING CLUSTERS
# reading input file "/vol/codine-tmp/juene/tmp.GgsbvCr6DP/quast/gage/tmp/CLC_PGM_sakai_pgm_mu_200bp_IO_TS3.0Disabled_stringent.86coverage.result.ntref" of length 5594473
# construct suffix tree for sequence of length 5594473
# (maximum reference length is 536870908)
# (maximum query length is 4294967295)
# process 55944 characters per dot
#....................................................................................................
# CONSTRUCTIONTIME /vol/ngscomparison/software/analysis/quast-2.1/libs/MUMmer3.23-linux/mummer /vol/codine-tmp/juene/tmp.GgsbvCr6DP/quast/gage/tmp/CLC_PGM_sakai_pgm_mu_200bp_IO_TS3.0Disabled_stringent.86coverage.result.ntref 4.87
# reading input file "/vol/codine-tmp/juene/tmp.GgsbvCr6DP/quast/corrected_input/CLC_PGM_sakai_pgm_mu_200bp_IO_TS3.0Disabled_stringent.86coverage.result" of length 5386212
# matching query-file "/vol/codine-tmp/juene/tmp.GgsbvCr6DP/quast/corrected_input/CLC_PGM_sakai_pgm_mu_200bp_IO_TS3.0Disabled_stringent.86coverage.result"
# against subject-file "/vol/codine-tmp/juene/tmp.GgsbvCr6DP/quast/gage/tmp/CLC_PGM_sakai_pgm_mu_200bp_IO_TS3.0Disabled_stringent.86coverage.result.ntref"
# COMPLETETIME /vol/ngscomparison/software/analysis/quast-2.1/libs/MUMmer3.23-linux/mummer /vol/codine-tmp/juene/tmp.GgsbvCr6DP/quast/gage/tmp/CLC_PGM_sakai_pgm_mu_200bp_IO_TS3.0Disabled_stringent.86coverage.result.ntref 14.04
# SPACE /vol/ngscomparison/software/analysis/quast-2.1/libs/MUMmer3.23-linux/mummer /vol/codine-tmp/juene/tmp.GgsbvCr6DP/quast/gage/tmp/CLC_PGM_sakai_pgm_mu_200bp_IO_TS3.0Disabled_stringent.86coverage.result.ntref 10.66
4: FINISHING DATA
Filtering alignments
Extracting alignment coordinates
Analyzing SNPs
Extracting alignment breakpoints
Generating report file
Found genome size at position 4 with value 5594470 aka 5594470
Calculating point at 0 and the sum is 1014141 and i is715 and lens is 731 and length is 47365
Calculating point at 1 and the sum is 2028651 and i is689 and lens is 731 and length is 33479
Calculating point at 2 and the sum is 3007749 and i is652 and lens is 731 and length is 20972
Calculating point at 3 and the sum is 4004519 and i is589 and lens is 731 and length is 11714
Calculating point at 4 and the sum is 5002544 and i is446 and lens is 731 and length is 2917
