All statistics are based on contigs of size >= 200 bp, unless otherwise noted (e.g., "# contigs (>= 0 bp)" and "Total length (>= 0 bp)" include all contigs).

Assembly                          ABYSS_PE_MIS_PE_mrsa_mis-1_bi_2x150bp_default__mrsa_mis-2_bi_2x150bp_default.0.527percent_32-scaffolds_broken  ABYSS_PE_MIS_PE_mrsa_mis-1_bi_2x150bp_default__mrsa_mis-2_bi_2x150bp_default.0.527percent_32-scaffolds
#Una_fully unaligned contigs      0                                                                                                              2                                                                                                     
Una_Fully unaligned length        0                                                                                                              1994                                                                                                  
#Una_partially unaligned contigs  0                                                                                                              1                                                                                                     
#Una_with misassembly             0                                                                                                              0                                                                                                     
#Una_both parts are significant   0                                                                                                              1                                                                                                     
Una_Partially unaligned length    0                                                                                                              675                                                                                                   
#N's                              66                                                                                                             3756                                                                                                  
