1: PREPARING DATA
2,3: RUNNING mummer AND CREATING CLUSTERS
# reading input file "/vol/codine-tmp/juene/tmp.qwhhYZzbNF/quast/gage/tmp/ABYSS_PE_PGM_sakai_pgm_mu_318_400bp_IO_TS3.4_ms.0.175percent_48.final.ntref" of length 5594473
# construct suffix tree for sequence of length 5594473
# (maximum reference length is 536870908)
# (maximum query length is 4294967295)
# process 55944 characters per dot
#....................................................................................................
# CONSTRUCTIONTIME /vol/ngscomparison/software/analysis/quast-2.1/libs/MUMmer3.23-linux/mummer /vol/codine-tmp/juene/tmp.qwhhYZzbNF/quast/gage/tmp/ABYSS_PE_PGM_sakai_pgm_mu_318_400bp_IO_TS3.4_ms.0.175percent_48.final.ntref 3.04
# reading input file "/vol/codine-tmp/juene/tmp.qwhhYZzbNF/quast/corrected_input/ABYSS_PE_PGM_sakai_pgm_mu_318_400bp_IO_TS3.4_ms.0.175percent_48.final" of length 5246662
# matching query-file "/vol/codine-tmp/juene/tmp.qwhhYZzbNF/quast/corrected_input/ABYSS_PE_PGM_sakai_pgm_mu_318_400bp_IO_TS3.4_ms.0.175percent_48.final"
# against subject-file "/vol/codine-tmp/juene/tmp.qwhhYZzbNF/quast/gage/tmp/ABYSS_PE_PGM_sakai_pgm_mu_318_400bp_IO_TS3.4_ms.0.175percent_48.final.ntref"
# COMPLETETIME /vol/ngscomparison/software/analysis/quast-2.1/libs/MUMmer3.23-linux/mummer /vol/codine-tmp/juene/tmp.qwhhYZzbNF/quast/gage/tmp/ABYSS_PE_PGM_sakai_pgm_mu_318_400bp_IO_TS3.4_ms.0.175percent_48.final.ntref 10.16
# SPACE /vol/ngscomparison/software/analysis/quast-2.1/libs/MUMmer3.23-linux/mummer /vol/codine-tmp/juene/tmp.qwhhYZzbNF/quast/gage/tmp/ABYSS_PE_PGM_sakai_pgm_mu_318_400bp_IO_TS3.4_ms.0.175percent_48.final.ntref 10.54
4: FINISHING DATA
Filtering alignments
Extracting alignment coordinates
Analyzing SNPs
Extracting alignment breakpoints
Generating report file
Found genome size at position 4 with value 5594470 aka 5594470
Calculating point at 0 and the sum is 1003122 and i is969 and lens is 992 and length is 33281
Calculating point at 1 and the sum is 2013611 and i is930 and lens is 992 and length is 21385
Calculating point at 2 and the sum is 3001250 and i is874 and lens is 992 and length is 14785
Calculating point at 3 and the sum is 4005022 and i is781 and lens is 992 and length is 7840
Calculating point at 4 and the sum is 5001223 and i is504 and lens is 992 and length is 1302
