Assembly	VELVET_MIS_PE_mrsa_mis-1_bi_2x250bp_default__mrsa_mis-2_bi_2x250bp_default.0.460percent_29.final.contigs_broken	VELVET_MIS_PE_mrsa_mis-1_bi_2x250bp_default__mrsa_mis-2_bi_2x250bp_default.0.460percent_29.final.contigs
#Contigs (>= 0 bp)	482	433
#Contigs (>= 1000 bp)	158	120
Total length (>= 0 bp)	2770966	2772015
Total length (>= 1000 bp)	2729021	2734582
#Contigs	199	153
Largest contig	76041	144055
Total length	2747564	2748961
Reference length	2813862	2813862
GC (%)	32.65	32.65
Reference GC (%)	32.81	32.81
N50	31056	41747
NG50	30437	41747
N75	17233	21725
NG75	15409	20833
#misassemblies	4	5
#local misassemblies	16	37
#unaligned contigs	3 + 2 part	2 + 1 part
Unaligned contigs length	5547	5472
Genome fraction (%)	96.276	96.323
Duplication ratio	1.001	1.001
#N's per 100 kbp	0.00	38.16
#mismatches per 100 kbp	16.17	16.09
#indels per 100 kbp	4.87	9.19
#genes	2508 + 101 part	2524 + 85 part
#predicted genes (unique)	2677	2663
#predicted genes (>= 0 bp)	2677	2663
#predicted genes (>= 300 bp)	2286	2283
#predicted genes (>= 1500 bp)	297	297
#predicted genes (>= 3000 bp)	27	27
Largest alignment	76041	143774
NA50	31056	40534
NGA50	30437	40525
NA75	16144	20833
NGA75	15334	20449
