Assembly	#Contigs (>= 0 bp)	#Contigs (>= 1000 bp)	Total length (>= 0 bp)	Total length (>= 1000 bp)	#Contigs	Largest contig	Total length	Reference length	GC (%)	Reference GC (%)	N50	NG50	N75	NG75	#misassemblies	#local misassemblies	#unaligned contigs	Unaligned contigs length	Genome fraction (%)	Duplication ratio	#N's per 100 kbp	#mismatches per 100 kbp	#indels per 100 kbp	#genes	#predicted genes (unique)	#predicted genes (>= 0 bp)	#predicted genes (>= 300 bp)	#predicted genes (>= 1500 bp)	#predicted genes (>= 3000 bp)	Largest alignment	NA50	NGA50	NA75	NGA75
SOAP2_MIS_PE_mrsa_mis-1_bi_2x250bp_default.0.460percent_95.final.scaf_broken	1914	162	3048468	2748787	256	73854	2783728	2813862	32.69	32.81	27634	27634	15331	15089	1	13	8 + 2 part	8603	98.252	1.002	3.66	1.63	0.98	2551 + 143 part	2790	2792	2334	286	29	73854	27634	27634	15275	14955
SOAP2_MIS_PE_mrsa_mis-1_bi_2x250bp_default.0.460percent_95.final.scaf	1866	143	3049840	2759330	217	87215	2786501	2813862	32.70	32.81	32442	32259	17947	17914	4	39	9 + 1 part	9853	98.298	1.002	52.90	2.10	6.29	2560 + 132 part	2773	2775	2328	287	29	87191	32442	32201	17914	17022
