1: PREPARING DATA
2,3: RUNNING mummer AND CREATING CLUSTERS
# reading input file "/vol/codine-tmp/juene/tmp.gLVpf91HHz/quast/gage/tmp/CLC_MIS_PE_mtbh37-1_mis_2x250bp_nextera_default__mtbh37-2_mis_2x250bp_nextera_default.0.800percent.result.ntref" of length 4411533
# construct suffix tree for sequence of length 4411533
# (maximum reference length is 536870908)
# (maximum query length is 4294967295)
# process 44115 characters per dot
#....................................................................................................
# CONSTRUCTIONTIME /vol/ngscomparison/software/analysis/quast-2.1/libs/MUMmer3.23-linux/mummer /vol/codine-tmp/juene/tmp.gLVpf91HHz/quast/gage/tmp/CLC_MIS_PE_mtbh37-1_mis_2x250bp_nextera_default__mtbh37-2_mis_2x250bp_nextera_default.0.800percent.result.ntref 2.86
# reading input file "/vol/codine-tmp/juene/tmp.gLVpf91HHz/quast/corrected_input/CLC_MIS_PE_mtbh37-1_mis_2x250bp_nextera_default__mtbh37-2_mis_2x250bp_nextera_default.0.800percent.result" of length 4450993
# matching query-file "/vol/codine-tmp/juene/tmp.gLVpf91HHz/quast/corrected_input/CLC_MIS_PE_mtbh37-1_mis_2x250bp_nextera_default__mtbh37-2_mis_2x250bp_nextera_default.0.800percent.result"
# against subject-file "/vol/codine-tmp/juene/tmp.gLVpf91HHz/quast/gage/tmp/CLC_MIS_PE_mtbh37-1_mis_2x250bp_nextera_default__mtbh37-2_mis_2x250bp_nextera_default.0.800percent.result.ntref"
# COMPLETETIME /vol/ngscomparison/software/analysis/quast-2.1/libs/MUMmer3.23-linux/mummer /vol/codine-tmp/juene/tmp.gLVpf91HHz/quast/gage/tmp/CLC_MIS_PE_mtbh37-1_mis_2x250bp_nextera_default__mtbh37-2_mis_2x250bp_nextera_default.0.800percent.result.ntref 9.67
# SPACE /vol/ngscomparison/software/analysis/quast-2.1/libs/MUMmer3.23-linux/mummer /vol/codine-tmp/juene/tmp.gLVpf91HHz/quast/gage/tmp/CLC_MIS_PE_mtbh37-1_mis_2x250bp_nextera_default__mtbh37-2_mis_2x250bp_nextera_default.0.800percent.result.ntref 8.60
4: FINISHING DATA
Filtering alignments
Extracting alignment coordinates
Analyzing SNPs
Extracting alignment breakpoints
Generating report file
Found genome size at position 4 with value 4411532 aka 4411532
Calculating point at 0 and the sum is 1045299 and i is185 and lens is 192 and length is 109697
Calculating point at 1 and the sum is 2041362 and i is174 and lens is 192 and length is 69293
Calculating point at 2 and the sum is 3010441 and i is158 and lens is 192 and length is 50398
Calculating point at 3 and the sum is 4010183 and i is119 and lens is 192 and length is 15465
