calling: java -cp /vol/ngscomparison/software/analysis/quast-2.1/libs/gage:. SizeFasta /vol/codine-tmp/juene/tmp.w2TrYkIQSL/quast/corrected_input/Ecoli_Sakai_editedNew_plasmids.fasta |awk '{SUM+=; print SUM}'|tail -n 1
Contig Stats
Total units: 254
Reference: 5594470
BasesInFasta: 5485023
Min: 202
Max: 290859
N10: 219503 COUNT: 3
N25: 169468 COUNT: 7
N50: 107867 COUNT: 17
N75: 45521 COUNT: 35
E-size:117325.1

Genome Size: 5594470
Assembly Size: 5485023
Chaff bases: 0
Missing Reference Bases: 37928(0.68%)
Missing Assembly Bases: 12(0.00%)
Missing Assembly Contigs: 0(0.00%)
Duplicated Reference Bases: 13786
Compressed Reference Bases: 201999
Bad Trim: 1
Avg Idy: 99.97
SNPs: 550
Indels < 5bp: 31
Indels >= 5: 11
Inversions: 2
Relocation: 3
Translocation: 1

Corrected Contig Stats
calling: java -cp /vol/ngscomparison/software/analysis/quast-2.1/libs/gage:.:. GetFastaStats -o -min 199 -genomeSize 5594470 /vol/codine-tmp/juene/tmp.w2TrYkIQSL/quast/gage/tmp/ABYSS_PE_MIS_PE_sakai_mis-1_bi_2x150bp_default__sakai_mis-2_bi_2x150bp_default.86coverage_68.final_broken.matches.lens 2> /dev/null
Total units: 252
Reference: 5594470
BasesInFasta: 5479021
Min: 202
Max: 227338
N10: 219503 COUNT: 3
N25: 154964 COUNT: 8
N50: 98911 COUNT: 19
N75: 41122 COUNT: 40
E-size:104229.51

Done
