All statistics are based on contigs of size >= 200 bp, unless otherwise noted (e.g., "# contigs (>= 0 bp)" and "Total length (>= 0 bp)" include all contigs).

Assembly                       CLC_MIS_PE_sakai_mis-1_bi_2x250bp_SI_default__sakai_mis-2_bi_2x250bp_SI_default.0.2percent.result_broken  CLC_MIS_PE_sakai_mis-1_bi_2x250bp_SI_default__sakai_mis-2_bi_2x250bp_SI_default.0.2percent.result
#Contigs (>= 0 bp)             401                                                                                                       371                                                                                              
#Contigs (>= 1000 bp)          177                                                                                                       160                                                                                              
Total length (>= 0 bp)         5400085                                                                                                   5401789                                                                                          
Total length (>= 1000 bp)      5319092                                                                                                   5324000                                                                                          
#Contigs                       391                                                                                                       371                                                                                              
Largest contig                 542829                                                                                                    542829                                                                                           
Total length                   5398912                                                                                                   5401789                                                                                          
Reference length               5594470                                                                                                   5594470                                                                                          
GC (%)                         50.29                                                                                                     50.29                                                                                            
Reference GC (%)               50.48                                                                                                     50.48                                                                                            
N50                            88235                                                                                                     124152                                                                                           
NG50                           84556                                                                                                     124152                                                                                           
N75                            46076                                                                                                     55694                                                                                            
NG75                           43183                                                                                                     51828                                                                                            
#misassemblies                 5                                                                                                         5                                                                                                
#local misassemblies           9                                                                                                         28                                                                                               
#unaligned contigs             69 + 2 part                                                                                               70 + 4 part                                                                                      
Unaligned contigs length       23021                                                                                                     23422                                                                                            
Genome fraction (%)            94.581                                                                                                    94.625                                                                                           
Duplication ratio              1.001                                                                                                     1.001                                                                                            
#N's per 100 kbp               2.43                                                                                                      33.97                                                                                            
#mismatches per 100 kbp        3.23                                                                                                      3.25                                                                                             
#indels per 100 kbp            0.49                                                                                                      0.64                                                                                             
#genes                         4994 + 161 part                                                                                           5001 + 157 part                                                                                  
#predicted genes (unique)      5383                                                                                                      5370                                                                                             
#predicted genes (>= 0 bp)     5387                                                                                                      5374                                                                                             
#predicted genes (>= 300 bp)   4465                                                                                                      4461                                                                                             
#predicted genes (>= 1500 bp)  667                                                                                                       668                                                                                              
#predicted genes (>= 3000 bp)  70                                                                                                        69                                                                                               
Largest alignment              296053                                                                                                    296053                                                                                           
NA50                           88235                                                                                                     124067                                                                                           
NGA50                          84556                                                                                                     124067                                                                                           
NA75                           46076                                                                                                     55694                                                                                            
NGA75                          41645                                                                                                     51828                                                                                            
