calling: java -cp /vol/ngscomparison/software/analysis/quast-2.1/libs/gage:. SizeFasta /vol/codine-tmp/juene/tmp.kOIhPKUAyd/quast/corrected_input/MRSA_COL_Plasmid.fasta |awk '{SUM+=; print SUM}'|tail -n 1
Contig Stats
Total units: 517
Reference: 2813862
BasesInFasta: 2852624
Min: 200
Max: 84011
N10: 69658 COUNT: 4
N25: 45824 COUNT: 11
N50: 30713 COUNT: 31
N75: 16124 COUNT: 61
E-size:34221.03

Genome Size: 2813862
Assembly Size: 2852624
Chaff bases: 0
Missing Reference Bases: 11441(0.41%)
Missing Assembly Bases: 4168(0.15%)
Missing Assembly Contigs: 12(2.32%)
Duplicated Reference Bases: 79538
Compressed Reference Bases: 42189
Bad Trim: 641
Avg Idy: 99.99
SNPs: 37
Indels < 5bp: 271
Indels >= 5: 1
Inversions: 0
Relocation: 3
Translocation: 0

Corrected Contig Stats
calling: java -cp /vol/ngscomparison/software/analysis/quast-2.1/libs/gage:.:. GetFastaStats -o -min 199 -genomeSize 2813862 /vol/codine-tmp/juene/tmp.kOIhPKUAyd/quast/gage/tmp/CLC_PGM_mrsa_pgm_400bp_es_318_IKA_ts3.2_morestringent.100coverage.result.matches.lens 2> /dev/null
Total units: 246
Reference: 2813862
BasesInFasta: 2770150
Min: 203
Max: 84018
N10: 69665 COUNT: 4
N25: 45826 COUNT: 11
N50: 30715 COUNT: 31
N75: 16030 COUNT: 61
E-size:34092.5

Done
