All statistics are based on contigs of size >= 200 bp, unless otherwise noted (e.g., "# contigs (>= 0 bp)" and "Total length (>= 0 bp)" include all contigs).

Assembly                                                                                                    GAGE_Contigs #  GAGE_Min contig  GAGE_Max contig  GAGE_N50        GAGE_Genome size  GAGE_Assembly size  GAGE_Chaff bases  GAGE_Missing reference bases  GAGE_Missing assembly bases  GAGE_Missing assembly contigs  GAGE_Duplicated reference bases  GAGE_Compressed reference bases  GAGE_Bad trim  GAGE_Avg idy  GAGE_SNPs  GAGE_Indels < 5bp  GAGE_Indels >= 5  GAGE_Inversions  GAGE_Relocation  GAGE_Translocation  GAGE_Corrected contig #  GAGE_Corrected assembly size  GAGE_Min correct contig  GAGE_Max correct contig  GAGE_Corrected N50
ABYSS_PE_MIS_PE_mrsa_mis-1_bi_2x250bp_default__mrsa_mis-2_bi_2x250bp_default.0.450percent_106.final_broken  162             202              315858           90670 COUNT: 9  2813862           2796713             0                 449(0.02%)                    7(0.00%)                     0(0.00%)                       4721                             34790                            7              99.99         38         6                  0                 0                1                0                   140                      2791896                       202                      315857                   90670 COUNT: 9    
ABYSS_PE_MIS_PE_mrsa_mis-1_bi_2x250bp_default__mrsa_mis-2_bi_2x250bp_default.0.450percent_106.final         162             202              315858           90670 COUNT: 9  2813862           2796713             0                 449(0.02%)                    7(0.00%)                     0(0.00%)                       4721                             34790                            7              99.99         38         6                  0                 0                1                0                   140                      2791896                       202                      315857                   90670 COUNT: 9    
