Assembly	VELVET_PGM_mrsa_pgm_200bp_es_316_IonOnev2_ts3.0_morestringent.0.230percent_177.final.contigs
#Una_fully unaligned contigs	0
Una_Fully unaligned length	0
#Una_partially unaligned contigs	0
#Una_with misassembly	0
#Una_both parts are significant	0
Una_Partially unaligned length	0
#N's	0
