Assembly	VELVET_PGM_mrsa_pgm_200bp_es_316_IonOnev2_ts3.0_morestringent.0.230percent_141.final.contigs
#Mis_misassemblies	7
#Mis_relocations	2
#Mis_translocations	0
#Mis_inversions	5
#Mis_misassembled contigs	7
Mis_Misassembled contigs length	4573
#Mis_local misassemblies	0
#mismatches	138
#indels	940
#Mis_short indels (<= 5 bp)	940
#Mis_long indels (> 5 bp)	0
Indels length	952
