Assembly	GAGE_Contigs #	GAGE_Min contig	GAGE_Max contig	GAGE_N50	GAGE_Genome size	GAGE_Assembly size	GAGE_Chaff bases	GAGE_Missing reference bases	GAGE_Missing assembly bases	GAGE_Missing assembly contigs	GAGE_Duplicated reference bases	GAGE_Compressed reference bases	GAGE_Bad trim	GAGE_Avg idy	GAGE_SNPs	GAGE_Indels < 5bp	GAGE_Indels >= 5	GAGE_Inversions	GAGE_Relocation	GAGE_Translocation	GAGE_Corrected contig #	GAGE_Corrected assembly size	GAGE_Min correct contig	GAGE_Max correct contig	GAGE_Corrected N50
SOAP2_MIS_PE_mrsa_mis-1_bi_2x150bp_default.0.527percent_105.final.scaf_broken	277	202	118741	32711 COUNT: 27	2813862	2799763	0	4210(0.15%)	5918(0.21%)	3(1.08%)	5383	46657	15	100.00	35	23	20	0	2	0	274	2788267	202	118741	30030 COUNT: 29
SOAP2_MIS_PE_mrsa_mis-1_bi_2x150bp_default.0.527percent_105.final.scaf	167	202	222037	88029 COUNT: 12	2813862	2804663	0	3658(0.13%)	9160(0.33%)	3(1.80%)	5805	45490	164	99.98	35	49	95	0	6	0	257	2788315	202	118741	34944 COUNT: 26
