Assembly	SOAP2_MIS_PE_mrsa_mis-1_bi_2x150bp_default.0.527percent_105.final.scaf_broken	SOAP2_MIS_PE_mrsa_mis-1_bi_2x150bp_default.0.527percent_105.final.scaf
#Contigs (>= 0 bp)	460	341
#Contigs (>= 1000 bp)	150	66
Total length (>= 0 bp)	2824549	2828145
Total length (>= 1000 bp)	2759020	2774788
#Contigs	277	167
Largest contig	118741	222037
Total length	2799763	2804663
Reference length	2813862	2813862
GC (%)	32.72	32.72
Reference GC (%)	32.81	32.81
N50	32711	88029
NG50	32711	88029
N75	18674	44032
NG75	18674	44032
#misassemblies	5	9
#local misassemblies	2	18
#unaligned contigs	3 + 0 part	3 + 0 part
Unaligned contigs length	5807	5807
Genome fraction (%)	98.443	98.555
Duplication ratio	1.003	1.004
#N's per 100 kbp	5.18	133.39
#mismatches per 100 kbp	1.52	1.62
#indels per 100 kbp	1.77	33.97
#genes	2584 + 117 part	2648 + 54 part
#predicted genes (unique)	2773	2734
#predicted genes (>= 0 bp)	2777	2737
#predicted genes (>= 300 bp)	2315	2310
#predicted genes (>= 1500 bp)	292	292
#predicted genes (>= 3000 bp)	28	28
Largest alignment	118741	222037
NA50	32711	88029
NGA50	32711	88029
NA75	18137	43053
NGA75	18075	43053
