All statistics are based on contigs of size >= 200 bp, unless otherwise noted (e.g., "# contigs (>= 0 bp)" and "Total length (>= 0 bp)" include all contigs).

Assembly                                                                                                          GAGE_Contigs #  GAGE_Min contig  GAGE_Max contig  GAGE_N50         GAGE_Genome size  GAGE_Assembly size  GAGE_Chaff bases  GAGE_Missing reference bases  GAGE_Missing assembly bases  GAGE_Missing assembly contigs  GAGE_Duplicated reference bases  GAGE_Compressed reference bases  GAGE_Bad trim  GAGE_Avg idy  GAGE_SNPs  GAGE_Indels < 5bp  GAGE_Indels >= 5  GAGE_Inversions  GAGE_Relocation  GAGE_Translocation  GAGE_Corrected contig #  GAGE_Corrected assembly size  GAGE_Min correct contig  GAGE_Max correct contig  GAGE_Corrected N50
VELVET_MIS_PE_mrsa_mis-1_bi_2x250bp_default__mrsa_mis-2_bi_2x250bp_default.0.460percent_147.final.contigs_broken  124             217              196518           60523 COUNT: 14  2813862           2804801             0                 570(0.02%)                    5535(0.20%)                  1(0.81%)                       3356                             38098                            3              99.99         39         9                  0                 0                2                0                   115                      2795915                       293                      196521                   60491 COUNT: 14   
VELVET_MIS_PE_mrsa_mis-1_bi_2x250bp_default__mrsa_mis-2_bi_2x250bp_default.0.460percent_147.final.contigs         115             293              196518           70129 COUNT: 12  2813862           2805119             0                 570(0.02%)                    5853(0.21%)                  1(0.87%)                       3356                             38216                            143            99.99         39         9                  4                 2                2                0                   115                      2795915                       293                      196521                   60491 COUNT: 14   
