All statistics are based on contigs of size >= 200 bp, unless otherwise noted (e.g., "# contigs (>= 0 bp)" and "Total length (>= 0 bp)" include all contigs).

Assembly                                                                                                          #Contigs  #Contigs (>= 0 bp)  #Contigs (>= 1000 bp)  Largest contig  Total length  Total length (>= 0 bp)  Total length (>= 1000 bp)  Reference length  N50    NG50   N75    NG75   L50  LG50  L75  LG75  #local misassemblies  #misassemblies  #misassembled contigs  Misassembled contigs length  Misassemblies inter-contig overlap  #unaligned contigs  Unaligned contigs length  #ambiguously mapped contigs  Extra bases in ambiguously mapped contigs  #N's  #N's per 100 kbp  Genome fraction (%)  Duplication ratio  #genes          #predicted genes (unique)  #predicted genes (>= 0 bp)  #predicted genes (>= 300 bp)  #predicted genes (>= 1500 bp)  #predicted genes (>= 3000 bp)  #mismatches  #indels  Indels length  #mismatches per 100 kbp  #indels per 100 kbp  GC (%)  Reference GC (%)  Average %IDY  Largest alignment  NA50   NGA50  NA75   NGA75  LA50  LGA50  LA75  LGA75  #Mis_misassemblies  #Mis_relocations  #Mis_translocations  #Mis_inversions  #Mis_misassembled contigs  Mis_Misassembled contigs length  #Mis_local misassemblies  #Mis_short indels (<= 5 bp)  #Mis_long indels (> 5 bp)  #Una_fully unaligned contigs  Una_Fully unaligned length  #Una_partially unaligned contigs  #Una_with misassembly  #Una_both parts are significant  Una_Partially unaligned length  GAGE_Contigs #  GAGE_Min contig  GAGE_Max contig  GAGE_N50         GAGE_Genome size  GAGE_Assembly size  GAGE_Chaff bases  GAGE_Missing reference bases  GAGE_Missing assembly bases  GAGE_Missing assembly contigs  GAGE_Duplicated reference bases  GAGE_Compressed reference bases  GAGE_Bad trim  GAGE_Avg idy  GAGE_SNPs  GAGE_Indels < 5bp  GAGE_Indels >= 5  GAGE_Inversions  GAGE_Relocation  GAGE_Translocation  GAGE_Corrected contig #  GAGE_Corrected assembly size  GAGE_Min correct contig  GAGE_Max correct contig  GAGE_Corrected N50
VELVET_MIS_PE_mrsa_mis-1_bi_2x250bp_default__mrsa_mis-2_bi_2x250bp_default.0.460percent_147.final.contigs_broken  124       124                 81                     196518          2804801       2804801                 2788752                    2813862           60523  60523  38003  38003  14   14    29   29    0                     2               2                      73649                        0                                   1 + 0 part          5532                      33                           -13595                                     0     0.00              98.787               1.002              2669 + 43 part  2672                       2675                        2308                          301                            27                             40           9        9              1.44                     0.32                 32.74   32.81             98.896        196518             60491  60491  35886  35886  14    14     30    30     2                   2                 0                    0                2                          73649                            0                         9                            0                          1                             5532                        0                                 0                      0                                0                               124             217              196518           60523 COUNT: 14  2813862           2804801             0                 570(0.02%)                    5535(0.20%)                  1(0.81%)                       3356                             38098                            3              99.99         39         9                  0                 0                2                0                   115                      2795915                       293                      196521                   60491 COUNT: 14   
VELVET_MIS_PE_mrsa_mis-1_bi_2x250bp_default__mrsa_mis-2_bi_2x250bp_default.0.460percent_147.final.contigs         115       115                 76                     196518          2805119       2805119                 2791133                    2813862           70129  70129  38649  38470  12   12    25   26    1                     5               4                      242844                       0                                   1 + 0 part          5532                      32                           -12800                                     318   11.34             98.789               1.003              2671 + 41 part  2669                       2672                        2310                          301                            27                             40           81       113            1.44                     2.91                 32.74   32.81             98.893        196518             64175  64175  38470  38470  13    13     28    28     5                   5                 0                    0                4                          242844                           1                         80                           1                          1                             5532                        0                                 0                      0                                0                               115             293              196518           70129 COUNT: 12  2813862           2805119             0                 570(0.02%)                    5853(0.21%)                  1(0.87%)                       3356                             38216                            143            99.99         39         9                  4                 2                2                0                   115                      2795915                       293                      196521                   60491 COUNT: 14   
