Assembly	CLC_PGM_sakai_pgm_mu_318_400bp_IO_TS3.4_ms_0.395percent.result
#Contigs	1142
#Contigs (>= 0 bp)	1142
#Contigs (>= 1000 bp)	334
Largest contig	118437
Total length	5436771
Total length (>= 0 bp)	5436771
Total length (>= 1000 bp)	5152619
Reference length	5594470
N50	33076
NG50	32680
N75	13918
NG75	11920
L50	52
LG50	54
L75	116
LG75	125
#local misassemblies	4
#misassemblies	7
#misassembled contigs	7
Misassembled contigs length	61232
Misassemblies inter-contig overlap	1143
#unaligned contigs	7 + 6 part
Unaligned contigs length	2468
#ambiguously mapped contigs	156
Extra bases in ambiguously mapped contigs	-93681
#N's	627
#N's per 100 kbp	11.53
Genome fraction (%)	93.737
Duplication ratio	1.019
#genes	4755 + 365 part
#predicted genes (unique)	6009
#predicted genes (>= 0 bp)	6019
#predicted genes (>= 300 bp)	4610
#predicted genes (>= 1500 bp)	624
#predicted genes (>= 3000 bp)	56
#mismatches	107
#indels	580
Indels length	594
#mismatches per 100 kbp	2.04
#indels per 100 kbp	11.06
GC (%)	50.30
Reference GC (%)	50.48
Average %IDY	98.940
Largest alignment	118437
NA50	33076
NGA50	32680
NA75	13918
NGA75	11920
LA50	52
LGA50	54
LA75	116
LGA75	125
#Mis_misassemblies	7
#Mis_relocations	7
#Mis_translocations	0
#Mis_inversions	0
#Mis_misassembled contigs	7
Mis_Misassembled contigs length	61232
#Mis_local misassemblies	4
#Mis_short indels (<= 5 bp)	579
#Mis_long indels (> 5 bp)	1
#Una_fully unaligned contigs	7
Una_Fully unaligned length	1788
#Una_partially unaligned contigs	6
#Una_with misassembly	0
#Una_both parts are significant	0
Una_Partially unaligned length	680
GAGE_Contigs #	1142
GAGE_Min contig	200
GAGE_Max contig	118437
GAGE_N50	32680 COUNT: 54
GAGE_Genome size	5594470
GAGE_Assembly size	5436771
GAGE_Chaff bases	0
GAGE_Missing reference bases	71575(1.28%)
GAGE_Missing assembly bases	2362(0.04%)
GAGE_Missing assembly contigs	6(0.53%)
GAGE_Duplicated reference bases	114679
GAGE_Compressed reference bases	251773
GAGE_Bad trim	756
GAGE_Avg idy	99.99
GAGE_SNPs	67
GAGE_Indels < 5bp	497
GAGE_Indels >= 5	2
GAGE_Inversions	1
GAGE_Relocation	6
GAGE_Translocation	0
GAGE_Corrected contig #	775
GAGE_Corrected assembly size	5320452
GAGE_Min correct contig	201
GAGE_Max correct contig	118437
GAGE_Corrected N50	32680 COUNT: 54
