Assembly	ABYSS_PE_PGM_mrsa_pgm_200bp_es_316_IonOnev2_ts3.0_morestringent.0.230percent_36-unitigs
GAGE_Contigs #	355
GAGE_Min contig	209
GAGE_Max contig	69774
GAGE_N50	17424 COUNT: 51
GAGE_Genome size	2813862
GAGE_Assembly size	2730194
GAGE_Chaff bases	0
GAGE_Missing reference bases	69186(2.46%)
GAGE_Missing assembly bases	18(0.00%)
GAGE_Missing assembly contigs	0(0.00%)
GAGE_Duplicated reference bases	0
GAGE_Compressed reference bases	17657
GAGE_Bad trim	18
GAGE_Avg idy	99.99
GAGE_SNPs	47
GAGE_Indels < 5bp	269
GAGE_Indels >= 5	4
GAGE_Inversions	0
GAGE_Relocation	1
GAGE_Translocation	0
GAGE_Corrected contig #	360
GAGE_Corrected assembly size	2731204
GAGE_Min correct contig	209
GAGE_Max correct contig	69783
GAGE_Corrected N50	17427 COUNT: 51
