Assembly	ABYSS_PE_PGM_mrsa_pgm_200bp_es_316_IonOnev2_ts3.0_morestringent.0.230percent_36-unitigs
#Contigs (>= 0 bp)	4459
#Contigs (>= 1000 bp)	241
Total length (>= 0 bp)	2955051
Total length (>= 1000 bp)	2682796
#Contigs	355
Largest contig	69774
Total length	2730194
Reference length	2813862
GC (%)	32.59
Reference GC (%)	32.81
N50	17624
NG50	17424
N75	9953
NG75	9343
#misassemblies	1
#local misassemblies	4
#unaligned contigs	0 + 0 part
Unaligned contigs length	0
Genome fraction (%)	96.728
Duplication ratio	1.001
#N's per 100 kbp	0.00
#mismatches per 100 kbp	2.61
#indels per 100 kbp	9.77
#genes	2483 + 140 part
#predicted genes (unique)	2789
#predicted genes (>= 0 bp)	2789
#predicted genes (>= 300 bp)	2319
#predicted genes (>= 1500 bp)	279
#predicted genes (>= 3000 bp)	22
Largest alignment	69774
NA50	17624
NGA50	17424
NA75	9926
NGA75	9343
