Assembly	VELVET_PGM_mtbh37_pgm_400bp_es_318v2_OT2_tsv3.6_morestringent_177.final.contigs
GAGE_Contigs #	2149
GAGE_Min contig	353
GAGE_Max contig	6860
GAGE_N50	1025 COUNT: 1126
GAGE_Genome size	4411532
GAGE_Assembly size	2902408
GAGE_Chaff bases	0
GAGE_Missing reference bases	1604266(36.37%)
GAGE_Missing assembly bases	932(0.03%)
GAGE_Missing assembly contigs	1(0.05%)
GAGE_Duplicated reference bases	39239
GAGE_Compressed reference bases	30675
GAGE_Bad trim	298
GAGE_Avg idy	99.94
GAGE_SNPs	53
GAGE_Indels < 5bp	1517
GAGE_Indels >= 5	10
GAGE_Inversions	1
GAGE_Relocation	2
GAGE_Translocation	0
GAGE_Corrected contig #	2087
GAGE_Corrected assembly size	2865251
GAGE_Min correct contig	352
GAGE_Max correct contig	6860
GAGE_Corrected N50	1015 COUNT: 1140
