All statistics are based on contigs of size >= 200 bp, unless otherwise noted (e.g., "# contigs (>= 0 bp)" and "Total length (>= 0 bp)" include all contigs).

Assembly                         ABYSS_PE_MIS_PE_mrsa_mis-1_bi_2x250bp_default__mrsa_mis-2_bi_2x250bp_default.0.460percent_92-scaffolds_broken  ABYSS_PE_MIS_PE_mrsa_mis-1_bi_2x250bp_default__mrsa_mis-2_bi_2x250bp_default.0.460percent_92-scaffolds
#Mis_misassemblies               3                                                                                                              6                                                                                                     
#Mis_relocations                 3                                                                                                              6                                                                                                     
#Mis_translocations              0                                                                                                              0                                                                                                     
#Mis_inversions                  0                                                                                                              0                                                                                                     
#Mis_misassembled contigs        3                                                                                                              5                                                                                                     
Mis_Misassembled contigs length  219606                                                                                                         228734                                                                                                
#Mis_local misassemblies         1                                                                                                              1                                                                                                     
#mismatches                      60                                                                                                             62                                                                                                    
#indels                          10                                                                                                             12                                                                                                    
#Mis_short indels (<= 5 bp)      9                                                                                                              9                                                                                                     
#Mis_long indels (> 5 bp)        1                                                                                                              3                                                                                                     
Indels length                    23                                                                                                             73                                                                                                    
