Assembly	VELVET_MIS_PE_mrsa_mis-1_bi_2x250bp_default__mrsa_mis-2_bi_2x250bp_default.0.460percent_157.final.contigs_broken	VELVET_MIS_PE_mrsa_mis-1_bi_2x250bp_default__mrsa_mis-2_bi_2x250bp_default.0.460percent_157.final.contigs
#Mis_misassemblies	2	4
#Mis_relocations	2	4
#Mis_translocations	0	0
#Mis_inversions	0	0
#Mis_misassembled contigs	2	4
Mis_Misassembled contigs length	72219	194931
#Mis_local misassemblies	0	2
#mismatches	34	49
#indels	9	230
#Mis_short indels (<= 5 bp)	9	225
#Mis_long indels (> 5 bp)	0	5
Indels length	9	439
