All statistics are based on contigs of size >= 200 bp, unless otherwise noted (e.g., "# contigs (>= 0 bp)" and "Total length (>= 0 bp)" include all contigs).

Assembly                                                                                 #Contigs (>= 0 bp)  #Contigs (>= 1000 bp)  Total length (>= 0 bp)  Total length (>= 1000 bp)  #Contigs  Largest contig  Total length  Reference length  GC (%)  Reference GC (%)  N50    NG50   N75    NG75   #misassemblies  #local misassemblies  #unaligned contigs  Unaligned contigs length  Genome fraction (%)  Duplication ratio  #N's per 100 kbp  #mismatches per 100 kbp  #indels per 100 kbp  #genes           #predicted genes (unique)  #predicted genes (>= 0 bp)  #predicted genes (>= 300 bp)  #predicted genes (>= 1500 bp)  #predicted genes (>= 3000 bp)  Largest alignment  NA50   NGA50  NA75   NGA75
VELVET_MIS_PE_sakai_mis-both_bi_2x250bp_SI_default.0.64percent_121.final.contigs_broken  684                 377                    5435312                 5310814                    681       99095           5434893       5594470           50.34   50.48             25102  24857  14118  12955  5               3                     2 + 0 part          5604                      94.975               1.001              0.00              2.18                     0.38                 4847 + 372 part  5645                       5660                        4605                          641                            60                             99095              25102  24201  14094  12949
VELVET_MIS_PE_sakai_mis-both_bi_2x250bp_SI_default.0.64percent_121.final.contigs         496                 225                    5456181                 5348603                    496       215769          5456181       5594470           50.34   50.48             54735  50421  29248  26235  15              157                   1 + 1 part          5705                      95.158               1.005              382.48            2.54                     6.41                 4876 + 361 part  5619                       5635                        4600                          645                            60                             215178             50421  50022  28966  25038
