All statistics are based on contigs of size >= 200 bp, unless otherwise noted (e.g., "# contigs (>= 0 bp)" and "Total length (>= 0 bp)" include all contigs).

Assembly                                                                 GAGE_Contigs #  GAGE_Min contig  GAGE_Max contig  GAGE_N50        GAGE_Genome size  GAGE_Assembly size  GAGE_Chaff bases  GAGE_Missing reference bases  GAGE_Missing assembly bases  GAGE_Missing assembly contigs  GAGE_Duplicated reference bases  GAGE_Compressed reference bases  GAGE_Bad trim  GAGE_Avg idy  GAGE_SNPs  GAGE_Indels < 5bp  GAGE_Indels >= 5  GAGE_Inversions  GAGE_Relocation  GAGE_Translocation  GAGE_Corrected contig #  GAGE_Corrected assembly size  GAGE_Min correct contig  GAGE_Max correct contig  GAGE_Corrected N50
CLC_PGM_mrsa_pgm_400bp_es_318_IKA_ts3.2_morestringent.11coverage.result  899             200              38413            9936 COUNT: 88  2813862           2810206             0                 70795(2.52%)                  2913(0.10%)                  4(0.44%)                       52554                            40812                            1322           99.87         361        2307               7                 2                8                0                   767                      2757570                       202                      38438                    9613 COUNT: 93    
