1: PREPARING DATA
2,3: RUNNING mummer AND CREATING CLUSTERS
# reading input file "/vol/codine-tmp/juene/tmp.4AK57vyc5W/quast/gage/tmp/SOAP2_MIS_PE_mrsa_mis-1_bi_2x150bp_default.0.527percent_37.final.scaf_broken.ntref" of length 2813864
# construct suffix tree for sequence of length 2813864
# (maximum reference length is 536870908)
# (maximum query length is 4294967295)
# process 28138 characters per dot
#....................................................................................................
# CONSTRUCTIONTIME /vol/ngscomparison/software/analysis/quast-2.1/libs/MUMmer3.23-linux/mummer /vol/codine-tmp/juene/tmp.4AK57vyc5W/quast/gage/tmp/SOAP2_MIS_PE_mrsa_mis-1_bi_2x150bp_default.0.527percent_37.final.scaf_broken.ntref 1.69
# reading input file "/vol/codine-tmp/juene/tmp.4AK57vyc5W/quast/corrected_input/SOAP2_MIS_PE_mrsa_mis-1_bi_2x150bp_default.0.527percent_37.final.scaf_broken" of length 2628335
# matching query-file "/vol/codine-tmp/juene/tmp.4AK57vyc5W/quast/corrected_input/SOAP2_MIS_PE_mrsa_mis-1_bi_2x150bp_default.0.527percent_37.final.scaf_broken"
# against subject-file "/vol/codine-tmp/juene/tmp.4AK57vyc5W/quast/gage/tmp/SOAP2_MIS_PE_mrsa_mis-1_bi_2x150bp_default.0.527percent_37.final.scaf_broken.ntref"
# COMPLETETIME /vol/ngscomparison/software/analysis/quast-2.1/libs/MUMmer3.23-linux/mummer /vol/codine-tmp/juene/tmp.4AK57vyc5W/quast/gage/tmp/SOAP2_MIS_PE_mrsa_mis-1_bi_2x150bp_default.0.527percent_37.final.scaf_broken.ntref 4.81
# SPACE /vol/ngscomparison/software/analysis/quast-2.1/libs/MUMmer3.23-linux/mummer /vol/codine-tmp/juene/tmp.4AK57vyc5W/quast/gage/tmp/SOAP2_MIS_PE_mrsa_mis-1_bi_2x150bp_default.0.527percent_37.final.scaf_broken.ntref 5.31
4: FINISHING DATA
Filtering alignments
Extracting alignment coordinates
Analyzing SNPs
Extracting alignment breakpoints
Generating report file
Found genome size at position 4 with value 2813862 aka 2813862
Calculating point at 0 and the sum is 1000053 and i is2066 and lens is 2365 and length is 2115
Calculating point at 1 and the sum is 2000368 and i is1329 and lens is 2365 and length is 864
