Assembly	ABYSS_PE_MIS_PE_sakai_mis-1_bi_2x150bp_default__sakai_mis-2_bi_2x150bp_default.76coverage_50.final_broken	ABYSS_PE_MIS_PE_sakai_mis-1_bi_2x150bp_default__sakai_mis-2_bi_2x150bp_default.76coverage_50.final
#Contigs	256	207
#Contigs (>= 0 bp)	1212	1161
#Contigs (>= 1000 bp)	184	158
Largest contig	292296	376634
Total length	5445995	5448993
Total length (>= 0 bp)	5537840	5540579
Total length (>= 1000 bp)	5404737	5420342
Reference length	5594470	5594470
N50	127537	148449
NG50	100154	147244
N75	43146	49886
NG75	41324	45706
L50	15	13
LG50	16	14
L75	34	29
LG75	37	31
#local misassemblies	9	30
#misassemblies	3	17
#misassembled contigs	3	12
Misassembled contigs length	357367	569324
Misassemblies inter-contig overlap	2645	4191
#unaligned contigs	0 + 0 part	0 + 0 part
Unaligned contigs length	0	0
#ambiguously mapped contigs	45	30
Extra bases in ambiguously mapped contigs	-52554	-34133
#N's	68	2807
#N's per 100 kbp	1.25	51.51
Genome fraction (%)	95.328	95.662
Duplication ratio	1.012	1.013
#genes	5009 + 166 part	5036 + 167 part
#predicted genes (unique)	5208	5200
#predicted genes (>= 0 bp)	5313	5303
#predicted genes (>= 300 bp)	4491	4492
#predicted genes (>= 1500 bp)	680	680
#predicted genes (>= 3000 bp)	71	70
#mismatches	1148	1213
#indels	50	366
Indels length	191	762
#mismatches per 100 kbp	21.53	22.67
#indels per 100 kbp	0.94	6.84
GC (%)	50.38	50.38
Reference GC (%)	50.48	50.48
Average %IDY	99.041	99.031
Largest alignment	261437	270910
NA50	100154	147985
NGA50	99977	147244
NA75	41777	46846
NGA75	41207	43705
LA50	16	14
LGA50	17	15
LA75	35	30
LGA75	38	32
#Mis_misassemblies	3	17
#Mis_relocations	3	16
#Mis_translocations	0	1
#Mis_inversions	0	0
#Mis_misassembled contigs	3	12
Mis_Misassembled contigs length	357367	569324
#Mis_local misassemblies	9	30
#Mis_short indels (<= 5 bp)	43	350
#Mis_long indels (> 5 bp)	7	16
#Una_fully unaligned contigs	0	0
Una_Fully unaligned length	0	0
#Una_partially unaligned contigs	0	0
#Una_with misassembly	0	0
#Una_both parts are significant	0	0
Una_Partially unaligned length	0	0
GAGE_Contigs #	256	207
GAGE_Min contig	200	200
GAGE_Max contig	292296	376634
GAGE_N50	100154 COUNT: 16	147244 COUNT: 14
GAGE_Genome size	5594470	5594470
GAGE_Assembly size	5445995	5448993
GAGE_Chaff bases	0	0
GAGE_Missing reference bases	75132(1.34%)	74811(1.34%)
GAGE_Missing assembly bases	7(0.00%)	2629(0.05%)
GAGE_Missing assembly contigs	0(0.00%)	0(0.00%)
GAGE_Duplicated reference bases	10585	9415
GAGE_Compressed reference bases	224749	222209
GAGE_Bad trim	1	151
GAGE_Avg idy	99.97	99.96
GAGE_SNPs	759	728
GAGE_Indels < 5bp	44	45
GAGE_Indels >= 5	12	38
GAGE_Inversions	1	4
GAGE_Relocation	3	15
GAGE_Translocation	0	1
GAGE_Corrected contig #	259	261
GAGE_Corrected assembly size	5438211	5441003
GAGE_Min correct contig	200	200
GAGE_Max correct contig	261438	261438
GAGE_Corrected N50	95918 COUNT: 19	95918 COUNT: 19
