All statistics are based on contigs of size >= 200 bp, unless otherwise noted (e.g., "# contigs (>= 0 bp)" and "Total length (>= 0 bp)" include all contigs).

Assembly                                                                                            #Contigs (>= 0 bp)  #Contigs (>= 1000 bp)  Total length (>= 0 bp)  Total length (>= 1000 bp)  #Contigs  Largest contig  Total length  Reference length  GC (%)  Reference GC (%)  N50     NG50    N75     NG75    #misassemblies  #local misassemblies  #unaligned contigs  Unaligned contigs length  Genome fraction (%)  Duplication ratio  #N's per 100 kbp  #mismatches per 100 kbp  #indels per 100 kbp  #genes          #predicted genes (unique)  #predicted genes (>= 0 bp)  #predicted genes (>= 300 bp)  #predicted genes (>= 1500 bp)  #predicted genes (>= 3000 bp)  Largest alignment  NA50    NGA50   NA75   NGA75
CLC_MIS_PE_mrsa_mis-1_bi_2x150bp_default__mrsa_mis-2_bi_2x150bp_default.0.700percent.result_broken  47                  38                     2777757                 2774862                    46        553402          2777568       2813862           32.68   32.81             155246  155246  87621   75439   2               5                     1 + 0 part          5386                      98.262               1.000              0.68              3.04                     0.40                 2681 + 20 part  2625                       2625                        2287                          300                            29                             553402             148201  125873  75439  75439
CLC_MIS_PE_mrsa_mis-1_bi_2x150bp_default__mrsa_mis-2_bi_2x150bp_default.0.700percent.result         41                  34                     2778191                 2775779                    41        553402          2778191       2813862           32.68   32.81             178991  178991  109042  109042  2               10                    1 + 0 part          5386                      98.265               1.000              16.31             3.11                     0.43                 2681 + 20 part  2622                       2622                        2287                          300                            29                             553402             178991  178991  97651  88686
