Assembly	VELVET_MIS_PE_mrsa_mis-1_bi_2x150bp_default__mrsa_mis-2_bi_2x150bp_default.0.527percent_45.final.contigs_broken	VELVET_MIS_PE_mrsa_mis-1_bi_2x150bp_default__mrsa_mis-2_bi_2x150bp_default.0.527percent_45.final.contigs
GAGE_Contigs #	129	86
GAGE_Min contig	202	202
GAGE_Max contig	144669	586115
GAGE_N50	65632 COUNT: 15	126145 COUNT: 6
GAGE_Genome size	2813862	2813862
GAGE_Assembly size	2770270	2772537
GAGE_Chaff bases	0	0
GAGE_Missing reference bases	12883(0.46%)	12692(0.45%)
GAGE_Missing assembly bases	6084(0.22%)	7818(0.28%)
GAGE_Missing assembly contigs	1(0.78%)	1(1.16%)
GAGE_Duplicated reference bases	2522	2578
GAGE_Compressed reference bases	42060	42392
GAGE_Bad trim	18	389
GAGE_Avg idy	99.98	99.97
GAGE_SNPs	203	245
GAGE_Indels < 5bp	32	61
GAGE_Indels >= 5	9	35
GAGE_Inversions	0	0
GAGE_Relocation	9	13
GAGE_Translocation	0	0
GAGE_Corrected contig #	136	131
GAGE_Corrected assembly size	2765219	2765935
GAGE_Min correct contig	202	202
GAGE_Max correct contig	144669	144669
GAGE_Corrected N50	44027 COUNT: 18	51516 COUNT: 17
