1: PREPARING DATA
2,3: RUNNING mummer AND CREATING CLUSTERS
# reading input file "/vol/codine-tmp/juene/tmp.ftJKDWBUzW/quast/gage/tmp/ABYSS_PE_MIS_PE_sakai_mis-1_bi_2x250bp_SI_default__sakai_mis-2_bi_2x250bp_SI_default.0.4percent_100.final_broken.ntref" of length 5594473
# construct suffix tree for sequence of length 5594473
# (maximum reference length is 536870908)
# (maximum query length is 4294967295)
# process 55944 characters per dot
#....................................................................................................
# CONSTRUCTIONTIME /vol/ngscomparison/software/analysis/quast-2.1/libs/MUMmer3.23-linux/mummer /vol/codine-tmp/juene/tmp.ftJKDWBUzW/quast/gage/tmp/ABYSS_PE_MIS_PE_sakai_mis-1_bi_2x250bp_SI_default__sakai_mis-2_bi_2x250bp_SI_default.0.4percent_100.final_broken.ntref 3.56
# reading input file "/vol/codine-tmp/juene/tmp.ftJKDWBUzW/quast/corrected_input/ABYSS_PE_MIS_PE_sakai_mis-1_bi_2x250bp_SI_default__sakai_mis-2_bi_2x250bp_SI_default.0.4percent_100.final_broken" of length 5394627
# matching query-file "/vol/codine-tmp/juene/tmp.ftJKDWBUzW/quast/corrected_input/ABYSS_PE_MIS_PE_sakai_mis-1_bi_2x250bp_SI_default__sakai_mis-2_bi_2x250bp_SI_default.0.4percent_100.final_broken"
# against subject-file "/vol/codine-tmp/juene/tmp.ftJKDWBUzW/quast/gage/tmp/ABYSS_PE_MIS_PE_sakai_mis-1_bi_2x250bp_SI_default__sakai_mis-2_bi_2x250bp_SI_default.0.4percent_100.final_broken.ntref"
# COMPLETETIME /vol/ngscomparison/software/analysis/quast-2.1/libs/MUMmer3.23-linux/mummer /vol/codine-tmp/juene/tmp.ftJKDWBUzW/quast/gage/tmp/ABYSS_PE_MIS_PE_sakai_mis-1_bi_2x250bp_SI_default__sakai_mis-2_bi_2x250bp_SI_default.0.4percent_100.final_broken.ntref 10.46
# SPACE /vol/ngscomparison/software/analysis/quast-2.1/libs/MUMmer3.23-linux/mummer /vol/codine-tmp/juene/tmp.ftJKDWBUzW/quast/gage/tmp/ABYSS_PE_MIS_PE_sakai_mis-1_bi_2x250bp_SI_default__sakai_mis-2_bi_2x250bp_SI_default.0.4percent_100.final_broken.ntref 10.66
4: FINISHING DATA
Filtering alignments
Extracting alignment coordinates
Analyzing SNPs
Extracting alignment breakpoints
Generating report file
Found genome size at position 4 with value 5594470 aka 5594470
Calculating point at 0 and the sum is 1040859 and i is574 and lens is 580 and length is 140541
Calculating point at 1 and the sum is 2077115 and i is565 and lens is 580 and length is 90339
Calculating point at 2 and the sum is 3001001 and i is553 and lens is 580 and length is 63953
Calculating point at 3 and the sum is 4009127 and i is530 and lens is 580 and length is 30790
Calculating point at 4 and the sum is 5001117 and i is465 and lens is 580 and length is 4984
