All statistics are based on contigs of size >= 200 bp, unless otherwise noted (e.g., "# contigs (>= 0 bp)" and "Total length (>= 0 bp)" include all contigs).

Assembly                                                                      #Contigs  #Contigs (>= 0 bp)  #Contigs (>= 1000 bp)  Largest contig  Total length  Total length (>= 0 bp)  Total length (>= 1000 bp)  Reference length  N50    NG50   N75    NG75  L50  LG50  L75  LG75  #local misassemblies  #misassemblies  #misassembled contigs  Misassembled contigs length  Misassemblies inter-contig overlap  #unaligned contigs  Unaligned contigs length  #ambiguously mapped contigs  Extra bases in ambiguously mapped contigs  #N's  #N's per 100 kbp  Genome fraction (%)  Duplication ratio  #genes           #predicted genes (unique)  #predicted genes (>= 0 bp)  #predicted genes (>= 300 bp)  #predicted genes (>= 1500 bp)  #predicted genes (>= 3000 bp)  #mismatches  #indels  Indels length  #mismatches per 100 kbp  #indels per 100 kbp  GC (%)  Reference GC (%)  Average %IDY  Largest alignment  NA50   NGA50  NA75  NGA75  LA50  LGA50  LA75  LGA75  #Mis_misassemblies  #Mis_relocations  #Mis_translocations  #Mis_inversions  #Mis_misassembled contigs  Mis_Misassembled contigs length  #Mis_local misassemblies  #Mis_short indels (<= 5 bp)  #Mis_long indels (> 5 bp)  #Una_fully unaligned contigs  Una_Fully unaligned length  #Una_partially unaligned contigs  #Una_with misassembly  #Una_both parts are significant  Una_Partially unaligned length  GAGE_Contigs #  GAGE_Min contig  GAGE_Max contig  GAGE_N50         GAGE_Genome size  GAGE_Assembly size  GAGE_Chaff bases  GAGE_Missing reference bases  GAGE_Missing assembly bases  GAGE_Missing assembly contigs  GAGE_Duplicated reference bases  GAGE_Compressed reference bases  GAGE_Bad trim  GAGE_Avg idy  GAGE_SNPs  GAGE_Indels < 5bp  GAGE_Indels >= 5  GAGE_Inversions  GAGE_Relocation  GAGE_Translocation  GAGE_Corrected contig #  GAGE_Corrected assembly size  GAGE_Min correct contig  GAGE_Max correct contig  GAGE_Corrected N50
SOAP2_MIS_PE_mrsa_mis-1_bi_2x250bp_default.0.460percent_87.final.scaf_broken  382       2229                258                    52257           2780778       3080649                 2732562                    2813862           17782  17739  8831   8703  50   51    107  110   26                    4               4                      16081                        0                                   11 + 2 part         9756                      10                           -3050                                      139   5.00              98.067               1.003              2445 + 244 part  2879                       2882                        2360                          275                            29                             76           34       416            2.75                     1.23                 32.69   32.81             99.118        52257              17782  17739  8785  8703   50    51     108   110    4                   4                 0                    0                4                          16081                            26                        22                           12                         11                            9122                        2                                 0                      1                                634                             382             200              52257            17739 COUNT: 51  2813862           2780778             0                 33340(1.18%)                  8608(0.31%)                  10(2.62%)                      3541                             23392                            13             100.00        61         23                 35                0                3                0                   395                      2767732                       200                      52257                    16218 COUNT: 55   
SOAP2_MIS_PE_mrsa_mis-1_bi_2x250bp_default.0.460percent_87.final.scaf         325       2160                230                    57599           2784961       3082859                 2749276                    2813862           18913  18904  10131  9871  46   47    97   99    66                    8               6                      17524                        858                                 11 + 2 part         9871                      8                            -2603                                      2349  84.35             98.155               1.004              2454 + 231 part  2862                       2865                        2355                          275                            29                             87           163      1438           3.15                     5.90                 32.70   32.81             99.077        57562              18913  18904  9953  9728   46    47     97    99     8                   8                 0                    0                6                          17524                            66                        126                          37                         11                            9122                        2                                 0                      1                                749                             325             200              57599            18904 COUNT: 47  2813862           2784961             0                 31586(1.12%)                  10757(0.39%)                 10(3.08%)                      4075                             24171                            106            99.99         55         36                 80                0                8                0                   392                      2767693                       200                      52257                    16218 COUNT: 55   
