Assembly	#Contigs (>= 0 bp)	#Contigs (>= 1000 bp)	Total length (>= 0 bp)	Total length (>= 1000 bp)	#Contigs	Largest contig	Total length	Reference length	GC (%)	Reference GC (%)	N50	NG50	N75	NG75	#misassemblies	#local misassemblies	#unaligned contigs	Unaligned contigs length	Genome fraction (%)	Duplication ratio	#N's per 100 kbp	#mismatches per 100 kbp	#indels per 100 kbp	#genes	#predicted genes (unique)	#predicted genes (>= 0 bp)	#predicted genes (>= 300 bp)	#predicted genes (>= 1500 bp)	#predicted genes (>= 3000 bp)	Largest alignment	NA50	NGA50	NA75	NGA75
SOAP2_MIS_PE_mrsa_mis-1_bi_2x250bp_default.0.460percent_87.final.scaf_broken	2229	258	3080649	2732562	382	52257	2780778	2813862	32.69	32.81	17782	17739	8831	8703	4	26	11 + 2 part	9756	98.067	1.003	5.00	2.75	1.23	2445 + 244 part	2879	2882	2360	275	29	52257	17782	17739	8785	8703
SOAP2_MIS_PE_mrsa_mis-1_bi_2x250bp_default.0.460percent_87.final.scaf	2160	230	3082859	2749276	325	57599	2784961	2813862	32.70	32.81	18913	18904	10131	9871	8	66	11 + 2 part	9871	98.155	1.004	84.35	3.15	5.90	2454 + 231 part	2862	2865	2355	275	29	57562	18913	18904	9953	9728
