Assembly	VELVET_MIS_PE_sakai_mis-1_bi_2x150bp_default__sakai_mis-2_bi_2x150bp_default.0.826percent_119.final.contigs_broken	VELVET_MIS_PE_sakai_mis-1_bi_2x150bp_default__sakai_mis-2_bi_2x150bp_default.0.826percent_119.final.contigs
#Contigs (>= 0 bp)	1261	442
#Contigs (>= 1000 bp)	823	189
Total length (>= 0 bp)	5431558	5497463
Total length (>= 1000 bp)	5228248	5400655
#Contigs	1256	442
Largest contig	53798	212745
Total length	5430830	5497463
Reference length	5594470	5594470
GC (%)	50.37	50.37
Reference GC (%)	50.48	50.48
N50	8838	87739
NG50	8584	87176
N75	4677	40369
NG75	4392	38093
#misassemblies	6	29
#local misassemblies	1	355
#unaligned contigs	2 + 0 part	1 + 0 part
Unaligned contigs length	5383	5393
Genome fraction (%)	94.890	95.105
Duplication ratio	1.002	1.013
#N's per 100 kbp	0.00	1198.83
#mismatches per 100 kbp	3.00	4.15
#indels per 100 kbp	0.30	213.81
#genes	4428 + 791 part	4775 + 456 part
#predicted genes (unique)	6032	5889
#predicted genes (>= 0 bp)	6049	5907
#predicted genes (>= 300 bp)	4748	4755
#predicted genes (>= 1500 bp)	596	602
#predicted genes (>= 3000 bp)	48	49
Largest alignment	53798	210889
NA50	8805	79062
NGA50	8553	77816
NA75	4650	37742
NGA75	4366	36765
