1: PREPARING DATA
2,3: RUNNING mummer AND CREATING CLUSTERS
# reading input file "/vol/codine-tmp/juene/tmp.M8BZonqu6O/quast/gage/tmp/ABYSS_PE_MIS_PE_sakai_mis-both_bi_2x250bp_SI_default.0.64percent.NEWBLER_38-scaffolds_broken.ntref" of length 5594473
# construct suffix tree for sequence of length 5594473
# (maximum reference length is 536870908)
# (maximum query length is 4294967295)
# process 55944 characters per dot
#....................................................................................................
# CONSTRUCTIONTIME /vol/ngscomparison/software/analysis/quast-2.1/libs/MUMmer3.23-linux/mummer /vol/codine-tmp/juene/tmp.M8BZonqu6O/quast/gage/tmp/ABYSS_PE_MIS_PE_sakai_mis-both_bi_2x250bp_SI_default.0.64percent.NEWBLER_38-scaffolds_broken.ntref 4.54
# reading input file "/vol/codine-tmp/juene/tmp.M8BZonqu6O/quast/corrected_input/ABYSS_PE_MIS_PE_sakai_mis-both_bi_2x250bp_SI_default.0.64percent.NEWBLER_38-scaffolds_broken" of length 5357038
# matching query-file "/vol/codine-tmp/juene/tmp.M8BZonqu6O/quast/corrected_input/ABYSS_PE_MIS_PE_sakai_mis-both_bi_2x250bp_SI_default.0.64percent.NEWBLER_38-scaffolds_broken"
# against subject-file "/vol/codine-tmp/juene/tmp.M8BZonqu6O/quast/gage/tmp/ABYSS_PE_MIS_PE_sakai_mis-both_bi_2x250bp_SI_default.0.64percent.NEWBLER_38-scaffolds_broken.ntref"
# COMPLETETIME /vol/ngscomparison/software/analysis/quast-2.1/libs/MUMmer3.23-linux/mummer /vol/codine-tmp/juene/tmp.M8BZonqu6O/quast/gage/tmp/ABYSS_PE_MIS_PE_sakai_mis-both_bi_2x250bp_SI_default.0.64percent.NEWBLER_38-scaffolds_broken.ntref 13.08
# SPACE /vol/ngscomparison/software/analysis/quast-2.1/libs/MUMmer3.23-linux/mummer /vol/codine-tmp/juene/tmp.M8BZonqu6O/quast/gage/tmp/ABYSS_PE_MIS_PE_sakai_mis-both_bi_2x250bp_SI_default.0.64percent.NEWBLER_38-scaffolds_broken.ntref 10.62
4: FINISHING DATA
Filtering alignments
Extracting alignment coordinates
Analyzing SNPs
Extracting alignment breakpoints
Generating report file
Found genome size at position 4 with value 5594470 aka 5594470
Calculating point at 0 and the sum is 1034084 and i is333 and lens is 341 and length is 107980
Calculating point at 1 and the sum is 2038266 and i is321 and lens is 341 and length is 73054
Calculating point at 2 and the sum is 3001916 and i is305 and lens is 341 and length is 52891
Calculating point at 3 and the sum is 4015228 and i is274 and lens is 341 and length is 24161
Calculating point at 4 and the sum is 5000070 and i is207 and lens is 341 and length is 7616
