All statistics are based on contigs of size >= 200 bp, unless otherwise noted (e.g., "# contigs (>= 0 bp)" and "Total length (>= 0 bp)" include all contigs).

Assembly                       CLC_MIS_PE_sakai_mis-2_bi_2x150bp_default__sakai_mis-1_bi_2x150bp_default.0.925percent.result_broken  CLC_MIS_PE_sakai_mis-2_bi_2x150bp_default__sakai_mis-1_bi_2x150bp_default.0.925percent.result
#Contigs (>= 0 bp)             311                                                                                                   277                                                                                          
#Contigs (>= 1000 bp)          145                                                                                                   144                                                                                          
Total length (>= 0 bp)         5359222                                                                                               5362053                                                                                      
Total length (>= 1000 bp)      5294226                                                                                               5303723                                                                                      
#Contigs                       295                                                                                                   277                                                                                          
Largest contig                 313894                                                                                                374698                                                                                       
Total length                   5356751                                                                                               5362053                                                                                      
Reference length               5594470                                                                                               5594470                                                                                      
GC (%)                         50.29                                                                                                 50.29                                                                                        
Reference GC (%)               50.48                                                                                                 50.48                                                                                        
N50                            145600                                                                                                148157                                                                                       
NG50                           145332                                                                                                148157                                                                                       
N75                            73992                                                                                                 80043                                                                                        
NG75                           66151                                                                                                 73278                                                                                        
#misassemblies                 5                                                                                                     5                                                                                            
#local misassemblies           7                                                                                                     37                                                                                           
#unaligned contigs             3 + 1 part                                                                                            4 + 2 part                                                                                   
Unaligned contigs length       6064                                                                                                  6996                                                                                         
Genome fraction (%)            94.222                                                                                                94.478                                                                                       
Duplication ratio              1.004                                                                                                 1.005                                                                                        
#N's per 100 kbp               0.88                                                                                                  53.67                                                                                        
#mismatches per 100 kbp        3.00                                                                                                  3.75                                                                                         
#indels per 100 kbp            0.85                                                                                                  0.89                                                                                         
#genes                         4983 + 135 part                                                                                       4987 + 146 part                                                                              
#predicted genes (unique)      5261                                                                                                  5263                                                                                         
#predicted genes (>= 0 bp)     5262                                                                                                  5264                                                                                         
#predicted genes (>= 300 bp)   4429                                                                                                  4431                                                                                         
#predicted genes (>= 1500 bp)  669                                                                                                   669                                                                                          
#predicted genes (>= 3000 bp)  68                                                                                                    67                                                                                           
Largest alignment              313894                                                                                                361946                                                                                       
NA50                           145600                                                                                                147890                                                                                       
NGA50                          145332                                                                                                147890                                                                                       
NA75                           73992                                                                                                 80043                                                                                        
NGA75                          66151                                                                                                 73278                                                                                        
