Assembly	SOAP2_PGM_sakai_pgm_mu_200bp_IO_TS3.0Disabled_stringent.0.34percent_21.final.contig
#Mis_misassemblies	0
#Mis_relocations	0
#Mis_translocations	0
#Mis_inversions	0
#Mis_misassembled contigs	0
Mis_Misassembled contigs length	0
#Mis_local misassemblies	0
#mismatches	17
#indels	116
#Mis_short indels (<= 5 bp)	116
#Mis_long indels (> 5 bp)	0
Indels length	120
