All statistics are based on contigs of size >= 200 bp, unless otherwise noted (e.g., "# contigs (>= 0 bp)" and "Total length (>= 0 bp)" include all contigs).

Assembly                                                                            #Contigs (>= 0 bp)  #Contigs (>= 1000 bp)  Total length (>= 0 bp)  Total length (>= 1000 bp)  #Contigs  Largest contig  Total length  Reference length  GC (%)  Reference GC (%)  N50  NG50  N75  NG75  #misassemblies  #local misassemblies  #unaligned contigs  Unaligned contigs length  Genome fraction (%)  Duplication ratio  #N's per 100 kbp  #mismatches per 100 kbp  #indels per 100 kbp  #genes       #predicted genes (unique)  #predicted genes (>= 0 bp)  #predicted genes (>= 300 bp)  #predicted genes (>= 1500 bp)  #predicted genes (>= 3000 bp)  Largest alignment  NA50  NGA50  NA75  NGA75
ABYSS_PE_PGM_mrsa_pgm_200bp_es_316_IonOnev2_ts3.0_morestringent.1coverage_82.final  248                 2                      55591                   5613                       94        4451            28159         2813862           34.66   32.81             240  None  213  None  1               0                     0 + 0 part          0                         0.868                1.000              0.00              0.00                     49.14                2 + 82 part  89                         89                          9                             0                              0                              2717               224   None   204   None 
