Assembly	#Contigs (>= 0 bp)	#Contigs (>= 1000 bp)	Total length (>= 0 bp)	Total length (>= 1000 bp)	#Contigs	Largest contig	Total length	Reference length	GC (%)	Reference GC (%)	N50	NG50	N75	NG75	#misassemblies	#local misassemblies	#unaligned contigs	Unaligned contigs length	Genome fraction (%)	Duplication ratio	#N's per 100 kbp	#mismatches per 100 kbp	#indels per 100 kbp	#genes	#predicted genes (unique)	#predicted genes (>= 0 bp)	#predicted genes (>= 300 bp)	#predicted genes (>= 1500 bp)	#predicted genes (>= 3000 bp)	Largest alignment	NA50	NGA50	NA75	NGA75
SOAP2_MIS_PE_mrsa_mis-1_bi_2x250bp_default.0.460percent_29.final.scaf_broken	16130	607	4152809	898810	5596	4910	2760775	2813862	33.44	32.81	652	635	319	300	1	48	2234 + 11 part	605345	76.266	1.004	71.36	2.75	25.58	586 + 1873 part	6736	6736	2580	20	0	4910	614	600	240	221
SOAP2_MIS_PE_mrsa_mis-1_bi_2x250bp_default.0.460percent_29.final.scaf	14435	845	4220796	1569669	4643	7180	2928238	2813862	33.44	32.81	1085	1145	425	494	0	478	2431 + 166 part	1010165	65.467	1.041	2389.59	3.09	112.21	613 + 1565 part	6740	6740	2637	20	0	7143	566	626	None	None
