Assembly	VELVET_PGM_sakai_pgm_mu_200bp_IO_TS3.0Disabled_stringent.0.34percent_75.final.contigs
GAGE_Contigs #	1569
GAGE_Min contig	200
GAGE_Max contig	31271
GAGE_N50	7866 COUNT: 216
GAGE_Genome size	5594470
GAGE_Assembly size	5343872
GAGE_Chaff bases	0
GAGE_Missing reference bases	85547(1.53%)
GAGE_Missing assembly bases	1244(0.02%)
GAGE_Missing assembly contigs	0(0.00%)
GAGE_Duplicated reference bases	8210
GAGE_Compressed reference bases	249459
GAGE_Bad trim	394
GAGE_Avg idy	99.95
GAGE_SNPs	126
GAGE_Indels < 5bp	2082
GAGE_Indels >= 5	35
GAGE_Inversions	4
GAGE_Relocation	59
GAGE_Translocation	0
GAGE_Corrected contig #	1631
GAGE_Corrected assembly size	5337979
GAGE_Min correct contig	200
GAGE_Max correct contig	31199
GAGE_Corrected N50	7137 COUNT: 241
