Assembly	ABYSS_PE_PGM_sakai_pgm_mu_200bp_IO_TS3.0Disabled_stringent.0.34percent_36-unitigs
#Mis_misassemblies	2
#Mis_relocations	2
#Mis_translocations	0
#Mis_inversions	0
#Mis_misassembled contigs	2
Mis_Misassembled contigs length	8475
#Mis_local misassemblies	3
#mismatches	78
#indels	1066
#Mis_short indels (<= 5 bp)	1066
#Mis_long indels (> 5 bp)	0
Indels length	1108
