All statistics are based on contigs of size >= 200 bp, unless otherwise noted (e.g., "# contigs (>= 0 bp)" and "Total length (>= 0 bp)" include all contigs).

Assembly                                                                                            #Contigs  #Contigs (>= 0 bp)  #Contigs (>= 1000 bp)  Largest contig  Total length  Total length (>= 0 bp)  Total length (>= 1000 bp)  Reference length  N50     NG50    N75    NG75    L50  LG50  L75  LG75  #local misassemblies  #misassemblies  #misassembled contigs  Misassembled contigs length  Misassemblies inter-contig overlap  #unaligned contigs  Unaligned contigs length  #ambiguously mapped contigs  Extra bases in ambiguously mapped contigs  #N's  #N's per 100 kbp  Genome fraction (%)  Duplication ratio  #genes          #predicted genes (unique)  #predicted genes (>= 0 bp)  #predicted genes (>= 300 bp)  #predicted genes (>= 1500 bp)  #predicted genes (>= 3000 bp)  #mismatches  #indels  Indels length  #mismatches per 100 kbp  #indels per 100 kbp  GC (%)  Reference GC (%)  Average %IDY  Largest alignment  NA50    NGA50   NA75   NGA75  LA50  LGA50  LA75  LGA75  #Mis_misassemblies  #Mis_relocations  #Mis_translocations  #Mis_inversions  #Mis_misassembled contigs  Mis_Misassembled contigs length  #Mis_local misassemblies  #Mis_short indels (<= 5 bp)  #Mis_long indels (> 5 bp)  #Una_fully unaligned contigs  Una_Fully unaligned length  #Una_partially unaligned contigs  #Una_with misassembly  #Una_both parts are significant  Una_Partially unaligned length  GAGE_Contigs #  GAGE_Min contig  GAGE_Max contig  GAGE_N50         GAGE_Genome size  GAGE_Assembly size  GAGE_Chaff bases  GAGE_Missing reference bases  GAGE_Missing assembly bases  GAGE_Missing assembly contigs  GAGE_Duplicated reference bases  GAGE_Compressed reference bases  GAGE_Bad trim  GAGE_Avg idy  GAGE_SNPs  GAGE_Indels < 5bp  GAGE_Indels >= 5  GAGE_Inversions  GAGE_Relocation  GAGE_Translocation  GAGE_Corrected contig #  GAGE_Corrected assembly size  GAGE_Min correct contig  GAGE_Max correct contig  GAGE_Corrected N50
CLC_MIS_PE_mrsa_mis-1_bi_2x250bp_default__mrsa_mis-2_bi_2x250bp_default.0.750percent.result_broken  392       398                 33                     454255          2883420       2883917                 2781376                    2813862           149664  149664  88623  109190  6    6     12   11    3                     2               2                      162631                       759                                 351 + 0 part        103732                    8                            -7739                                      45    1.56              98.527               1.000              2690 + 15 part  2988                       2990                        2334                          297                            30                             50           14       142            1.80                     0.50                 33.40   32.81             98.597        454255             149389  149389  86633  88623  6     6      13    12     2                   2                 0                    0                2                          162631                           3                         10                           4                          351                           103732                      0                                 0                      0                                0                               392             200              454255           149664 COUNT: 6  2813862           2883420             0                 4400(0.16%)                   103749(3.60%)                351(89.54%)                    0                                31228                            0              99.99         33         9                  7                 0                2                0                   51                       2780435                       231                      328028                   145156 COUNT: 7   
CLC_MIS_PE_mrsa_mis-1_bi_2x250bp_default__mrsa_mis-2_bi_2x250bp_default.0.750percent.result         393       393                 32                     454255          2884146       2884146                 2781691                    2813862           149664  149664  88623  109190  6    6     12   11    3                     2               2                      162631                       759                                 354 + 0 part        104409                    8                            -7739                                      282   9.78              98.528               1.000              2691 + 14 part  2991                       2993                        2334                          297                            30                             50           14       142            1.80                     0.50                 33.40   32.81             98.597        454255             149389  149389  86633  88623  6     6      13    12     2                   2                 0                    0                2                          162631                           3                         10                           4                          354                           104409                      0                                 0                      0                                0                               393             200              454255           149664 COUNT: 6  2813862           2884146             0                 4389(0.16%)                   104444(3.62%)                354(90.08%)                    0                                31112                            18             99.99         33         9                  7                 0                2                0                   49                       2780466                       231                      328028                   145156 COUNT: 7   
