All statistics are based on contigs of size >= 200 bp, unless otherwise noted (e.g., "# contigs (>= 0 bp)" and "Total length (>= 0 bp)" include all contigs).

Assembly                                                                                                 GAGE_Contigs #  GAGE_Min contig  GAGE_Max contig  GAGE_N50         GAGE_Genome size  GAGE_Assembly size  GAGE_Chaff bases  GAGE_Missing reference bases  GAGE_Missing assembly bases  GAGE_Missing assembly contigs  GAGE_Duplicated reference bases  GAGE_Compressed reference bases  GAGE_Bad trim  GAGE_Avg idy  GAGE_SNPs  GAGE_Indels < 5bp  GAGE_Indels >= 5  GAGE_Inversions  GAGE_Relocation  GAGE_Translocation  GAGE_Corrected contig #  GAGE_Corrected assembly size  GAGE_Min correct contig  GAGE_Max correct contig  GAGE_Corrected N50
NEWBLER_MIS_PE_mrsa_mis-1_bi_2x150bp_default__mrsa_mis-2_bi_2x150bp_default.0.400percent.contigs_broken  69              720              207707           87104 COUNT: 11  2813862           2766703             0                 20749(0.74%)                  5387(0.19%)                  1(1.45%)                       0                                32230                            1              99.99         30         6                  2                 0                2                0                   72                       2762084                       720                      207707                   80021 COUNT: 12   
NEWBLER_MIS_PE_mrsa_mis-1_bi_2x150bp_default__mrsa_mis-2_bi_2x150bp_default.0.400percent.contigs         24              4440             578755           328215 COUNT: 3  2813862           2802144             0                 20749(0.74%)                  40828(1.46%)                 1(4.17%)                       0                                32223                            0              99.99         30         6                  34                0                7                0                   72                       2762084                       720                      207707                   80021 COUNT: 12   
