Assembly	#Mis_misassemblies	#Mis_relocations	#Mis_translocations	#Mis_inversions	#Mis_misassembled contigs	Mis_Misassembled contigs length	#Mis_local misassemblies	#mismatches	#indels	#Mis_short indels (<= 5 bp)	#Mis_long indels (> 5 bp)	Indels length
SOAP2_MIS_PE_mtbh37-1_mis_2x250bp_nextera_default_17.final.scaf_broken	1	1	0	0	1	229	0	319	10	10	0	10
SOAP2_MIS_PE_mtbh37-1_mis_2x250bp_nextera_default_17.final.scaf	1	1	0	0	1	229	3	339	10	10	0	10
