Assembly	SOAP2_PGM_mrsa_pgm_400bp_es_318_IKA_ts3.2_morestringent.0.165percent_71.final.contig
#Una_fully unaligned contigs	6331
Una_Fully unaligned length	1633785
#Una_partially unaligned contigs	535
#Una_with misassembly	0
#Una_both parts are significant	0
Una_Partially unaligned length	42414
#N's	0
