Assembly	CLC_PGM_sakai_pgm_mu_318_400bp_IO_TS3.4_ms.0.125percent.result
#Contigs	711
#Contigs (>= 0 bp)	711
#Contigs (>= 1000 bp)	302
Largest contig	128647
Total length	5403744
Total length (>= 0 bp)	5403744
Total length (>= 1000 bp)	5255540
Reference length	5594470
N50	36293
NG50	35382
N75	20646
NG75	18323
L50	47
LG50	50
L75	95
LG75	103
#local misassemblies	9
#misassemblies	6
#misassembled contigs	6
Misassembled contigs length	105273
Misassemblies inter-contig overlap	4484
#unaligned contigs	5 + 3 part
Unaligned contigs length	2859
#ambiguously mapped contigs	131
Extra bases in ambiguously mapped contigs	-92024
#N's	286
#N's per 100 kbp	5.29
Genome fraction (%)	94.051
Duplication ratio	1.010
#genes	4821 + 271 part
#predicted genes (unique)	5785
#predicted genes (>= 0 bp)	5788
#predicted genes (>= 300 bp)	4605
#predicted genes (>= 1500 bp)	607
#predicted genes (>= 3000 bp)	53
#mismatches	245
#indels	746
Indels length	839
#mismatches per 100 kbp	4.66
#indels per 100 kbp	14.18
GC (%)	50.29
Reference GC (%)	50.48
Average %IDY	98.985
Largest alignment	128647
NA50	36218
NGA50	35382
NA75	20044
NGA75	18323
LA50	47
LGA50	50
LA75	96
LGA75	103
#Mis_misassemblies	6
#Mis_relocations	6
#Mis_translocations	0
#Mis_inversions	0
#Mis_misassembled contigs	6
Mis_Misassembled contigs length	105273
#Mis_local misassemblies	9
#Mis_short indels (<= 5 bp)	740
#Mis_long indels (> 5 bp)	6
#Una_fully unaligned contigs	5
Una_Fully unaligned length	2706
#Una_partially unaligned contigs	3
#Una_with misassembly	0
#Una_both parts are significant	0
Una_Partially unaligned length	153
GAGE_Contigs #	711
GAGE_Min contig	200
GAGE_Max contig	128647
GAGE_N50	35382 COUNT: 50
GAGE_Genome size	5594470
GAGE_Assembly size	5403744
GAGE_Chaff bases	0
GAGE_Missing reference bases	37722(0.67%)
GAGE_Missing assembly bases	2899(0.05%)
GAGE_Missing assembly contigs	5(0.70%)
GAGE_Duplicated reference bases	53631
GAGE_Compressed reference bases	241080
GAGE_Bad trim	193
GAGE_Avg idy	99.98
GAGE_SNPs	167
GAGE_Indels < 5bp	695
GAGE_Indels >= 5	8
GAGE_Inversions	1
GAGE_Relocation	6
GAGE_Translocation	0
GAGE_Corrected contig #	550
GAGE_Corrected assembly size	5352298
GAGE_Min correct contig	200
GAGE_Max correct contig	128650
GAGE_Corrected N50	35090 COUNT: 52
