Assembly	NEWBLER_MIS_PE_sakai_mis-both_bi_2x250bp_SI_default.0.64percent.NEWBLER.contigs_broken	NEWBLER_MIS_PE_sakai_mis-both_bi_2x250bp_SI_default.0.64percent.NEWBLER.contigs
GAGE_Contigs #	161	94
GAGE_Min contig	538	2147
GAGE_Max contig	374758	374758
GAGE_N50	124153 COUNT: 15	148121 COUNT: 12
GAGE_Genome size	5594470	5594470
GAGE_Assembly size	5265858	5307060
GAGE_Chaff bases	0	0
GAGE_Missing reference bases	186162(3.33%)	186162(3.33%)
GAGE_Missing assembly bases	5395(0.10%)	46597(0.88%)
GAGE_Missing assembly contigs	1(0.62%)	1(1.06%)
GAGE_Duplicated reference bases	0	0
GAGE_Compressed reference bases	159771	158457
GAGE_Bad trim	2	1
GAGE_Avg idy	100.00	100.00
GAGE_SNPs	63	58
GAGE_Indels < 5bp	14	14
GAGE_Indels >= 5	5	56
GAGE_Inversions	0	5
GAGE_Relocation	2	11
GAGE_Translocation	0	0
GAGE_Corrected contig #	167	168
GAGE_Corrected assembly size	5261349	5262663
GAGE_Min correct contig	267	267
GAGE_Max correct contig	260358	260358
GAGE_Corrected N50	124153 COUNT: 16	124153 COUNT: 16
