Assembly	VELVET_PGM_mtbh37_pgm_400bp_es_318v2_OT2_tsv3.6_morestringent_61.final.contigs
#Mis_misassemblies	0
#Mis_relocations	0
#Mis_translocations	0
#Mis_inversions	0
#Mis_misassembled contigs	0
Mis_Misassembled contigs length	0
#Mis_local misassemblies	5
#mismatches	116
#indels	1359
#Mis_short indels (<= 5 bp)	1359
#Mis_long indels (> 5 bp)	0
Indels length	1426
