calling: java -cp /vol/ngscomparison/software/analysis/quast-2.1/libs/gage:. SizeFasta /vol/codine-tmp/juene/tmp.rm6RI1W3Zx/quast/corrected_input/MRSA_COL_Plasmid.fasta |awk '{SUM+=; print SUM}'|tail -n 1
Contig Stats
Total units: 895
Reference: 2813862
BasesInFasta: 883295
Min: 445
Max: 4662
N10: 1188 COUNT: 167
N25: 747 COUNT: 635
N50: 0 COUNT: 0
N75: 0 COUNT: 0
E-size:371.57

Genome Size: 2813862
Assembly Size: 883295
Chaff bases: 0
Missing Reference Bases: 1928011(68.52%)
Missing Assembly Bases: 12357(1.40%)
Missing Assembly Contigs: 3(0.34%)
Duplicated Reference Bases: 1112
Compressed Reference Bases: 42520
Bad Trim: 41
Avg Idy: 100.00
SNPs: 25
Indels < 5bp: 0
Indels >= 5: 81
Inversions: 0
Relocation: 2
Translocation: 0

Corrected Contig Stats
calling: java -cp /vol/ngscomparison/software/analysis/quast-2.1/libs/gage:.:. GetFastaStats -o -min 199 -genomeSize 2813862 /vol/codine-tmp/juene/tmp.rm6RI1W3Zx/quast/gage/tmp/VELVET_MIS_PE_mrsa_mis-1_bi_2x250bp_default__mrsa_mis-2_bi_2x250bp_default.0.460percent_223.final.contigs.matches.lens 2> /dev/null
Total units: 973
Reference: 2813862
BasesInFasta: 871346
Min: 445
Max: 3994
N10: 1005 COUNT: 210
N25: 721 COUNT: 717
N50: 0 COUNT: 0
N75: 0 COUNT: 0
E-size:316.3

Done
