Assembly	GAGE_Contigs #	GAGE_Min contig	GAGE_Max contig	GAGE_N50	GAGE_Genome size	GAGE_Assembly size	GAGE_Chaff bases	GAGE_Missing reference bases	GAGE_Missing assembly bases	GAGE_Missing assembly contigs	GAGE_Duplicated reference bases	GAGE_Compressed reference bases	GAGE_Bad trim	GAGE_Avg idy	GAGE_SNPs	GAGE_Indels < 5bp	GAGE_Indels >= 5	GAGE_Inversions	GAGE_Relocation	GAGE_Translocation	GAGE_Corrected contig #	GAGE_Corrected assembly size	GAGE_Min correct contig	GAGE_Max correct contig	GAGE_Corrected N50
ABYSS_PE_MIS_PE_mtbh37-1_mis_2x250bp_nextera_default__mtbh37-2_mis_2x250bp_nextera_default_68-scaffolds_broken	190	209	159329	61864 COUNT: 25	4411532	4419464	0	26173(0.59%)	991(0.02%)	0(0.00%)	10376	16158	951	99.99	249	62	29	1	2	0	215	4412240	209	159326	49283 COUNT: 29
ABYSS_PE_MIS_PE_mtbh37-1_mis_2x250bp_nextera_default__mtbh37-2_mis_2x250bp_nextera_default_68-scaffolds	147	209	207650	78349 COUNT: 17	4411532	4421927	0	26214(0.59%)	3323(0.08%)	0(0.00%)	9664	13461	1763	99.97	237	95	54	2	4	0	202	4413766	209	175808	56757 COUNT: 26
