All statistics are based on contigs of size >= 200 bp, unless otherwise noted (e.g., "# contigs (>= 0 bp)" and "Total length (>= 0 bp)" include all contigs).

Assembly                       ABYSS_PE_MIS_PE_mtbh37-1_mis_2x250bp_nextera_default__mtbh37-2_mis_2x250bp_nextera_default_68-scaffolds_broken  ABYSS_PE_MIS_PE_mtbh37-1_mis_2x250bp_nextera_default__mtbh37-2_mis_2x250bp_nextera_default_68-scaffolds
#Contigs (>= 0 bp)             266                                                                                                             222                                                                                                    
#Contigs (>= 1000 bp)          154                                                                                                             118                                                                                                    
Total length (>= 0 bp)         4428021                                                                                                         4430364                                                                                                
Total length (>= 1000 bp)      4400669                                                                                                         4406534                                                                                                
#Contigs                       190                                                                                                             147                                                                                                    
Largest contig                 159329                                                                                                          207650                                                                                                 
Total length                   4419464                                                                                                         4421927                                                                                                
Reference length               4411532                                                                                                         4411532                                                                                                
GC (%)                         65.54                                                                                                           65.54                                                                                                  
Reference GC (%)               65.61                                                                                                           65.61                                                                                                  
N50                            61864                                                                                                           78349                                                                                                  
NG50                           61864                                                                                                           78349                                                                                                  
N75                            33166                                                                                                           49283                                                                                                  
NG75                           33166                                                                                                           49283                                                                                                  
#misassemblies                 4                                                                                                               5                                                                                                      
#local misassemblies           21                                                                                                              28                                                                                                     
#unaligned contigs             0 + 1 part                                                                                                      1 + 1 part                                                                                             
Unaligned contigs length       91                                                                                                              949                                                                                                    
Genome fraction (%)            99.191                                                                                                          99.238                                                                                                 
Duplication ratio              1.016                                                                                                           1.020                                                                                                  
#N's per 100 kbp               1.88                                                                                                            54.86                                                                                                  
#mismatches per 100 kbp        7.43                                                                                                            7.47                                                                                                   
#indels per 100 kbp            1.74                                                                                                            4.75                                                                                                   
#genes                         3988 + 121 part                                                                                                 4017 + 93 part                                                                                         
#predicted genes (unique)      4086                                                                                                            4083                                                                                                   
#predicted genes (>= 0 bp)     4167                                                                                                            4163                                                                                                   
#predicted genes (>= 300 bp)   3662                                                                                                            3662                                                                                                   
#predicted genes (>= 1500 bp)  575                                                                                                             574                                                                                                    
#predicted genes (>= 3000 bp)  76                                                                                                              77                                                                                                     
Largest alignment              159329                                                                                                          207446                                                                                                 
NA50                           61864                                                                                                           74911                                                                                                  
NGA50                          61864                                                                                                           74911                                                                                                  
NA75                           33166                                                                                                           49283                                                                                                  
NGA75                          33166                                                                                                           49283                                                                                                  
