All statistics are based on contigs of size >= 200 bp, unless otherwise noted (e.g., "# contigs (>= 0 bp)" and "Total length (>= 0 bp)" include all contigs).

Assembly                                   ABYSS_PE_MIS_PE_mtbh37-1_mis_2x250bp_nextera_default__mtbh37-2_mis_2x250bp_nextera_default.0.400percent_56.final_broken  ABYSS_PE_MIS_PE_mtbh37-1_mis_2x250bp_nextera_default__mtbh37-2_mis_2x250bp_nextera_default.0.400percent_56.final
#Contigs                                   350                                                                                                                      293                                                                                                             
#Contigs (>= 0 bp)                         503                                                                                                                      445                                                                                                             
#Contigs (>= 1000 bp)                      277                                                                                                                      226                                                                                                             
Largest contig                             99127                                                                                                                    125260                                                                                                          
Total length                               4346920                                                                                                                  4349918                                                                                                         
Total length (>= 0 bp)                     4362376                                                                                                                  4365266                                                                                                         
Total length (>= 1000 bp)                  4308532                                                                                                                  4315765                                                                                                         
Reference length                           4411532                                                                                                                  4411532                                                                                                         
N50                                        26995                                                                                                                    41135                                                                                                           
NG50                                       26891                                                                                                                    40182                                                                                                           
N75                                        15184                                                                                                                    20425                                                                                                           
NG75                                       14754                                                                                                                    19103                                                                                                           
L50                                        47                                                                                                                       33                                                                                                              
LG50                                       48                                                                                                                       34                                                                                                              
L75                                        99                                                                                                                       71                                                                                                              
LG75                                       102                                                                                                                      73                                                                                                              
#local misassemblies                       18                                                                                                                       27                                                                                                              
#misassemblies                             2                                                                                                                        4                                                                                                               
#misassembled contigs                      2                                                                                                                        4                                                                                                               
Misassembled contigs length                6945                                                                                                                     137662                                                                                                          
Misassemblies inter-contig overlap         23630                                                                                                                    44952                                                                                                           
#unaligned contigs                         0 + 2 part                                                                                                               0 + 2 part                                                                                                      
Unaligned contigs length                   952                                                                                                                      952                                                                                                             
#ambiguously mapped contigs                7                                                                                                                        7                                                                                                               
Extra bases in ambiguously mapped contigs  -3524                                                                                                                    -3524                                                                                                           
#N's                                       58                                                                                                                       2948                                                                                                            
#N's per 100 kbp                           1.33                                                                                                                     67.77                                                                                                           
Genome fraction (%)                        98.211                                                                                                                   98.283                                                                                                          
Duplication ratio                          1.008                                                                                                                    1.013                                                                                                           
#genes                                     3863 + 221 part                                                                                                          3906 + 178 part                                                                                                 
#predicted genes (unique)                  4180                                                                                                                     4163                                                                                                            
#predicted genes (>= 0 bp)                 4214                                                                                                                     4197                                                                                                            
#predicted genes (>= 300 bp)               3642                                                                                                                     3641                                                                                                            
#predicted genes (>= 1500 bp)              557                                                                                                                      556                                                                                                             
#predicted genes (>= 3000 bp)              69                                                                                                                       69                                                                                                              
#mismatches                                290                                                                                                                      294                                                                                                             
#indels                                    81                                                                                                                       403                                                                                                             
Indels length                              429                                                                                                                      1166                                                                                                            
#mismatches per 100 kbp                    6.69                                                                                                                     6.78                                                                                                            
#indels per 100 kbp                        1.87                                                                                                                     9.29                                                                                                            
GC (%)                                     65.48                                                                                                                    65.48                                                                                                           
Reference GC (%)                           65.61                                                                                                                    65.61                                                                                                           
Average %IDY                               99.861                                                                                                                   99.834                                                                                                          
Largest alignment                          99127                                                                                                                    125138                                                                                                          
NA50                                       26995                                                                                                                    39396                                                                                                           
NGA50                                      26891                                                                                                                    39396                                                                                                           
NA75                                       15184                                                                                                                    20425                                                                                                           
NGA75                                      14754                                                                                                                    19103                                                                                                           
LA50                                       47                                                                                                                       34                                                                                                              
LGA50                                      48                                                                                                                       34                                                                                                              
LA75                                       99                                                                                                                       72                                                                                                              
LGA75                                      102                                                                                                                      74                                                                                                              
#Mis_misassemblies                         2                                                                                                                        4                                                                                                               
#Mis_relocations                           2                                                                                                                        4                                                                                                               
#Mis_translocations                        0                                                                                                                        0                                                                                                               
#Mis_inversions                            0                                                                                                                        0                                                                                                               
#Mis_misassembled contigs                  2                                                                                                                        4                                                                                                               
Mis_Misassembled contigs length            6945                                                                                                                     137662                                                                                                          
#Mis_local misassemblies                   18                                                                                                                       27                                                                                                              
#Mis_short indels (<= 5 bp)                63                                                                                                                       358                                                                                                             
#Mis_long indels (> 5 bp)                  18                                                                                                                       45                                                                                                              
#Una_fully unaligned contigs               0                                                                                                                        0                                                                                                               
Una_Fully unaligned length                 0                                                                                                                        0                                                                                                               
#Una_partially unaligned contigs           2                                                                                                                        2                                                                                                               
#Una_with misassembly                      0                                                                                                                        0                                                                                                               
#Una_both parts are significant            1                                                                                                                        1                                                                                                               
Una_Partially unaligned length             952                                                                                                                      952                                                                                                             
GAGE_Contigs #                             350                                                                                                                      293                                                                                                             
GAGE_Min contig                            201                                                                                                                      201                                                                                                             
GAGE_Max contig                            99127                                                                                                                    125260                                                                                                          
GAGE_N50                                   26891 COUNT: 48                                                                                                          40182 COUNT: 34                                                                                                 
GAGE_Genome size                           4411532                                                                                                                  4411532                                                                                                         
GAGE_Assembly size                         4346920                                                                                                                  4349918                                                                                                         
GAGE_Chaff bases                           0                                                                                                                        0                                                                                                               
GAGE_Missing reference bases               48626(1.10%)                                                                                                             48277(1.09%)                                                                                                    
GAGE_Missing assembly bases                970(0.02%)                                                                                                               3535(0.08%)                                                                                                     
GAGE_Missing assembly contigs              0(0.00%)                                                                                                                 0(0.00%)                                                                                                        
GAGE_Duplicated reference bases            946                                                                                                                      744                                                                                                             
GAGE_Compressed reference bases            45016                                                                                                                    43902                                                                                                           
GAGE_Bad trim                              955                                                                                                                      955                                                                                                             
GAGE_Avg idy                               99.99                                                                                                                    99.98                                                                                                           
GAGE_SNPs                                  183                                                                                                                      166                                                                                                             
GAGE_Indels < 5bp                          62                                                                                                                       80                                                                                                              
GAGE_Indels >= 5                           29                                                                                                                       73                                                                                                              
GAGE_Inversions                            0                                                                                                                        1                                                                                                               
GAGE_Relocation                            5                                                                                                                        8                                                                                                               
GAGE_Translocation                         0                                                                                                                        0                                                                                                               
GAGE_Corrected contig #                    383                                                                                                                      377                                                                                                             
GAGE_Corrected assembly size               4349304                                                                                                                  4351011                                                                                                         
GAGE_Min correct contig                    201                                                                                                                      201                                                                                                             
GAGE_Max correct contig                    99125                                                                                                                    99125                                                                                                           
GAGE_Corrected N50                         24386 COUNT: 56                                                                                                          25631 COUNT: 54                                                                                                 
