calling: java -cp /vol/ngscomparison/software/analysis/quast-2.1/libs/gage:. SizeFasta /vol/codine-tmp/juene/tmp.drebuQ1L2Z/quast/corrected_input/Mycobacterium_tuberculosis_H37Rv.fasta |awk '{SUM+=; print SUM}'|tail -n 1
Contig Stats
Total units: 20513
Reference: 4411532
BasesInFasta: 4888242
Min: 213
Max: 725
N10: 304 COUNT: 1264
N25: 265 COUNT: 3613
N50: 231 COUNT: 8100
N75: 213 COUNT: 13098
E-size:271.08

Genome Size: 4411532
Assembly Size: 4888242
Chaff bases: 0
Missing Reference Bases: 1703515(38.62%)
Missing Assembly Bases: 1920(0.04%)
Missing Assembly Contigs: 2(0.01%)
Duplicated Reference Bases: 1560292
Compressed Reference Bases: 52079
Bad Trim: 1184
Avg Idy: 99.10
SNPs: 3511
Indels < 5bp: 17129
Indels >= 5: 14
Inversions: 71
Relocation: 31
Translocation: 0

Corrected Contig Stats
calling: java -cp /vol/ngscomparison/software/analysis/quast-2.1/libs/gage:.:. GetFastaStats -o -min 199 -genomeSize 4411532 /vol/codine-tmp/juene/tmp.drebuQ1L2Z/quast/gage/tmp/VELVET_PGM_mtbh37_pgm_400bp_es_318v2_OT2_tsv3.6_morestringent_107.final.contigs.matches.lens 2> /dev/null
Total units: 13645
Reference: 4411532
BasesInFasta: 3266246
Min: 200
Max: 726
N10: 292 COUNT: 1307
N25: 248 COUNT: 3787
N50: 214 COUNT: 8659
N75: 106 COUNT: 13959
E-size:182.62

Done
