calling: java -cp /vol/ngscomparison/software/analysis/quast-2.1/libs/gage:. SizeFasta /vol/codine-tmp/juene/tmp.TIolYrQMp1/quast/corrected_input/Ecoli_Sakai_editedNew_plasmids.fasta |awk '{SUM+=; print SUM}'|tail -n 1
Contig Stats
Total units: 1217
Reference: 5594470
BasesInFasta: 5316885
Min: 200
Max: 55624
N10: 29638 COUNT: 16
N25: 20404 COUNT: 51
N50: 11549 COUNT: 143
N75: 5009 COUNT: 319
E-size:13891.66

Genome Size: 5594470
Assembly Size: 5316885
Chaff bases: 0
Missing Reference Bases: 141436(2.53%)
Missing Assembly Bases: 2(0.00%)
Missing Assembly Contigs: 0(0.00%)
Duplicated Reference Bases: 8763
Compressed Reference Bases: 198860
Bad Trim: 2
Avg Idy: 99.99
SNPs: 66
Indels < 5bp: 276
Indels >= 5: 3
Inversions: 0
Relocation: 7
Translocation: 0

Corrected Contig Stats
calling: java -cp /vol/ngscomparison/software/analysis/quast-2.1/libs/gage:.:. GetFastaStats -o -min 199 -genomeSize 5594470 /vol/codine-tmp/juene/tmp.TIolYrQMp1/quast/gage/tmp/ABYSS_PE_PGM_sakai_pgm_mu_318_400bp_IO_TS3.4_ms_0.395percent_90-unitigs.matches.lens 2> /dev/null
Total units: 1191
Reference: 5594470
BasesInFasta: 5308890
Min: 200
Max: 55626
N10: 28834 COUNT: 16
N25: 20287 COUNT: 51
N50: 11525 COUNT: 144
N75: 4971 COUNT: 323
E-size:13752.75

Done
