Assembly	#Contigs	#Contigs (>= 0 bp)	#Contigs (>= 1000 bp)	Largest contig	Total length	Total length (>= 0 bp)	Total length (>= 1000 bp)	Reference length	N50	NG50	N75	NG75	L50	LG50	L75	LG75	#local misassemblies	#misassemblies	#misassembled contigs	Misassembled contigs length	Misassemblies inter-contig overlap	#unaligned contigs	Unaligned contigs length	#ambiguously mapped contigs	Extra bases in ambiguously mapped contigs	#N's	#N's per 100 kbp	Genome fraction (%)	Duplication ratio	#genes	#predicted genes (unique)	#predicted genes (>= 0 bp)	#predicted genes (>= 300 bp)	#predicted genes (>= 1500 bp)	#predicted genes (>= 3000 bp)	#mismatches	#indels	Indels length	#mismatches per 100 kbp	#indels per 100 kbp	GC (%)	Reference GC (%)	Average %IDY	Largest alignment	NA50	NGA50	NA75	NGA75	LA50	LGA50	LA75	LGA75	#Mis_misassemblies	#Mis_relocations	#Mis_translocations	#Mis_inversions	#Mis_misassembled contigs	Mis_Misassembled contigs length	#Mis_local misassemblies	#Mis_short indels (<= 5 bp)	#Mis_long indels (> 5 bp)	#Una_fully unaligned contigs	Una_Fully unaligned length	#Una_partially unaligned contigs	#Una_with misassembly	#Una_both parts are significant	Una_Partially unaligned length	GAGE_Contigs #	GAGE_Min contig	GAGE_Max contig	GAGE_N50	GAGE_Genome size	GAGE_Assembly size	GAGE_Chaff bases	GAGE_Missing reference bases	GAGE_Missing assembly bases	GAGE_Missing assembly contigs	GAGE_Duplicated reference bases	GAGE_Compressed reference bases	GAGE_Bad trim	GAGE_Avg idy	GAGE_SNPs	GAGE_Indels < 5bp	GAGE_Indels >= 5	GAGE_Inversions	GAGE_Relocation	GAGE_Translocation	GAGE_Corrected contig #	GAGE_Corrected assembly size	GAGE_Min correct contig	GAGE_Max correct contig	GAGE_Corrected N50
ABYSS_PE_MIS_PE_mtbh37-1_mis_2x250bp_nextera_default__mtbh37-2_mis_2x250bp_nextera_default_114-scaffolds_broken	226	253	187	118591	4417466	4421416	4398937	4411532	49134	49134	25253	25253	29	29	61	61	14	7	6	31880	44071	1 + 1 part	305	14	-9716	74	1.68	99.102	1.018	3951 + 158 part	4116	4193	3660	575	74	274	106	387	6.27	2.42	65.53	65.61	99.740	118591	49134	49134	25253	25253	29	29	61	61	7	7	0	0	6	31880	14	95	11	1	227	1	0	0	78	226	201	118591	49134 COUNT: 29	4411532	4417466	0	31643(0.72%)	1084(0.02%)	0(0.00%)	14626	27588	1050	99.99	208	76	22	0	3	0	237	4406010	217	118590	41238 COUNT: 34
ABYSS_PE_MIS_PE_mtbh37-1_mis_2x250bp_nextera_default__mtbh37-2_mis_2x250bp_nextera_default_114-scaffolds	175	202	137	163032	4420049	4423999	4402275	4411532	68181	68181	37176	37176	21	21	42	42	24	7	6	31880	44071	1 + 1 part	305	14	-9716	2657	60.11	99.136	1.018	3990 + 119 part	4106	4183	3655	572	75	277	402	1117	6.33	9.19	65.53	65.61	99.728	162982	68181	68181	37176	37176	21	21	42	42	7	7	0	0	6	31880	24	368	34	1	227	1	0	0	78	175	201	163032	68181 COUNT: 21	4411532	4420049	0	31354(0.71%)	3381(0.08%)	0(0.00%)	14626	27588	1050	99.98	208	99	65	0	3	0	229	4406299	217	118590	41715 COUNT: 32
