Assembly	ABYSS_PE_MIS_PE_mtbh37-1_mis_2x250bp_nextera_default__mtbh37-2_mis_2x250bp_nextera_default_54-scaffolds_broken	ABYSS_PE_MIS_PE_mtbh37-1_mis_2x250bp_nextera_default__mtbh37-2_mis_2x250bp_nextera_default_54-scaffolds
#Contigs	200	155
#Contigs (>= 0 bp)	322	275
#Contigs (>= 1000 bp)	160	126
Largest contig	170858	207577
Total length	4442586	4445500
Total length (>= 0 bp)	4454549	4457272
Total length (>= 1000 bp)	4422460	4429699
Reference length	4411532	4411532
N50	62817	81568
NG50	62817	81568
N75	31367	43697
NG75	31367	49283
L50	22	18
LG50	22	18
L75	47	36
LG75	47	35
#local misassemblies	24	36
#misassemblies	3	3
#misassembled contigs	3	3
Misassembled contigs length	8804	8804
Misassemblies inter-contig overlap	23681	38051
#unaligned contigs	0 + 0 part	1 + 0 part
Unaligned contigs length	0	858
#ambiguously mapped contigs	9	6
Extra bases in ambiguously mapped contigs	-5762	-4518
#N's	54	2777
#N's per 100 kbp	1.22	62.47
Genome fraction (%)	99.267	99.290
Duplication ratio	1.019	1.022
#genes	3985 + 122 part	4008 + 99 part
#predicted genes (unique)	4095	4081
#predicted genes (>= 0 bp)	4194	4181
#predicted genes (>= 300 bp)	3681	3676
#predicted genes (>= 1500 bp)	582	583
#predicted genes (>= 3000 bp)	76	76
#mismatches	347	349
#indels	89	140
Indels length	513	883
#mismatches per 100 kbp	7.92	7.97
#indels per 100 kbp	2.03	3.20
GC (%)	65.55	65.55
Reference GC (%)	65.61	65.61
Average %IDY	99.826	99.815
Largest alignment	170858	207360
NA50	62817	81568
NGA50	62817	81568
NA75	31367	43697
NGA75	31367	49283
LA50	22	18
LGA50	22	18
LA75	47	36
LGA75	47	35
#Mis_misassemblies	3	3
#Mis_relocations	3	3
#Mis_translocations	0	0
#Mis_inversions	0	0
#Mis_misassembled contigs	3	3
Mis_Misassembled contigs length	8804	8804
#Mis_local misassemblies	24	36
#Mis_short indels (<= 5 bp)	72	109
#Mis_long indels (> 5 bp)	17	31
#Una_fully unaligned contigs	0	1
Una_Fully unaligned length	0	858
#Una_partially unaligned contigs	0	0
#Una_with misassembly	0	0
#Una_both parts are significant	0	0
Una_Partially unaligned length	0	0
GAGE_Contigs #	200	155
GAGE_Min contig	203	203
GAGE_Max contig	170858	207577
GAGE_N50	62817 COUNT: 22	81568 COUNT: 18
GAGE_Genome size	4411532	4411532
GAGE_Assembly size	4442586	4445500
GAGE_Chaff bases	0	0
GAGE_Missing reference bases	23819(0.54%)	23922(0.54%)
GAGE_Missing assembly bases	853(0.02%)	3684(0.08%)
GAGE_Missing assembly contigs	0(0.00%)	0(0.00%)
GAGE_Duplicated reference bases	32293	31693
GAGE_Compressed reference bases	16763	14480
GAGE_Bad trim	847	1592
GAGE_Avg idy	99.98	99.97
GAGE_SNPs	263	263
GAGE_Indels < 5bp	68	107
GAGE_Indels >= 5	33	58
GAGE_Inversions	0	0
GAGE_Relocation	2	6
GAGE_Translocation	0	0
GAGE_Corrected contig #	230	214
GAGE_Corrected assembly size	4414208	4414798
GAGE_Min correct contig	203	203
GAGE_Max correct contig	145199	160718
GAGE_Corrected N50	47616 COUNT: 28	57084 COUNT: 26
