Assembly	GAGE_Contigs #	GAGE_Min contig	GAGE_Max contig	GAGE_N50	GAGE_Genome size	GAGE_Assembly size	GAGE_Chaff bases	GAGE_Missing reference bases	GAGE_Missing assembly bases	GAGE_Missing assembly contigs	GAGE_Duplicated reference bases	GAGE_Compressed reference bases	GAGE_Bad trim	GAGE_Avg idy	GAGE_SNPs	GAGE_Indels < 5bp	GAGE_Indels >= 5	GAGE_Inversions	GAGE_Relocation	GAGE_Translocation	GAGE_Corrected contig #	GAGE_Corrected assembly size	GAGE_Min correct contig	GAGE_Max correct contig	GAGE_Corrected N50
VELVET_MIS_PE_mrsa_mis-1_bi_2x250bp_default__mrsa_mis-2_bi_2x250bp_default.0.460percent_97.final.contigs_broken	75	201	498738	116326 COUNT: 8	2813862	2789186	0	1806(0.06%)	5207(0.19%)	1(1.33%)	501	35572	10	99.99	43	15	2	0	2	0	76	2783760	201	498737	89529 COUNT: 9
VELVET_MIS_PE_mrsa_mis-1_bi_2x250bp_default__mrsa_mis-2_bi_2x250bp_default.0.460percent_97.final.contigs	64	201	498738	133329 COUNT: 6	2813862	2790288	0	1689(0.06%)	5880(0.21%)	1(1.56%)	459	34974	10	99.99	46	22	6	3	2	0	75	2784090	201	498737	109301 COUNT: 8
