1: PREPARING DATA
2,3: RUNNING mummer AND CREATING CLUSTERS
# reading input file "/vol/codine-tmp/juene/tmp.hLrz2GVlY5/quast/gage/tmp/SOAP2_MIS_PE_sakai_mis-1_bi_2x150bp_default.0.826percent_115.final.scaf_broken.ntref" of length 5594473
# construct suffix tree for sequence of length 5594473
# (maximum reference length is 536870908)
# (maximum query length is 4294967295)
# process 55944 characters per dot
#....................................................................................................
# CONSTRUCTIONTIME /vol/ngscomparison/software/analysis/quast-2.1/libs/MUMmer3.23-linux/mummer /vol/codine-tmp/juene/tmp.hLrz2GVlY5/quast/gage/tmp/SOAP2_MIS_PE_sakai_mis-1_bi_2x150bp_default.0.826percent_115.final.scaf_broken.ntref 4.62
# reading input file "/vol/codine-tmp/juene/tmp.hLrz2GVlY5/quast/corrected_input/SOAP2_MIS_PE_sakai_mis-1_bi_2x150bp_default.0.826percent_115.final.scaf_broken" of length 5447906
# matching query-file "/vol/codine-tmp/juene/tmp.hLrz2GVlY5/quast/corrected_input/SOAP2_MIS_PE_sakai_mis-1_bi_2x150bp_default.0.826percent_115.final.scaf_broken"
# against subject-file "/vol/codine-tmp/juene/tmp.hLrz2GVlY5/quast/gage/tmp/SOAP2_MIS_PE_sakai_mis-1_bi_2x150bp_default.0.826percent_115.final.scaf_broken.ntref"
# COMPLETETIME /vol/ngscomparison/software/analysis/quast-2.1/libs/MUMmer3.23-linux/mummer /vol/codine-tmp/juene/tmp.hLrz2GVlY5/quast/gage/tmp/SOAP2_MIS_PE_sakai_mis-1_bi_2x150bp_default.0.826percent_115.final.scaf_broken.ntref 12.56
# SPACE /vol/ngscomparison/software/analysis/quast-2.1/libs/MUMmer3.23-linux/mummer /vol/codine-tmp/juene/tmp.hLrz2GVlY5/quast/gage/tmp/SOAP2_MIS_PE_sakai_mis-1_bi_2x150bp_default.0.826percent_115.final.scaf_broken.ntref 10.72
4: FINISHING DATA
Filtering alignments
Extracting alignment coordinates
Analyzing SNPs
Extracting alignment breakpoints
Generating report file
Found genome size at position 4 with value 5594470 aka 5594470
Calculating point at 0 and the sum is 1019886 and i is1155 and lens is 1178 and length is 32967
Calculating point at 1 and the sum is 2001535 and i is1119 and lens is 1178 and length is 23765
Calculating point at 2 and the sum is 3001353 and i is1063 and lens is 1178 and length is 14247
Calculating point at 3 and the sum is 4007355 and i is971 and lens is 1178 and length is 8270
Calculating point at 4 and the sum is 5001374 and i is766 and lens is 1178 and length is 2433
