Assembly	VELVET_PGM_sakai_pgm_mu_200bp_IO_TS3.0Disabled_stringent.0.34percent_77.final.contigs
#Mis_misassemblies	53
#Mis_relocations	50
#Mis_translocations	0
#Mis_inversions	3
#Mis_misassembled contigs	48
Mis_Misassembled contigs length	342418
#Mis_local misassemblies	34
#mismatches	254
#indels	2267
#Mis_short indels (<= 5 bp)	2246
#Mis_long indels (> 5 bp)	21
Indels length	3657
