Assembly	ABYSS_PE_MIS_PE_mrsa_mis-1_bi_2x150bp_default__mrsa_mis-2_bi_2x150bp_default.0.527percent_118-scaffolds_broken	ABYSS_PE_MIS_PE_mrsa_mis-1_bi_2x150bp_default__mrsa_mis-2_bi_2x150bp_default.0.527percent_118-scaffolds
#Contigs (>= 0 bp)	266	234
#Contigs (>= 1000 bp)	210	184
Total length (>= 0 bp)	2822784	2824718
Total length (>= 1000 bp)	2804355	2809832
#Contigs	242	210
Largest contig	66326	87414
Total length	2819310	2821244
Reference length	2813862	2813862
GC (%)	32.87	32.87
Reference GC (%)	32.81	32.81
N50	22891	29703
NG50	22891	29703
N75	12948	14258
NG75	13097	14396
#misassemblies	3	4
#local misassemblies	2	14
#unaligned contigs	2 + 0 part	2 + 0 part
Unaligned contigs length	470	470
Genome fraction (%)	99.129	99.207
Duplication ratio	1.005	1.006
#N's per 100 kbp	1.42	69.97
#mismatches per 100 kbp	1.72	1.72
#indels per 100 kbp	1.11	13.15
#genes	2571 + 145 part	2587 + 131 part
#predicted genes (unique)	2739	2731
#predicted genes (>= 0 bp)	2748	2738
#predicted genes (>= 300 bp)	2319	2318
#predicted genes (>= 1500 bp)	287	287
#predicted genes (>= 3000 bp)	29	29
Largest alignment	66326	87243
NA50	22775	29653
NGA50	22891	29653
NA75	12948	14258
NGA75	13097	14396
