calling: java -cp /vol/ngscomparison/software/analysis/quast-2.1/libs/gage:. SizeFasta /vol/codine-tmp/juene/tmp.Z9VPhax2Qr/quast/corrected_input/MRSA_COL_Plasmid.fasta |awk '{SUM+=; print SUM}'|tail -n 1
Contig Stats
Total units: 636
Reference: 2813862
BasesInFasta: 333865
Min: 277
Max: 4578
N10: 433 COUNT: 499
N25: 0 COUNT: 0
N50: 0 COUNT: 0
N75: 0 COUNT: 0
E-size:74.11

Genome Size: 2813862
Assembly Size: 333865
Chaff bases: 0
Missing Reference Bases: 2452904(87.17%)
Missing Assembly Bases: 66(0.02%)
Missing Assembly Contigs: 0(0.00%)
Duplicated Reference Bases: 1353
Compressed Reference Bases: 40030
Bad Trim: 66
Avg Idy: 100.00
SNPs: 10
Indels < 5bp: 1
Indels >= 5: 0
Inversions: 0
Relocation: 1
Translocation: 0

Corrected Contig Stats
calling: java -cp /vol/ngscomparison/software/analysis/quast-2.1/libs/gage:.:. GetFastaStats -o -min 199 -genomeSize 2813862 /vol/codine-tmp/juene/tmp.Z9VPhax2Qr/quast/gage/tmp/VELVET_MIS_PE_mrsa_mis-1_bi_2x150bp_default__mrsa_mis-2_bi_2x150bp_default.0.527percent_139.final.contigs_broken.matches.lens 2> /dev/null
Total units: 633
Reference: 2813862
BasesInFasta: 332447
Min: 277
Max: 3278
N10: 432 COUNT: 501
N25: 0 COUNT: 0
N50: 0 COUNT: 0
N75: 0 COUNT: 0
E-size:70.87

Done
