Assembly	CLC_MIS_PE_mrsa_mis-1_bi_2x250bp_default__mrsa_mis-2_bi_2x250bp_default.96coverage.result_broken	CLC_MIS_PE_mrsa_mis-1_bi_2x250bp_default__mrsa_mis-2_bi_2x250bp_default.96coverage.result
GAGE_Contigs #	288	286
GAGE_Min contig	200	200
GAGE_Max contig	453566	453566
GAGE_N50	177212 COUNT: 5	179469 COUNT: 5
GAGE_Genome size	2813862	2813862
GAGE_Assembly size	2848111	2848345
GAGE_Chaff bases	0	0
GAGE_Missing reference bases	8159(0.29%)	8159(0.29%)
GAGE_Missing assembly bases	71482(2.51%)	71716(2.52%)
GAGE_Missing assembly contigs	245(85.07%)	245(85.66%)
GAGE_Duplicated reference bases	503	503
GAGE_Compressed reference bases	29646	29646
GAGE_Bad trim	96	280
GAGE_Avg idy	99.99	99.99
GAGE_SNPs	43	43
GAGE_Indels < 5bp	9	9
GAGE_Indels >= 5	12	13
GAGE_Inversions	0	0
GAGE_Relocation	1	1
GAGE_Translocation	0	0
GAGE_Corrected contig #	55	55
GAGE_Corrected assembly size	2777999	2777999
GAGE_Min correct contig	214	214
GAGE_Max correct contig	397486	397486
GAGE_Corrected N50	129860 COUNT: 8	129860 COUNT: 8
