Assembly	SOAP2_PGM_sakai_pgm_mu_200bp_IO_TS3.0Disabled_stringent.0.34percent_103.final.contig
#Contigs	24906
#Contigs (>= 0 bp)	33529
#Contigs (>= 1000 bp)	1337
Largest contig	4458
Total length	8579894
Total length (>= 0 bp)	9844448
Total length (>= 1000 bp)	1957645
Reference length	5594470
N50	381
NG50	749
N75	205
NG75	404
L50	5102
LG50	2314
L75	14367
LG75	4863
#local misassemblies	0
#misassemblies	18
#misassembled contigs	18
Misassembled contigs length	6579
Misassemblies inter-contig overlap	210
#unaligned contigs	0 + 4 part
Unaligned contigs length	150
#ambiguously mapped contigs	861
Extra bases in ambiguously mapped contigs	-194664
#N's	0
#N's per 100 kbp	0.00
Genome fraction (%)	93.915
Duplication ratio	1.596
#genes	1330 + 3825 part
#predicted genes (unique)	25749
#predicted genes (>= 0 bp)	26109
#predicted genes (>= 300 bp)	5913
#predicted genes (>= 1500 bp)	56
#predicted genes (>= 3000 bp)	1
#mismatches	92
#indels	2594
Indels length	2674
#mismatches per 100 kbp	1.75
#indels per 100 kbp	49.37
GC (%)	50.70
Reference GC (%)	50.48
Average %IDY	99.617
Largest alignment	4458
NA50	379
NGA50	747
NA75	205
NGA75	401
LA50	5115
LGA50	2315
LA75	14464
LGA75	4874
#Mis_misassemblies	18
#Mis_relocations	5
#Mis_translocations	0
#Mis_inversions	13
#Mis_misassembled contigs	18
Mis_Misassembled contigs length	6579
#Mis_local misassemblies	0
#Mis_short indels (<= 5 bp)	2594
#Mis_long indels (> 5 bp)	0
#Una_fully unaligned contigs	0
Una_Fully unaligned length	0
#Una_partially unaligned contigs	4
#Una_with misassembly	0
#Una_both parts are significant	0
Una_Partially unaligned length	150
GAGE_Contigs #	24906
GAGE_Min contig	200
GAGE_Max contig	4458
GAGE_N50	749 COUNT: 2314
GAGE_Genome size	5594470
GAGE_Assembly size	8579894
GAGE_Chaff bases	0
GAGE_Missing reference bases	50555(0.90%)
GAGE_Missing assembly bases	404(0.00%)
GAGE_Missing assembly contigs	0(0.00%)
GAGE_Duplicated reference bases	2624773
GAGE_Compressed reference bases	279928
GAGE_Bad trim	404
GAGE_Avg idy	99.96
GAGE_SNPs	54
GAGE_Indels < 5bp	1436
GAGE_Indels >= 5	0
GAGE_Inversions	0
GAGE_Relocation	3
GAGE_Translocation	0
GAGE_Corrected contig #	12124
GAGE_Corrected assembly size	5948302
GAGE_Min correct contig	200
GAGE_Max correct contig	4458
GAGE_Corrected N50	748 COUNT: 2314
