Assembly	VELVET_PGM_sakai_pgm_mu_200bp_IO_TS3.0Disabled_stringent.0.34percent_183.final.contigs
#Contigs (>= 0 bp)	1256
#Contigs (>= 1000 bp)	57
Total length (>= 0 bp)	850014
Total length (>= 1000 bp)	66168
#Contigs	1256
Largest contig	1657
Total length	850014
Reference length	5594470
GC (%)	52.09
Reference GC (%)	50.48
N50	652
NG50	None
N75	590
NG75	None
#misassemblies	1
#local misassemblies	0
#unaligned contigs	0 + 36 part
Unaligned contigs length	929
Genome fraction (%)	14.625
Duplication ratio	1.009
#N's per 100 kbp	0.00
#mismatches per 100 kbp	5.62
#indels per 100 kbp	67.22
#genes	116 + 1224 part
#predicted genes (unique)	1639
#predicted genes (>= 0 bp)	1639
#predicted genes (>= 300 bp)	1207
#predicted genes (>= 1500 bp)	1
#predicted genes (>= 3000 bp)	0
Largest alignment	1657
NA50	646
NGA50	None
NA75	585
NGA75	None
