1: PREPARING DATA
2,3: RUNNING mummer AND CREATING CLUSTERS
# reading input file "/vol/codine-tmp/juene/tmp.ruOXIFfNVS/quast/gage/tmp/ABYSS_PE_MIS_PE_mtbh37-1_mis_2x250bp_nextera_default__mtbh37-2_mis_2x250bp_nextera_default_82-scaffolds_broken.ntref" of length 4411533
# construct suffix tree for sequence of length 4411533
# (maximum reference length is 536870908)
# (maximum query length is 4294967295)
# process 44115 characters per dot
#....................................................................................................
# CONSTRUCTIONTIME /vol/ngscomparison/software/analysis/quast-2.1/libs/MUMmer3.23-linux/mummer /vol/codine-tmp/juene/tmp.ruOXIFfNVS/quast/gage/tmp/ABYSS_PE_MIS_PE_mtbh37-1_mis_2x250bp_nextera_default__mtbh37-2_mis_2x250bp_nextera_default_82-scaffolds_broken.ntref 2.71
# reading input file "/vol/codine-tmp/juene/tmp.ruOXIFfNVS/quast/corrected_input/ABYSS_PE_MIS_PE_mtbh37-1_mis_2x250bp_nextera_default__mtbh37-2_mis_2x250bp_nextera_default_82-scaffolds_broken" of length 4420588
# matching query-file "/vol/codine-tmp/juene/tmp.ruOXIFfNVS/quast/corrected_input/ABYSS_PE_MIS_PE_mtbh37-1_mis_2x250bp_nextera_default__mtbh37-2_mis_2x250bp_nextera_default_82-scaffolds_broken"
# against subject-file "/vol/codine-tmp/juene/tmp.ruOXIFfNVS/quast/gage/tmp/ABYSS_PE_MIS_PE_mtbh37-1_mis_2x250bp_nextera_default__mtbh37-2_mis_2x250bp_nextera_default_82-scaffolds_broken.ntref"
# COMPLETETIME /vol/ngscomparison/software/analysis/quast-2.1/libs/MUMmer3.23-linux/mummer /vol/codine-tmp/juene/tmp.ruOXIFfNVS/quast/gage/tmp/ABYSS_PE_MIS_PE_mtbh37-1_mis_2x250bp_nextera_default__mtbh37-2_mis_2x250bp_nextera_default_82-scaffolds_broken.ntref 8.91
# SPACE /vol/ngscomparison/software/analysis/quast-2.1/libs/MUMmer3.23-linux/mummer /vol/codine-tmp/juene/tmp.ruOXIFfNVS/quast/gage/tmp/ABYSS_PE_MIS_PE_mtbh37-1_mis_2x250bp_nextera_default__mtbh37-2_mis_2x250bp_nextera_default_82-scaffolds_broken.ntref 8.56
4: FINISHING DATA
Filtering alignments
Extracting alignment coordinates
Analyzing SNPs
Extracting alignment breakpoints
Generating report file
Found genome size at position 4 with value 4411532 aka 4411532
Calculating point at 0 and the sum is 1015899 and i is207 and lens is 218 and length is 71756
Calculating point at 1 and the sum is 2031410 and i is190 and lens is 218 and length is 48843
Calculating point at 2 and the sum is 3024749 and i is165 and lens is 218 and length is 32209
Calculating point at 3 and the sum is 4001573 and i is113 and lens is 218 and length is 11113
