Assembly	ABYSS_PE_MIS_PE_mtbh37-1_mis_2x250bp_nextera_default__mtbh37-2_mis_2x250bp_nextera_default_122-scaffolds_broken	ABYSS_PE_MIS_PE_mtbh37-1_mis_2x250bp_nextera_default__mtbh37-2_mis_2x250bp_nextera_default_122-scaffolds
#Contigs	244	192
#Contigs (>= 0 bp)	263	211
#Contigs (>= 1000 bp)	208	161
Largest contig	137714	163609
Total length	4424064	4426574
Total length (>= 0 bp)	4427114	4429624
Total length (>= 1000 bp)	4407085	4412683
Reference length	4411532	4411532
N50	38741	60603
NG50	38741	60603
N75	22131	30321
NG75	22131	30321
L50	34	25
LG50	34	25
L75	72	53
LG75	72	53
#local misassemblies	15	22
#misassemblies	5	6
#misassembled contigs	5	6
Misassembled contigs length	13004	36943
Misassemblies inter-contig overlap	19369	19393
#unaligned contigs	1 + 2 part	1 + 2 part
Unaligned contigs length	535	535
#ambiguously mapped contigs	8	8
Extra bases in ambiguously mapped contigs	-6499	-6499
#N's	58	2568
#N's per 100 kbp	1.31	58.01
Genome fraction (%)	99.058	99.086
Duplication ratio	1.015	1.015
#genes	3941 + 169 part	3983 + 127 part
#predicted genes (unique)	4123	4111
#predicted genes (>= 0 bp)	4212	4200
#predicted genes (>= 300 bp)	3659	3651
#predicted genes (>= 1500 bp)	566	566
#predicted genes (>= 3000 bp)	72	73
#mismatches	258	256
#indels	87	432
Indels length	321	1205
#mismatches per 100 kbp	5.90	5.86
#indels per 100 kbp	1.99	9.88
GC (%)	65.51	65.51
Reference GC (%)	65.61	65.61
Average %IDY	99.766	99.750
Largest alignment	137714	163507
NA50	38741	60603
NGA50	38741	60603
NA75	22131	30321
NGA75	22131	30321
LA50	34	25
LGA50	34	25
LA75	72	53
LGA75	72	53
#Mis_misassemblies	5	6
#Mis_relocations	5	6
#Mis_translocations	0	0
#Mis_inversions	0	0
#Mis_misassembled contigs	5	6
Mis_Misassembled contigs length	13004	36943
#Mis_local misassemblies	15	22
#Mis_short indels (<= 5 bp)	73	393
#Mis_long indels (> 5 bp)	14	39
#Una_fully unaligned contigs	1	1
Una_Fully unaligned length	243	243
#Una_partially unaligned contigs	2	2
#Una_with misassembly	0	0
#Una_both parts are significant	1	1
Una_Partially unaligned length	292	292
GAGE_Contigs #	244	192
GAGE_Min contig	217	217
GAGE_Max contig	137714	163609
GAGE_N50	38741 COUNT: 34	60603 COUNT: 25
GAGE_Genome size	4411532	4411532
GAGE_Assembly size	4424064	4426574
GAGE_Chaff bases	0	0
GAGE_Missing reference bases	37995(0.86%)	37610(0.85%)
GAGE_Missing assembly bases	1099(0.02%)	3239(0.07%)
GAGE_Missing assembly contigs	0(0.00%)	0(0.00%)
GAGE_Duplicated reference bases	15643	15643
GAGE_Compressed reference bases	6952	6952
GAGE_Bad trim	1063	1063
GAGE_Avg idy	99.99	99.98
GAGE_SNPs	179	179
GAGE_Indels < 5bp	49	72
GAGE_Indels >= 5	26	67
GAGE_Inversions	0	0
GAGE_Relocation	3	3
GAGE_Translocation	0	0
GAGE_Corrected contig #	261	251
GAGE_Corrected assembly size	4412599	4412984
GAGE_Min correct contig	235	235
GAGE_Max correct contig	109649	149777
GAGE_Corrected N50	33130 COUNT: 39	37084 COUNT: 34
