Assembly	VELVET_PGM_mtbh37_pgm_400bp_es_318v2_OT2_tsv3.6_morestringent_75.final.contigs
GAGE_Contigs #	7033
GAGE_Min contig	200
GAGE_Max contig	2252
GAGE_N50	244 COUNT: 5089
GAGE_Genome size	4411532
GAGE_Assembly size	2631763
GAGE_Chaff bases	0
GAGE_Missing reference bases	1805688(40.93%)
GAGE_Missing assembly bases	316(0.01%)
GAGE_Missing assembly contigs	0(0.00%)
GAGE_Duplicated reference bases	14065
GAGE_Compressed reference bases	13142
GAGE_Bad trim	306
GAGE_Avg idy	99.92
GAGE_SNPs	114
GAGE_Indels < 5bp	1808
GAGE_Indels >= 5	6
GAGE_Inversions	17
GAGE_Relocation	8
GAGE_Translocation	0
GAGE_Corrected contig #	6948
GAGE_Corrected assembly size	2611711
GAGE_Min correct contig	200
GAGE_Max correct contig	2252
GAGE_Corrected N50	244 COUNT: 5097
