All statistics are based on contigs of size >= 200 bp, unless otherwise noted (e.g., "# contigs (>= 0 bp)" and "Total length (>= 0 bp)" include all contigs).

Assembly                                                                      #Contigs (>= 0 bp)  #Contigs (>= 1000 bp)  Total length (>= 0 bp)  Total length (>= 1000 bp)  #Contigs  Largest contig  Total length  Reference length  GC (%)  Reference GC (%)  N50  NG50  N75  NG75  #misassemblies  #local misassemblies  #unaligned contigs  Unaligned contigs length  Genome fraction (%)  Duplication ratio  #N's per 100 kbp  #mismatches per 100 kbp  #indels per 100 kbp  #genes           #predicted genes (unique)  #predicted genes (>= 0 bp)  #predicted genes (>= 300 bp)  #predicted genes (>= 1500 bp)  #predicted genes (>= 3000 bp)  Largest alignment  NA50  NGA50  NA75  NGA75
VELVET_PGM_sakai_pgm_mu_318_400bp_IO_TS3.4_ms_0.395percent_161.final.contigs  6248                822                    4011053                 1150178                    6248      5274            4011053       5594470           50.08   50.48             711  512   464  None  129             1                     0 + 2 part          40                        65.873               1.076              0.00              1.49                     30.36                900 + 3402 part  8627                       8685                        5209                          26                             1                              5274               707   504    456   None 
