calling: java -cp /vol/ngscomparison/software/analysis/quast-2.1/libs/gage:. SizeFasta /vol/codine-tmp/juene/tmp.UxJr3D8WJN/quast/corrected_input/Ecoli_Sakai_editedNew_plasmids.fasta |awk '{SUM+=; print SUM}'|tail -n 1
Contig Stats
Total units: 716
Reference: 5594470
BasesInFasta: 5322347
Min: 200
Max: 82857
N10: 70006 COUNT: 8
N25: 43199 COUNT: 24
N50: 26562 COUNT: 64
N75: 12826 COUNT: 138
E-size:30678.7

Genome Size: 5594470
Assembly Size: 5322347
Chaff bases: 0
Missing Reference Bases: 235198(4.20%)
Missing Assembly Bases: 91844(1.73%)
Missing Assembly Contigs: 12(1.68%)
Duplicated Reference Bases: 26903
Compressed Reference Bases: 209212
Bad Trim: 7885
Avg Idy: 99.96
SNPs: 181
Indels < 5bp: 144
Indels >= 5: 1484
Inversions: 4
Relocation: 25
Translocation: 0

Corrected Contig Stats
calling: java -cp /vol/ngscomparison/software/analysis/quast-2.1/libs/gage:.:. GetFastaStats -o -min 199 -genomeSize 5594470 /vol/codine-tmp/juene/tmp.UxJr3D8WJN/quast/gage/tmp/SOAP2_MIS_PE_sakai_mis-1_bi_2x250bp_SI_default.0.64percent_85.final.scaf.matches.lens 2> /dev/null
Total units: 2026
Reference: 5594470
BasesInFasta: 5173812
Min: 200
Max: 27190
N10: 12608 COUNT: 35
N25: 7323 COUNT: 125
N50: 4404 COUNT: 369
N75: 2009 COUNT: 830
E-size:5596.3

Done
