Assembly	#Contigs	#Contigs (>= 0 bp)	#Contigs (>= 1000 bp)	Largest contig	Total length	Total length (>= 0 bp)	Total length (>= 1000 bp)	Reference length	N50	NG50	N75	NG75	L50	LG50	L75	LG75	#local misassemblies	#misassemblies	#misassembled contigs	Misassembled contigs length	Misassemblies inter-contig overlap	#unaligned contigs	Unaligned contigs length	#ambiguously mapped contigs	Extra bases in ambiguously mapped contigs	#N's	#N's per 100 kbp	Genome fraction (%)	Duplication ratio	#genes	#predicted genes (unique)	#predicted genes (>= 0 bp)	#predicted genes (>= 300 bp)	#predicted genes (>= 1500 bp)	#predicted genes (>= 3000 bp)	#mismatches	#indels	Indels length	#mismatches per 100 kbp	#indels per 100 kbp	GC (%)	Reference GC (%)	Average %IDY	Largest alignment	NA50	NGA50	NA75	NGA75	LA50	LGA50	LA75	LGA75	#Mis_misassemblies	#Mis_relocations	#Mis_translocations	#Mis_inversions	#Mis_misassembled contigs	Mis_Misassembled contigs length	#Mis_local misassemblies	#Mis_short indels (<= 5 bp)	#Mis_long indels (> 5 bp)	#Una_fully unaligned contigs	Una_Fully unaligned length	#Una_partially unaligned contigs	#Una_with misassembly	#Una_both parts are significant	Una_Partially unaligned length	GAGE_Contigs #	GAGE_Min contig	GAGE_Max contig	GAGE_N50	GAGE_Genome size	GAGE_Assembly size	GAGE_Chaff bases	GAGE_Missing reference bases	GAGE_Missing assembly bases	GAGE_Missing assembly contigs	GAGE_Duplicated reference bases	GAGE_Compressed reference bases	GAGE_Bad trim	GAGE_Avg idy	GAGE_SNPs	GAGE_Indels < 5bp	GAGE_Indels >= 5	GAGE_Inversions	GAGE_Relocation	GAGE_Translocation	GAGE_Corrected contig #	GAGE_Corrected assembly size	GAGE_Min correct contig	GAGE_Max correct contig	GAGE_Corrected N50
ABYSS_PE_MIS_PE_sakai_mis-both_bi_2x250bp_SI_default.0.64percent.NEWBLER_66-scaffolds_broken	310	1016	198	240039	5430372	5513360	5377571	5594470	93867	90931	43177	41149	17	18	38	41	4	4	4	232088	2908	0 + 0 part	0	48	-41254	36	0.66	95.666	1.007	5014 + 193 part	5276	5363	4488	689	73	945	51	192	17.66	0.95	50.36	50.48	98.846	240039	93867	90931	42311	41145	17	18	38	41	4	4	0	0	4	232088	4	45	6	0	0	0	0	0	0	310	201	240039	90931 COUNT: 18	5594470	5430372	0	43593(0.78%)	10(0.00%)	0(0.00%)	23342	241397	0	99.97	751	33	10	1	2	0	296	5409926	205	224170	85707 COUNT: 21
ABYSS_PE_MIS_PE_sakai_mis-both_bi_2x250bp_SI_default.0.64percent.NEWBLER_66-scaffolds	264	970	182	376773	5432702	5515690	5392109	5594470	100154	99815	48297	43936	15	16	33	35	20	14	10	514353	3170	0 + 1 part	778	33	-30771	2366	43.55	95.792	1.008	5030 + 187 part	5259	5347	4488	688	72	1008	86	489	18.81	1.60	50.36	50.48	98.841	240039	100154	99815	48297	43936	16	17	34	36	14	14	0	0	10	514353	20	70	16	0	0	1	0	0	778	264	201	376773	99815 COUNT: 16	5594470	5432702	0	46360(0.83%)	3492(0.06%)	0(0.00%)	23595	239570	1028	99.97	756	42	33	6	7	0	289	5408773	205	224170	85707 COUNT: 21
