Assembly	#Una_fully unaligned contigs	Una_Fully unaligned length	#Una_partially unaligned contigs	#Una_with misassembly	#Una_both parts are significant	Una_Partially unaligned length	#N's
SOAP2_MIS_PE_sakai_mis-1_bi_2x250bp_SI_default.0.64percent_111.final.scaf_broken	10	8366	0	0	0	0	225
SOAP2_MIS_PE_sakai_mis-1_bi_2x250bp_SI_default.0.64percent_111.final.scaf	22	19574	13	0	10	8518	35449
