calling: java -cp /vol/ngscomparison/software/analysis/quast-2.1/libs/gage:. SizeFasta /vol/codine-tmp/juene/tmp.DhjvdMfmNs/quast/corrected_input/MRSA_COL_Plasmid.fasta |awk '{SUM+=; print SUM}'|tail -n 1
Contig Stats
Total units: 146
Reference: 2813862
BasesInFasta: 2803132
Min: 203
Max: 457344
N10: 457344 COUNT: 1
N25: 326517 COUNT: 2
N50: 145436 COUNT: 6
N75: 68428 COUNT: 14
E-size:182110.68

Genome Size: 2813862
Assembly Size: 2803132
Chaff bases: 0
Missing Reference Bases: 176(0.01%)
Missing Assembly Bases: 0(0.00%)
Missing Assembly Contigs: 0(0.00%)
Duplicated Reference Bases: 8010
Compressed Reference Bases: 32068
Bad Trim: 0
Avg Idy: 99.99
SNPs: 35
Indels < 5bp: 9
Indels >= 5: 0
Inversions: 0
Relocation: 2
Translocation: 0

Corrected Contig Stats
calling: java -cp /vol/ngscomparison/software/analysis/quast-2.1/libs/gage:.:. GetFastaStats -o -min 199 -genomeSize 2813862 /vol/codine-tmp/juene/tmp.DhjvdMfmNs/quast/gage/tmp/ABYSS_PE_MIS_PE_mrsa_mis-1_bi_2x250bp_default__mrsa_mis-2_bi_2x250bp_default.0.700percent_128.final_broken.matches.lens 2> /dev/null
Total units: 115
Reference: 2813862
BasesInFasta: 2795128
Min: 203
Max: 457343
N10: 457343 COUNT: 1
N25: 326518 COUNT: 2
N50: 145435 COUNT: 6
N75: 59582 COUNT: 14
E-size:181735.18

Done
