All statistics are based on contigs of size >= 200 bp, unless otherwise noted (e.g., "# contigs (>= 0 bp)" and "Total length (>= 0 bp)" include all contigs).

Assembly                          CLC_MIS_PE_sakai_mis-1_bi_2x250bp_SI_default__sakai_mis-2_bi_2x250bp_SI_default.51coverage.result_broken  CLC_MIS_PE_sakai_mis-1_bi_2x250bp_SI_default__sakai_mis-2_bi_2x250bp_SI_default.51coverage.result
#Una_fully unaligned contigs      133                                                                                                       133                                                                                              
Una_Fully unaligned length        40145                                                                                                     40145                                                                                            
#Una_partially unaligned contigs  3                                                                                                         3                                                                                                
#Una_with misassembly             0                                                                                                         0                                                                                                
#Una_both parts are significant   1                                                                                                         1                                                                                                
Una_Partially unaligned length    562                                                                                                       562                                                                                              
#N's                              57                                                                                                        971                                                                                              
