Assembly	VELVET_MIS_PE_mtbh37-1_mis_2x250bp_nextera_default__mtbh37-2_mis_2x250bp_nextera_default_27.final.contigs_broken	VELVET_MIS_PE_mtbh37-1_mis_2x250bp_nextera_default__mtbh37-2_mis_2x250bp_nextera_default_27.final.contigs
GAGE_Contigs #	5589	5590
GAGE_Min contig	200	200
GAGE_Max contig	1536	1536
GAGE_N50	0 COUNT: 0	0 COUNT: 0
GAGE_Genome size	4411532	4411532
GAGE_Assembly size	1824764	1825038
GAGE_Chaff bases	0	0
GAGE_Missing reference bases	2691458(61.01%)	2691458(61.01%)
GAGE_Missing assembly bases	97488(5.34%)	97762(5.36%)
GAGE_Missing assembly contigs	411(7.35%)	412(7.37%)
GAGE_Duplicated reference bases	0	0
GAGE_Compressed reference bases	870	870
GAGE_Bad trim	22	22
GAGE_Avg idy	99.99	99.99
GAGE_SNPs	75	75
GAGE_Indels < 5bp	16	16
GAGE_Indels >= 5	1	1
GAGE_Inversions	0	0
GAGE_Relocation	0	0
GAGE_Translocation	0	0
GAGE_Corrected contig #	5177	5177
GAGE_Corrected assembly size	1726980	1726980
GAGE_Min correct contig	200	200
GAGE_Max correct contig	1536	1536
GAGE_Corrected N50	0 COUNT: 0	0 COUNT: 0
