All statistics are based on contigs of size >= 200 bp, unless otherwise noted (e.g., "# contigs (>= 0 bp)" and "Total length (>= 0 bp)" include all contigs).

Assembly                         CLC_MIS_PE_mrsa_mis-1_bi_2x150bp_default__mrsa_mis-2_bi_2x150bp_default.31coverage.result_broken  CLC_MIS_PE_mrsa_mis-1_bi_2x150bp_default__mrsa_mis-2_bi_2x150bp_default.31coverage.result
GAGE_Contigs #                   71                                                                                                69                                                                                       
GAGE_Min contig                  219                                                                                               219                                                                                      
GAGE_Max contig                  321413                                                                                            321413                                                                                   
GAGE_N50                         112284 COUNT: 8                                                                                   115917 COUNT: 8                                                                          
GAGE_Genome size                 2813862                                                                                           2813862                                                                                  
GAGE_Assembly size               2775352                                                                                           2775449                                                                                  
GAGE_Chaff bases                 0                                                                                                 0                                                                                        
GAGE_Missing reference bases     8549(0.30%)                                                                                       8549(0.30%)                                                                              
GAGE_Missing assembly bases      5409(0.19%)                                                                                       5506(0.20%)                                                                              
GAGE_Missing assembly contigs    1(1.41%)                                                                                          1(1.45%)                                                                                 
GAGE_Duplicated reference bases  991                                                                                               991                                                                                      
GAGE_Compressed reference bases  38644                                                                                             38644                                                                                    
GAGE_Bad trim                    10                                                                                                39                                                                                       
GAGE_Avg idy                     99.99                                                                                             99.99                                                                                    
GAGE_SNPs                        46                                                                                                46                                                                                       
GAGE_Indels < 5bp                9                                                                                                 9                                                                                        
GAGE_Indels >= 5                 12                                                                                                13                                                                                       
GAGE_Inversions                  0                                                                                                 0                                                                                        
GAGE_Relocation                  3                                                                                                 4                                                                                        
GAGE_Translocation               0                                                                                                 0                                                                                        
GAGE_Corrected contig #          82                                                                                                82                                                                                       
GAGE_Corrected assembly size     2771242                                                                                           2771242                                                                                  
GAGE_Min correct contig          219                                                                                               219                                                                                      
GAGE_Max correct contig          244486                                                                                            244486                                                                                   
GAGE_Corrected N50               74765 COUNT: 11                                                                                   74765 COUNT: 11                                                                          
