All statistics are based on contigs of size >= 200 bp, unless otherwise noted (e.g., "# contigs (>= 0 bp)" and "Total length (>= 0 bp)" include all contigs).

Assembly                                                                                 #Contigs (>= 0 bp)  #Contigs (>= 1000 bp)  Total length (>= 0 bp)  Total length (>= 1000 bp)  #Contigs  Largest contig  Total length  Reference length  GC (%)  Reference GC (%)  N50   NG50  N75   NG75  #misassemblies  #local misassemblies  #unaligned contigs  Unaligned contigs length  Genome fraction (%)  Duplication ratio  #N's per 100 kbp  #mismatches per 100 kbp  #indels per 100 kbp  #genes           #predicted genes (unique)  #predicted genes (>= 0 bp)  #predicted genes (>= 300 bp)  #predicted genes (>= 1500 bp)  #predicted genes (>= 3000 bp)  Largest alignment  NA50  NGA50  NA75  NGA75
ABYSS_PE_PGM_mrsa_pgm_200bp_es_316_IonOnev2_ts3.0_morestringent.0.230percent_90-unitigs  2237                506                    2969919                 2667990                    710       51966           2769028       2813862           32.62   32.81             7464  7097  3935  3774  23              3                     0 + 0 part          0                         97.704               1.006              0.00              1.82                     21.35                2328 + 352 part  3088                       3091                        2435                          251                            20                             51966              7464  6845   3935  3757 
