Assembly	SOAP2_PGM_mrsa_pgm_400bp_es_318_IKA_ts3.2_morestringent.0.165percent_113.final.contig
GAGE_Contigs #	39971
GAGE_Min contig	200
GAGE_Max contig	1931
GAGE_N50	407 COUNT: 2954
GAGE_Genome size	2813862
GAGE_Assembly size	11641920
GAGE_Chaff bases	0
GAGE_Missing reference bases	15559(0.55%)
GAGE_Missing assembly bases	221880(1.91%)
GAGE_Missing assembly contigs	347(0.87%)
GAGE_Duplicated reference bases	7721648
GAGE_Compressed reference bases	36252
GAGE_Bad trim	89285
GAGE_Avg idy	99.83
GAGE_SNPs	139
GAGE_Indels < 5bp	3577
GAGE_Indels >= 5	3
GAGE_Inversions	1
GAGE_Relocation	0
GAGE_Translocation	0
GAGE_Corrected contig #	13495
GAGE_Corrected assembly size	3694003
GAGE_Min correct contig	200
GAGE_Max correct contig	1931
GAGE_Corrected N50	287 COUNT: 3384
