All statistics are based on contigs of size >= 200 bp, unless otherwise noted (e.g., "# contigs (>= 0 bp)" and "Total length (>= 0 bp)" include all contigs).

Assembly                                                                                #Mis_misassemblies  #Mis_relocations  #Mis_translocations  #Mis_inversions  #Mis_misassembled contigs  Mis_Misassembled contigs length  #Mis_local misassemblies  #mismatches  #indels  #Mis_short indels (<= 5 bp)  #Mis_long indels (> 5 bp)  Indels length
NEWBLER_MIS_PE_sakai_mis-both_bi_2x250bp_SI_default.0.64percent.NEWBLER.contigs_broken  2                   2                 0                    0                2                          417560                           3                         46           13       13                           0                          13           
NEWBLER_MIS_PE_sakai_mis-both_bi_2x250bp_SI_default.0.64percent.NEWBLER.contigs         8                   8                 0                    0                5                          449560                           63                        106          28       27                           1                          57           
