All statistics are based on contigs of size >= 200 bp, unless otherwise noted (e.g., "# contigs (>= 0 bp)" and "Total length (>= 0 bp)" include all contigs).

Assembly                                                                                                   GAGE_Contigs #  GAGE_Min contig  GAGE_Max contig  GAGE_N50         GAGE_Genome size  GAGE_Assembly size  GAGE_Chaff bases  GAGE_Missing reference bases  GAGE_Missing assembly bases  GAGE_Missing assembly contigs  GAGE_Duplicated reference bases  GAGE_Compressed reference bases  GAGE_Bad trim  GAGE_Avg idy  GAGE_SNPs  GAGE_Indels < 5bp  GAGE_Indels >= 5  GAGE_Inversions  GAGE_Relocation  GAGE_Translocation  GAGE_Corrected contig #  GAGE_Corrected assembly size  GAGE_Min correct contig  GAGE_Max correct contig  GAGE_Corrected N50
ABYSS_PE_MIS_PE_mrsa_mis-1_bi_2x150bp_default__mrsa_mis-2_bi_2x150bp_default.0.150percent_32.final_broken  308             201              75504            23259 COUNT: 40  2813862           2739850             0                 48125(1.71%)                  5392(0.20%)                  1(0.32%)                       0                                34501                            0              99.99         91         9                  2                 1                2                0                   312                      2735318                       201                      75504                    22942 COUNT: 40   
ABYSS_PE_MIS_PE_mrsa_mis-1_bi_2x150bp_default__mrsa_mis-2_bi_2x150bp_default.0.150percent_32.final         300             201              88098            24068 COUNT: 39  2813862           2740483             0                 48547(1.73%)                  5937(0.22%)                  1(0.33%)                       0                                32611                            0              99.99         91         9                  4                 1                5                0                   308                      2735341                       201                      75504                    22942 COUNT: 40   
