calling: java -cp /vol/ngscomparison/software/analysis/quast-2.1/libs/gage:. SizeFasta /vol/codine-tmp/juene/tmp.NqbNXox0wN/quast/corrected_input/Mycobacterium_tuberculosis_H37Rv.fasta |awk '{SUM+=; print SUM}'|tail -n 1
Contig Stats
Total units: 2202
Reference: 4411532
BasesInFasta: 2824407
Min: 341
Max: 5667
N10: 3053 COUNT: 114
N25: 1946 COUNT: 390
N50: 911 COUNT: 1223
N75: 0 COUNT: 0
E-size:1206.13

Genome Size: 4411532
Assembly Size: 2824407
Chaff bases: 0
Missing Reference Bases: 1664132(37.72%)
Missing Assembly Bases: 357(0.01%)
Missing Assembly Contigs: 0(0.00%)
Duplicated Reference Bases: 36173
Compressed Reference Bases: 29084
Bad Trim: 277
Avg Idy: 99.94
SNPs: 84
Indels < 5bp: 1435
Indels >= 5: 9
Inversions: 0
Relocation: 1
Translocation: 0

Corrected Contig Stats
calling: java -cp /vol/ngscomparison/software/analysis/quast-2.1/libs/gage:.:. GetFastaStats -o -min 199 -genomeSize 4411532 /vol/codine-tmp/juene/tmp.NqbNXox0wN/quast/gage/tmp/VELVET_PGM_mtbh37_pgm_400bp_es_318v2_OT2_tsv3.6_morestringent_171.final.contigs.matches.lens 2> /dev/null
Total units: 2146
Reference: 4411532
BasesInFasta: 2789855
Min: 308
Max: 5669
N10: 3017 COUNT: 115
N25: 1927 COUNT: 393
N50: 897 COUNT: 1235
N75: 0 COUNT: 0
E-size:1193.32

Done
