All statistics are based on contigs of size >= 200 bp, unless otherwise noted (e.g., "# contigs (>= 0 bp)" and "Total length (>= 0 bp)" include all contigs).

Assembly                                                                                      GAGE_Contigs #  GAGE_Min contig  GAGE_Max contig  GAGE_N50          GAGE_Genome size  GAGE_Assembly size  GAGE_Chaff bases  GAGE_Missing reference bases  GAGE_Missing assembly bases  GAGE_Missing assembly contigs  GAGE_Duplicated reference bases  GAGE_Compressed reference bases  GAGE_Bad trim  GAGE_Avg idy  GAGE_SNPs  GAGE_Indels < 5bp  GAGE_Indels >= 5  GAGE_Inversions  GAGE_Relocation  GAGE_Translocation  GAGE_Corrected contig #  GAGE_Corrected assembly size  GAGE_Min correct contig  GAGE_Max correct contig  GAGE_Corrected N50
ABYSS_PE_MIS_PE_sakai_mis-both_bi_2x250bp_SI_default.0.64percent.NEWBLER_78-scaffolds_broken  330             200              227348           99841 COUNT: 19   5594470           5490372             0                 21571(0.39%)                  34(0.00%)                    0(0.00%)                       25622                            216917                           0              99.98         536        36                 11                3                2                0                   323                      5469564                       200                      227348                   72537 COUNT: 23   
ABYSS_PE_MIS_PE_sakai_mis-both_bi_2x250bp_SI_default.0.64percent.NEWBLER_78-scaffolds         277             200              376758           127518 COUNT: 16  5594470           5493002             0                 22884(0.41%)                  2502(0.05%)                  0(0.00%)                       25524                            213839                           350            99.98         534        37                 38                7                8                0                   320                      5469825                       200                      227348                   72537 COUNT: 23   
