All statistics are based on contigs of size >= 200 bp, unless otherwise noted (e.g., "# contigs (>= 0 bp)" and "Total length (>= 0 bp)" include all contigs).

Assembly                          SOAP2_MIS_PE_sakai_mis-1_bi_2x150bp_default.0.826percent_43.final.scaf_broken  SOAP2_MIS_PE_sakai_mis-1_bi_2x150bp_default.0.826percent_43.final.scaf
#Una_fully unaligned contigs      29                                                                             287                                                                   
Una_Fully unaligned length        10362                                                                          288622                                                                
#Una_partially unaligned contigs  8                                                                              113                                                                   
#Una_with misassembly             0                                                                              0                                                                     
#Una_both parts are significant   0                                                                              58                                                                    
Una_Partially unaligned length    608                                                                            101892                                                                
#N's                              209                                                                            84026                                                                 
