All statistics are based on contigs of size >= 200 bp, unless otherwise noted (e.g., "# contigs (>= 0 bp)" and "Total length (>= 0 bp)" include all contigs).

Assembly                       ABYSS_PE_MIS_PE_sakai_mis-2_bi_2x150bp_default__sakai_mis-1_bi_2x150bp_default.0.500percent_64.final_broken  ABYSS_PE_MIS_PE_sakai_mis-2_bi_2x150bp_default__sakai_mis-1_bi_2x150bp_default.0.500percent_64.final
#Contigs (>= 0 bp)             895                                                                                                          848                                                                                                 
#Contigs (>= 1000 bp)          183                                                                                                          161                                                                                                 
Total length (>= 0 bp)         5560154                                                                                                      5562792                                                                                             
Total length (>= 1000 bp)      5443094                                                                                                      5457080                                                                                             
#Contigs                       263                                                                                                          218                                                                                                 
Largest contig                 292296                                                                                                       376742                                                                                              
Total length                   5487340                                                                                                      5490327                                                                                             
Reference length               5594470                                                                                                      5594470                                                                                             
GC (%)                         50.40                                                                                                        50.40                                                                                               
Reference GC (%)               50.48                                                                                                        50.48                                                                                               
N50                            100130                                                                                                       147183                                                                                              
NG50                           98911                                                                                                        147183                                                                                              
N75                            43206                                                                                                        47631                                                                                               
NG75                           42442                                                                                                        44374                                                                                               
#misassemblies                 4                                                                                                            18                                                                                                  
#local misassemblies           5                                                                                                            21                                                                                                  
#unaligned contigs             0 + 0 part                                                                                                   0 + 0 part                                                                                          
Unaligned contigs length       0                                                                                                            0                                                                                                   
Genome fraction (%)            96.097                                                                                                       96.253                                                                                              
Duplication ratio              1.012                                                                                                        1.013                                                                                               
#N's per 100 kbp               0.69                                                                                                         48.74                                                                                               
#mismatches per 100 kbp        17.89                                                                                                        20.59                                                                                               
#indels per 100 kbp            1.04                                                                                                         2.62                                                                                                
#genes                         5061 + 172 part                                                                                              5078 + 167 part                                                                                     
#predicted genes (unique)      5259                                                                                                         5248                                                                                                
#predicted genes (>= 0 bp)     5381                                                                                                         5367                                                                                                
#predicted genes (>= 300 bp)   4523                                                                                                         4520                                                                                                
#predicted genes (>= 1500 bp)  698                                                                                                          697                                                                                                 
#predicted genes (>= 3000 bp)  75                                                                                                           74                                                                                                  
Largest alignment              228649                                                                                                       240063                                                                                              
NA50                           98911                                                                                                        147183                                                                                              
NGA50                          98911                                                                                                        147183                                                                                              
NA75                           42442                                                                                                        47631                                                                                               
NGA75                          41352                                                                                                        44374                                                                                               
