Assembly	GAGE_Contigs #	GAGE_Min contig	GAGE_Max contig	GAGE_N50	GAGE_Genome size	GAGE_Assembly size	GAGE_Chaff bases	GAGE_Missing reference bases	GAGE_Missing assembly bases	GAGE_Missing assembly contigs	GAGE_Duplicated reference bases	GAGE_Compressed reference bases	GAGE_Bad trim	GAGE_Avg idy	GAGE_SNPs	GAGE_Indels < 5bp	GAGE_Indels >= 5	GAGE_Inversions	GAGE_Relocation	GAGE_Translocation	GAGE_Corrected contig #	GAGE_Corrected assembly size	GAGE_Min correct contig	GAGE_Max correct contig	GAGE_Corrected N50
SOAP2_MIS_PE_mrsa_mis-1_bi_2x250bp_default.0.460percent_23.final.scaf_broken	4929	200	4411	561 COUNT: 1376	2813862	2503929	0	666281(23.68%)	348251(13.91%)	1391(28.22%)	0	1375	1379	99.99	45	232	473	0	1	0	3776	2122538	200	3934	503 COUNT: 1562
SOAP2_MIS_PE_mrsa_mis-1_bi_2x250bp_default.0.460percent_23.final.scaf	4003	200	6293	1069 COUNT: 746	2813862	2700118	0	581678(20.67%)	456926(16.92%)	1409(35.20%)	0	1631	17380	99.90	54	428	2058	0	1	0	3680	2109899	200	4394	510 COUNT: 1523
