Assembly	VELVET_MIS_PE_sakai_mis-1_bi_2x150bp_default__sakai_mis-2_bi_2x150bp_default.0.826percent_37.final.contigs_broken	VELVET_MIS_PE_sakai_mis-1_bi_2x150bp_default__sakai_mis-2_bi_2x150bp_default.0.826percent_37.final.contigs
#Mis_misassemblies	5	11
#Mis_relocations	5	11
#Mis_translocations	0	0
#Mis_inversions	0	0
#Mis_misassembled contigs	5	7
Mis_Misassembled contigs length	171175	671778
#Mis_local misassemblies	12	74
#mismatches	625	677
#indels	116	521
#Mis_short indels (<= 5 bp)	108	421
#Mis_long indels (> 5 bp)	8	100
Indels length	293	2566
