All statistics are based on contigs of size >= 200 bp, unless otherwise noted (e.g., "# contigs (>= 0 bp)" and "Total length (>= 0 bp)" include all contigs).

Assembly                                   ABYSS_PE_MIS_PE_sakai_mis-1_bi_2x150bp_default__sakai_mis-2_bi_2x150bp_default.0.826percent_44-scaffolds_broken  ABYSS_PE_MIS_PE_sakai_mis-1_bi_2x150bp_default__sakai_mis-2_bi_2x150bp_default.0.826percent_44-scaffolds
#Contigs                                   273                                                                                                              193                                                                                                     
#Contigs (>= 0 bp)                         1440                                                                                                             1355                                                                                                    
#Contigs (>= 1000 bp)                      194                                                                                                              153                                                                                                     
Largest contig                             290503                                                                                                           375136                                                                                                  
Total length                               5412114                                                                                                          5420279                                                                                                 
Total length (>= 0 bp)                     5515200                                                                                                          5522766                                                                                                 
Total length (>= 1000 bp)                  5369394                                                                                                          5398557                                                                                                 
Reference length                           5594470                                                                                                          5594470                                                                                                 
N50                                        87537                                                                                                            146739                                                                                                  
NG50                                       85960                                                                                                            146739                                                                                                  
N75                                        41491                                                                                                            49880                                                                                                   
NG75                                       40962                                                                                                            44312                                                                                                   
L50                                        19                                                                                                               12                                                                                                      
LG50                                       20                                                                                                               12                                                                                                      
L75                                        42                                                                                                               27                                                                                                      
LG75                                       45                                                                                                               30                                                                                                      
#local misassemblies                       7                                                                                                                39                                                                                                      
#misassemblies                             3                                                                                                                18                                                                                                      
#misassembled contigs                      3                                                                                                                13                                                                                                      
Misassembled contigs length                427119                                                                                                           760612                                                                                                  
Misassemblies inter-contig overlap         21194                                                                                                            22684                                                                                                   
#unaligned contigs                         0 + 0 part                                                                                                       1 + 0 part                                                                                              
Unaligned contigs length                   0                                                                                                                1159                                                                                                    
#ambiguously mapped contigs                49                                                                                                               24                                                                                                      
Extra bases in ambiguously mapped contigs  -56224                                                                                                           -26914                                                                                                  
#N's                                       102                                                                                                              7668                                                                                                    
#N's per 100 kbp                           1.88                                                                                                             141.47                                                                                                  
Genome fraction (%)                        94.843                                                                                                           95.329                                                                                                  
Duplication ratio                          1.013                                                                                                            1.015                                                                                                   
#genes                                     4968 + 168 part                                                                                                  5005 + 162 part                                                                                         
#predicted genes (unique)                  5173                                                                                                             5167                                                                                                    
#predicted genes (>= 0 bp)                 5282                                                                                                             5271                                                                                                    
#predicted genes (>= 300 bp)               4453                                                                                                             4456                                                                                                    
#predicted genes (>= 1500 bp)              681                                                                                                              682                                                                                                     
#predicted genes (>= 3000 bp)              71                                                                                                               70                                                                                                      
#mismatches                                910                                                                                                              956                                                                                                     
#indels                                    51                                                                                                               340                                                                                                     
Indels length                              144                                                                                                              746                                                                                                     
#mismatches per 100 kbp                    17.15                                                                                                            17.93                                                                                                   
#indels per 100 kbp                        0.96                                                                                                             6.38                                                                                                    
GC (%)                                     50.36                                                                                                            50.36                                                                                                   
Reference GC (%)                           50.48                                                                                                            50.48                                                                                                   
Average %IDY                               99.214                                                                                                           99.113                                                                                                  
Largest alignment                          251484                                                                                                           353045                                                                                                  
NA50                                       84294                                                                                                            145673                                                                                                  
NGA50                                      79324                                                                                                            127438                                                                                                  
NA75                                       41312                                                                                                            49880                                                                                                   
NGA75                                      37194                                                                                                            44312                                                                                                   
LA50                                       20                                                                                                               13                                                                                                      
LGA50                                      21                                                                                                               14                                                                                                      
LA75                                       43                                                                                                               29                                                                                                      
LGA75                                      47                                                                                                               32                                                                                                      
#Mis_misassemblies                         3                                                                                                                18                                                                                                      
#Mis_relocations                           3                                                                                                                17                                                                                                      
#Mis_translocations                        0                                                                                                                1                                                                                                       
#Mis_inversions                            0                                                                                                                0                                                                                                       
#Mis_misassembled contigs                  3                                                                                                                13                                                                                                      
Mis_Misassembled contigs length            427119                                                                                                           760612                                                                                                  
#Mis_local misassemblies                   7                                                                                                                39                                                                                                      
#Mis_short indels (<= 5 bp)                45                                                                                                               320                                                                                                     
#Mis_long indels (> 5 bp)                  6                                                                                                                20                                                                                                      
#Una_fully unaligned contigs               0                                                                                                                1                                                                                                       
Una_Fully unaligned length                 0                                                                                                                1159                                                                                                    
#Una_partially unaligned contigs           0                                                                                                                0                                                                                                       
#Una_with misassembly                      0                                                                                                                0                                                                                                       
#Una_both parts are significant            0                                                                                                                0                                                                                                       
Una_Partially unaligned length             0                                                                                                                0                                                                                                       
GAGE_Contigs #                             273                                                                                                              193                                                                                                     
GAGE_Min contig                            203                                                                                                              207                                                                                                     
GAGE_Max contig                            290503                                                                                                           375136                                                                                                  
GAGE_N50                                   85960 COUNT: 20                                                                                                  146739 COUNT: 12                                                                                        
GAGE_Genome size                           5594470                                                                                                          5594470                                                                                                 
GAGE_Assembly size                         5412114                                                                                                          5420279                                                                                                 
GAGE_Chaff bases                           0                                                                                                                0                                                                                                       
GAGE_Missing reference bases               93991(1.68%)                                                                                                     99965(1.79%)                                                                                            
GAGE_Missing assembly bases                6(0.00%)                                                                                                         8318(0.15%)                                                                                             
GAGE_Missing assembly contigs              0(0.00%)                                                                                                         0(0.00%)                                                                                                
GAGE_Duplicated reference bases            9788                                                                                                             8148                                                                                                    
GAGE_Compressed reference bases            205135                                                                                                           196517                                                                                                  
GAGE_Bad trim                              0                                                                                                                1491                                                                                                    
GAGE_Avg idy                               99.97                                                                                                            99.96                                                                                                   
GAGE_SNPs                                  596                                                                                                              592                                                                                                     
GAGE_Indels < 5bp                          35                                                                                                               38                                                                                                      
GAGE_Indels >= 5                           13                                                                                                               53                                                                                                      
GAGE_Inversions                            1                                                                                                                8                                                                                                       
GAGE_Relocation                            3                                                                                                                19                                                                                                      
GAGE_Translocation                         0                                                                                                                1                                                                                                       
GAGE_Corrected contig #                    283                                                                                                              276                                                                                                     
GAGE_Corrected assembly size               5404965                                                                                                          5406455                                                                                                 
GAGE_Min correct contig                    203                                                                                                              205                                                                                                     
GAGE_Max correct contig                    226870                                                                                                           226870                                                                                                  
GAGE_Corrected N50                         75230 COUNT: 23                                                                                                  75230 COUNT: 23                                                                                         
