Assembly	VELVET_MIS_PE_mrsa_mis-1_bi_2x250bp_default__mrsa_mis-2_bi_2x250bp_default.0.460percent_127.final.contigs_broken	VELVET_MIS_PE_mrsa_mis-1_bi_2x250bp_default__mrsa_mis-2_bi_2x250bp_default.0.460percent_127.final.contigs
#Contigs (>= 0 bp)	123	113
#Contigs (>= 1000 bp)	76	70
Total length (>= 0 bp)	2796735	2797378
Total length (>= 1000 bp)	2781003	2782890
#Contigs	122	113
Largest contig	248833	250059
Total length	2796679	2797378
Reference length	2813862	2813862
GC (%)	32.73	32.73
Reference GC (%)	32.81	32.81
N50	72425	74964
NG50	72425	74964
N75	39215	40952
NG75	39215	40952
#misassemblies	2	3
#local misassemblies	1	6
#unaligned contigs	2 + 0 part	2 + 0 part
Unaligned contigs length	4300	4300
Genome fraction (%)	98.708	98.709
Duplication ratio	1.001	1.001
#N's per 100 kbp	0.00	22.99
#mismatches per 100 kbp	1.37	1.37
#indels per 100 kbp	0.36	0.94
#genes	2660 + 52 part	2662 + 50 part
#predicted genes (unique)	2661	2659
#predicted genes (>= 0 bp)	2666	2664
#predicted genes (>= 300 bp)	2306	2305
#predicted genes (>= 1500 bp)	296	296
#predicted genes (>= 3000 bp)	30	30
Largest alignment	248833	250059
NA50	72425	74964
NGA50	72425	74964
NA75	39215	40952
NGA75	39215	40952
