Assembly	#Contigs (>= 0 bp)	#Contigs (>= 1000 bp)	Total length (>= 0 bp)	Total length (>= 1000 bp)	#Contigs	Largest contig	Total length	Reference length	GC (%)	Reference GC (%)	N50	NG50	N75	NG75	#misassemblies	#local misassemblies	#unaligned contigs	Unaligned contigs length	Genome fraction (%)	Duplication ratio	#N's per 100 kbp	#mismatches per 100 kbp	#indels per 100 kbp	#genes	#predicted genes (unique)	#predicted genes (>= 0 bp)	#predicted genes (>= 300 bp)	#predicted genes (>= 1500 bp)	#predicted genes (>= 3000 bp)	Largest alignment	NA50	NGA50	NA75	NGA75
VELVET_MIS_PE_mrsa_mis-1_bi_2x250bp_default__mrsa_mis-2_bi_2x250bp_default.0.460percent_127.final.contigs_broken	123	76	2796735	2781003	122	248833	2796679	2813862	32.73	32.81	72425	72425	39215	39215	2	1	2 + 0 part	4300	98.708	1.001	0.00	1.37	0.36	2660 + 52 part	2661	2666	2306	296	30	248833	72425	72425	39215	39215
VELVET_MIS_PE_mrsa_mis-1_bi_2x250bp_default__mrsa_mis-2_bi_2x250bp_default.0.460percent_127.final.contigs	113	70	2797378	2782890	113	250059	2797378	2813862	32.73	32.81	74964	74964	40952	40952	3	6	2 + 0 part	4300	98.709	1.001	22.99	1.37	0.94	2662 + 50 part	2659	2664	2305	296	30	250059	74964	74964	40952	40952
