Assembly	ABYSS_PE_PGM_sakai_pgm_mu_318_400bp_IO_TS3.4_ms_0.395percent_124-unitigs
#Contigs	2697
#Contigs (>= 0 bp)	3908
#Contigs (>= 1000 bp)	726
Largest contig	47635
Total length	5702242
Total length (>= 0 bp)	5889640
Total length (>= 1000 bp)	5128220
Reference length	5594470
N50	10306
NG50	10658
N75	4803
NG75	5113
L50	160
LG50	155
L75	361
LG75	345
#local misassemblies	1
#misassemblies	9
#misassembled contigs	9
Misassembled contigs length	18497
Misassemblies inter-contig overlap	239
#unaligned contigs	1 + 6 part
Unaligned contigs length	417
#ambiguously mapped contigs	568
Extra bases in ambiguously mapped contigs	-174909
#N's	0
#N's per 100 kbp	0.00
Genome fraction (%)	94.558
Duplication ratio	1.045
#genes	4448 + 731 part
#predicted genes (unique)	7412
#predicted genes (>= 0 bp)	7469
#predicted genes (>= 300 bp)	4709
#predicted genes (>= 1500 bp)	582
#predicted genes (>= 3000 bp)	49
#mismatches	51
#indels	460
Indels length	471
#mismatches per 100 kbp	0.96
#indels per 100 kbp	8.70
GC (%)	50.50
Reference GC (%)	50.48
Average %IDY	99.098
Largest alignment	47635
NA50	10292
NGA50	10583
NA75	4775
NGA75	5113
LA50	160
LGA50	155
LA75	362
LGA75	345
#Mis_misassemblies	9
#Mis_relocations	9
#Mis_translocations	0
#Mis_inversions	0
#Mis_misassembled contigs	9
Mis_Misassembled contigs length	18497
#Mis_local misassemblies	1
#Mis_short indels (<= 5 bp)	460
#Mis_long indels (> 5 bp)	0
#Una_fully unaligned contigs	1
Una_Fully unaligned length	245
#Una_partially unaligned contigs	6
#Una_with misassembly	0
#Una_both parts are significant	0
Una_Partially unaligned length	172
GAGE_Contigs #	2697
GAGE_Min contig	200
GAGE_Max contig	47635
GAGE_N50	10658 COUNT: 155
GAGE_Genome size	5594470
GAGE_Assembly size	5702242
GAGE_Chaff bases	0
GAGE_Missing reference bases	23348(0.42%)
GAGE_Missing assembly bases	194(0.00%)
GAGE_Missing assembly contigs	0(0.00%)
GAGE_Duplicated reference bases	226809
GAGE_Compressed reference bases	266079
GAGE_Bad trim	194
GAGE_Avg idy	99.99
GAGE_SNPs	58
GAGE_Indels < 5bp	438
GAGE_Indels >= 5	1
GAGE_Inversions	0
GAGE_Relocation	2
GAGE_Translocation	0
GAGE_Corrected contig #	1749
GAGE_Corrected assembly size	5473416
GAGE_Min correct contig	200
GAGE_Max correct contig	47636
GAGE_Corrected N50	10583 COUNT: 155
