All statistics are based on contigs of size >= 200 bp, unless otherwise noted (e.g., "# contigs (>= 0 bp)" and "Total length (>= 0 bp)" include all contigs).

Assembly                                   VELVET_MIS_PE_sakai_mis-both_bi_2x250bp_SI_default.0.64percent_191.final.contigs_broken  VELVET_MIS_PE_sakai_mis-both_bi_2x250bp_SI_default.0.64percent_191.final.contigs
#Contigs                                   1038                                                                                     702                                                                             
#Contigs (>= 0 bp)                         1038                                                                                     702                                                                             
#Contigs (>= 1000 bp)                      794                                                                                      520                                                                             
Largest contig                             57152                                                                                    68215                                                                           
Total length                               5489026                                                                                  5534289                                                                         
Total length (>= 0 bp)                     5489026                                                                                  5534289                                                                         
Total length (>= 1000 bp)                  5339542                                                                                  5428270                                                                         
Reference length                           5594470                                                                                  5594470                                                                         
N50                                        10099                                                                                    17514                                                                           
NG50                                       9894                                                                                     17464                                                                           
N75                                        5328                                                                                     9211                                                                            
NG75                                       5117                                                                                     9073                                                                            
L50                                        166                                                                                      94                                                                              
LG50                                       171                                                                                      96                                                                              
L75                                        350                                                                                      202                                                                             
LG75                                       366                                                                                      207                                                                             
#local misassemblies                       3                                                                                        301                                                                             
#misassemblies                             7                                                                                        11                                                                              
#misassembled contigs                      7                                                                                        11                                                                              
Misassembled contigs length                51814                                                                                    100227                                                                          
Misassemblies inter-contig overlap         2836                                                                                     2836                                                                            
#unaligned contigs                         1 + 1 part                                                                               1 + 1 part                                                                      
Unaligned contigs length                   5591                                                                                     5591                                                                            
#ambiguously mapped contigs                133                                                                                      129                                                                             
Extra bases in ambiguously mapped contigs  -97695                                                                                   -94546                                                                          
#N's                                       0                                                                                        45263                                                                           
#N's per 100 kbp                           0.00                                                                                     817.86                                                                          
Genome fraction (%)                        95.361                                                                                   95.410                                                                          
Duplication ratio                          1.010                                                                                    1.019                                                                           
#genes                                     4544 + 733 part                                                                          4571 + 707 part                                                                 
#predicted genes (unique)                  5960                                                                                     5910                                                                            
#predicted genes (>= 0 bp)                 5991                                                                                     5942                                                                            
#predicted genes (>= 300 bp)               4856                                                                                     4856                                                                            
#predicted genes (>= 1500 bp)              607                                                                                      607                                                                             
#predicted genes (>= 3000 bp)              47                                                                                       47                                                                              
#mismatches                                226                                                                                      228                                                                             
#indels                                    19                                                                                       925                                                                             
Indels length                              19                                                                                       1704                                                                            
#mismatches per 100 kbp                    4.24                                                                                     4.27                                                                            
#indels per 100 kbp                        0.36                                                                                     17.33                                                                           
GC (%)                                     50.35                                                                                    50.35                                                                           
Reference GC (%)                           50.48                                                                                    50.48                                                                           
Average %IDY                               99.021                                                                                   99.001                                                                          
Largest alignment                          57152                                                                                    67928                                                                           
NA50                                       10097                                                                                    17303                                                                           
NGA50                                      9873                                                                                     17159                                                                           
NA75                                       5228                                                                                     8858                                                                            
NGA75                                      4978                                                                                     8373                                                                            
LA50                                       166                                                                                      96                                                                              
LGA50                                      171                                                                                      97                                                                              
LA75                                       352                                                                                      207                                                                             
LGA75                                      368                                                                                      212                                                                             
#Mis_misassemblies                         7                                                                                        11                                                                              
#Mis_relocations                           6                                                                                        10                                                                              
#Mis_translocations                        1                                                                                        1                                                                               
#Mis_inversions                            0                                                                                        0                                                                               
#Mis_misassembled contigs                  7                                                                                        11                                                                              
Mis_Misassembled contigs length            51814                                                                                    100227                                                                          
#Mis_local misassemblies                   3                                                                                        301                                                                             
#Mis_short indels (<= 5 bp)                19                                                                                       908                                                                             
#Mis_long indels (> 5 bp)                  0                                                                                        17                                                                              
#Una_fully unaligned contigs               1                                                                                        1                                                                               
Una_Fully unaligned length                 5576                                                                                     5576                                                                            
#Una_partially unaligned contigs           1                                                                                        1                                                                               
#Una_with misassembly                      0                                                                                        0                                                                               
#Una_both parts are significant            0                                                                                        0                                                                               
Una_Partially unaligned length             15                                                                                       15                                                                              
GAGE_Contigs #                             1038                                                                                     702                                                                             
GAGE_Min contig                            323                                                                                      381                                                                             
GAGE_Max contig                            57152                                                                                    68215                                                                           
GAGE_N50                                   9894 COUNT: 171                                                                          17464 COUNT: 96                                                                 
GAGE_Genome size                           5594470                                                                                  5594470                                                                         
GAGE_Assembly size                         5489026                                                                                  5534289                                                                         
GAGE_Chaff bases                           0                                                                                        0                                                                               
GAGE_Missing reference bases               27996(0.50%)                                                                             27973(0.50%)                                                                    
GAGE_Missing assembly bases                5874(0.11%)                                                                              51127(0.92%)                                                                    
GAGE_Missing assembly contigs              1(0.10%)                                                                                 1(0.14%)                                                                        
GAGE_Duplicated reference bases            15463                                                                                    16826                                                                           
GAGE_Compressed reference bases            238212                                                                                   237746                                                                          
GAGE_Bad trim                              298                                                                                      218                                                                             
GAGE_Avg idy                               99.99                                                                                    99.99                                                                           
GAGE_SNPs                                  176                                                                                      176                                                                             
GAGE_Indels < 5bp                          18                                                                                       25                                                                              
GAGE_Indels >= 5                           3                                                                                        325                                                                             
GAGE_Inversions                            0                                                                                        2                                                                               
GAGE_Relocation                            4                                                                                        6                                                                               
GAGE_Translocation                         1                                                                                        1                                                                               
GAGE_Corrected contig #                    1021                                                                                     1019                                                                            
GAGE_Corrected assembly size               5470519                                                                                  5470522                                                                         
GAGE_Min correct contig                    381                                                                                      381                                                                             
GAGE_Max correct contig                    57152                                                                                    57152                                                                           
GAGE_Corrected N50                         9873 COUNT: 171                                                                          9873 COUNT: 171                                                                 
