All statistics are based on contigs of size >= 200 bp, unless otherwise noted (e.g., "# contigs (>= 0 bp)" and "Total length (>= 0 bp)" include all contigs).

Assembly                                                                     #Contigs (>= 0 bp)  #Contigs (>= 1000 bp)  Total length (>= 0 bp)  Total length (>= 1000 bp)  #Contigs  Largest contig  Total length  Reference length  GC (%)  Reference GC (%)  N50   NG50  N75  NG75  #misassemblies  #local misassemblies  #unaligned contigs  Unaligned contigs length  Genome fraction (%)  Duplication ratio  #N's per 100 kbp  #mismatches per 100 kbp  #indels per 100 kbp  #genes            #predicted genes (unique)  #predicted genes (>= 0 bp)  #predicted genes (>= 300 bp)  #predicted genes (>= 1500 bp)  #predicted genes (>= 3000 bp)  Largest alignment  NA50  NGA50  NA75  NGA75
CLC_PGM_mrsa_pgm_200bp_es_316_IonOnev2_ts3.0_morestringent.6coverage.result  2628                794                    2573190                 1714874                    2628      14605           2573190       2813862           32.72   32.81             1594  1408  736  551   353             16                    3 + 221 part        12673                     85.950               1.060              63.35             115.69                   306.63               1128 + 1426 part  5237                       5240                        2533                          23                             0                              14605              1391  1245   647   494  
