Assembly	SOAP2_MIS_PE_sakai_mis-1_bi_2x250bp_SI_default.0.64percent_63.final.scaf_broken	SOAP2_MIS_PE_sakai_mis-1_bi_2x250bp_SI_default.0.64percent_63.final.scaf
#Contigs	79659	79662
#Contigs (>= 0 bp)	108030	108016
#Contigs (>= 1000 bp)	505	505
Largest contig	2987	2987
Total length	20981197	20984880
Total length (>= 0 bp)	25233814	25234818
Total length (>= 1000 bp)	653993	654271
Reference length	5594470	5594470
N50	250	250
NG50	434	435
N75	227	227
NG75	265	266
L50	33209	33206
LG50	3988	3985
L75	55050	55050
LG75	8141	8131
#local misassemblies	0	6
#misassemblies	2	2
#misassembled contigs	2	2
Misassembled contigs length	1424	1424
Misassemblies inter-contig overlap	0	0
#unaligned contigs	68673 + 4 part	68675 + 7 part
Unaligned contigs length	16161444	16163244
#ambiguously mapped contigs	99	99
Extra bases in ambiguously mapped contigs	-26801	-26801
#N's	0	1005
#N's per 100 kbp	0.00	4.79
Genome fraction (%)	80.568	80.585
Duplication ratio	1.063	1.064
#genes	688 + 4223 part	688 + 4224 part
#predicted genes (unique)	71764	71773
#predicted genes (>= 0 bp)	71854	71863
#predicted genes (>= 300 bp)	5533	5534
#predicted genes (>= 1500 bp)	8	8
#predicted genes (>= 3000 bp)	0	0
#mismatches	98	98
#indels	10	42
Indels length	10	59
#mismatches per 100 kbp	2.17	2.17
#indels per 100 kbp	0.22	0.93
GC (%)	53.90	53.90
Reference GC (%)	50.48	50.48
Average %IDY	99.995	99.994
Largest alignment	2987	2987
NA50	None	None
NGA50	433	433
NA75	None	None
NGA75	253	253
LA50	None	None
LGA50	3992	3991
LA75	None	None
LGA75	8212	8208
#Mis_misassemblies	2	2
#Mis_relocations	2	2
#Mis_translocations	0	0
#Mis_inversions	0	0
#Mis_misassembled contigs	2	2
Mis_Misassembled contigs length	1424	1424
#Mis_local misassemblies	0	6
#Mis_short indels (<= 5 bp)	10	41
#Mis_long indels (> 5 bp)	0	1
#Una_fully unaligned contigs	68673	68675
Una_Fully unaligned length	16161202	16162394
#Una_partially unaligned contigs	4	7
#Una_with misassembly	0	0
#Una_both parts are significant	0	1
Una_Partially unaligned length	242	850
GAGE_Contigs #	79659	79662
GAGE_Min contig	200	200
GAGE_Max contig	2987	2987
GAGE_N50	434 COUNT: 3988	435 COUNT: 3985
GAGE_Genome size	5594470	5594470
GAGE_Assembly size	20981197	20984880
GAGE_Chaff bases	0	0
GAGE_Missing reference bases	342749(6.13%)	341808(6.11%)
GAGE_Missing assembly bases	13194386(62.89%)	13195807(62.88%)
GAGE_Missing assembly contigs	55092(69.16%)	55092(69.16%)
GAGE_Duplicated reference bases	2005578	2006883
GAGE_Compressed reference bases	266380	266380
GAGE_Bad trim	134469	135266
GAGE_Avg idy	99.44	99.44
GAGE_SNPs	17249	17231
GAGE_Indels < 5bp	85	85
GAGE_Indels >= 5	0	7
GAGE_Inversions	0	0
GAGE_Relocation	2	2
GAGE_Translocation	0	0
GAGE_Corrected contig #	14761	14758
GAGE_Corrected assembly size	5671262	5670565
GAGE_Min correct contig	200	200
GAGE_Max correct contig	2987	2987
GAGE_Corrected N50	434 COUNT: 3990	434 COUNT: 3990
