All statistics are based on contigs of size >= 200 bp, unless otherwise noted (e.g., "# contigs (>= 0 bp)" and "Total length (>= 0 bp)" include all contigs).

Assembly                                   VELVET_MIS_PE_sakai_mis-both_bi_2x250bp_SI_default.0.64percent_217.final.contigs_broken  VELVET_MIS_PE_sakai_mis-both_bi_2x250bp_SI_default.0.64percent_217.final.contigs
#Contigs                                   4052                                                                                     2782                                                                            
#Contigs (>= 0 bp)                         4052                                                                                     2782                                                                            
#Contigs (>= 1000 bp)                      2021                                                                                     1888                                                                            
Largest contig                             7849                                                                                     10657                                                                           
Total length                               4809150                                                                                  5012100                                                                         
Total length (>= 0 bp)                     4809150                                                                                  5012100                                                                         
Total length (>= 1000 bp)                  3288004                                                                                  4307930                                                                         
Reference length                           5594470                                                                                  5594470                                                                         
N50                                        1293                                                                                     2230                                                                            
NG50                                       1157                                                                                     2021                                                                            
N75                                        907                                                                                      1368                                                                            
NG75                                       748                                                                                      1061                                                                            
L50                                        1244                                                                                     704                                                                             
LG50                                       1566                                                                                     841                                                                             
L75                                        2356                                                                                     1417                                                                            
LG75                                       3071                                                                                     1779                                                                            
#local misassemblies                       1                                                                                        1239                                                                            
#misassemblies                             6                                                                                        12                                                                              
#misassembled contigs                      6                                                                                        12                                                                              
Misassembled contigs length                14256                                                                                    42901                                                                           
Misassemblies inter-contig overlap         1434                                                                                     1401                                                                            
#unaligned contigs                         1 + 4 part                                                                               3 + 4 part                                                                      
Unaligned contigs length                   5629                                                                                     10961                                                                           
#ambiguously mapped contigs                74                                                                                       69                                                                              
Extra bases in ambiguously mapped contigs  -73433                                                                                   -70457                                                                          
#N's                                       0                                                                                        202950                                                                          
#N's per 100 kbp                           0.00                                                                                     4049.20                                                                         
Genome fraction (%)                        82.141                                                                                   82.130                                                                          
Duplication ratio                          1.030                                                                                    1.073                                                                           
#genes                                     1878 + 3017 part                                                                         1895 + 3007 part                                                                
#predicted genes (unique)                  7540                                                                                     7361                                                                            
#predicted genes (>= 0 bp)                 7554                                                                                     7375                                                                            
#predicted genes (>= 300 bp)               5348                                                                                     5381                                                                            
#predicted genes (>= 1500 bp)              158                                                                                      160                                                                             
#predicted genes (>= 3000 bp)              4                                                                                        4                                                                               
#mismatches                                317                                                                                      338                                                                             
#indels                                    21                                                                                       459                                                                             
Indels length                              21                                                                                       1367                                                                            
#mismatches per 100 kbp                    6.90                                                                                     7.36                                                                            
#indels per 100 kbp                        0.46                                                                                     9.99                                                                            
GC (%)                                     50.54                                                                                    50.54                                                                           
Reference GC (%)                           50.48                                                                                    50.48                                                                           
Average %IDY                               99.625                                                                                   99.612                                                                          
Largest alignment                          6504                                                                                     10480                                                                           
NA50                                       1277                                                                                     1992                                                                            
NGA50                                      1140                                                                                     1790                                                                            
NA75                                       893                                                                                      1176                                                                            
NGA75                                      735                                                                                      916                                                                             
LA50                                       1264                                                                                     789                                                                             
LGA50                                      1590                                                                                     943                                                                             
LA75                                       2393                                                                                     1600                                                                            
LGA75                                      3121                                                                                     2022                                                                            
#Mis_misassemblies                         6                                                                                        12                                                                              
#Mis_relocations                           5                                                                                        11                                                                              
#Mis_translocations                        1                                                                                        1                                                                               
#Mis_inversions                            0                                                                                        0                                                                               
#Mis_misassembled contigs                  6                                                                                        12                                                                              
Mis_Misassembled contigs length            14256                                                                                    42901                                                                           
#Mis_local misassemblies                   1                                                                                        1239                                                                            
#Mis_short indels (<= 5 bp)                21                                                                                       443                                                                             
#Mis_long indels (> 5 bp)                  0                                                                                        16                                                                              
#Una_fully unaligned contigs               1                                                                                        3                                                                               
Una_Fully unaligned length                 5539                                                                                     9475                                                                            
#Una_partially unaligned contigs           4                                                                                        4                                                                               
#Una_with misassembly                      0                                                                                        0                                                                               
#Una_both parts are significant            0                                                                                        1                                                                               
Una_Partially unaligned length             90                                                                                       1486                                                                            
GAGE_Contigs #                             4052                                                                                     2782                                                                            
GAGE_Min contig                            388                                                                                      433                                                                             
GAGE_Max contig                            7849                                                                                     10657                                                                           
GAGE_N50                                   1157 COUNT: 1566                                                                         2021 COUNT: 841                                                                 
GAGE_Genome size                           5594470                                                                                  5594470                                                                         
GAGE_Assembly size                         4809150                                                                                  5012100                                                                         
GAGE_Chaff bases                           0                                                                                        0                                                                               
GAGE_Missing reference bases               733697(13.11%)                                                                           733911(13.12%)                                                                  
GAGE_Missing assembly bases                5927(0.12%)                                                                              208898(4.17%)                                                                   
GAGE_Missing assembly contigs              1(0.02%)                                                                                 1(0.04%)                                                                        
GAGE_Duplicated reference bases            13262                                                                                    13046                                                                           
GAGE_Compressed reference bases            290131                                                                                   289217                                                                          
GAGE_Bad trim                              388                                                                                      1152                                                                            
GAGE_Avg idy                               99.99                                                                                    99.99                                                                           
GAGE_SNPs                                  222                                                                                      194                                                                             
GAGE_Indels < 5bp                          18                                                                                       17                                                                              
GAGE_Indels >= 5                           1                                                                                        1254                                                                            
GAGE_Inversions                            3                                                                                        8                                                                               
GAGE_Relocation                            4                                                                                        8                                                                               
GAGE_Translocation                         1                                                                                        1                                                                               
GAGE_Corrected contig #                    4042                                                                                     4044                                                                            
GAGE_Corrected assembly size               4794592                                                                                  4795342                                                                         
GAGE_Min correct contig                    222                                                                                      216                                                                             
GAGE_Max correct contig                    7849                                                                                     7849                                                                            
GAGE_Corrected N50                         1154 COUNT: 1570                                                                         1153 COUNT: 1571                                                                
