Assembly	SOAP2_MIS_PE_mrsa_mis-1_bi_2x150bp_default.0.527percent_13.final.scaf_broken	SOAP2_MIS_PE_mrsa_mis-1_bi_2x150bp_default.0.527percent_13.final.scaf
#Una_fully unaligned contigs	4	21
Una_Fully unaligned length	858	15935
#Una_partially unaligned contigs		114
#Una_with misassembly		6
#Una_both parts are significant		2
Una_Partially unaligned length		85495
#N's	0	84043
