All statistics are based on contigs of size >= 200 bp, unless otherwise noted (e.g., "# contigs (>= 0 bp)" and "Total length (>= 0 bp)" include all contigs).

Assembly                                                                         #Contigs  #Contigs (>= 0 bp)  #Contigs (>= 1000 bp)  Largest contig  Total length  Total length (>= 0 bp)  Total length (>= 1000 bp)  Reference length  N50  NG50  N75  NG75  L50    LG50  L75    LG75   #local misassemblies  #misassemblies  #misassembled contigs  Misassembled contigs length  Misassemblies inter-contig overlap  #unaligned contigs  Unaligned contigs length  #ambiguously mapped contigs  Extra bases in ambiguously mapped contigs  #N's  #N's per 100 kbp  Genome fraction (%)  Duplication ratio  #genes           #predicted genes (unique)  #predicted genes (>= 0 bp)  #predicted genes (>= 300 bp)  #predicted genes (>= 1500 bp)  #predicted genes (>= 3000 bp)  #mismatches  #indels  Indels length  #mismatches per 100 kbp  #indels per 100 kbp  GC (%)  Reference GC (%)  Average %IDY  Largest alignment  NA50  NGA50  NA75  NGA75  LA50  LGA50  LA75  LGA75  #Mis_misassemblies  #Mis_relocations  #Mis_translocations  #Mis_inversions  #Mis_misassembled contigs  Mis_Misassembled contigs length  #Mis_local misassemblies  #Mis_short indels (<= 5 bp)  #Mis_long indels (> 5 bp)  #Una_fully unaligned contigs  Una_Fully unaligned length  #Una_partially unaligned contigs  #Una_with misassembly  #Una_both parts are significant  Una_Partially unaligned length  GAGE_Contigs #  GAGE_Min contig  GAGE_Max contig  GAGE_N50         GAGE_Genome size  GAGE_Assembly size  GAGE_Chaff bases  GAGE_Missing reference bases  GAGE_Missing assembly bases  GAGE_Missing assembly contigs  GAGE_Duplicated reference bases  GAGE_Compressed reference bases  GAGE_Bad trim  GAGE_Avg idy  GAGE_SNPs  GAGE_Indels < 5bp  GAGE_Indels >= 5  GAGE_Inversions  GAGE_Relocation  GAGE_Translocation  GAGE_Corrected contig #  GAGE_Corrected assembly size  GAGE_Min correct contig  GAGE_Max correct contig  GAGE_Corrected N50
SOAP2_MIS_PE_sakai_mis-1_bi_2x250bp_SI_default.0.64percent_29.final.scaf_broken  24987     118475              34                     1498            6419640       19099536                39931                      5594470           244  248   221  230   10420  8744  17334  14585  0                     1               1                      556                          0                                   18507 + 2 part      4270815                   9                            -2138                                      0     0.00              38.076               1.008              161 + 3609 part  20218                      20220                       1971                          0                              0                              154          5        5              7.23                     0.23                 52.93   50.48             99.990        1498               None  None   None  None   None  None   None  None   1                   1                 0                    0                1                          556                              0                         5                            0                          18507                         4270701                     2                                 0                      0                                114                             24987           200              1498             248 COUNT: 8744  5594470           6419640             0                 3460079(61.85%)               4270824(66.53%)              18507(74.07%)                  0                                2138                             123            99.99         149        5                  0                 0                1                0                   6478                     2148337                       200                      1498                     0 COUNT: 0        
SOAP2_MIS_PE_sakai_mis-1_bi_2x250bp_SI_default.0.64percent_29.final.scaf         24987     118475              34                     1498            6419640       19099536                39931                      5594470           244  248   221  230   10420  8744  17334  14585  0                     1               1                      556                          0                                   18507 + 2 part      4270815                   9                            -2138                                      0     0.00              38.076               1.008              161 + 3609 part  20295                      20297                       1971                          0                              0                              154          5        5              7.23                     0.23                 52.93   50.48             99.990        1498               None  None   None  None   None  None   None  None   1                   1                 0                    0                1                          556                              0                         5                            0                          18507                         4270701                     2                                 0                      0                                114                             24987           200              1498             248 COUNT: 8744  5594470           6419640             0                 3460079(61.85%)               4270824(66.53%)              18507(74.07%)                  0                                2138                             123            99.99         149        5                  0                 0                1                0                   6478                     2148337                       200                      1498                     0 COUNT: 0        
