Assembly	CLC_PGM_mtbh37_pgm_400bp_es_318v2_OT2_tsv3.6_morestringent.0.600percent.result
#Contigs (>= 0 bp)	768
#Contigs (>= 1000 bp)	295
Total length (>= 0 bp)	4291207
Total length (>= 1000 bp)	4121696
#Contigs	768
Largest contig	87214
Total length	4291207
Reference length	4411532
GC (%)	65.33
Reference GC (%)	65.61
N50	21910
NG50	21363
N75	11511
NG75	11008
#misassemblies	19
#local misassemblies	9
#unaligned contigs	1 + 10 part
Unaligned contigs length	1506
Genome fraction (%)	95.740
Duplication ratio	1.014
#N's per 100 kbp	6.04
#mismatches per 100 kbp	4.00
#indels per 100 kbp	30.59
#genes	3720 + 335 part
#predicted genes (unique)	4875
#predicted genes (>= 0 bp)	4880
#predicted genes (>= 300 bp)	3796
#predicted genes (>= 1500 bp)	445
#predicted genes (>= 3000 bp)	39
Largest alignment	87214
NA50	21733
NGA50	21232
NA75	11119
NGA75	10454
