All statistics are based on contigs of size >= 200 bp, unless otherwise noted (e.g., "# contigs (>= 0 bp)" and "Total length (>= 0 bp)" include all contigs).

Assembly                                                                                                        #Contigs (>= 0 bp)  #Contigs (>= 1000 bp)  Total length (>= 0 bp)  Total length (>= 1000 bp)  #Contigs  Largest contig  Total length  Reference length  GC (%)  Reference GC (%)  N50    NG50   N75    NG75   #misassemblies  #local misassemblies  #unaligned contigs  Unaligned contigs length  Genome fraction (%)  Duplication ratio  #N's per 100 kbp  #mismatches per 100 kbp  #indels per 100 kbp  #genes           #predicted genes (unique)  #predicted genes (>= 0 bp)  #predicted genes (>= 300 bp)  #predicted genes (>= 1500 bp)  #predicted genes (>= 3000 bp)  Largest alignment  NA50   NGA50  NA75   NGA75
ABYSS_PE_MIS_PE_mtbh37-1_mis_2x250bp_nextera_default__mtbh37-2_mis_2x250bp_nextera_default_58-scaffolds_broken  307                 152                    4430980                 4400181                    189       170858          4418831       4411532           65.55   65.61             67247  67247  34413  34413  3               25                    0 + 1 part          54                        99.265               1.013              1.20              7.65                     2.88                 3993 + 117 part  4088                       4168                        3656                          575                            76                             170858             66465  66465  34413  34413
ABYSS_PE_MIS_PE_mtbh37-1_mis_2x250bp_nextera_default__mtbh37-2_mis_2x250bp_nextera_default_58-scaffolds         265                 123                    4433114                 4407764                    149       212167          4421214       4411532           65.55   65.61             95188  95188  49283  50441  3               37                    1 + 1 part          912                       99.248               1.017              49.47             7.67                     4.45                 4013 + 97 part   4076                       4156                        3649                          576                            77                             212167             84906  84906  49283  49283
