Assembly	#Contigs	#Contigs (>= 0 bp)	#Contigs (>= 1000 bp)	Largest contig	Total length	Total length (>= 0 bp)	Total length (>= 1000 bp)	Reference length	N50	NG50	N75	NG75	L50	LG50	L75	LG75	#local misassemblies	#misassemblies	#misassembled contigs	Misassembled contigs length	Misassemblies inter-contig overlap	#unaligned contigs	Unaligned contigs length	#ambiguously mapped contigs	Extra bases in ambiguously mapped contigs	#N's	#N's per 100 kbp	Genome fraction (%)	Duplication ratio	#genes	#predicted genes (unique)	#predicted genes (>= 0 bp)	#predicted genes (>= 300 bp)	#predicted genes (>= 1500 bp)	#predicted genes (>= 3000 bp)	#mismatches	#indels	Indels length	#mismatches per 100 kbp	#indels per 100 kbp	GC (%)	Reference GC (%)	Average %IDY	Largest alignment	NA50	NGA50	NA75	NGA75	LA50	LGA50	LA75	LGA75	#Mis_misassemblies	#Mis_relocations	#Mis_translocations	#Mis_inversions	#Mis_misassembled contigs	Mis_Misassembled contigs length	#Mis_local misassemblies	#Mis_short indels (<= 5 bp)	#Mis_long indels (> 5 bp)	#Una_fully unaligned contigs	Una_Fully unaligned length	#Una_partially unaligned contigs	#Una_with misassembly	#Una_both parts are significant	Una_Partially unaligned length	GAGE_Contigs #	GAGE_Min contig	GAGE_Max contig	GAGE_N50	GAGE_Genome size	GAGE_Assembly size	GAGE_Chaff bases	GAGE_Missing reference bases	GAGE_Missing assembly bases	GAGE_Missing assembly contigs	GAGE_Duplicated reference bases	GAGE_Compressed reference bases	GAGE_Bad trim	GAGE_Avg idy	GAGE_SNPs	GAGE_Indels < 5bp	GAGE_Indels >= 5	GAGE_Inversions	GAGE_Relocation	GAGE_Translocation	GAGE_Corrected contig #	GAGE_Corrected assembly size	GAGE_Min correct contig	GAGE_Max correct contig	GAGE_Corrected N50
VELVET_MIS_PE_sakai_mis-both_bi_2x250bp_SI_default.0.64percent_143.final.contigs_broken	518	520	276	144913	5451279	5451563	5340293	5594470	38875	37658	20201	18097	42	44	89	94	2	6	5	139571	2927	1 + 0 part	5385	194	-110280	0	0.00	95.322	1.001	4963 + 294 part	5556	5568	4608	656	63	129	34	34	2.42	0.64	50.35	50.48	98.809	144913	38211	37127	19929	17946	42	44	90	96	6	6	0	0	5	139571	2	34	0	1	5385	0	0	0	0	518	219	144913	37658 COUNT: 44	5594470	5451279	0	12746(0.23%)	5499(0.10%)	1(0.19%)	10742	242521	114	99.99	90	17	1	2	4	0	499	5436462	219	144914	37127 COUNT: 44
VELVET_MIS_PE_sakai_mis-both_bi_2x250bp_SI_default.0.64percent_143.final.contigs	416	416	197	206545	5464298	5464298	5366015	5594470	70031	65768	33608	32910	26	27	56	59	83	13	10	444208	2134	1 + 0 part	5385	186	-105888	12735	233.06	95.400	1.003	4975 + 288 part	5532	5544	4600	659	63	133	182	449	2.49	3.41	50.35	50.48	98.803	197925	65281	60752	32988	31593	28	29	58	61	13	13	0	0	10	444208	83	174	8	1	5385	0	0	0	0	416	285	206545	65768 COUNT: 27	5594470	5464298	0	12588(0.23%)	18135(0.33%)	1(0.24%)	10709	244472	382	99.99	90	27	76	9	12	0	498	5437484	219	144914	37127 COUNT: 44
