All statistics are based on contigs of size >= 200 bp, unless otherwise noted (e.g., "# contigs (>= 0 bp)" and "Total length (>= 0 bp)" include all contigs).

Assembly                         NEWBLER_MIS_PE_sakai_mis-1_bi_2x250bp_SI_default__sakai_mis-2_bi_2x250bp_SI_default.0.9percent.contigs_broken  NEWBLER_MIS_PE_sakai_mis-1_bi_2x250bp_SI_default__sakai_mis-2_bi_2x250bp_SI_default.0.9percent.contigs
#Mis_misassemblies               4                                                                                                              11                                                                                                    
#Mis_relocations                 4                                                                                                              11                                                                                                    
#Mis_translocations              0                                                                                                              0                                                                                                     
#Mis_inversions                  0                                                                                                              0                                                                                                     
#Mis_misassembled contigs        4                                                                                                              10                                                                                                    
Mis_Misassembled contigs length  217761                                                                                                         741116                                                                                                
#Mis_local misassemblies         2                                                                                                              79                                                                                                    
#mismatches                      128                                                                                                            173                                                                                                   
#indels                          15                                                                                                             21                                                                                                    
#Mis_short indels (<= 5 bp)      15                                                                                                             20                                                                                                    
#Mis_long indels (> 5 bp)        0                                                                                                              1                                                                                                     
Indels length                    20                                                                                                             31                                                                                                    
