Assembly	ABYSS_PE_MIS_PE_mrsa_mis-1_bi_2x150bp_default__mrsa_mis-2_bi_2x150bp_default.0.527percent_96-scaffolds_broken	ABYSS_PE_MIS_PE_mrsa_mis-1_bi_2x150bp_default__mrsa_mis-2_bi_2x150bp_default.0.527percent_96-scaffolds
#Mis_misassemblies	2	3
#Mis_relocations	2	3
#Mis_translocations	0	0
#Mis_inversions	0	0
#Mis_misassembled contigs	2	3
Mis_Misassembled contigs length	70949	311353
#Mis_local misassemblies	2	13
#mismatches	57	59
#indels	16	90
#Mis_short indels (<= 5 bp)	12	86
#Mis_long indels (> 5 bp)	4	4
Indels length	89	163
