1: PREPARING DATA
2,3: RUNNING mummer AND CREATING CLUSTERS
# reading input file "/vol/codine-tmp/juene/tmp.mr4Nn5ghFK/quast/gage/tmp/CLC_PGM_mrsa_pgm_200bp_es_316_IonOnev2_ts3.0_morestringent.0.175percent.result.ntref" of length 2813864
# construct suffix tree for sequence of length 2813864
# (maximum reference length is 536870908)
# (maximum query length is 4294967295)
# process 28138 characters per dot
#....................................................................................................
# CONSTRUCTIONTIME /vol/ngscomparison/software/analysis/quast-2.1/libs/MUMmer3.23-linux/mummer /vol/codine-tmp/juene/tmp.mr4Nn5ghFK/quast/gage/tmp/CLC_PGM_mrsa_pgm_200bp_es_316_IonOnev2_ts3.0_morestringent.0.175percent.result.ntref 1.61
# reading input file "/vol/codine-tmp/juene/tmp.mr4Nn5ghFK/quast/corrected_input/CLC_PGM_mrsa_pgm_200bp_es_316_IonOnev2_ts3.0_morestringent.0.175percent.result" of length 2783974
# matching query-file "/vol/codine-tmp/juene/tmp.mr4Nn5ghFK/quast/corrected_input/CLC_PGM_mrsa_pgm_200bp_es_316_IonOnev2_ts3.0_morestringent.0.175percent.result"
# against subject-file "/vol/codine-tmp/juene/tmp.mr4Nn5ghFK/quast/gage/tmp/CLC_PGM_mrsa_pgm_200bp_es_316_IonOnev2_ts3.0_morestringent.0.175percent.result.ntref"
# COMPLETETIME /vol/ngscomparison/software/analysis/quast-2.1/libs/MUMmer3.23-linux/mummer /vol/codine-tmp/juene/tmp.mr4Nn5ghFK/quast/gage/tmp/CLC_PGM_mrsa_pgm_200bp_es_316_IonOnev2_ts3.0_morestringent.0.175percent.result.ntref 4.72
# SPACE /vol/ngscomparison/software/analysis/quast-2.1/libs/MUMmer3.23-linux/mummer /vol/codine-tmp/juene/tmp.mr4Nn5ghFK/quast/gage/tmp/CLC_PGM_mrsa_pgm_200bp_es_316_IonOnev2_ts3.0_morestringent.0.175percent.result.ntref 5.43
4: FINISHING DATA
Filtering alignments
Extracting alignment coordinates
Analyzing SNPs
Extracting alignment breakpoints
Generating report file
Found genome size at position 4 with value 2813862 aka 2813862
Calculating point at 0 and the sum is 1018349 and i is270 and lens is 296 and length is 27602
Calculating point at 1 and the sum is 2010088 and i is215 and lens is 296 and length is 12256
