Assembly	#Mis_misassemblies	#Mis_relocations	#Mis_translocations	#Mis_inversions	#Mis_misassembled contigs	Mis_Misassembled contigs length	#Mis_local misassemblies	#mismatches	#indels	#Mis_short indels (<= 5 bp)	#Mis_long indels (> 5 bp)	Indels length
SOAP2_MIS_PE_mtbh37-1_mis_2x250bp_nextera_default_71.final.scaf_broken	12	3	0	9	12	2987	2	27298	549	547	2	588
SOAP2_MIS_PE_mtbh37-1_mis_2x250bp_nextera_default_71.final.scaf	12	3	0	9	12	2987	22	27451	531	525	6	674
