Assembly	SOAP2_PGM_sakai_pgm_mu_200bp_IO_TS3.0Disabled_stringent.0.34percent_65.final.contig
GAGE_Contigs #	12021
GAGE_Min contig	200
GAGE_Max contig	2122
GAGE_N50	288 COUNT: 5983
GAGE_Genome size	5594470
GAGE_Assembly size	4189983
GAGE_Chaff bases	0
GAGE_Missing reference bases	1664331(29.75%)
GAGE_Missing assembly bases	46620(1.11%)
GAGE_Missing assembly contigs	131(1.09%)
GAGE_Duplicated reference bases	173460
GAGE_Compressed reference bases	83040
GAGE_Bad trim	18122
GAGE_Avg idy	99.82
GAGE_SNPs	380
GAGE_Indels < 5bp	4461
GAGE_Indels >= 5	9
GAGE_Inversions	42
GAGE_Relocation	3
GAGE_Translocation	0
GAGE_Corrected contig #	10716
GAGE_Corrected assembly size	3909527
GAGE_Min correct contig	200
GAGE_Max correct contig	2124
GAGE_Corrected N50	288 COUNT: 5983
