All statistics are based on contigs of size >= 200 bp, unless otherwise noted (e.g., "# contigs (>= 0 bp)" and "Total length (>= 0 bp)" include all contigs).

Assembly                                   VELVET_MIS_PE_sakai_mis-1_bi_2x150bp_default__sakai_mis-2_bi_2x150bp_default.0.826percent_103.final.contigs_broken  VELVET_MIS_PE_sakai_mis-1_bi_2x150bp_default__sakai_mis-2_bi_2x150bp_default.0.826percent_103.final.contigs
#Contigs                                   579                                                                                                                 426                                                                                                        
#Contigs (>= 0 bp)                         586                                                                                                                 426                                                                                                        
#Contigs (>= 1000 bp)                      239                                                                                                                 125                                                                                                        
Largest contig                             142849                                                                                                              423531                                                                                                     
Total length                               5453327                                                                                                             5465406                                                                                                    
Total length (>= 0 bp)                     5454148                                                                                                             5465406                                                                                                    
Total length (>= 1000 bp)                  5331971                                                                                                             5361618                                                                                                    
Reference length                           5594470                                                                                                             5594470                                                                                                    
N50                                        52899                                                                                                               148390                                                                                                     
NG50                                       51720                                                                                                               148390                                                                                                     
N75                                        28949                                                                                                               81317                                                                                                      
NG75                                       25074                                                                                                               75637                                                                                                      
L50                                        33                                                                                                                  12                                                                                                         
LG50                                       35                                                                                                                  12                                                                                                         
L75                                        68                                                                                                                  24                                                                                                         
LG75                                       72                                                                                                                  26                                                                                                         
#local misassemblies                       2                                                                                                                   70                                                                                                         
#misassemblies                             4                                                                                                                   19                                                                                                         
#misassembled contigs                      4                                                                                                                   13                                                                                                         
Misassembled contigs length                118189                                                                                                              1058663                                                                                                    
Misassemblies inter-contig overlap         752                                                                                                                 2187                                                                                                       
#unaligned contigs                         1 + 0 part                                                                                                          1 + 0 part                                                                                                 
Unaligned contigs length                   5385                                                                                                                5385                                                                                                       
#ambiguously mapped contigs                278                                                                                                                 271                                                                                                        
Extra bases in ambiguously mapped contigs  -119521                                                                                                             -113792                                                                                                    
#N's                                       0                                                                                                                   11258                                                                                                      
#N's per 100 kbp                           0.00                                                                                                                205.99                                                                                                     
Genome fraction (%)                        95.215                                                                                                              95.340                                                                                                     
Duplication ratio                          1.000                                                                                                               1.003                                                                                                      
#genes                                     4977 + 243 part                                                                                                     5044 + 181 part                                                                                            
#predicted genes (unique)                  5601                                                                                                                5552                                                                                                       
#predicted genes (>= 0 bp)                 5614                                                                                                                5564                                                                                                       
#predicted genes (>= 300 bp)               4552                                                                                                                4542                                                                                                       
#predicted genes (>= 1500 bp)              661                                                                                                                 663                                                                                                        
#predicted genes (>= 3000 bp)              66                                                                                                                  65                                                                                                         
#mismatches                                84                                                                                                                  130                                                                                                        
#indels                                    16                                                                                                                  1688                                                                                                       
Indels length                              21                                                                                                                  2988                                                                                                       
#mismatches per 100 kbp                    1.58                                                                                                                2.44                                                                                                       
#indels per 100 kbp                        0.30                                                                                                                31.65                                                                                                      
GC (%)                                     50.34                                                                                                               50.35                                                                                                      
Reference GC (%)                           50.48                                                                                                               50.48                                                                                                      
Average %IDY                               98.843                                                                                                              98.826                                                                                                     
Largest alignment                          142849                                                                                                              314157                                                                                                     
NA50                                       52899                                                                                                               147921                                                                                                     
NGA50                                      51720                                                                                                               145668                                                                                                     
NA75                                       28625                                                                                                               77870                                                                                                      
NGA75                                      24704                                                                                                               75637                                                                                                      
LA50                                       33                                                                                                                  14                                                                                                         
LGA50                                      35                                                                                                                  15                                                                                                         
LA75                                       69                                                                                                                  27                                                                                                         
LGA75                                      73                                                                                                                  28                                                                                                         
#Mis_misassemblies                         4                                                                                                                   19                                                                                                         
#Mis_relocations                           4                                                                                                                   19                                                                                                         
#Mis_translocations                        0                                                                                                                   0                                                                                                          
#Mis_inversions                            0                                                                                                                   0                                                                                                          
#Mis_misassembled contigs                  4                                                                                                                   13                                                                                                         
Mis_Misassembled contigs length            118189                                                                                                              1058663                                                                                                    
#Mis_local misassemblies                   2                                                                                                                   70                                                                                                         
#Mis_short indels (<= 5 bp)                15                                                                                                                  1649                                                                                                       
#Mis_long indels (> 5 bp)                  1                                                                                                                   39                                                                                                         
#Una_fully unaligned contigs               1                                                                                                                   1                                                                                                          
Una_Fully unaligned length                 5385                                                                                                                5385                                                                                                       
#Una_partially unaligned contigs           0                                                                                                                   0                                                                                                          
#Una_with misassembly                      0                                                                                                                   0                                                                                                          
#Una_both parts are significant            0                                                                                                                   0                                                                                                          
Una_Partially unaligned length             0                                                                                                                   0                                                                                                          
GAGE_Contigs #                             579                                                                                                                 426                                                                                                        
GAGE_Min contig                            205                                                                                                                 205                                                                                                        
GAGE_Max contig                            142849                                                                                                              423531                                                                                                     
GAGE_N50                                   51720 COUNT: 35                                                                                                     148390 COUNT: 12                                                                                           
GAGE_Genome size                           5594470                                                                                                             5594470                                                                                                    
GAGE_Assembly size                         5453327                                                                                                             5465406                                                                                                    
GAGE_Chaff bases                           0                                                                                                                   0                                                                                                          
GAGE_Missing reference bases               4722(0.08%)                                                                                                         4689(0.08%)                                                                                                
GAGE_Missing assembly bases                5396(0.10%)                                                                                                         16551(0.30%)                                                                                               
GAGE_Missing assembly contigs              1(0.17%)                                                                                                            1(0.23%)                                                                                                   
GAGE_Duplicated reference bases            16873                                                                                                               17069                                                                                                      
GAGE_Compressed reference bases            244759                                                                                                              243386                                                                                                     
GAGE_Bad trim                              11                                                                                                                  895                                                                                                        
GAGE_Avg idy                               100.00                                                                                                              99.99                                                                                                      
GAGE_SNPs                                  55                                                                                                                  54                                                                                                         
GAGE_Indels < 5bp                          14                                                                                                                  28                                                                                                         
GAGE_Indels >= 5                           2                                                                                                                   104                                                                                                        
GAGE_Inversions                            1                                                                                                                   11                                                                                                         
GAGE_Relocation                            3                                                                                                                   10                                                                                                         
GAGE_Translocation                         0                                                                                                                   0                                                                                                          
GAGE_Corrected contig #                    530                                                                                                                 524                                                                                                        
GAGE_Corrected assembly size               5431739                                                                                                             5432273                                                                                                    
GAGE_Min correct contig                    205                                                                                                                 205                                                                                                        
GAGE_Max correct contig                    142848                                                                                                              142848                                                                                                     
GAGE_Corrected N50                         51720 COUNT: 35                                                                                                     52515 COUNT: 35                                                                                            
