All statistics are based on contigs of size >= 200 bp, unless otherwise noted (e.g., "# contigs (>= 0 bp)" and "Total length (>= 0 bp)" include all contigs).

Assembly                                                                                                            #Contigs (>= 0 bp)  #Contigs (>= 1000 bp)  Total length (>= 0 bp)  Total length (>= 1000 bp)  #Contigs  Largest contig  Total length  Reference length  GC (%)  Reference GC (%)  N50     NG50    N75    NG75   #misassemblies  #local misassemblies  #unaligned contigs  Unaligned contigs length  Genome fraction (%)  Duplication ratio  #N's per 100 kbp  #mismatches per 100 kbp  #indels per 100 kbp  #genes           #predicted genes (unique)  #predicted genes (>= 0 bp)  #predicted genes (>= 300 bp)  #predicted genes (>= 1500 bp)  #predicted genes (>= 3000 bp)  Largest alignment  NA50    NGA50   NA75   NGA75
VELVET_MIS_PE_sakai_mis-1_bi_2x150bp_default__sakai_mis-2_bi_2x150bp_default.0.826percent_103.final.contigs_broken  586                 239                    5454148                 5331971                    579       142849          5453327       5594470           50.34   50.48             52899   51720   28949  25074  4               2                     1 + 0 part          5385                      95.215               1.000              0.00              1.58                     0.30                 4977 + 243 part  5601                       5614                        4552                          661                            66                             142849             52899   51720   28625  24704
VELVET_MIS_PE_sakai_mis-1_bi_2x150bp_default__sakai_mis-2_bi_2x150bp_default.0.826percent_103.final.contigs         426                 125                    5465406                 5361618                    426       423531          5465406       5594470           50.35   50.48             148390  148390  81317  75637  19              70                    1 + 0 part          5385                      95.340               1.003              205.99            2.44                     31.65                5044 + 181 part  5552                       5564                        4542                          663                            65                             314157             147921  145668  77870  75637
