All statistics are based on contigs of size >= 200 bp, unless otherwise noted (e.g., "# contigs (>= 0 bp)" and "Total length (>= 0 bp)" include all contigs).

Assembly                                                                                                            #Contigs  #Contigs (>= 0 bp)  #Contigs (>= 1000 bp)  Largest contig  Total length  Total length (>= 0 bp)  Total length (>= 1000 bp)  Reference length  N50     NG50    N75    NG75   L50  LG50  L75  LG75  #local misassemblies  #misassemblies  #misassembled contigs  Misassembled contigs length  Misassemblies inter-contig overlap  #unaligned contigs  Unaligned contigs length  #ambiguously mapped contigs  Extra bases in ambiguously mapped contigs  #N's   #N's per 100 kbp  Genome fraction (%)  Duplication ratio  #genes           #predicted genes (unique)  #predicted genes (>= 0 bp)  #predicted genes (>= 300 bp)  #predicted genes (>= 1500 bp)  #predicted genes (>= 3000 bp)  #mismatches  #indels  Indels length  #mismatches per 100 kbp  #indels per 100 kbp  GC (%)  Reference GC (%)  Average %IDY  Largest alignment  NA50    NGA50   NA75   NGA75  LA50  LGA50  LA75  LGA75  #Mis_misassemblies  #Mis_relocations  #Mis_translocations  #Mis_inversions  #Mis_misassembled contigs  Mis_Misassembled contigs length  #Mis_local misassemblies  #Mis_short indels (<= 5 bp)  #Mis_long indels (> 5 bp)  #Una_fully unaligned contigs  Una_Fully unaligned length  #Una_partially unaligned contigs  #Una_with misassembly  #Una_both parts are significant  Una_Partially unaligned length  GAGE_Contigs #  GAGE_Min contig  GAGE_Max contig  GAGE_N50          GAGE_Genome size  GAGE_Assembly size  GAGE_Chaff bases  GAGE_Missing reference bases  GAGE_Missing assembly bases  GAGE_Missing assembly contigs  GAGE_Duplicated reference bases  GAGE_Compressed reference bases  GAGE_Bad trim  GAGE_Avg idy  GAGE_SNPs  GAGE_Indels < 5bp  GAGE_Indels >= 5  GAGE_Inversions  GAGE_Relocation  GAGE_Translocation  GAGE_Corrected contig #  GAGE_Corrected assembly size  GAGE_Min correct contig  GAGE_Max correct contig  GAGE_Corrected N50
VELVET_MIS_PE_sakai_mis-1_bi_2x150bp_default__sakai_mis-2_bi_2x150bp_default.0.826percent_103.final.contigs_broken  579       586                 239                    142849          5453327       5454148                 5331971                    5594470           52899   51720   28949  25074  33   35    68   72    2                     4               4                      118189                       752                                 1 + 0 part          5385                      278                          -119521                                    0      0.00              95.215               1.000              4977 + 243 part  5601                       5614                        4552                          661                            66                             84           16       21             1.58                     0.30                 50.34   50.48             98.843        142849             52899   51720   28625  24704  33    35     69    73     4                   4                 0                    0                4                          118189                           2                         15                           1                          1                             5385                        0                                 0                      0                                0                               579             205              142849           51720 COUNT: 35   5594470           5453327             0                 4722(0.08%)                   5396(0.10%)                  1(0.17%)                       16873                            244759                           11             100.00        55         14                 2                 1                3                0                   530                      5431739                       205                      142848                   51720 COUNT: 35   
VELVET_MIS_PE_sakai_mis-1_bi_2x150bp_default__sakai_mis-2_bi_2x150bp_default.0.826percent_103.final.contigs         426       426                 125                    423531          5465406       5465406                 5361618                    5594470           148390  148390  81317  75637  12   12    24   26    70                    19              13                     1058663                      2187                                1 + 0 part          5385                      271                          -113792                                    11258  205.99            95.340               1.003              5044 + 181 part  5552                       5564                        4542                          663                            65                             130          1688     2988           2.44                     31.65                50.35   50.48             98.826        314157             147921  145668  77870  75637  14    15     27    28     19                  19                0                    0                13                         1058663                          70                        1649                         39                         1                             5385                        0                                 0                      0                                0                               426             205              423531           148390 COUNT: 12  5594470           5465406             0                 4689(0.08%)                   16551(0.30%)                 1(0.23%)                       17069                            243386                           895            99.99         54         28                 104               11               10               0                   524                      5432273                       205                      142848                   52515 COUNT: 35   
