Assembly	NEWBLER_PGM_sakai_pgm_mu_318_400bp_IO_TS3.4_ms.0.3percent.contigs
#Contigs	270
#Contigs (>= 0 bp)	375
#Contigs (>= 1000 bp)	141
Largest contig	326751
Total length	5356480
Total length (>= 0 bp)	5371708
Total length (>= 1000 bp)	5294182
Reference length	5594470
N50	142450
NG50	124168
N75	54994
NG75	49549
L50	14
LG50	15
L75	29
LG75	32
#local misassemblies	11
#misassemblies	4
#misassembled contigs	4
Misassembled contigs length	348918
Misassemblies inter-contig overlap	2401
#unaligned contigs	0 + 0 part
Unaligned contigs length	0
#ambiguously mapped contigs	96
Extra bases in ambiguously mapped contigs	-83859
#N's	0
#N's per 100 kbp	0.00
Genome fraction (%)	94.267
Duplication ratio	1.000
#genes	4987 + 138 part
#predicted genes (unique)	5348
#predicted genes (>= 0 bp)	5349
#predicted genes (>= 300 bp)	4499
#predicted genes (>= 1500 bp)	656
#predicted genes (>= 3000 bp)	64
#mismatches	148
#indels	256
Indels length	352
#mismatches per 100 kbp	2.81
#indels per 100 kbp	4.85
GC (%)	50.30
Reference GC (%)	50.48
Average %IDY	98.732
Largest alignment	326751
NA50	142450
NGA50	124168
NA75	54994
NGA75	49549
LA50	15
LGA50	16
LA75	30
LGA75	33
#Mis_misassemblies	4
#Mis_relocations	4
#Mis_translocations	0
#Mis_inversions	0
#Mis_misassembled contigs	4
Mis_Misassembled contigs length	348918
#Mis_local misassemblies	11
#Mis_short indels (<= 5 bp)	250
#Mis_long indels (> 5 bp)	6
#Una_fully unaligned contigs	0
Una_Fully unaligned length	0
#Una_partially unaligned contigs	0
#Una_with misassembly	0
#Una_both parts are significant	0
Una_Partially unaligned length	0
GAGE_Contigs #	270
GAGE_Min contig	201
GAGE_Max contig	326751
GAGE_N50	124168 COUNT: 15
GAGE_Genome size	5594470
GAGE_Assembly size	5356480
GAGE_Chaff bases	0
GAGE_Missing reference bases	26382(0.47%)
GAGE_Missing assembly bases	5(0.00%)
GAGE_Missing assembly contigs	0(0.00%)
GAGE_Duplicated reference bases	3971
GAGE_Compressed reference bases	236636
GAGE_Bad trim	5
GAGE_Avg idy	99.99
GAGE_SNPs	85
GAGE_Indels < 5bp	268
GAGE_Indels >= 5	8
GAGE_Inversions	0
GAGE_Relocation	7
GAGE_Translocation	0
GAGE_Corrected contig #	274
GAGE_Corrected assembly size	5355335
GAGE_Min correct contig	201
GAGE_Max correct contig	313854
GAGE_Corrected N50	95902 COUNT: 19
