calling: java -cp /vol/ngscomparison/software/analysis/quast-2.1/libs/gage:. SizeFasta /vol/codine-tmp/juene/tmp.oyNyKcF4A1/quast/corrected_input/MRSA_COL_Plasmid.fasta |awk '{SUM+=; print SUM}'|tail -n 1
Contig Stats
Total units: 237
Reference: 2813862
BasesInFasta: 2785349
Min: 200
Max: 109190
N10: 88334 COUNT: 3
N25: 48012 COUNT: 10
N50: 30221 COUNT: 29
N75: 16862 COUNT: 59
E-size:37359.98

Genome Size: 2813862
Assembly Size: 2785349
Chaff bases: 0
Missing Reference Bases: 25542(0.91%)
Missing Assembly Bases: 8028(0.29%)
Missing Assembly Contigs: 8(3.38%)
Duplicated Reference Bases: 1337
Compressed Reference Bases: 22668
Bad Trim: 10
Avg Idy: 100.00
SNPs: 41
Indels < 5bp: 24
Indels >= 5: 15
Inversions: 0
Relocation: 2
Translocation: 0

Corrected Contig Stats
calling: java -cp /vol/ngscomparison/software/analysis/quast-2.1/libs/gage:.:. GetFastaStats -o -min 199 -genomeSize 2813862 /vol/codine-tmp/juene/tmp.oyNyKcF4A1/quast/gage/tmp/SOAP2_MIS_PE_mrsa_mis-1_bi_2x250bp_default.0.460percent_97.final.scaf_broken.matches.lens 2> /dev/null
Total units: 241
Reference: 2813862
BasesInFasta: 2775821
Min: 200
Max: 109190
N10: 88334 COUNT: 3
N25: 46633 COUNT: 11
N50: 29050 COUNT: 30
N75: 15720 COUNT: 61
E-size:36248

Done
