calling: java -cp /vol/ngscomparison/software/analysis/quast-2.1/libs/gage:. SizeFasta /vol/codine-tmp/juene/tmp.ju1j3pJakL/quast/corrected_input/MRSA_COL_Plasmid.fasta |awk '{SUM+=; print SUM}'|tail -n 1
Contig Stats
Total units: 24
Reference: 2813862
BasesInFasta: 2790165
Min: 4363
Max: 801776
N10: 801776 COUNT: 1
N25: 801776 COUNT: 1
N50: 158962 COUNT: 4
N75: 133606 COUNT: 9
E-size:343602.73

Genome Size: 2813862
Assembly Size: 2790165
Chaff bases: 0
Missing Reference Bases: 27877(0.99%)
Missing Assembly Bases: 34843(1.25%)
Missing Assembly Contigs: 1(4.17%)
Duplicated Reference Bases: 0
Compressed Reference Bases: 31903
Bad Trim: 0
Avg Idy: 99.99
SNPs: 30
Indels < 5bp: 9
Indels >= 5: 23
Inversions: 0
Relocation: 10
Translocation: 0

Corrected Contig Stats
calling: java -cp /vol/ngscomparison/software/analysis/quast-2.1/libs/gage:.:. GetFastaStats -o -min 199 -genomeSize 2813862 /vol/codine-tmp/juene/tmp.ju1j3pJakL/quast/gage/tmp/NEWBLER_MIS_PE_mrsa_mis-1_bi_2x150bp_default__mrsa_mis-2_bi_2x150bp_default.0.800percent.contigs.matches.lens 2> /dev/null
Total units: 66
Reference: 2813862
BasesInFasta: 2755735
Min: 871
Max: 300619
N10: 300619 COUNT: 1
N25: 198337 COUNT: 3
N50: 75530 COUNT: 10
N75: 39745 COUNT: 23
E-size:112922.02

Done
