Assembly	SOAP2_PGM_mrsa_pgm_200bp_es_316_IonOnev2_ts3.0_morestringent.0.230percent_125.final.contig
GAGE_Contigs #	3353
GAGE_Min contig	200
GAGE_Max contig	4465
GAGE_N50	693 COUNT: 1265
GAGE_Genome size	2813862
GAGE_Assembly size	2363814
GAGE_Chaff bases	0
GAGE_Missing reference bases	590856(21.00%)
GAGE_Missing assembly bases	1214(0.05%)
GAGE_Missing assembly contigs	0(0.00%)
GAGE_Duplicated reference bases	74567
GAGE_Compressed reference bases	50737
GAGE_Bad trim	1214
GAGE_Avg idy	99.92
GAGE_SNPs	81
GAGE_Indels < 5bp	1173
GAGE_Indels >= 5	1
GAGE_Inversions	0
GAGE_Relocation	0
GAGE_Translocation	0
GAGE_Corrected contig #	3048
GAGE_Corrected assembly size	2288362
GAGE_Min correct contig	200
GAGE_Max correct contig	4465
GAGE_Corrected N50	692 COUNT: 1266
