All statistics are based on contigs of size >= 200 bp, unless otherwise noted (e.g., "# contigs (>= 0 bp)" and "Total length (>= 0 bp)" include all contigs).

Assembly                                                                                                  GAGE_Contigs #  GAGE_Min contig  GAGE_Max contig  GAGE_N50          GAGE_Genome size  GAGE_Assembly size  GAGE_Chaff bases  GAGE_Missing reference bases  GAGE_Missing assembly bases  GAGE_Missing assembly contigs  GAGE_Duplicated reference bases  GAGE_Compressed reference bases  GAGE_Bad trim  GAGE_Avg idy  GAGE_SNPs  GAGE_Indels < 5bp  GAGE_Indels >= 5  GAGE_Inversions  GAGE_Relocation  GAGE_Translocation  GAGE_Corrected contig #  GAGE_Corrected assembly size  GAGE_Min correct contig  GAGE_Max correct contig  GAGE_Corrected N50
CLC_MIS_PE_sakai_mis-1_bi_2x250bp_SI_default__sakai_mis-2_bi_2x250bp_SI_default.0.8percent.result_broken  615             200              377991           145460 COUNT: 11  5594470           5485429             0                 9616(0.17%)                   97306(1.77%)                 327(53.17%)                    16706                            243691                           413            99.99         93         13                 9                 1                3                0                   250                      5372364                       203                      377429                   133847 COUNT: 14  
CLC_MIS_PE_sakai_mis-1_bi_2x250bp_SI_default__sakai_mis-2_bi_2x250bp_SI_default.0.8percent.result         608             200              377991           148159 COUNT: 11  5594470           5488358             0                 9604(0.17%)                   99815(1.82%)                 331(54.44%)                    17504                            244121                           975            99.99         93         13                 14                1                3                0                   248                      5371854                       203                      377429                   133847 COUNT: 14  
