All statistics are based on contigs of size >= 200 bp, unless otherwise noted (e.g., "# contigs (>= 0 bp)" and "Total length (>= 0 bp)" include all contigs).

Assembly                       CLC_MIS_PE_sakai_mis-1_bi_2x250bp_SI_default__sakai_mis-2_bi_2x250bp_SI_default.0.8percent.result_broken  CLC_MIS_PE_sakai_mis-1_bi_2x250bp_SI_default__sakai_mis-2_bi_2x250bp_SI_default.0.8percent.result
#Contigs (>= 0 bp)             627                                                                                                       608                                                                                              
#Contigs (>= 1000 bp)          143                                                                                                       137                                                                                              
Total length (>= 0 bp)         5486740                                                                                                   5488358                                                                                          
Total length (>= 1000 bp)      5330182                                                                                                   5333112                                                                                          
#Contigs                       615                                                                                                       608                                                                                              
Largest contig                 377991                                                                                                    377991                                                                                           
Total length                   5485429                                                                                                   5488358                                                                                          
Reference length               5594470                                                                                                   5594470                                                                                          
GC (%)                         50.21                                                                                                     50.21                                                                                            
Reference GC (%)               50.48                                                                                                     50.48                                                                                            
N50                            145460                                                                                                    157727                                                                                           
NG50                           145460                                                                                                    148159                                                                                           
N75                            73994                                                                                                     79830                                                                                            
NG75                           73280                                                                                                     73994                                                                                            
#misassemblies                 5                                                                                                         5                                                                                                
#local misassemblies           4                                                                                                         14                                                                                               
#unaligned contigs             328 + 4 part                                                                                              332 + 5 part                                                                                     
Unaligned contigs length       97419                                                                                                     98573                                                                                            
Genome fraction (%)            94.730                                                                                                    94.843                                                                                           
Duplication ratio              1.002                                                                                                     1.002                                                                                            
#N's per 100 kbp               1.22                                                                                                      30.70                                                                                            
#mismatches per 100 kbp        2.23                                                                                                      2.79                                                                                             
#indels per 100 kbp            0.40                                                                                                      2.04                                                                                             
#genes                         5042 + 129 part                                                                                           5047 + 127 part                                                                                  
#predicted genes (unique)      5616                                                                                                      5616                                                                                             
#predicted genes (>= 0 bp)     5618                                                                                                      5618                                                                                             
#predicted genes (>= 300 bp)   4506                                                                                                      4505                                                                                             
#predicted genes (>= 1500 bp)  674                                                                                                       674                                                                                              
#predicted genes (>= 3000 bp)  67                                                                                                        67                                                                                               
Largest alignment              377429                                                                                                    377429                                                                                           
NA50                           145460                                                                                                    148159                                                                                           
NGA50                          145460                                                                                                    147827                                                                                           
NA75                           73994                                                                                                     79830                                                                                            
NGA75                          73280                                                                                                     73994                                                                                            
