Assembly	VELVET_PGM_mtbh37_pgm_400bp_es_318v2_OT2_tsv3.6_morestringent_169.final.contigs
#Contigs	2708
#Contigs (>= 0 bp)	2708
#Contigs (>= 1000 bp)	1083
Largest contig	5667
Total length	2852309
Total length (>= 0 bp)	2852309
Total length (>= 1000 bp)	1856014
Reference length	4411532
N50	1297
NG50	781
N75	823
NG75	None
L50	708
LG50	1480
L75	1398
LG75	None
#local misassemblies	36
#misassemblies	24
#misassembled contigs	24
Misassembled contigs length	33109
Misassemblies inter-contig overlap	957
#unaligned contigs	1 + 1 part
Unaligned contigs length	586
#ambiguously mapped contigs	10
Extra bases in ambiguously mapped contigs	-4306
#N's	460
#N's per 100 kbp	16.13
Genome fraction (%)	60.924
Duplication ratio	1.060
#genes	1014 + 2021 part
#predicted genes (unique)	4927
#predicted genes (>= 0 bp)	4957
#predicted genes (>= 300 bp)	3191
#predicted genes (>= 1500 bp)	72
#predicted genes (>= 3000 bp)	1
#mismatches	89
#indels	1508
Indels length	1562
#mismatches per 100 kbp	3.31
#indels per 100 kbp	56.11
GC (%)	65.38
Reference GC (%)	65.61
Average %IDY	99.886
Largest alignment	5667
NA50	1292
NGA50	778
NA75	819
NGA75	None
LA50	711
LGA50	1487
LA75	1404
LGA75	None
#Mis_misassemblies	24
#Mis_relocations	24
#Mis_translocations	0
#Mis_inversions	0
#Mis_misassembled contigs	24
Mis_Misassembled contigs length	33109
#Mis_local misassemblies	36
#Mis_short indels (<= 5 bp)	1507
#Mis_long indels (> 5 bp)	1
#Una_fully unaligned contigs	1
Una_Fully unaligned length	513
#Una_partially unaligned contigs	1
#Una_with misassembly	0
#Una_both parts are significant	0
Una_Partially unaligned length	73
GAGE_Contigs #	2708
GAGE_Min contig	337
GAGE_Max contig	5667
GAGE_N50	781 COUNT: 1480
GAGE_Genome size	4411532
GAGE_Assembly size	2852309
GAGE_Chaff bases	0
GAGE_Missing reference bases	1701865(38.58%)
GAGE_Missing assembly bases	1103(0.04%)
GAGE_Missing assembly contigs	1(0.04%)
GAGE_Duplicated reference bases	67875
GAGE_Compressed reference bases	25862
GAGE_Bad trim	460
GAGE_Avg idy	99.94
GAGE_SNPs	65
GAGE_Indels < 5bp	1465
GAGE_Indels >= 5	12
GAGE_Inversions	1
GAGE_Relocation	3
GAGE_Translocation	0
GAGE_Corrected contig #	2586
GAGE_Corrected assembly size	2784565
GAGE_Min correct contig	331
GAGE_Max correct contig	5669
GAGE_Corrected N50	775 COUNT: 1499
