1: PREPARING DATA
2,3: RUNNING mummer AND CREATING CLUSTERS
# reading input file "/vol/codine-tmp/juene/tmp.U3uO88eU9u/quast/gage/tmp/VELVET_MIS_PE_mtbh37-1_mis_2x250bp_nextera_default__mtbh37-2_mis_2x250bp_nextera_default_179.final.contigs.ntref" of length 4411533
# construct suffix tree for sequence of length 4411533
# (maximum reference length is 536870908)
# (maximum query length is 4294967295)
# process 44115 characters per dot
#....................................................................................................
# CONSTRUCTIONTIME /vol/ngscomparison/software/analysis/quast-2.1/libs/MUMmer3.23-linux/mummer /vol/codine-tmp/juene/tmp.U3uO88eU9u/quast/gage/tmp/VELVET_MIS_PE_mtbh37-1_mis_2x250bp_nextera_default__mtbh37-2_mis_2x250bp_nextera_default_179.final.contigs.ntref 2.81
# reading input file "/vol/codine-tmp/juene/tmp.U3uO88eU9u/quast/corrected_input/VELVET_MIS_PE_mtbh37-1_mis_2x250bp_nextera_default__mtbh37-2_mis_2x250bp_nextera_default_179.final.contigs" of length 4337628
# matching query-file "/vol/codine-tmp/juene/tmp.U3uO88eU9u/quast/corrected_input/VELVET_MIS_PE_mtbh37-1_mis_2x250bp_nextera_default__mtbh37-2_mis_2x250bp_nextera_default_179.final.contigs"
# against subject-file "/vol/codine-tmp/juene/tmp.U3uO88eU9u/quast/gage/tmp/VELVET_MIS_PE_mtbh37-1_mis_2x250bp_nextera_default__mtbh37-2_mis_2x250bp_nextera_default_179.final.contigs.ntref"
# COMPLETETIME /vol/ngscomparison/software/analysis/quast-2.1/libs/MUMmer3.23-linux/mummer /vol/codine-tmp/juene/tmp.U3uO88eU9u/quast/gage/tmp/VELVET_MIS_PE_mtbh37-1_mis_2x250bp_nextera_default__mtbh37-2_mis_2x250bp_nextera_default_179.final.contigs.ntref 8.42
# SPACE /vol/ngscomparison/software/analysis/quast-2.1/libs/MUMmer3.23-linux/mummer /vol/codine-tmp/juene/tmp.U3uO88eU9u/quast/gage/tmp/VELVET_MIS_PE_mtbh37-1_mis_2x250bp_nextera_default__mtbh37-2_mis_2x250bp_nextera_default_179.final.contigs.ntref 8.50
4: FINISHING DATA
Filtering alignments
Extracting alignment coordinates
Analyzing SNPs
Extracting alignment breakpoints
Generating report file
Found genome size at position 4 with value 4411532 aka 4411532
Calculating point at 0 and the sum is 1015615 and i is671 and lens is 719 and length is 15616
Calculating point at 1 and the sum is 2006029 and i is594 and lens is 719 and length is 10520
Calculating point at 2 and the sum is 3004210 and i is473 and lens is 719 and length is 6274
Calculating point at 3 and the sum is 4000508 and i is228 and lens is 719 and length is 2412
