All statistics are based on contigs of size >= 200 bp, unless otherwise noted (e.g., "# contigs (>= 0 bp)" and "Total length (>= 0 bp)" include all contigs).

Assembly                       ABYSS_PE_PGM_sakai_pgm_mu_200bp_IO_TS3.0Disabled_stringent.86coverage_126.final
#Contigs (>= 0 bp)             5790                                                                           
#Contigs (>= 1000 bp)          923                                                                            
Total length (>= 0 bp)         6247204                                                                        
Total length (>= 1000 bp)      5057977                                                                        
#Contigs                       4296                                                                           
Largest contig                 34355                                                                          
Total length                   6012724                                                                        
Reference length               5594470                                                                        
GC (%)                         50.54                                                                          
Reference GC (%)               50.48                                                                          
N50                            6640                                                                           
NG50                           7076                                                                           
N75                            2755                                                                           
NG75                           3686                                                                           
#misassemblies                 4                                                                              
#local misassemblies           1                                                                              
#unaligned contigs             0 + 3 part                                                                     
Unaligned contigs length       156                                                                            
Genome fraction (%)            94.800                                                                         
Duplication ratio              1.095                                                                          
#N's per 100 kbp               0.00                                                                           
#mismatches per 100 kbp        1.06                                                                           
#indels per 100 kbp            32.07                                                                          
#genes                         4175 + 1018 part                                                               
#predicted genes (unique)      9474                                                                           
#predicted genes (>= 0 bp)     9574                                                                           
#predicted genes (>= 300 bp)   5028                                                                           
#predicted genes (>= 1500 bp)  438                                                                            
#predicted genes (>= 3000 bp)  28                                                                             
Largest alignment              34355                                                                          
NA50                           6640                                                                           
NGA50                          7076                                                                           
NA75                           2755                                                                           
NGA75                          3673                                                                           
