All statistics are based on contigs of size >= 200 bp, unless otherwise noted (e.g., "# contigs (>= 0 bp)" and "Total length (>= 0 bp)" include all contigs).

Assembly                                                                                                           GAGE_Contigs #  GAGE_Min contig  GAGE_Max contig  GAGE_N50          GAGE_Genome size  GAGE_Assembly size  GAGE_Chaff bases  GAGE_Missing reference bases  GAGE_Missing assembly bases  GAGE_Missing assembly contigs  GAGE_Duplicated reference bases  GAGE_Compressed reference bases  GAGE_Bad trim  GAGE_Avg idy  GAGE_SNPs  GAGE_Indels < 5bp  GAGE_Indels >= 5  GAGE_Inversions  GAGE_Relocation  GAGE_Translocation  GAGE_Corrected contig #  GAGE_Corrected assembly size  GAGE_Min correct contig  GAGE_Max correct contig  GAGE_Corrected N50
VELVET_MIS_PE_sakai_mis-1_bi_2x150bp_default__sakai_mis-2_bi_2x150bp_default.0.826percent_49.final.contigs_broken  466             200              144340           45161 COUNT: 37   5594470           5342948             0                 59019(1.05%)                  5445(0.10%)                  1(0.21%)                       12103                            235424                           11             99.99         391        24                 10                1                7                0                   441                      5327891                       200                      140410                   43472 COUNT: 41   
VELVET_MIS_PE_sakai_mis-1_bi_2x150bp_default__sakai_mis-2_bi_2x150bp_default.0.826percent_49.final.contigs         340             200              374735           144398 COUNT: 13  5594470           5349629             0                 58128(1.04%)                  10868(0.20%)                 1(0.29%)                       11601                            234060                           68             99.98         387        74                 91                3                17               0                   426                      5329077                       200                      140410                   47064 COUNT: 35   
