Assembly	NEWBLER_PGM_sakai_pgm_mu_318_400bp_IO_TS3.4_ms.0.8percent.contigs
GAGE_Contigs #	296
GAGE_Min contig	200
GAGE_Max contig	278147
GAGE_N50	95523 COUNT: 19
GAGE_Genome size	5594470
GAGE_Assembly size	5360446
GAGE_Chaff bases	0
GAGE_Missing reference bases	33644(0.60%)
GAGE_Missing assembly bases	81(0.00%)
GAGE_Missing assembly contigs	0(0.00%)
GAGE_Duplicated reference bases	10112
GAGE_Compressed reference bases	229073
GAGE_Bad trim	81
GAGE_Avg idy	99.99
GAGE_SNPs	69
GAGE_Indels < 5bp	174
GAGE_Indels >= 5	3
GAGE_Inversions	1
GAGE_Relocation	4
GAGE_Translocation	0
GAGE_Corrected contig #	267
GAGE_Corrected assembly size	5353464
GAGE_Min correct contig	200
GAGE_Max correct contig	224041
GAGE_Corrected N50	95524 COUNT: 20
