Assembly	#Contigs (>= 0 bp)	#Contigs (>= 1000 bp)	Total length (>= 0 bp)	Total length (>= 1000 bp)	#Contigs	Largest contig	Total length	Reference length	GC (%)	Reference GC (%)	N50	NG50	N75	NG75	#misassemblies	#local misassemblies	#unaligned contigs	Unaligned contigs length	Genome fraction (%)	Duplication ratio	#N's per 100 kbp	#mismatches per 100 kbp	#indels per 100 kbp	#genes	#predicted genes (unique)	#predicted genes (>= 0 bp)	#predicted genes (>= 300 bp)	#predicted genes (>= 1500 bp)	#predicted genes (>= 3000 bp)	Largest alignment	NA50	NGA50	NA75	NGA75
VELVET_MIS_PE_sakai_mis-both_bi_2x250bp_SI_default.0.64percent_97.final.contigs_broken	547	253	5418288	5298103	527	142718	5414748	5594470	50.32	50.48	46717	45025	24041	20573	5	2	1 + 0 part	5482	94.759	1.000	0.00	2.41	0.40	4914 + 275 part	5527	5537	4553	663	64	142718	46717	45025	24041	20544
VELVET_MIS_PE_sakai_mis-both_bi_2x250bp_SI_default.0.64percent_97.final.contigs	418	163	5430037	5329182	403	206489	5427099	5594470	50.32	50.48	92742	91256	55654	47603	18	89	1 + 3 part	6584	94.791	1.002	216.49	3.39	3.28	4939 + 254 part	5489	5499	4553	664	64	205958	92457	91256	49889	46371
