1: PREPARING DATA
2,3: RUNNING mummer AND CREATING CLUSTERS
# reading input file "/vol/codine-tmp/juene/tmp.qBO1cIATJh/quast/gage/tmp/ABYSS_PE_PGM_sakai_pgm_mu_318_400bp_IO_TS3.4_ms.0.9percent_110.final.ntref" of length 5594473
# construct suffix tree for sequence of length 5594473
# (maximum reference length is 536870908)
# (maximum query length is 4294967295)
# process 55944 characters per dot
#....................................................................................................
# CONSTRUCTIONTIME /vol/ngscomparison/software/analysis/quast-2.1/libs/MUMmer3.23-linux/mummer /vol/codine-tmp/juene/tmp.qBO1cIATJh/quast/gage/tmp/ABYSS_PE_PGM_sakai_pgm_mu_318_400bp_IO_TS3.4_ms.0.9percent_110.final.ntref 3.37
# reading input file "/vol/codine-tmp/juene/tmp.qBO1cIATJh/quast/corrected_input/ABYSS_PE_PGM_sakai_pgm_mu_318_400bp_IO_TS3.4_ms.0.9percent_110.final" of length 6106010
# matching query-file "/vol/codine-tmp/juene/tmp.qBO1cIATJh/quast/corrected_input/ABYSS_PE_PGM_sakai_pgm_mu_318_400bp_IO_TS3.4_ms.0.9percent_110.final"
# against subject-file "/vol/codine-tmp/juene/tmp.qBO1cIATJh/quast/gage/tmp/ABYSS_PE_PGM_sakai_pgm_mu_318_400bp_IO_TS3.4_ms.0.9percent_110.final.ntref"
# COMPLETETIME /vol/ngscomparison/software/analysis/quast-2.1/libs/MUMmer3.23-linux/mummer /vol/codine-tmp/juene/tmp.qBO1cIATJh/quast/gage/tmp/ABYSS_PE_PGM_sakai_pgm_mu_318_400bp_IO_TS3.4_ms.0.9percent_110.final.ntref 9.76
# SPACE /vol/ngscomparison/software/analysis/quast-2.1/libs/MUMmer3.23-linux/mummer /vol/codine-tmp/juene/tmp.qBO1cIATJh/quast/gage/tmp/ABYSS_PE_PGM_sakai_pgm_mu_318_400bp_IO_TS3.4_ms.0.9percent_110.final.ntref 11.45
4: FINISHING DATA
Filtering alignments
Extracting alignment coordinates
Analyzing SNPs
Extracting alignment breakpoints
Generating report file
Found genome size at position 4 with value 5594470 aka 5594470
Calculating point at 0 and the sum is 1001380 and i is3275 and lens is 3341 and length is 11179
Calculating point at 1 and the sum is 2004738 and i is3162 and lens is 3341 and length is 7345
Calculating point at 2 and the sum is 3003543 and i is2998 and lens is 3341 and length is 5065
Calculating point at 3 and the sum is 4002944 and i is2740 and lens is 3341 and length is 2965
Calculating point at 4 and the sum is 5000588 and i is2164 and lens is 3341 and length is 815
