calling: java -cp /vol/ngscomparison/software/analysis/quast-2.1/libs/gage:. SizeFasta /vol/codine-tmp/juene/tmp.qBO1cIATJh/quast/corrected_input/Ecoli_Sakai_editedNew_plasmids.fasta |awk '{SUM+=; print SUM}'|tail -n 1
Contig Stats
Total units: 5706
Reference: 5594470
BasesInFasta: 6100305
Min: 200
Max: 29643
N10: 14173 COUNT: 31
N25: 9326 COUNT: 105
N50: 5475 COUNT: 303
N75: 2605 COUNT: 668
E-size:6763.69

Genome Size: 5594470
Assembly Size: 6100305
Chaff bases: 0
Missing Reference Bases: 16922(0.30%)
Missing Assembly Bases: 302(0.00%)
Missing Assembly Contigs: 0(0.00%)
Duplicated Reference Bases: 509654
Compressed Reference Bases: 273509
Bad Trim: 302
Avg Idy: 99.98
SNPs: 51
Indels < 5bp: 472
Indels >= 5: 3
Inversions: 0
Relocation: 6
Translocation: 0

Corrected Contig Stats
calling: java -cp /vol/ngscomparison/software/analysis/quast-2.1/libs/gage:.:. GetFastaStats -o -min 199 -genomeSize 5594470 /vol/codine-tmp/juene/tmp.qBO1cIATJh/quast/gage/tmp/ABYSS_PE_PGM_sakai_pgm_mu_318_400bp_IO_TS3.4_ms.0.9percent_110.final.matches.lens 2> /dev/null
Total units: 3337
Reference: 5594470
BasesInFasta: 5590340
Min: 200
Max: 29644
N10: 13931 COUNT: 31
N25: 9326 COUNT: 105
N50: 5456 COUNT: 304
N75: 2572 COUNT: 671
E-size:6721.92

Done
