Assembly	NEWBLER_MIS_PE_sakai_mis-1_bi_2x150bp_default__sakai_mis-2_bi_2x150bp_default.81coverage.contigs
GAGE_Contigs #	351
GAGE_Min contig	200
GAGE_Max contig	259768
GAGE_N50	117553 COUNT: 17
GAGE_Genome size	5594470
GAGE_Assembly size	5312599
GAGE_Chaff bases	0
GAGE_Missing reference bases	70052(1.25%)
GAGE_Missing assembly bases	5390(0.10%)
GAGE_Missing assembly contigs	1(0.28%)
GAGE_Duplicated reference bases	659
GAGE_Compressed reference bases	222258
GAGE_Bad trim	4
GAGE_Avg idy	99.99
GAGE_SNPs	135
GAGE_Indels < 5bp	17
GAGE_Indels >= 5	2
GAGE_Inversions	0
GAGE_Relocation	3
GAGE_Translocation	0
GAGE_Corrected contig #	353
GAGE_Corrected assembly size	5306867
GAGE_Min correct contig	200
GAGE_Max correct contig	259768
GAGE_Corrected N50	107932 COUNT: 18
