Assembly	SOAP2_PGM_sakai_pgm_mu_200bp_IO_TS3.0Disabled_stringent.0.34percent_119.final.contig
#Mis_misassemblies	5
#Mis_relocations	3
#Mis_translocations	0
#Mis_inversions	2
#Mis_misassembled contigs	5
Mis_Misassembled contigs length	2572
#Mis_local misassemblies	0
#mismatches	80
#indels	2301
#Mis_short indels (<= 5 bp)	2301
#Mis_long indels (> 5 bp)	0
Indels length	2381
