All statistics are based on contigs of size >= 200 bp, unless otherwise noted (e.g., "# contigs (>= 0 bp)" and "Total length (>= 0 bp)" include all contigs).

Assembly                       SOAP2_PGM_mrsa_pgm_400bp_es_318_IKA_ts3.2_morestringent.0.165percent_87.final.contig
#Contigs (>= 0 bp)             137389                                                                              
#Contigs (>= 1000 bp)          0                                                                                   
Total length (>= 0 bp)         22029013                                                                            
Total length (>= 1000 bp)      0                                                                                   
#Contigs                       25418                                                                               
Largest contig                 766                                                                                 
Total length                   7563813                                                                             
Reference length               2813862                                                                             
GC (%)                         31.81                                                                               
Reference GC (%)               32.81                                                                               
N50                            296                                                                                 
NG50                           339                                                                                 
N75                            274                                                                                 
NG75                           323                                                                                 
#misassemblies                 186                                                                                 
#local misassemblies           1                                                                                   
#unaligned contigs             2880 + 503 part                                                                     
Unaligned contigs length       925313                                                                              
Genome fraction (%)            90.162                                                                              
Duplication ratio              2.606                                                                               
#N's per 100 kbp               0.00                                                                                
#mismatches per 100 kbp        140.24                                                                              
#indels per 100 kbp            1994.57                                                                             
#genes                         234 + 2416 part                                                                     
#predicted genes (unique)      21303                                                                               
#predicted genes (>= 0 bp)     21369                                                                               
#predicted genes (>= 300 bp)   397                                                                                 
#predicted genes (>= 1500 bp)  0                                                                                   
#predicted genes (>= 3000 bp)  0                                                                                   
Largest alignment              766                                                                                 
NA50                           287                                                                                 
NGA50                          332                                                                                 
NA75                           264                                                                                 
NGA75                          314                                                                                 
