All statistics are based on contigs of size >= 200 bp, unless otherwise noted (e.g., "# contigs (>= 0 bp)" and "Total length (>= 0 bp)" include all contigs).

Assembly                                   NEWBLER_PGM_sakai_pgm_mu_200bp_IO_TS3.0Disabled_stringent.0.95percent.contigs
#Contigs                                   456                                                                          
#Contigs (>= 0 bp)                         643                                                                          
#Contigs (>= 1000 bp)                      251                                                                          
Largest contig                             200334                                                                       
Total length                               5309449                                                                      
Total length (>= 0 bp)                     5334223                                                                      
Total length (>= 1000 bp)                  5222561                                                                      
Reference length                           5594470                                                                      
N50                                        43334                                                                        
NG50                                       42839                                                                        
N75                                        22803                                                                        
NG75                                       20786                                                                        
L50                                        33                                                                           
LG50                                       36                                                                           
L75                                        75                                                                           
LG75                                       85                                                                           
#local misassemblies                       3                                                                            
#misassemblies                             17                                                                           
#misassembled contigs                      16                                                                           
Misassembled contigs length                109751                                                                       
Misassemblies inter-contig overlap         459                                                                          
#unaligned contigs                         0 + 3 part                                                                   
Unaligned contigs length                   124                                                                          
#ambiguously mapped contigs                124                                                                          
Extra bases in ambiguously mapped contigs  -85184                                                                       
#N's                                       0                                                                            
#N's per 100 kbp                           0.00                                                                         
Genome fraction (%)                        93.374                                                                       
Duplication ratio                          1.000                                                                        
#genes                                     4828 + 255 part                                                              
#predicted genes (unique)                  5718                                                                         
#predicted genes (>= 0 bp)                 5718                                                                         
#predicted genes (>= 300 bp)               4663                                                                         
#predicted genes (>= 1500 bp)              562                                                                          
#predicted genes (>= 3000 bp)              46                                                                           
#mismatches                                61                                                                           
#indels                                    833                                                                          
Indels length                              890                                                                          
#mismatches per 100 kbp                    1.17                                                                         
#indels per 100 kbp                        15.95                                                                        
GC (%)                                     50.27                                                                        
Reference GC (%)                           50.48                                                                        
Average %IDY                               99.287                                                                       
Largest alignment                          200334                                                                       
NA50                                       42962                                                                        
NGA50                                      39122                                                                        
NA75                                       22671                                                                        
NGA75                                      20245                                                                        
LA50                                       34                                                                           
LGA50                                      37                                                                           
LA75                                       77                                                                           
LGA75                                      87                                                                           
#Mis_misassemblies                         17                                                                           
#Mis_relocations                           5                                                                            
#Mis_translocations                        0                                                                            
#Mis_inversions                            12                                                                           
#Mis_misassembled contigs                  16                                                                           
Mis_Misassembled contigs length            109751                                                                       
#Mis_local misassemblies                   3                                                                            
#Mis_short indels (<= 5 bp)                831                                                                          
#Mis_long indels (> 5 bp)                  2                                                                            
#Una_fully unaligned contigs               0                                                                            
Una_Fully unaligned length                 0                                                                            
#Una_partially unaligned contigs           3                                                                            
#Una_with misassembly                      0                                                                            
#Una_both parts are significant            0                                                                            
Una_Partially unaligned length             124                                                                          
GAGE_Contigs #                             456                                                                          
GAGE_Min contig                            200                                                                          
GAGE_Max contig                            200334                                                                       
GAGE_N50                                   42839 COUNT: 36                                                              
GAGE_Genome size                           5594470                                                                      
GAGE_Assembly size                         5309449                                                                      
GAGE_Chaff bases                           0                                                                            
GAGE_Missing reference bases               88636(1.58%)                                                                 
GAGE_Missing assembly bases                263(0.00%)                                                                   
GAGE_Missing assembly contigs              0(0.00%)                                                                     
GAGE_Duplicated reference bases            3800                                                                         
GAGE_Compressed reference bases            209355                                                                       
GAGE_Bad trim                              263                                                                          
GAGE_Avg idy                               99.98                                                                        
GAGE_SNPs                                  102                                                                          
GAGE_Indels < 5bp                          897                                                                          
GAGE_Indels >= 5                           5                                                                            
GAGE_Inversions                            1                                                                            
GAGE_Relocation                            3                                                                            
GAGE_Translocation                         0                                                                            
GAGE_Corrected contig #                    446                                                                          
GAGE_Corrected assembly size               5306420                                                                      
GAGE_Min correct contig                    200                                                                          
GAGE_Max correct contig                    178068                                                                       
GAGE_Corrected N50                         37878 COUNT: 39                                                              
