Assembly	VELVET_MIS_PE_mrsa_mis-1_bi_2x250bp_default__mrsa_mis-2_bi_2x250bp_default.0.460percent_161.final.contigs_broken	VELVET_MIS_PE_mrsa_mis-1_bi_2x250bp_default__mrsa_mis-2_bi_2x250bp_default.0.460percent_161.final.contigs
#Mis_misassemblies	2	3
#Mis_relocations	2	3
#Mis_translocations	0	0
#Mis_inversions	0	0
#Mis_misassembled contigs	2	3
Mis_Misassembled contigs length	73644	135741
#Mis_local misassemblies	1	6
#mismatches	40	52
#indels	9	338
#Mis_short indels (<= 5 bp)	9	334
#Mis_long indels (> 5 bp)	0	4
Indels length	9	473
