1: PREPARING DATA
2,3: RUNNING mummer AND CREATING CLUSTERS
# reading input file "/vol/codine-tmp/juene/tmp.skxZF5HisN/quast/gage/tmp/ABYSS_PE_PGM_mrsa_pgm_400bp_es_318_IKA_ts3.2_morestringent.26coverage_32.final.ntref" of length 2813864
# construct suffix tree for sequence of length 2813864
# (maximum reference length is 536870908)
# (maximum query length is 4294967295)
# process 28138 characters per dot
#....................................................................................................
# CONSTRUCTIONTIME /vol/ngscomparison/software/analysis/quast-2.1/libs/MUMmer3.23-linux/mummer /vol/codine-tmp/juene/tmp.skxZF5HisN/quast/gage/tmp/ABYSS_PE_PGM_mrsa_pgm_400bp_es_318_IKA_ts3.2_morestringent.26coverage_32.final.ntref 1.75
# reading input file "/vol/codine-tmp/juene/tmp.skxZF5HisN/quast/corrected_input/ABYSS_PE_PGM_mrsa_pgm_400bp_es_318_IKA_ts3.2_morestringent.26coverage_32.final" of length 2711313
# matching query-file "/vol/codine-tmp/juene/tmp.skxZF5HisN/quast/corrected_input/ABYSS_PE_PGM_mrsa_pgm_400bp_es_318_IKA_ts3.2_morestringent.26coverage_32.final"
# against subject-file "/vol/codine-tmp/juene/tmp.skxZF5HisN/quast/gage/tmp/ABYSS_PE_PGM_mrsa_pgm_400bp_es_318_IKA_ts3.2_morestringent.26coverage_32.final.ntref"
# COMPLETETIME /vol/ngscomparison/software/analysis/quast-2.1/libs/MUMmer3.23-linux/mummer /vol/codine-tmp/juene/tmp.skxZF5HisN/quast/gage/tmp/ABYSS_PE_PGM_mrsa_pgm_400bp_es_318_IKA_ts3.2_morestringent.26coverage_32.final.ntref 5.47
# SPACE /vol/ngscomparison/software/analysis/quast-2.1/libs/MUMmer3.23-linux/mummer /vol/codine-tmp/juene/tmp.skxZF5HisN/quast/gage/tmp/ABYSS_PE_PGM_mrsa_pgm_400bp_es_318_IKA_ts3.2_morestringent.26coverage_32.final.ntref 5.38
4: FINISHING DATA
Filtering alignments
Extracting alignment coordinates
Analyzing SNPs
Extracting alignment breakpoints
Generating report file
Found genome size at position 4 with value 2813862 aka 2813862
Calculating point at 0 and the sum is 1005352 and i is630 and lens is 691 and length is 10885
Calculating point at 1 and the sum is 2000995 and i is484 and lens is 691 and length is 4332
