calling: java -cp /vol/ngscomparison/software/analysis/quast-2.1/libs/gage:. SizeFasta /vol/codine-tmp/juene/tmp.VgsbyydAly/quast/corrected_input/Ecoli_Sakai_editedNew_plasmids.fasta |awk '{SUM+=; print SUM}'|tail -n 1
Contig Stats
Total units: 8960
Reference: 5594470
BasesInFasta: 4949034
Min: 200
Max: 3748
N10: 1503 COUNT: 293
N25: 1003 COUNT: 991
N50: 612 COUNT: 2793
N75: 316 COUNT: 5944
E-size:728.5

Genome Size: 5594470
Assembly Size: 4949034
Chaff bases: 0
Missing Reference Bases: 664273(11.87%)
Missing Assembly Bases: 1386(0.03%)
Missing Assembly Contigs: 2(0.02%)
Duplicated Reference Bases: 74479
Compressed Reference Bases: 141950
Bad Trim: 858
Avg Idy: 99.97
SNPs: 50
Indels < 5bp: 1138
Indels >= 5: 3
Inversions: 0
Relocation: 1
Translocation: 0

Corrected Contig Stats
calling: java -cp /vol/ngscomparison/software/analysis/quast-2.1/libs/gage:.:. GetFastaStats -o -min 199 -genomeSize 5594470 /vol/codine-tmp/juene/tmp.VgsbyydAly/quast/gage/tmp/SOAP2_PGM_sakai_pgm_mu_200bp_IO_TS3.0Disabled_stringent.0.34percent_87.final.contig.matches.lens 2> /dev/null
Total units: 8648
Reference: 5594470
BasesInFasta: 4874486
Min: 200
Max: 3749
N10: 1503 COUNT: 293
N25: 1003 COUNT: 990
N50: 613 COUNT: 2793
N75: 316 COUNT: 5944
E-size:725.32

Done
