All statistics are based on contigs of size >= 200 bp, unless otherwise noted (e.g., "# contigs (>= 0 bp)" and "Total length (>= 0 bp)" include all contigs).

Assembly                                                                                                       #Contigs  #Contigs (>= 0 bp)  #Contigs (>= 1000 bp)  Largest contig  Total length  Total length (>= 0 bp)  Total length (>= 1000 bp)  Reference length  N50     NG50    N75    NG75   L50  LG50  L75  LG75  #local misassemblies  #misassemblies  #misassembled contigs  Misassembled contigs length  Misassemblies inter-contig overlap  #unaligned contigs  Unaligned contigs length  #ambiguously mapped contigs  Extra bases in ambiguously mapped contigs  #N's  #N's per 100 kbp  Genome fraction (%)  Duplication ratio  #genes          #predicted genes (unique)  #predicted genes (>= 0 bp)  #predicted genes (>= 300 bp)  #predicted genes (>= 1500 bp)  #predicted genes (>= 3000 bp)  #mismatches  #indels  Indels length  #mismatches per 100 kbp  #indels per 100 kbp  GC (%)  Reference GC (%)  Average %IDY  Largest alignment  NA50    NGA50   NA75   NGA75  LA50  LGA50  LA75  LGA75  #Mis_misassemblies  #Mis_relocations  #Mis_translocations  #Mis_inversions  #Mis_misassembled contigs  Mis_Misassembled contigs length  #Mis_local misassemblies  #Mis_short indels (<= 5 bp)  #Mis_long indels (> 5 bp)  #Una_fully unaligned contigs  Una_Fully unaligned length  #Una_partially unaligned contigs  #Una_with misassembly  #Una_both parts are significant  Una_Partially unaligned length  GAGE_Contigs #  GAGE_Min contig  GAGE_Max contig  GAGE_N50         GAGE_Genome size  GAGE_Assembly size  GAGE_Chaff bases  GAGE_Missing reference bases  GAGE_Missing assembly bases  GAGE_Missing assembly contigs  GAGE_Duplicated reference bases  GAGE_Compressed reference bases  GAGE_Bad trim  GAGE_Avg idy  GAGE_SNPs  GAGE_Indels < 5bp  GAGE_Indels >= 5  GAGE_Inversions  GAGE_Relocation  GAGE_Translocation  GAGE_Corrected contig #  GAGE_Corrected assembly size  GAGE_Min correct contig  GAGE_Max correct contig  GAGE_Corrected N50
ABYSS_PE_MIS_PE_mrsa_mis-1_bi_2x150bp_default__mrsa_mis-2_bi_2x150bp_default.0.527percent_50-scaffolds_broken  89        417                 76                     208032          2780669       2812012                 2774731                    2813862           85688   85688   37435  37093  11   11    24   25    8                     3               3                      44460                        21095                               0 + 0 part          0                         2                            -4388                                      19    0.68              98.217               1.012              2629 + 42 part  2633                       2647                        2287                          301                            28                             227          23       144            8.21                     0.83                 32.66   32.81             99.067        208032             85688   85688   37435  37093  11    11     24    25     3                   3                 0                    0                3                          44460                            8                         19                           4                          0                             0                           0                                 0                      0                                0                               89              203              208032           85688 COUNT: 11  2813862           2780669             0                 15617(0.56%)                  5(0.00%)                     0(0.00%)                       1511                             36329                            2              99.98         116        15                 11                0                2                0                   101                      2780855                       203                      208032                   62557 COUNT: 12   
ABYSS_PE_MIS_PE_mrsa_mis-1_bi_2x150bp_default__mrsa_mis-2_bi_2x150bp_default.0.527percent_50-scaffolds         67        391                 59                     249544          2782460       2813259                 2778621                    2813862           114256  114256  52790  52790  9    9     18   18    16                    3               3                      323678                       20999                               0 + 1 part          684                       1                            -1397                                      1266  45.50             98.335               1.012              2633 + 41 part  2631                       2646                        2287                          301                            28                             228          68       253            8.24                     2.46                 32.66   32.81             98.973        223153             114256  114256  52790  52021  9     9      18    19     3                   3                 0                    0                3                          323678                           16                        61                           7                          0                             0                           1                                 0                      1                                684                             67              248              249544           114256 COUNT: 9  2813862           2782460             0                 15170(0.54%)                  869(0.03%)                   0(0.00%)                       1511                             35569                            2              99.96         136        26                 17                1                5                0                   94                       2781675                       207                      208032                   75585 COUNT: 11   
