All statistics are based on contigs of size >= 200 bp, unless otherwise noted (e.g., "# contigs (>= 0 bp)" and "Total length (>= 0 bp)" include all contigs).

Assembly                                                                                                         #Contigs (>= 0 bp)  #Contigs (>= 1000 bp)  Total length (>= 0 bp)  Total length (>= 1000 bp)  #Contigs  Largest contig  Total length  Reference length  GC (%)  Reference GC (%)  N50  NG50  N75  NG75  #misassemblies  #local misassemblies  #unaligned contigs  Unaligned contigs length  Genome fraction (%)  Duplication ratio  #N's per 100 kbp  #mismatches per 100 kbp  #indels per 100 kbp  #genes           #predicted genes (unique)  #predicted genes (>= 0 bp)  #predicted genes (>= 300 bp)  #predicted genes (>= 1500 bp)  #predicted genes (>= 3000 bp)  Largest alignment  NA50  NGA50  NA75  NGA75
VELVET_MIS_PE_mrsa_mis-1_bi_2x250bp_default__mrsa_mis-2_bi_2x250bp_default.0.460percent_15.final.contigs_broken  42931               202                    3349778                 281486                     2077      3100            1096439       2813862           32.20   32.81             659  None  385  None  7               6                     9 + 4 part          5657                      38.655               1.002              0.00              46.06                    24.27                246 + 1566 part  2587                       2587                        1143                          6                              0                              3100               656   None   382   None 
VELVET_MIS_PE_mrsa_mis-1_bi_2x250bp_default__mrsa_mis-2_bi_2x250bp_default.0.460percent_15.final.contigs         42249               326                    3370234                 554649                     1636      5713            1144725       2813862           32.22   32.81             970  None  533  None  51              444                   22 + 18 part        29375                     38.373               1.032              1786.11           44.64                    34.27                268 + 1529 part  2494                       2494                        1151                          8                              0                              4857               835   None   435   None 
