All statistics are based on contigs of size >= 200 bp, unless otherwise noted (e.g., "# contigs (>= 0 bp)" and "Total length (>= 0 bp)" include all contigs).

Assembly                                                                        GAGE_Contigs #  GAGE_Min contig  GAGE_Max contig  GAGE_N50         GAGE_Genome size  GAGE_Assembly size  GAGE_Chaff bases  GAGE_Missing reference bases  GAGE_Missing assembly bases  GAGE_Missing assembly contigs  GAGE_Duplicated reference bases  GAGE_Compressed reference bases  GAGE_Bad trim  GAGE_Avg idy  GAGE_SNPs  GAGE_Indels < 5bp  GAGE_Indels >= 5  GAGE_Inversions  GAGE_Relocation  GAGE_Translocation  GAGE_Corrected contig #  GAGE_Corrected assembly size  GAGE_Min correct contig  GAGE_Max correct contig  GAGE_Corrected N50
NEWBLER_PGM_mrsa_pgm_400bp_es_318_IKA_ts3.2_morestringent.0.925percent.contigs  153             200              166118           61060 COUNT: 18  2813862           2773865             0                 19980(0.71%)                  186(0.01%)                   0(0.00%)                       8585                             32752                            181            99.99         42         70                 2                 0                1                0                   119                      2765171                       203                      166123                   61064 COUNT: 18   
