Assembly	NEWBLER_MIS_PE_sakai_mis-2_bi_2x150bp_default__sakai_mis-1_bi_2x150bp_default.0.850percent.contigs_broken	NEWBLER_MIS_PE_sakai_mis-2_bi_2x150bp_default__sakai_mis-1_bi_2x150bp_default.0.850percent.contigs
#Contigs	168	96
#Contigs (>= 0 bp)	168	96
#Contigs (>= 1000 bp)	140	96
Largest contig	259768	375762
Total length	5232846	5294083
Total length (>= 0 bp)	5232846	5294083
Total length (>= 1000 bp)	5213931	5294083
Reference length	5594470	5594470
N50	117537	148120
NG50	95769	145205
N75	54482	76346
NG75	43048	65482
L50	16	12
LG50	18	13
L75	33	25
LG75	39	28
#local misassemblies	3	67
#misassemblies	4	12
#misassembled contigs	4	10
Misassembled contigs length	214169	783195
Misassemblies inter-contig overlap	2100	408
#unaligned contigs	1 + 0 part	1 + 0 part
Unaligned contigs length	5386	5386
#ambiguously mapped contigs	27	2
Extra bases in ambiguously mapped contigs	-50967	-10119
#N's	0	61237
#N's per 100 kbp	0.00	1156.71
Genome fraction (%)	92.543	93.273
Duplication ratio	1.000	1.012
#genes	4875 + 105 part	4902 + 117 part
#predicted genes (unique)	5030	5011
#predicted genes (>= 0 bp)	5030	5011
#predicted genes (>= 300 bp)	4324	4323
#predicted genes (>= 1500 bp)	666	665
#predicted genes (>= 3000 bp)	68	67
#mismatches	107	186
#indels	12	17
Indels length	17	27
#mismatches per 100 kbp	2.07	3.56
#indels per 100 kbp	0.23	0.33
GC (%)	50.24	50.24
Reference GC (%)	50.48	50.48
Average %IDY	99.138	99.138
Largest alignment	259768	353069
NA50	117537	145205
NGA50	95769	142437
NA75	54361	72949
NGA75	43048	56277
LA50	16	14
LGA50	18	15
LA75	34	27
LGA75	39	31
#Mis_misassemblies	4	12
#Mis_relocations	4	12
#Mis_translocations	0	0
#Mis_inversions	0	0
#Mis_misassembled contigs	4	10
Mis_Misassembled contigs length	214169	783195
#Mis_local misassemblies	3	67
#Mis_short indels (<= 5 bp)	11	15
#Mis_long indels (> 5 bp)	1	2
#Una_fully unaligned contigs	1	1
Una_Fully unaligned length	5386	5386
#Una_partially unaligned contigs	0	0
#Una_with misassembly	0	0
#Una_both parts are significant	0	0
Una_Partially unaligned length	0	0
GAGE_Contigs #	168	96
GAGE_Min contig	501	2315
GAGE_Max contig	259768	375762
GAGE_N50	95769 COUNT: 18	145205 COUNT: 13
GAGE_Genome size	5594470	5594470
GAGE_Assembly size	5232846	5294083
GAGE_Chaff bases	0	0
GAGE_Missing reference bases	233765(4.18%)	233765(4.18%)
GAGE_Missing assembly bases	5391(0.10%)	66628(1.26%)
GAGE_Missing assembly contigs	1(0.60%)	1(1.04%)
GAGE_Duplicated reference bases	0	615
GAGE_Compressed reference bases	135428	135123
GAGE_Bad trim	2	2
GAGE_Avg idy	99.99	99.99
GAGE_SNPs	71	71
GAGE_Indels < 5bp	11	11
GAGE_Indels >= 5	3	54
GAGE_Inversions	1	9
GAGE_Relocation	4	12
GAGE_Translocation	0	0
GAGE_Corrected contig #	175	175
GAGE_Corrected assembly size	5229552	5229552
GAGE_Min correct contig	501	501
GAGE_Max correct contig	259768	259768
GAGE_Corrected N50	95769 COUNT: 18	95769 COUNT: 18
