Assembly	NEWBLER_PGM_sakai_pgm_mu_200bp_IO_TS3.0Disabled_stringent.0.175percent.contigs
#Contigs	377
#Contigs (>= 0 bp)	459
#Contigs (>= 1000 bp)	180
Largest contig	316715
Total length	5306685
Total length (>= 0 bp)	5318701
Total length (>= 1000 bp)	5220093
Reference length	5594470
N50	79877
NG50	76060
N75	40976
NG75	33611
L50	21
LG50	22
L75	44
LG75	49
#local misassemblies	5
#misassemblies	3
#misassembled contigs	3
Misassembled contigs length	359805
Misassemblies inter-contig overlap	634
#unaligned contigs	0 + 0 part
Unaligned contigs length	0
#ambiguously mapped contigs	128
Extra bases in ambiguously mapped contigs	-96653
#N's	0
#N's per 100 kbp	0.00
Genome fraction (%)	93.151
Duplication ratio	1.000
#genes	4872 + 175 part
#predicted genes (unique)	5930
#predicted genes (>= 0 bp)	5930
#predicted genes (>= 300 bp)	4774
#predicted genes (>= 1500 bp)	519
#predicted genes (>= 3000 bp)	40
#mismatches	98
#indels	1409
Indels length	1494
#mismatches per 100 kbp	1.88
#indels per 100 kbp	27.04
GC (%)	50.26
Reference GC (%)	50.48
Average %IDY	98.948
Largest alignment	217799
NA50	79877
NGA50	76060
NA75	40976
NGA75	33049
LA50	22
LGA50	23
LA75	45
LGA75	51
#Mis_misassemblies	3
#Mis_relocations	3
#Mis_translocations	0
#Mis_inversions	0
#Mis_misassembled contigs	3
Mis_Misassembled contigs length	359805
#Mis_local misassemblies	5
#Mis_short indels (<= 5 bp)	1408
#Mis_long indels (> 5 bp)	1
#Una_fully unaligned contigs	0
Una_Fully unaligned length	0
#Una_partially unaligned contigs	0
#Una_with misassembly	0
#Una_both parts are significant	0
Una_Partially unaligned length	0
GAGE_Contigs #	377
GAGE_Min contig	201
GAGE_Max contig	316715
GAGE_N50	76060 COUNT: 22
GAGE_Genome size	5594470
GAGE_Assembly size	5306685
GAGE_Chaff bases	0
GAGE_Missing reference bases	52374(0.94%)
GAGE_Missing assembly bases	38(0.00%)
GAGE_Missing assembly contigs	0(0.00%)
GAGE_Duplicated reference bases	678
GAGE_Compressed reference bases	245363
GAGE_Bad trim	38
GAGE_Avg idy	99.97
GAGE_SNPs	199
GAGE_Indels < 5bp	1531
GAGE_Indels >= 5	5
GAGE_Inversions	0
GAGE_Relocation	5
GAGE_Translocation	0
GAGE_Corrected contig #	384
GAGE_Corrected assembly size	5308664
GAGE_Min correct contig	201
GAGE_Max correct contig	217864
GAGE_Corrected N50	73747 COUNT: 24
