calling: java -cp /vol/ngscomparison/software/analysis/quast-2.1/libs/gage:. SizeFasta /vol/codine-tmp/juene/tmp.gsk2NPXEnq/quast/corrected_input/Mycobacterium_tuberculosis_H37Rv.fasta |awk '{SUM+=; print SUM}'|tail -n 1
Contig Stats
Total units: 485
Reference: 4411532
BasesInFasta: 4254148
Min: 201
Max: 58905
N10: 37784 COUNT: 9
N25: 27462 COUNT: 31
N50: 16837 COUNT: 83
N75: 8481 COUNT: 169
E-size:19523.34

Genome Size: 4411532
Assembly Size: 4254148
Chaff bases: 0
Missing Reference Bases: 111920(2.54%)
Missing Assembly Bases: 1077(0.03%)
Missing Assembly Contigs: 1(0.21%)
Duplicated Reference Bases: 1468
Compressed Reference Bases: 55153
Bad Trim: 116
Avg Idy: 99.99
SNPs: 379
Indels < 5bp: 52
Indels >= 5: 20
Inversions: 0
Relocation: 16
Translocation: 0

Corrected Contig Stats
calling: java -cp /vol/ngscomparison/software/analysis/quast-2.1/libs/gage:.:. GetFastaStats -o -min 199 -genomeSize 4411532 /vol/codine-tmp/juene/tmp.gsk2NPXEnq/quast/gage/tmp/VELVET_MIS_PE_mtbh37-1_mis_2x250bp_nextera_default__mtbh37-2_mis_2x250bp_nextera_default_55.final.contigs_broken.matches.lens 2> /dev/null
Total units: 517
Reference: 4411532
BasesInFasta: 4256298
Min: 201
Max: 58906
N10: 34993 COUNT: 10
N25: 24378 COUNT: 33
N50: 15745 COUNT: 91
N75: 7558 COUNT: 188
E-size:17899.29

Done
