Assembly	ABYSS_PE_MIS_PE_mrsa_mis-1_bi_2x250bp_default__mrsa_mis-2_bi_2x250bp_default.0.460percent_72-scaffolds_broken	ABYSS_PE_MIS_PE_mrsa_mis-1_bi_2x250bp_default__mrsa_mis-2_bi_2x250bp_default.0.460percent_72-scaffolds
#Contigs	127	113
#Contigs (>= 0 bp)	420	406
#Contigs (>= 1000 bp)	81	75
Largest contig	208054	208054
Total length	2776478	2777144
Total length (>= 0 bp)	2810715	2811381
Total length (>= 1000 bp)	2757326	2761626
Reference length	2813862	2813862
N50	55401	84574
NG50	55401	84574
N75	33755	34626
NG75	33434	34626
L50	13	11
LG50	13	11
L75	28	25
LG75	29	25
#local misassemblies	1	6
#misassemblies	3	4
#misassembled contigs	3	4
Misassembled contigs length	187124	191038
Misassemblies inter-contig overlap	2383	2383
#unaligned contigs	0 + 1 part	0 + 0 part
Unaligned contigs length	59	0
#ambiguously mapped contigs	7	5
Extra bases in ambiguously mapped contigs	-6898	-6367
#N's	7	673
#N's per 100 kbp	0.25	24.23
Genome fraction (%)	98.364	98.367
Duplication ratio	1.001	1.002
#genes	2625 + 48 part	2628 + 47 part
#predicted genes (unique)	2664	2663
#predicted genes (>= 0 bp)	2667	2666
#predicted genes (>= 300 bp)	2284	2284
#predicted genes (>= 1500 bp)	300	300
#predicted genes (>= 3000 bp)	29	29
#mismatches	78	78
#indels	9	14
Indels length	22	141
#mismatches per 100 kbp	2.82	2.82
#indels per 100 kbp	0.33	0.51
GC (%)	32.67	32.67
Reference GC (%)	32.81	32.81
Average %IDY	98.937	98.872
Largest alignment	208054	208054
NA50	55401	84574
NGA50	55401	84574
NA75	33434	34626
NGA75	33434	33755
LA50	13	11
LGA50	13	11
LA75	29	25
LGA75	29	26
#Mis_misassemblies	3	4
#Mis_relocations	3	4
#Mis_translocations	0	0
#Mis_inversions	0	0
#Mis_misassembled contigs	3	4
Mis_Misassembled contigs length	187124	191038
#Mis_local misassemblies	1	6
#Mis_short indels (<= 5 bp)	8	9
#Mis_long indels (> 5 bp)	1	5
#Una_fully unaligned contigs	0	0
Una_Fully unaligned length	0	0
#Una_partially unaligned contigs	1	0
#Una_with misassembly	0	0
#Una_both parts are significant	0	0
Una_Partially unaligned length	59	0
GAGE_Contigs #	127	113
GAGE_Min contig	206	206
GAGE_Max contig	208054	208054
GAGE_N50	55401 COUNT: 13	84574 COUNT: 11
GAGE_Genome size	2813862	2813862
GAGE_Assembly size	2776478	2777144
GAGE_Chaff bases	0	0
GAGE_Missing reference bases	5726(0.20%)	5680(0.20%)
GAGE_Missing assembly bases	60(0.00%)	676(0.02%)
GAGE_Missing assembly contigs	0(0.00%)	0(0.00%)
GAGE_Duplicated reference bases	1729	1729
GAGE_Compressed reference bases	41029	41043
GAGE_Bad trim	59	0
GAGE_Avg idy	99.99	99.99
GAGE_SNPs	44	44
GAGE_Indels < 5bp	8	12
GAGE_Indels >= 5	2	13
GAGE_Inversions	1	1
GAGE_Relocation	1	3
GAGE_Translocation	0	0
GAGE_Corrected contig #	129	128
GAGE_Corrected assembly size	2777076	2777122
GAGE_Min correct contig	206	206
GAGE_Max correct contig	208054	208054
GAGE_Corrected N50	55401 COUNT: 13	55401 COUNT: 12
