All statistics are based on contigs of size >= 200 bp, unless otherwise noted (e.g., "# contigs (>= 0 bp)" and "Total length (>= 0 bp)" include all contigs).

Assembly                         ABYSS_PE_MIS_PE_mrsa_mis-1_bi_2x250bp_default__mrsa_mis-2_bi_2x250bp_default.0.975percent_128.final_broken  ABYSS_PE_MIS_PE_mrsa_mis-1_bi_2x250bp_default__mrsa_mis-2_bi_2x250bp_default.0.975percent_128.final
GAGE_Contigs #                   176                                                                                                         176                                                                                                
GAGE_Min contig                  203                                                                                                         203                                                                                                
GAGE_Max contig                  457343                                                                                                      457343                                                                                             
GAGE_N50                         112527 COUNT: 6                                                                                             112527 COUNT: 6                                                                                    
GAGE_Genome size                 2813862                                                                                                     2813862                                                                                            
GAGE_Assembly size               2808944                                                                                                     2808944                                                                                            
GAGE_Chaff bases                 0                                                                                                           0                                                                                                  
GAGE_Missing reference bases     169(0.01%)                                                                                                  169(0.01%)                                                                                         
GAGE_Missing assembly bases      45(0.00%)                                                                                                   45(0.00%)                                                                                          
GAGE_Missing assembly contigs    0(0.00%)                                                                                                    0(0.00%)                                                                                           
GAGE_Duplicated reference bases  12498                                                                                                       12498                                                                                              
GAGE_Compressed reference bases  31594                                                                                                       31594                                                                                              
GAGE_Bad trim                    45                                                                                                          45                                                                                                 
GAGE_Avg idy                     99.99                                                                                                       99.99                                                                                              
GAGE_SNPs                        36                                                                                                          36                                                                                                 
GAGE_Indels < 5bp                10                                                                                                          10                                                                                                 
GAGE_Indels >= 5                 0                                                                                                           0                                                                                                  
GAGE_Inversions                  0                                                                                                           0                                                                                                  
GAGE_Relocation                  1                                                                                                           1                                                                                                  
GAGE_Translocation               0                                                                                                           0                                                                                                  
GAGE_Corrected contig #          126                                                                                                         126                                                                                                
GAGE_Corrected assembly size     2796424                                                                                                     2796424                                                                                            
GAGE_Min correct contig          203                                                                                                         203                                                                                                
GAGE_Max correct contig          457342                                                                                                      457342                                                                                             
GAGE_Corrected N50               112527 COUNT: 6                                                                                             112527 COUNT: 6                                                                                    
