All statistics are based on contigs of size >= 200 bp, unless otherwise noted (e.g., "# contigs (>= 0 bp)" and "Total length (>= 0 bp)" include all contigs).

Assembly                                                                                                         GAGE_Contigs #  GAGE_Min contig  GAGE_Max contig  GAGE_N50         GAGE_Genome size  GAGE_Assembly size  GAGE_Chaff bases  GAGE_Missing reference bases  GAGE_Missing assembly bases  GAGE_Missing assembly contigs  GAGE_Duplicated reference bases  GAGE_Compressed reference bases  GAGE_Bad trim  GAGE_Avg idy  GAGE_SNPs  GAGE_Indels < 5bp  GAGE_Indels >= 5  GAGE_Inversions  GAGE_Relocation  GAGE_Translocation  GAGE_Corrected contig #  GAGE_Corrected assembly size  GAGE_Min correct contig  GAGE_Max correct contig  GAGE_Corrected N50
VELVET_MIS_PE_mrsa_mis-1_bi_2x250bp_default__mrsa_mis-2_bi_2x250bp_default.0.460percent_53.final.contigs_broken  152             201              104418           54081 COUNT: 19  2813862           2774157             0                 11930(0.42%)                  5446(0.20%)                  2(1.32%)                       1802                             40588                            107            99.98         111        28                 8                 0                5                0                   159                      2769658                       201                      98004                    43558 COUNT: 20   
VELVET_MIS_PE_mrsa_mis-1_bi_2x250bp_default__mrsa_mis-2_bi_2x250bp_default.0.460percent_53.final.contigs         119             201              178287           68306 COUNT: 15  2813862           2775535             0                 11911(0.42%)                  6696(0.24%)                  1(0.84%)                       1900                             40534                            123            99.98         111        40                 21                0                16               0                   156                      2769682                       201                      98004                    43558 COUNT: 20   
