Assembly	VELVET_MIS_PE_mtbh37-1_mis_2x250bp_nextera_default__mtbh37-2_mis_2x250bp_nextera_default_135.final.contigs_broken	VELVET_MIS_PE_mtbh37-1_mis_2x250bp_nextera_default__mtbh37-2_mis_2x250bp_nextera_default_135.final.contigs
GAGE_Contigs #	348	198
GAGE_Min contig	269	269
GAGE_Max contig	92958	149363
GAGE_N50	23990 COUNT: 59	58705 COUNT: 29
GAGE_Genome size	4411532	4411532
GAGE_Assembly size	4305025	4327038
GAGE_Chaff bases	0	0
GAGE_Missing reference bases	77894(1.77%)	77851(1.76%)
GAGE_Missing assembly bases	1055(0.02%)	22879(0.53%)
GAGE_Missing assembly contigs	0(0.00%)	0(0.00%)
GAGE_Duplicated reference bases	887	947
GAGE_Compressed reference bases	54333	54333
GAGE_Bad trim	1055	949
GAGE_Avg idy	99.99	99.99
GAGE_SNPs	165	165
GAGE_Indels < 5bp	31	32
GAGE_Indels >= 5	12	157
GAGE_Inversions	0	1
GAGE_Relocation	2	5
GAGE_Translocation	0	0
GAGE_Corrected contig #	361	359
GAGE_Corrected assembly size	4305458	4305749
GAGE_Min correct contig	240	240
GAGE_Max correct contig	78053	78053
GAGE_Corrected N50	22218 COUNT: 61	22298 COUNT: 61
