Assembly	NEWBLER_PGM_mtbh37_pgm_400bp_es_318v2_OT2_tsv3.6_morestringent.0.050percent.contigs
#Una_fully unaligned contigs	4
Una_Fully unaligned length	2464
#Una_partially unaligned contigs	6
#Una_with misassembly	0
#Una_both parts are significant	3
Una_Partially unaligned length	1355
#N's	0
