Assembly	SOAP2_PGM_mtbh37_pgm_400bp_es_318v2_OT2_tsv3.6_morestringent_69.final.contig
#Una_fully unaligned contigs	733
Una_Fully unaligned length	177330
#Una_partially unaligned contigs	35
#Una_with misassembly	0
#Una_both parts are significant	0
Una_Partially unaligned length	3498
#N's	0
