Assembly	ABYSS_PE_MIS_PE_mrsa_mis-1_bi_2x150bp_default__mrsa_mis-2_bi_2x150bp_default.0.527percent_74-scaffolds_broken	ABYSS_PE_MIS_PE_mrsa_mis-1_bi_2x150bp_default__mrsa_mis-2_bi_2x150bp_default.0.527percent_74-scaffolds
#Contigs	67	51
#Contigs (>= 0 bp)	183	167
#Contigs (>= 1000 bp)	52	42
Largest contig	341116	572004
Total length	2792592	2793898
Total length (>= 0 bp)	2807235	2808541
Total length (>= 1000 bp)	2786094	2789663
Reference length	2813862	2813862
N50	117464	148696
NG50	117464	148696
N75	56017	73781
NG75	56017	73781
L50	8	6
LG50	8	6
L75	16	12
LG75	16	12
#local misassemblies	4	11
#misassemblies	3	7
#misassembled contigs	3	6
Misassembled contigs length	107473	210534
Misassemblies inter-contig overlap	2668	6000
#unaligned contigs	0 + 0 part	0 + 0 part
Unaligned contigs length	0	0
#ambiguously mapped contigs	6	2
Extra bases in ambiguously mapped contigs	-5405	-597
#N's	14	1320
#N's per 100 kbp	0.50	47.25
Genome fraction (%)	98.686	98.972
Duplication ratio	1.005	1.005
#genes	2671 + 23 part	2676 + 24 part
#predicted genes (unique)	2629	2631
#predicted genes (>= 0 bp)	2646	2647
#predicted genes (>= 300 bp)	2290	2290
#predicted genes (>= 1500 bp)	303	303
#predicted genes (>= 3000 bp)	29	29
#mismatches	189	199
#indels	29	96
Indels length	96	245
#mismatches per 100 kbp	6.81	7.15
#indels per 100 kbp	1.04	3.45
GC (%)	32.67	32.67
Reference GC (%)	32.81	32.81
Average %IDY	98.663	98.592
Largest alignment	341116	571954
NA50	117464	148696
NGA50	117464	148696
NA75	56017	73781
NGA75	56017	73781
LA50	8	6
LGA50	8	6
LA75	16	12
LGA75	16	12
#Mis_misassemblies	3	7
#Mis_relocations	3	7
#Mis_translocations	0	0
#Mis_inversions	0	0
#Mis_misassembled contigs	3	6
Mis_Misassembled contigs length	107473	210534
#Mis_local misassemblies	4	11
#Mis_short indels (<= 5 bp)	25	87
#Mis_long indels (> 5 bp)	4	9
#Una_fully unaligned contigs	0	0
Una_Fully unaligned length	0	0
#Una_partially unaligned contigs	0	0
#Una_with misassembly	0	0
#Una_both parts are significant	0	0
Una_Partially unaligned length	0	0
GAGE_Contigs #	67	51
GAGE_Min contig	216	216
GAGE_Max contig	341116	572004
GAGE_N50	117464 COUNT: 8	148696 COUNT: 6
GAGE_Genome size	2813862	2813862
GAGE_Assembly size	2792592	2793898
GAGE_Chaff bases	0	0
GAGE_Missing reference bases	2772(0.10%)	2772(0.10%)
GAGE_Missing assembly bases	11(0.00%)	1267(0.05%)
GAGE_Missing assembly contigs	0(0.00%)	0(0.00%)
GAGE_Duplicated reference bases	247	247
GAGE_Compressed reference bases	32904	32904
GAGE_Bad trim	0	0
GAGE_Avg idy	99.99	99.99
GAGE_SNPs	105	105
GAGE_Indels < 5bp	11	11
GAGE_Indels >= 5	8	17
GAGE_Inversions	0	2
GAGE_Relocation	4	8
GAGE_Translocation	0	0
GAGE_Corrected contig #	77	77
GAGE_Corrected assembly size	2794231	2794350
GAGE_Min correct contig	216	216
GAGE_Max correct contig	341115	341234
GAGE_Corrected N50	117464 COUNT: 8	117464 COUNT: 8
