All statistics are based on contigs of size >= 200 bp, unless otherwise noted (e.g., "# contigs (>= 0 bp)" and "Total length (>= 0 bp)" include all contigs).

Assembly                         ABYSS_PE_MIS_PE_mrsa_mis-1_bi_2x150bp_default__mrsa_mis-2_bi_2x150bp_default.0.527percent_74-scaffolds_broken  ABYSS_PE_MIS_PE_mrsa_mis-1_bi_2x150bp_default__mrsa_mis-2_bi_2x150bp_default.0.527percent_74-scaffolds
GAGE_Contigs #                   67                                                                                                             51                                                                                                    
GAGE_Min contig                  216                                                                                                            216                                                                                                   
GAGE_Max contig                  341116                                                                                                         572004                                                                                                
GAGE_N50                         117464 COUNT: 8                                                                                                148696 COUNT: 6                                                                                       
GAGE_Genome size                 2813862                                                                                                        2813862                                                                                               
GAGE_Assembly size               2792592                                                                                                        2793898                                                                                               
GAGE_Chaff bases                 0                                                                                                              0                                                                                                     
GAGE_Missing reference bases     2772(0.10%)                                                                                                    2772(0.10%)                                                                                           
GAGE_Missing assembly bases      11(0.00%)                                                                                                      1267(0.05%)                                                                                           
GAGE_Missing assembly contigs    0(0.00%)                                                                                                       0(0.00%)                                                                                              
GAGE_Duplicated reference bases  247                                                                                                            247                                                                                                   
GAGE_Compressed reference bases  32904                                                                                                          32904                                                                                                 
GAGE_Bad trim                    0                                                                                                              0                                                                                                     
GAGE_Avg idy                     99.99                                                                                                          99.99                                                                                                 
GAGE_SNPs                        105                                                                                                            105                                                                                                   
GAGE_Indels < 5bp                11                                                                                                             11                                                                                                    
GAGE_Indels >= 5                 8                                                                                                              17                                                                                                    
GAGE_Inversions                  0                                                                                                              2                                                                                                     
GAGE_Relocation                  4                                                                                                              8                                                                                                     
GAGE_Translocation               0                                                                                                              0                                                                                                     
GAGE_Corrected contig #          77                                                                                                             77                                                                                                    
GAGE_Corrected assembly size     2794231                                                                                                        2794350                                                                                               
GAGE_Min correct contig          216                                                                                                            216                                                                                                   
GAGE_Max correct contig          341115                                                                                                         341234                                                                                                
GAGE_Corrected N50               117464 COUNT: 8                                                                                                117464 COUNT: 8                                                                                       
