Assembly	CLC_MIS_PE_mrsa_mis-1_bi_2x150bp_default__mrsa_mis-2_bi_2x150bp_default.1.000percent.result_broken	CLC_MIS_PE_mrsa_mis-1_bi_2x150bp_default__mrsa_mis-2_bi_2x150bp_default.1.000percent.result
#Mis_misassemblies	3	3
#Mis_relocations	3	3
#Mis_translocations	0	0
#Mis_inversions	0	0
#Mis_misassembled contigs	3	3
Mis_Misassembled contigs length	379424	454933
#Mis_local misassemblies	11	15
#mismatches	199	228
#indels	55	77
#Mis_short indels (<= 5 bp)	47	66
#Mis_long indels (> 5 bp)	8	11
Indels length	194	297
