All statistics are based on contigs of size >= 200 bp, unless otherwise noted (e.g., "# contigs (>= 0 bp)" and "Total length (>= 0 bp)" include all contigs).

Assembly                         ABYSS_PE_MIS_PE_mrsa_mis-1_bi_2x250bp_default__mrsa_mis-2_bi_2x250bp_default.0.175percent_64.final_broken  ABYSS_PE_MIS_PE_mrsa_mis-1_bi_2x250bp_default__mrsa_mis-2_bi_2x250bp_default.0.175percent_64.final
GAGE_Contigs #                   253                                                                                                        253                                                                                               
GAGE_Min contig                  204                                                                                                        204                                                                                               
GAGE_Max contig                  148095                                                                                                     148095                                                                                            
GAGE_N50                         32280 COUNT: 29                                                                                            32280 COUNT: 29                                                                                   
GAGE_Genome size                 2813862                                                                                                    2813862                                                                                           
GAGE_Assembly size               2770944                                                                                                    2770944                                                                                           
GAGE_Chaff bases                 0                                                                                                          0                                                                                                 
GAGE_Missing reference bases     17244(0.61%)                                                                                               17244(0.61%)                                                                                      
GAGE_Missing assembly bases      5376(0.19%)                                                                                                5376(0.19%)                                                                                       
GAGE_Missing assembly contigs    1(0.40%)                                                                                                   1(0.40%)                                                                                          
GAGE_Duplicated reference bases  876                                                                                                        876                                                                                               
GAGE_Compressed reference bases  41689                                                                                                      41689                                                                                             
GAGE_Bad trim                    0                                                                                                          0                                                                                                 
GAGE_Avg idy                     100.00                                                                                                     100.00                                                                                            
GAGE_SNPs                        53                                                                                                         53                                                                                                
GAGE_Indels < 5bp                8                                                                                                          8                                                                                                 
GAGE_Indels >= 5                 0                                                                                                          0                                                                                                 
GAGE_Inversions                  0                                                                                                          0                                                                                                 
GAGE_Relocation                  2                                                                                                          2                                                                                                 
GAGE_Translocation               0                                                                                                          0                                                                                                 
GAGE_Corrected contig #          250                                                                                                        250                                                                                               
GAGE_Corrected assembly size     2764696                                                                                                    2764696                                                                                           
GAGE_Min correct contig          209                                                                                                        209                                                                                               
GAGE_Max correct contig          148095                                                                                                     148095                                                                                            
GAGE_Corrected N50               32280 COUNT: 29                                                                                            32280 COUNT: 29                                                                                   
