Assembly	SOAP2_MIS_PE_mrsa_mis-1_bi_2x150bp_default.0.527percent_65.final.scaf_broken	SOAP2_MIS_PE_mrsa_mis-1_bi_2x150bp_default.0.527percent_65.final.scaf
#Una_fully unaligned contigs	3	1
Una_Fully unaligned length	6373	5451
#Una_partially unaligned contigs	1	3
#Una_with misassembly	0	0
#Una_both parts are significant	1	1
Una_Partially unaligned length	507	693
#N's	77	9565
