Assembly	CLC_PGM_mtbh37_pgm_200bp_es_IonOne_tsv2.0_morestringent.0.050percent.result
#Mis_misassemblies	362
#Mis_relocations	106
#Mis_translocations	0
#Mis_inversions	256
#Mis_misassembled contigs	331
Mis_Misassembled contigs length	160985
#Mis_local misassemblies	10
#mismatches	1053
#indels	1867
#Mis_short indels (<= 5 bp)	1864
#Mis_long indels (> 5 bp)	3
Indels length	1947
