All statistics are based on contigs of size >= 200 bp, unless otherwise noted (e.g., "# contigs (>= 0 bp)" and "Total length (>= 0 bp)" include all contigs).

Assembly                                   VELVET_MIS_PE_mrsa_mis-1_bi_2x250bp_default__mrsa_mis-2_bi_2x250bp_default.0.460percent_87.final.contigs_broken  VELVET_MIS_PE_mrsa_mis-1_bi_2x250bp_default__mrsa_mis-2_bi_2x250bp_default.0.460percent_87.final.contigs
#Contigs                                   87                                                                                                               77                                                                                                      
#Contigs (>= 0 bp)                         102                                                                                                              90                                                                                                      
#Contigs (>= 1000 bp)                      65                                                                                                               57                                                                                                      
Largest contig                             263365                                                                                                           305421                                                                                                  
Total length                               2786498                                                                                                          2787094                                                                                                 
Total length (>= 0 bp)                     2789179                                                                                                          2789492                                                                                                 
Total length (>= 1000 bp)                  2778251                                                                                                          2779908                                                                                                 
Reference length                           2813862                                                                                                          2813862                                                                                                 
N50                                        102812                                                                                                           116316                                                                                                  
NG50                                       102812                                                                                                           116316                                                                                                  
N75                                        46076                                                                                                            53308                                                                                                   
NG75                                       46076                                                                                                            48482                                                                                                   
L50                                        10                                                                                                               8                                                                                                       
LG50                                       10                                                                                                               8                                                                                                       
L75                                        20                                                                                                               17                                                                                                      
LG75                                       20                                                                                                               18                                                                                                      
#local misassemblies                       4                                                                                                                8                                                                                                       
#misassemblies                             3                                                                                                                4                                                                                                       
#misassembled contigs                      3                                                                                                                4                                                                                                       
Misassembled contigs length                158285                                                                                                           326079                                                                                                  
Misassemblies inter-contig overlap         1083                                                                                                             1083                                                                                                    
#unaligned contigs                         1 + 0 part                                                                                                       1 + 0 part                                                                                              
Unaligned contigs length                   5177                                                                                                             5177                                                                                                    
#ambiguously mapped contigs                14                                                                                                               13                                                                                                      
Extra bases in ambiguously mapped contigs  -9852                                                                                                            -9460                                                                                                   
#N's                                       0                                                                                                                313                                                                                                     
#N's per 100 kbp                           0.00                                                                                                             11.23                                                                                                   
Genome fraction (%)                        98.492                                                                                                           98.519                                                                                                  
Duplication ratio                          1.000                                                                                                            1.000                                                                                                   
#genes                                     2667 + 36 part                                                                                                   2670 + 33 part                                                                                          
#predicted genes (unique)                  2655                                                                                                             2651                                                                                                    
#predicted genes (>= 0 bp)                 2657                                                                                                             2653                                                                                                    
#predicted genes (>= 300 bp)               2294                                                                                                             2293                                                                                                    
#predicted genes (>= 1500 bp)              297                                                                                                              297                                                                                                     
#predicted genes (>= 3000 bp)              29                                                                                                               29                                                                                                      
#mismatches                                57                                                                                                               60                                                                                                      
#indels                                    14                                                                                                               18                                                                                                      
Indels length                              73                                                                                                               123                                                                                                     
#mismatches per 100 kbp                    2.06                                                                                                             2.16                                                                                                    
#indels per 100 kbp                        0.51                                                                                                             0.65                                                                                                    
GC (%)                                     32.69                                                                                                            32.69                                                                                                   
Reference GC (%)                           32.81                                                                                                            32.81                                                                                                   
Average %IDY                               98.667                                                                                                           98.680                                                                                                  
Largest alignment                          263365                                                                                                           263365                                                                                                  
NA50                                       95868                                                                                                            116316                                                                                                  
NGA50                                      95868                                                                                                            95868                                                                                                   
NA75                                       46076                                                                                                            53308                                                                                                   
NGA75                                      46076                                                                                                            48482                                                                                                   
LA50                                       10                                                                                                               8                                                                                                       
LGA50                                      10                                                                                                               9                                                                                                       
LA75                                       21                                                                                                               18                                                                                                      
LGA75                                      21                                                                                                               19                                                                                                      
#Mis_misassemblies                         3                                                                                                                4                                                                                                       
#Mis_relocations                           3                                                                                                                4                                                                                                       
#Mis_translocations                        0                                                                                                                0                                                                                                       
#Mis_inversions                            0                                                                                                                0                                                                                                       
#Mis_misassembled contigs                  3                                                                                                                4                                                                                                       
Mis_Misassembled contigs length            158285                                                                                                           326079                                                                                                  
#Mis_local misassemblies                   4                                                                                                                8                                                                                                       
#Mis_short indels (<= 5 bp)                13                                                                                                               15                                                                                                      
#Mis_long indels (> 5 bp)                  1                                                                                                                3                                                                                                       
#Una_fully unaligned contigs               1                                                                                                                1                                                                                                       
Una_Fully unaligned length                 5177                                                                                                             5177                                                                                                    
#Una_partially unaligned contigs           0                                                                                                                0                                                                                                       
#Una_with misassembly                      0                                                                                                                0                                                                                                       
#Una_both parts are significant            0                                                                                                                0                                                                                                       
Una_Partially unaligned length             0                                                                                                                0                                                                                                       
GAGE_Contigs #                             87                                                                                                               77                                                                                                      
GAGE_Min contig                            212                                                                                                              212                                                                                                     
GAGE_Max contig                            263365                                                                                                           305421                                                                                                  
GAGE_N50                                   102812 COUNT: 10                                                                                                 116316 COUNT: 8                                                                                         
GAGE_Genome size                           2813862                                                                                                          2813862                                                                                                 
GAGE_Assembly size                         2786498                                                                                                          2787094                                                                                                 
GAGE_Chaff bases                           0                                                                                                                0                                                                                                       
GAGE_Missing reference bases               3165(0.11%)                                                                                                      3061(0.11%)                                                                                             
GAGE_Missing assembly bases                5187(0.19%)                                                                                                      5387(0.19%)                                                                                             
GAGE_Missing assembly contigs              1(1.15%)                                                                                                         1(1.30%)                                                                                                
GAGE_Duplicated reference bases            427                                                                                                              522                                                                                                     
GAGE_Compressed reference bases            36834                                                                                                            36003                                                                                                   
GAGE_Bad trim                              10                                                                                                               20                                                                                                      
GAGE_Avg idy                               99.99                                                                                                            99.99                                                                                                   
GAGE_SNPs                                  45                                                                                                               45                                                                                                      
GAGE_Indels < 5bp                          14                                                                                                               23                                                                                                      
GAGE_Indels >= 5                           4                                                                                                                6                                                                                                       
GAGE_Inversions                            1                                                                                                                3                                                                                                       
GAGE_Relocation                            2                                                                                                                4                                                                                                       
GAGE_Translocation                         0                                                                                                                0                                                                                                       
GAGE_Corrected contig #                    91                                                                                                               87                                                                                                      
GAGE_Corrected assembly size               2781971                                                                                                          2782085                                                                                                 
GAGE_Min correct contig                    212                                                                                                              212                                                                                                     
GAGE_Max correct contig                    263364                                                                                                           263364                                                                                                  
GAGE_Corrected N50                         86628 COUNT: 12                                                                                                  92250 COUNT: 10                                                                                         
