Assembly	ABYSS_PE_PGM_sakai_pgm_mu_318_400bp_IO_TS3.4_ms.0.35percent_80.final
#Mis_misassemblies	4
#Mis_relocations	3
#Mis_translocations	1
#Mis_inversions	0
#Mis_misassembled contigs	4
Mis_Misassembled contigs length	28704
#Mis_local misassemblies	7
#mismatches	78
#indels	265
#Mis_short indels (<= 5 bp)	265
#Mis_long indels (> 5 bp)	0
Indels length	273
