Assembly	VELVET_MIS_PE_mtbh37-1_mis_2x250bp_nextera_default__mtbh37-2_mis_2x250bp_nextera_default_211.final.contigs_broken	VELVET_MIS_PE_mtbh37-1_mis_2x250bp_nextera_default__mtbh37-2_mis_2x250bp_nextera_default_211.final.contigs
GAGE_Contigs #	2679	1824
GAGE_Min contig	421	421
GAGE_Max contig	8186	16415
GAGE_N50	1646 COUNT: 849	2852 COUNT: 472
GAGE_Genome size	4411532	4411532
GAGE_Assembly size	4017414	4160787
GAGE_Chaff bases	0	0
GAGE_Missing reference bases	455338(10.32%)	455335(10.32%)
GAGE_Missing assembly bases	1921(0.05%)	145345(3.49%)
GAGE_Missing assembly contigs	0(0.00%)	0(0.00%)
GAGE_Duplicated reference bases	376	376
GAGE_Compressed reference bases	53165	53168
GAGE_Bad trim	1921	1525
GAGE_Avg idy	99.99	99.99
GAGE_SNPs	296	295
GAGE_Indels < 5bp	31	31
GAGE_Indels >= 5	1	850
GAGE_Inversions	0	2
GAGE_Relocation	5	6
GAGE_Translocation	0	0
GAGE_Corrected contig #	2684	2684
GAGE_Corrected assembly size	4016509	4016458
GAGE_Min correct contig	240	240
GAGE_Max correct contig	8186	8186
GAGE_Corrected N50	1636 COUNT: 851	1636 COUNT: 851
