Assembly	#Contigs (>= 0 bp)	#Contigs (>= 1000 bp)	Total length (>= 0 bp)	Total length (>= 1000 bp)	#Contigs	Largest contig	Total length	Reference length	GC (%)	Reference GC (%)	N50	NG50	N75	NG75	#misassemblies	#local misassemblies	#unaligned contigs	Unaligned contigs length	Genome fraction (%)	Duplication ratio	#N's per 100 kbp	#mismatches per 100 kbp	#indels per 100 kbp	#genes	#predicted genes (unique)	#predicted genes (>= 0 bp)	#predicted genes (>= 300 bp)	#predicted genes (>= 1500 bp)	#predicted genes (>= 3000 bp)	Largest alignment	NA50	NGA50	NA75	NGA75
SOAP2_MIS_PE_sakai_mis-1_bi_2x150bp_default.0.826percent_89.final.scaf_broken	1447	205	5484921	5210990	647	221590	5370662	5594470	50.28	50.48	65921	62586	32896	30332	6	3	1 + 0 part	5385	94.023	1.000	1.40	1.05	0.42	4851 + 268 part	5527	5535	4443	660	67	217356	65921	62586	32896	30314
SOAP2_MIS_PE_sakai_mis-1_bi_2x150bp_default.0.826percent_89.final.scaf	1082	129	5503192	5302206	397	374854	5406232	5594470	50.30	50.48	144787	142735	76255	73128	29	83	6 + 11 part	18784	94.202	1.006	339.35	4.29	31.90	4949 + 183 part	5468	5474	4451	659	66	362932	142735	142735	76255	72431
