All statistics are based on contigs of size >= 200 bp, unless otherwise noted (e.g., "# contigs (>= 0 bp)" and "Total length (>= 0 bp)" include all contigs).

Assembly                                                                                                           GAGE_Contigs #  GAGE_Min contig  GAGE_Max contig  GAGE_N50         GAGE_Genome size  GAGE_Assembly size  GAGE_Chaff bases  GAGE_Missing reference bases  GAGE_Missing assembly bases  GAGE_Missing assembly contigs  GAGE_Duplicated reference bases  GAGE_Compressed reference bases  GAGE_Bad trim  GAGE_Avg idy  GAGE_SNPs  GAGE_Indels < 5bp  GAGE_Indels >= 5  GAGE_Inversions  GAGE_Relocation  GAGE_Translocation  GAGE_Corrected contig #  GAGE_Corrected assembly size  GAGE_Min correct contig  GAGE_Max correct contig  GAGE_Corrected N50
VELVET_MIS_PE_mtbh37-1_mis_2x250bp_nextera_default__mtbh37-2_mis_2x250bp_nextera_default_221.final.contigs_broken  2860            441              3901             781 COUNT: 1914  4411532           2843552             0                 1576971(35.75%)               1912(0.07%)                  0(0.00%)                       95                               53051                            1912           99.99         263        21                 0                 1                2                0                   2862                     2843515                       267                      3901                     781 COUNT: 1915   
VELVET_MIS_PE_mtbh37-1_mis_2x250bp_nextera_default__mtbh37-2_mis_2x250bp_nextera_default_221.final.contigs         2354            441              5200             905 COUNT: 1412  4411532           2932390             0                 1576971(35.75%)               90752(3.09%)                 0(0.00%)                       95                               53051                            1480           99.99         263        21                 501               2                5                0                   2862                     2843513                       267                      3901                     781 COUNT: 1915   
