Assembly	VELVET_MIS_PE_mtbh37-1_mis_2x250bp_nextera_default__mtbh37-2_mis_2x250bp_nextera_default_221.final.contigs_broken	VELVET_MIS_PE_mtbh37-1_mis_2x250bp_nextera_default__mtbh37-2_mis_2x250bp_nextera_default_221.final.contigs
GAGE_Contigs #	2860	2354
GAGE_Min contig	441	441
GAGE_Max contig	3901	5200
GAGE_N50	781 COUNT: 1914	905 COUNT: 1412
GAGE_Genome size	4411532	4411532
GAGE_Assembly size	2843552	2932390
GAGE_Chaff bases	0	0
GAGE_Missing reference bases	1576971(35.75%)	1576971(35.75%)
GAGE_Missing assembly bases	1912(0.07%)	90752(3.09%)
GAGE_Missing assembly contigs	0(0.00%)	0(0.00%)
GAGE_Duplicated reference bases	95	95
GAGE_Compressed reference bases	53051	53051
GAGE_Bad trim	1912	1480
GAGE_Avg idy	99.99	99.99
GAGE_SNPs	263	263
GAGE_Indels < 5bp	21	21
GAGE_Indels >= 5	0	501
GAGE_Inversions	1	2
GAGE_Relocation	2	5
GAGE_Translocation	0	0
GAGE_Corrected contig #	2862	2862
GAGE_Corrected assembly size	2843515	2843513
GAGE_Min correct contig	267	267
GAGE_Max correct contig	3901	3901
GAGE_Corrected N50	781 COUNT: 1915	781 COUNT: 1915
