calling: java -cp /vol/ngscomparison/software/analysis/quast-2.1/libs/gage:. SizeFasta /vol/codine-tmp/juene/tmp.ug65ZntiNU/quast/corrected_input/MRSA_COL_Plasmid.fasta |awk '{SUM+=; print SUM}'|tail -n 1
Contig Stats
Total units: 155
Reference: 2813862
BasesInFasta: 38814
Min: 200
Max: 555
N10: 0 COUNT: 0
N25: 0 COUNT: 0
N50: 0 COUNT: 0
N75: 0 COUNT: 0
E-size:3.65

Genome Size: 2813862
Assembly Size: 38814
Chaff bases: 0
Missing Reference Bases: 2811084(99.90%)
Missing Assembly Bases: 36037(92.85%)
Missing Assembly Contigs: 143(92.26%)
Duplicated Reference Bases: 0
Compressed Reference Bases: 0
Bad Trim: 0
Avg Idy: 99.57
SNPs: 1
Indels < 5bp: 11
Indels >= 5: 0
Inversions: 0
Relocation: 0
Translocation: 0

Corrected Contig Stats
calling: java -cp /vol/ngscomparison/software/analysis/quast-2.1/libs/gage:.:. GetFastaStats -o -min 199 -genomeSize 2813862 /vol/codine-tmp/juene/tmp.ug65ZntiNU/quast/gage/tmp/SOAP2_PGM_mrsa_pgm_400bp_es_318_IKA_ts3.2_morestringent.0.165percent_27.final.contig.matches.lens 2> /dev/null
Total units: 12
Reference: 2813862
BasesInFasta: 2778
Min: 200
Max: 298
N10: 0 COUNT: 0
N25: 0 COUNT: 0
N50: 0 COUNT: 0
N75: 0 COUNT: 0
E-size:0.23

Done
