Assembly	VELVET_PGM_sakai_pgm_mu_200bp_IO_TS3.0Disabled_stringent.0.34percent_67.final.contigs
GAGE_Contigs #	1418
GAGE_Min contig	200
GAGE_Max contig	60167
GAGE_N50	8675 COUNT: 198
GAGE_Genome size	5594470
GAGE_Assembly size	5336219
GAGE_Chaff bases	0
GAGE_Missing reference bases	100247(1.79%)
GAGE_Missing assembly bases	2163(0.04%)
GAGE_Missing assembly contigs	0(0.00%)
GAGE_Duplicated reference bases	6079
GAGE_Compressed reference bases	227162
GAGE_Bad trim	1154
GAGE_Avg idy	99.95
GAGE_SNPs	129
GAGE_Indels < 5bp	2332
GAGE_Indels >= 5	59
GAGE_Inversions	1
GAGE_Relocation	33
GAGE_Translocation	0
GAGE_Corrected contig #	1486
GAGE_Corrected assembly size	5330763
GAGE_Min correct contig	200
GAGE_Max correct contig	60186
GAGE_Corrected N50	7785 COUNT: 217
