All statistics are based on contigs of size >= 200 bp, unless otherwise noted (e.g., "# contigs (>= 0 bp)" and "Total length (>= 0 bp)" include all contigs).

Assembly                         SOAP2_PGM_mrsa_pgm_200bp_es_316_IonOnev2_ts3.0_morestringent.0.230percent_105.final.contig
#Mis_misassemblies               15                                                                                        
#Mis_relocations                 5                                                                                         
#Mis_translocations              0                                                                                         
#Mis_inversions                  10                                                                                        
#Mis_misassembled contigs        15                                                                                        
Mis_Misassembled contigs length  12304                                                                                     
#Mis_local misassemblies         0                                                                                         
#mismatches                      85                                                                                        
#indels                          1208                                                                                      
#Mis_short indels (<= 5 bp)      1208                                                                                      
#Mis_long indels (> 5 bp)        0                                                                                         
Indels length                    1233                                                                                      
