calling: java -cp /vol/ngscomparison/software/analysis/quast-2.1/libs/gage:. SizeFasta /vol/codine-tmp/juene/tmp.NAeqnPRQeU/quast/corrected_input/MRSA_COL_Plasmid.fasta |awk '{SUM+=; print SUM}'|tail -n 1
Contig Stats
Total units: 25871
Reference: 2813862
BasesInFasta: 7433077
Min: 200
Max: 828
N10: 386 COUNT: 674
N25: 353 COUNT: 1823
N50: 326 COUNT: 3902
N75: 310 COUNT: 6118
E-size:774.62

Genome Size: 2813862
Assembly Size: 7433077
Chaff bases: 0
Missing Reference Bases: 233712(8.31%)
Missing Assembly Bases: 577964(7.78%)
Missing Assembly Contigs: 1400(5.41%)
Duplicated Reference Bases: 3511958
Compressed Reference Bases: 48899
Bad Trim: 159501
Avg Idy: 97.94
SNPs: 2275
Indels < 5bp: 37152
Indels >= 5: 2
Inversions: 10
Relocation: 6
Translocation: 2

Corrected Contig Stats
calling: java -cp /vol/ngscomparison/software/analysis/quast-2.1/libs/gage:.:. GetFastaStats -o -min 199 -genomeSize 2813862 /vol/codine-tmp/juene/tmp.NAeqnPRQeU/quast/gage/tmp/SOAP2_PGM_mrsa_pgm_400bp_es_318_IKA_ts3.2_morestringent.0.165percent_83.final.contig.matches.lens 2> /dev/null
Total units: 11638
Reference: 2813862
BasesInFasta: 3286028
Min: 200
Max: 822
N10: 354 COUNT: 720
N25: 319 COUNT: 1984
N50: 287 COUNT: 4318
N75: 267 COUNT: 6860
E-size:337.75

Done
