Assembly	ABYSS_PE_MIS_PE_mtbh37-1_mis_2x250bp_nextera_default__mtbh37-2_mis_2x250bp_nextera_default_76.final_broken	ABYSS_PE_MIS_PE_mtbh37-1_mis_2x250bp_nextera_default__mtbh37-2_mis_2x250bp_nextera_default_76.final
GAGE_Contigs #	196	149
GAGE_Min contig	206	206
GAGE_Max contig	188094	207744
GAGE_N50	56671 COUNT: 27	95961 COUNT: 16
GAGE_Genome size	4411532	4411532
GAGE_Assembly size	4423123	4425296
GAGE_Chaff bases	0	0
GAGE_Missing reference bases	27343(0.62%)	26902(0.61%)
GAGE_Missing assembly bases	887(0.02%)	2426(0.05%)
GAGE_Missing assembly contigs	0(0.00%)	0(0.00%)
GAGE_Duplicated reference bases	13406	12860
GAGE_Compressed reference bases	29694	28096
GAGE_Bad trim	868	868
GAGE_Avg idy	99.99	99.97
GAGE_SNPs	249	237
GAGE_Indels < 5bp	72	113
GAGE_Indels >= 5	28	59
GAGE_Inversions	1	2
GAGE_Relocation	1	3
GAGE_Translocation	0	0
GAGE_Corrected contig #	220	207
GAGE_Corrected assembly size	4412693	4414232
GAGE_Min correct contig	206	206
GAGE_Max correct contig	188085	204567
GAGE_Corrected N50	43544 COUNT: 32	48555 COUNT: 28
