All statistics are based on contigs of size >= 200 bp, unless otherwise noted (e.g., "# contigs (>= 0 bp)" and "Total length (>= 0 bp)" include all contigs).

Assembly                       ABYSS_PE_MIS_PE_mtbh37-1_mis_2x250bp_nextera_default__mtbh37-2_mis_2x250bp_nextera_default_76.final_broken  ABYSS_PE_MIS_PE_mtbh37-1_mis_2x250bp_nextera_default__mtbh37-2_mis_2x250bp_nextera_default_76.final
#Contigs (>= 0 bp)             258                                                                                                         211                                                                                                
#Contigs (>= 1000 bp)          163                                                                                                         119                                                                                                
Total length (>= 0 bp)         4430671                                                                                                     4432844                                                                                            
Total length (>= 1000 bp)      4406699                                                                                                     4410859                                                                                            
#Contigs                       196                                                                                                         149                                                                                                
Largest contig                 188094                                                                                                      207744                                                                                             
Total length                   4423123                                                                                                     4425296                                                                                            
Reference length               4411532                                                                                                     4411532                                                                                            
GC (%)                         65.53                                                                                                       65.53                                                                                              
Reference GC (%)               65.61                                                                                                       65.61                                                                                              
N50                            56671                                                                                                       95961                                                                                              
NG50                           56671                                                                                                       95961                                                                                              
N75                            30538                                                                                                       48974                                                                                              
NG75                           32209                                                                                                       48974                                                                                              
#misassemblies                 6                                                                                                           6                                                                                                  
#local misassemblies           18                                                                                                          26                                                                                                 
#unaligned contigs             0 + 0 part                                                                                                  0 + 0 part                                                                                         
Unaligned contigs length       0                                                                                                           0                                                                                                  
Genome fraction (%)            99.175                                                                                                      99.197                                                                                             
Duplication ratio              1.017                                                                                                       1.025                                                                                              
#N's per 100 kbp               0.93                                                                                                        50.03                                                                                              
#mismatches per 100 kbp        7.38                                                                                                        7.52                                                                                               
#indels per 100 kbp            1.90                                                                                                        7.72                                                                                               
#genes                         3983 + 127 part                                                                                             4019 + 92 part                                                                                     
#predicted genes (unique)      4096                                                                                                        4090                                                                                               
#predicted genes (>= 0 bp)     4180                                                                                                        4174                                                                                               
#predicted genes (>= 300 bp)   3661                                                                                                        3659                                                                                               
#predicted genes (>= 1500 bp)  574                                                                                                         572                                                                                                
#predicted genes (>= 3000 bp)  77                                                                                                          77                                                                                                 
Largest alignment              188094                                                                                                      207540                                                                                             
NA50                           56671                                                                                                       78351                                                                                              
NGA50                          56671                                                                                                       78351                                                                                              
NA75                           30538                                                                                                       48974                                                                                              
NGA75                          30857                                                                                                       48974                                                                                              
