All statistics are based on contigs of size >= 200 bp, unless otherwise noted (e.g., "# contigs (>= 0 bp)" and "Total length (>= 0 bp)" include all contigs).

Assembly                                                                                                    #Contigs  #Contigs (>= 0 bp)  #Contigs (>= 1000 bp)  Largest contig  Total length  Total length (>= 0 bp)  Total length (>= 1000 bp)  Reference length  N50    NG50   N75    NG75   L50  LG50  L75  LG75  #local misassemblies  #misassemblies  #misassembled contigs  Misassembled contigs length  Misassemblies inter-contig overlap  #unaligned contigs  Unaligned contigs length  #ambiguously mapped contigs  Extra bases in ambiguously mapped contigs  #N's  #N's per 100 kbp  Genome fraction (%)  Duplication ratio  #genes           #predicted genes (unique)  #predicted genes (>= 0 bp)  #predicted genes (>= 300 bp)  #predicted genes (>= 1500 bp)  #predicted genes (>= 3000 bp)  #mismatches  #indels  Indels length  #mismatches per 100 kbp  #indels per 100 kbp  GC (%)  Reference GC (%)  Average %IDY  Largest alignment  NA50   NGA50  NA75   NGA75  LA50  LGA50  LA75  LGA75  #Mis_misassemblies  #Mis_relocations  #Mis_translocations  #Mis_inversions  #Mis_misassembled contigs  Mis_Misassembled contigs length  #Mis_local misassemblies  #Mis_short indels (<= 5 bp)  #Mis_long indels (> 5 bp)  #Una_fully unaligned contigs  Una_Fully unaligned length  #Una_partially unaligned contigs  #Una_with misassembly  #Una_both parts are significant  Una_Partially unaligned length  GAGE_Contigs #  GAGE_Min contig  GAGE_Max contig  GAGE_N50         GAGE_Genome size  GAGE_Assembly size  GAGE_Chaff bases  GAGE_Missing reference bases  GAGE_Missing assembly bases  GAGE_Missing assembly contigs  GAGE_Duplicated reference bases  GAGE_Compressed reference bases  GAGE_Bad trim  GAGE_Avg idy  GAGE_SNPs  GAGE_Indels < 5bp  GAGE_Indels >= 5  GAGE_Inversions  GAGE_Relocation  GAGE_Translocation  GAGE_Corrected contig #  GAGE_Corrected assembly size  GAGE_Min correct contig  GAGE_Max correct contig  GAGE_Corrected N50
ABYSS_PE_MIS_PE_mtbh37-1_mis_2x250bp_nextera_default__mtbh37-2_mis_2x250bp_nextera_default_76.final_broken  196       258                 163                    188094          4423123       4430671                 4406699                    4411532           56671  56671  30538  32209  27   27    54   53    18                    6               5                      185444                       33390                               0 + 0 part          0                         11                           -8253                                      41    0.93              99.175               1.017              3983 + 127 part  4096                       4180                        3661                          574                            77                             323          83       481            7.38                     1.90                 65.53   65.61             99.765        188094             56671  56671  30538  30857  27    27     55    54     6                   6                 0                    0                5                          185444                           18                        70                           13                         0                             0                           0                                 0                      0                                0                               196             206              188094           56671 COUNT: 27  4411532           4423123             0                 27343(0.62%)                  887(0.02%)                   0(0.00%)                       13406                            29694                            868            99.99         249        72                 28                1                1                0                   220                      4412693                       206                      188085                   43544 COUNT: 32   
ABYSS_PE_MIS_PE_mtbh37-1_mis_2x250bp_nextera_default__mtbh37-2_mis_2x250bp_nextera_default_76.final         149       211                 119                    207744          4425296       4432844                 4410859                    4411532           95961  95961  48974  48974  16   16    33   33    26                    6               5                      264709                       68594                               0 + 0 part          0                         10                           -7707                                      2214  50.03             99.197               1.025              4019 + 92 part   4090                       4174                        3659                          572                            77                             329          338      1091           7.52                     7.72                 65.53   65.61             99.777        207540             78351  78351  48974  48974  17    17     34    34     6                   6                 0                    0                5                          264709                           26                        307                          31                         0                             0                           0                                 0                      0                                0                               149             206              207744           95961 COUNT: 16  4411532           4425296             0                 26902(0.61%)                  2426(0.05%)                  0(0.00%)                       12860                            28096                            868            99.97         237        113                59                2                3                0                   207                      4414232                       206                      204567                   48555 COUNT: 28   
