All statistics are based on contigs of size >= 200 bp, unless otherwise noted (e.g., "# contigs (>= 0 bp)" and "Total length (>= 0 bp)" include all contigs).

Assembly                                                                      #Contigs  #Contigs (>= 0 bp)  #Contigs (>= 1000 bp)  Largest contig  Total length  Total length (>= 0 bp)  Total length (>= 1000 bp)  Reference length  N50   NG50  N75   NG75  L50  LG50  L75   LG75  #local misassemblies  #misassemblies  #misassembled contigs  Misassembled contigs length  Misassemblies inter-contig overlap  #unaligned contigs  Unaligned contigs length  #ambiguously mapped contigs  Extra bases in ambiguously mapped contigs  #N's  #N's per 100 kbp  Genome fraction (%)  Duplication ratio  #genes            #predicted genes (unique)  #predicted genes (>= 0 bp)  #predicted genes (>= 300 bp)  #predicted genes (>= 1500 bp)  #predicted genes (>= 3000 bp)  #mismatches  #indels  Indels length  #mismatches per 100 kbp  #indels per 100 kbp  GC (%)  Reference GC (%)  Average %IDY  Largest alignment  NA50  NGA50  NA75  NGA75  LA50  LGA50  LA75  LGA75  #Mis_misassemblies  #Mis_relocations  #Mis_translocations  #Mis_inversions  #Mis_misassembled contigs  Mis_Misassembled contigs length  #Mis_local misassemblies  #Mis_short indels (<= 5 bp)  #Mis_long indels (> 5 bp)  #Una_fully unaligned contigs  Una_Fully unaligned length  #Una_partially unaligned contigs  #Una_with misassembly  #Una_both parts are significant  Una_Partially unaligned length  GAGE_Contigs #  GAGE_Min contig  GAGE_Max contig  GAGE_N50         GAGE_Genome size  GAGE_Assembly size  GAGE_Chaff bases  GAGE_Missing reference bases  GAGE_Missing assembly bases  GAGE_Missing assembly contigs  GAGE_Duplicated reference bases  GAGE_Compressed reference bases  GAGE_Bad trim  GAGE_Avg idy  GAGE_SNPs  GAGE_Indels < 5bp  GAGE_Indels >= 5  GAGE_Inversions  GAGE_Relocation  GAGE_Translocation  GAGE_Corrected contig #  GAGE_Corrected assembly size  GAGE_Min correct contig  GAGE_Max correct contig  GAGE_Corrected N50
VELVET_PGM_sakai_pgm_mu_318_400bp_IO_TS3.4_ms_0.395percent_177.final.contigs  2765      2765                1532                   11556           4559862       4559862                 3794045                    5594470           2422  1895  1364  688   588  830   1215  2014  22                    55              55                     121524                       297                                 0 + 0 part          0                         144                          -71724                                     300   6.58              77.948               1.029              2556 + 1960 part  6540                       6578                        4735                          279                            13                             71           739      751            1.63                     16.95                50.71   50.48             99.386        11556              2401  1888   1357  654    593   836    1225  2041   55                  51                4                    0                55                         121524                           22                        739                          0                          0                             0                           0                                 0                      0                                0                               2765            353              11556            1895 COUNT: 830  5594470           4559862             0                 1021686(18.26%)               538(0.01%)                   0(0.00%)                       48654                            221056                           416            99.98         91         688                14                3                2                1                   2708                     4509807                       306                      11555                    1882 COUNT: 839   
