Assembly	ABYSS_PE_PGM_mrsa_pgm_200bp_es_316_IonOnev2_ts3.0_morestringent.0.230percent_66-unitigs
#Mis_misassemblies	3
#Mis_relocations	2
#Mis_translocations	0
#Mis_inversions	1
#Mis_misassembled contigs	3
Mis_Misassembled contigs length	21934
#Mis_local misassemblies	4
#mismatches	114
#indels	323
#Mis_short indels (<= 5 bp)	323
#Mis_long indels (> 5 bp)	0
Indels length	331
