All statistics are based on contigs of size >= 200 bp, unless otherwise noted (e.g., "# contigs (>= 0 bp)" and "Total length (>= 0 bp)" include all contigs).

Assembly                         NEWBLER_MIS_PE_sakai_mis-2_bi_2x150bp_default__sakai_mis-1_bi_2x150bp_default.0.125percent.contigs_broken  NEWBLER_MIS_PE_sakai_mis-2_bi_2x150bp_default__sakai_mis-1_bi_2x150bp_default.0.125percent.contigs
#Mis_misassemblies               3                                                                                                          104                                                                                               
#Mis_relocations                 3                                                                                                          104                                                                                               
#Mis_translocations              0                                                                                                          0                                                                                                 
#Mis_inversions                  0                                                                                                          0                                                                                                 
#Mis_misassembled contigs        3                                                                                                          68                                                                                                
Mis_Misassembled contigs length  45705                                                                                                      3431897                                                                                           
#Mis_local misassemblies         4                                                                                                          391                                                                                               
#mismatches                      214                                                                                                        314                                                                                               
#indels                          23                                                                                                         28                                                                                                
#Mis_short indels (<= 5 bp)      23                                                                                                         28                                                                                                
#Mis_long indels (> 5 bp)        0                                                                                                          0                                                                                                 
Indels length                    23                                                                                                         28                                                                                                
