Assembly	ABYSS_PE_MIS_PE_mrsa_mis-1_bi_2x150bp_default__mrsa_mis-2_bi_2x150bp_default.16coverage_32.final_broken	ABYSS_PE_MIS_PE_mrsa_mis-1_bi_2x150bp_default__mrsa_mis-2_bi_2x150bp_default.16coverage_32.final
#Contigs (>= 0 bp)	1640	1636
#Contigs (>= 1000 bp)	379	377
Total length (>= 0 bp)	2785268	2785451
Total length (>= 1000 bp)	2643608	2644311
#Contigs	554	551
Largest contig	40541	40541
Total length	2719844	2720129
Reference length	2813862	2813862
GC (%)	32.70	32.70
Reference GC (%)	32.81	32.81
N50	11731	11731
NG50	11415	11415
N75	5264	5287
NG75	4821	4888
#misassemblies	3	4
#local misassemblies	0	1
#unaligned contigs	1 + 0 part	1 + 0 part
Unaligned contigs length	5192	5192
Genome fraction (%)	96.057	96.232
Duplication ratio	1.001	1.002
#N's per 100 kbp	0.37	7.10
#mismatches per 100 kbp	2.33	2.36
#indels per 100 kbp	0.30	0.30
#genes	2321 + 302 part	2323 + 303 part
#predicted genes (unique)	2835	2834
#predicted genes (>= 0 bp)	2835	2834
#predicted genes (>= 300 bp)	2331	2331
#predicted genes (>= 1500 bp)	273	273
#predicted genes (>= 3000 bp)	23	23
Largest alignment	40541	40541
NA50	11731	11731
NGA50	11415	11415
NA75	5264	5264
NGA75	4807	4807
