All statistics are based on contigs of size >= 200 bp, unless otherwise noted (e.g., "# contigs (>= 0 bp)" and "Total length (>= 0 bp)" include all contigs).

Assembly                         NEWBLER_MIS_PE_sakai_mis-2_bi_2x150bp_default__sakai_mis-1_bi_2x150bp_default.0.175percent.contigs_broken  NEWBLER_MIS_PE_sakai_mis-2_bi_2x150bp_default__sakai_mis-1_bi_2x150bp_default.0.175percent.contigs
GAGE_Contigs #                   345                                                                                                        107                                                                                               
GAGE_Min contig                  506                                                                                                        2044                                                                                              
GAGE_Max contig                  111801                                                                                                     388167                                                                                            
GAGE_N50                         28935 COUNT: 55                                                                                            128424 COUNT: 15                                                                                  
GAGE_Genome size                 5594470                                                                                                    5594470                                                                                           
GAGE_Assembly size               5202609                                                                                                    5391811                                                                                           
GAGE_Chaff bases                 0                                                                                                          0                                                                                                 
GAGE_Missing reference bases     257592(4.60%)                                                                                              257599(4.60%)                                                                                     
GAGE_Missing assembly bases      5404(0.10%)                                                                                                194606(3.61%)                                                                                     
GAGE_Missing assembly contigs    1(0.29%)                                                                                                   1(0.93%)                                                                                          
GAGE_Duplicated reference bases  0                                                                                                          0                                                                                                 
GAGE_Compressed reference bases  145371                                                                                                     145347                                                                                            
GAGE_Bad trim                    18                                                                                                         2                                                                                                 
GAGE_Avg idy                     100.00                                                                                                     100.00                                                                                            
GAGE_SNPs                        128                                                                                                        128                                                                                               
GAGE_Indels < 5bp                20                                                                                                         20                                                                                                
GAGE_Indels >= 5                 5                                                                                                          216                                                                                               
GAGE_Inversions                  0                                                                                                          8                                                                                                 
GAGE_Relocation                  3                                                                                                          18                                                                                                
GAGE_Translocation               0                                                                                                          0                                                                                                 
GAGE_Corrected contig #          352                                                                                                        352                                                                                               
GAGE_Corrected assembly size     5198313                                                                                                    5198313                                                                                           
GAGE_Min correct contig          320                                                                                                        320                                                                                               
GAGE_Max correct contig          111801                                                                                                     111801                                                                                            
GAGE_Corrected N50               28935 COUNT: 55                                                                                            28935 COUNT: 55                                                                                   
