Assembly	SOAP2_MIS_PE_mrsa_mis-1_bi_2x150bp_default.0.527percent_27.final.scaf_broken	SOAP2_MIS_PE_mrsa_mis-1_bi_2x150bp_default.0.527percent_27.final.scaf
#Contigs (>= 0 bp)	11001	6439
#Contigs (>= 1000 bp)	793	230
Total length (>= 0 bp)	3438075	3636116
Total length (>= 1000 bp)	1327213	2755769
#Contigs	3169	473
Largest contig	6570	67295
Total length	2476770	2851942
Reference length	2813862	2813862
GC (%)	32.43	32.54
Reference GC (%)	32.81	32.81
N50	1071	20001
NG50	930	20020
N75	614	10252
NG75	436	11226
#misassemblies	0	6
#local misassemblies	5	328
#unaligned contigs	44 + 9 part	89 + 46 part
Unaligned contigs length	13592	336165
Genome fraction (%)	87.323	57.615
Duplication ratio	1.001	1.550
#N's per 100 kbp	68.72	7005.61
#mismatches per 100 kbp	1.71	1.60
#indels per 100 kbp	38.30	1312.79
#genes	881 + 1680 part	1248 + 506 part
#predicted genes (unique)	4769	4290
#predicted genes (>= 0 bp)	4769	4290
#predicted genes (>= 300 bp)	2733	2785
#predicted genes (>= 1500 bp)	40	66
#predicted genes (>= 3000 bp)	1	2
Largest alignment	6570	60114
NA50	1071	4605
NGA50	930	4893
NA75	612	None
NGA75	433	None
