Assembly	SOAP2_MIS_PE_mtbh37-1_mis_2x250bp_nextera_default_33.final.scaf_broken	SOAP2_MIS_PE_mtbh37-1_mis_2x250bp_nextera_default_33.final.scaf
#Una_fully unaligned contigs	33363	33363
Una_Fully unaligned length	7673728	7673728
#Una_partially unaligned contigs	10	11
#Una_with misassembly	0	0
#Una_both parts are significant	0	0
Una_Partially unaligned length	610	761
#N's	0	115
