All statistics are based on contigs of size >= 200 bp, unless otherwise noted (e.g., "# contigs (>= 0 bp)" and "Total length (>= 0 bp)" include all contigs).

Assembly                                                                                #Una_fully unaligned contigs  Una_Fully unaligned length  #Una_partially unaligned contigs  #Una_with misassembly  #Una_both parts are significant  Una_Partially unaligned length  #N's 
VELVET_MIS_PE_sakai_mis-both_bi_2x250bp_SI_default.0.64percent_97.final.contigs_broken  1                             5482                        0                                 0                      0                                0                               0    
VELVET_MIS_PE_sakai_mis-both_bi_2x250bp_SI_default.0.64percent_97.final.contigs         1                             5482                        3                                 0                      2                                1102                            11749
