calling: java -cp /vol/ngscomparison/software/analysis/quast-2.1/libs/gage:. SizeFasta /vol/codine-tmp/juene/tmp.i3cZiKKHCZ/quast/corrected_input/Ecoli_Sakai_editedNew_plasmids.fasta |awk '{SUM+=; print SUM}'|tail -n 1
Contig Stats
Total units: 20178
Reference: 5594470
BasesInFasta: 5797214
Min: 253
Max: 900
N10: 357 COUNT: 1384
N25: 315 COUNT: 3901
N50: 279 COUNT: 8641
N75: 258 COUNT: 13866
E-size:304.88

Genome Size: 5594470
Assembly Size: 5797214
Chaff bases: 0
Missing Reference Bases: 1881308(33.63%)
Missing Assembly Bases: 1776(0.03%)
Missing Assembly Contigs: 2(0.01%)
Duplicated Reference Bases: 1509815
Compressed Reference Bases: 306003
Bad Trim: 1155
Avg Idy: 99.22
SNPs: 2187
Indels < 5bp: 21290
Indels >= 5: 5
Inversions: 121
Relocation: 49
Translocation: 8

Corrected Contig Stats
calling: java -cp /vol/ngscomparison/software/analysis/quast-2.1/libs/gage:.:. GetFastaStats -o -min 199 -genomeSize 5594470 /vol/codine-tmp/juene/tmp.i3cZiKKHCZ/quast/gage/tmp/VELVET_PGM_sakai_pgm_mu_318_400bp_IO_TS3.4_ms_0.395percent_127.final.contigs.matches.lens 2> /dev/null
Total units: 14495
Reference: 5594470
BasesInFasta: 4174401
Min: 200
Max: 901
N10: 347 COUNT: 1418
N25: 301 COUNT: 4032
N50: 261 COUNT: 9061
N75: 165 COUNT: 14615
E-size:220.75

Done
