Assembly	VELVET_PGM_mrsa_pgm_400bp_es_318_IKA_ts3.2_morestringent.0.165percent_165.final.contigs
#Contigs	2267
#Contigs (>= 0 bp)	2267
#Contigs (>= 1000 bp)	656
Largest contig	6309
Total length	2007702
Total length (>= 0 bp)	2007702
Total length (>= 1000 bp)	1099068
Reference length	2813862
N50	1089
NG50	731
N75	660
NG75	None
L50	565
LG50	1017
L75	1159
LG75	None
#local misassemblies	0
#misassemblies	46
#misassembled contigs	46
Misassembled contigs length	42126
Misassemblies inter-contig overlap	1299
#unaligned contigs	0 + 0 part
Unaligned contigs length	0
#ambiguously mapped contigs	14
Extra bases in ambiguously mapped contigs	-5699
#N's	0
#N's per 100 kbp	0.00
Genome fraction (%)	67.753
Duplication ratio	1.051
#genes	718 + 1376 part
#predicted genes (unique)	3655
#predicted genes (>= 0 bp)	3676
#predicted genes (>= 300 bp)	2288
#predicted genes (>= 1500 bp)	43
#predicted genes (>= 3000 bp)	3
#mismatches	143
#indels	609
Indels length	628
#mismatches per 100 kbp	7.50
#indels per 100 kbp	31.94
GC (%)	32.51
Reference GC (%)	32.81
Average %IDY	99.689
Largest alignment	6309
NA50	1086
NGA50	725
NA75	648
NGA75	None
LA50	569
LGA50	1024
LA75	1168
LGA75	None
#Mis_misassemblies	46
#Mis_relocations	44
#Mis_translocations	2
#Mis_inversions	0
#Mis_misassembled contigs	46
Mis_Misassembled contigs length	42126
#Mis_local misassemblies	0
#Mis_short indels (<= 5 bp)	609
#Mis_long indels (> 5 bp)	0
#Una_fully unaligned contigs	0
Una_Fully unaligned length	0
#Una_partially unaligned contigs	0
#Una_with misassembly	0
#Una_both parts are significant	0
Una_Partially unaligned length	0
GAGE_Contigs #	2267
GAGE_Min contig	329
GAGE_Max contig	6309
GAGE_N50	731 COUNT: 1017
GAGE_Genome size	2813862
GAGE_Assembly size	2007702
GAGE_Chaff bases	0
GAGE_Missing reference bases	879210(31.25%)
GAGE_Missing assembly bases	14(0.00%)
GAGE_Missing assembly contigs	0(0.00%)
GAGE_Duplicated reference bases	49096
GAGE_Compressed reference bases	30562
GAGE_Bad trim	10
GAGE_Avg idy	99.96
GAGE_SNPs	41
GAGE_Indels < 5bp	548
GAGE_Indels >= 5	0
GAGE_Inversions	11
GAGE_Relocation	6
GAGE_Translocation	1
GAGE_Corrected contig #	2161
GAGE_Corrected assembly size	1958012
GAGE_Min correct contig	200
GAGE_Max correct contig	6309
GAGE_Corrected N50	726 COUNT: 1023
