All statistics are based on contigs of size >= 200 bp, unless otherwise noted (e.g., "# contigs (>= 0 bp)" and "Total length (>= 0 bp)" include all contigs).

Assembly                         ABYSS_PE_MIS_PE_sakai_mis-1_bi_2x250bp_SI_default__sakai_mis-2_bi_2x250bp_SI_default.26coverage_76.final_broken  ABYSS_PE_MIS_PE_sakai_mis-1_bi_2x250bp_SI_default__sakai_mis-2_bi_2x250bp_SI_default.26coverage_76.final
#Mis_misassemblies               2                                                                                                                3                                                                                                       
#Mis_relocations                 2                                                                                                                3                                                                                                       
#Mis_translocations              0                                                                                                                0                                                                                                       
#Mis_inversions                  0                                                                                                                0                                                                                                       
#Mis_misassembled contigs        2                                                                                                                3                                                                                                       
Mis_Misassembled contigs length  80677                                                                                                            83856                                                                                                   
#Mis_local misassemblies         2                                                                                                                6                                                                                                       
#mismatches                      132                                                                                                              141                                                                                                     
#indels                          14                                                                                                               15                                                                                                      
#Mis_short indels (<= 5 bp)      12                                                                                                               12                                                                                                      
#Mis_long indels (> 5 bp)        2                                                                                                                3                                                                                                       
Indels length                    66                                                                                                               94                                                                                                      
