Assembly	VELVET_PGM_sakai_pgm_mu_318_400bp_IO_TS3.4_ms_0.395percent_71.final.contigs
#Contigs (>= 0 bp)	34119
#Contigs (>= 1000 bp)	0
Total length (>= 0 bp)	6163269
Total length (>= 1000 bp)	0
#Contigs	7162
Largest contig	570
Total length	1599321
Reference length	5594470
GC (%)	49.54
Reference GC (%)	50.48
N50	216
NG50	None
N75	206
NG75	None
#misassemblies	175
#local misassemblies	1
#unaligned contigs	472 + 80 part
Unaligned contigs length	115453
Genome fraction (%)	23.099
Duplication ratio	1.130
#N's per 100 kbp	0.00
#mismatches per 100 kbp	60.13
#indels per 100 kbp	1475.72
#genes	18 + 3053 part
#predicted genes (unique)	5552
#predicted genes (>= 0 bp)	5553
#predicted genes (>= 300 bp)	62
#predicted genes (>= 1500 bp)	0
#predicted genes (>= 3000 bp)	0
Largest alignment	570
NA50	212
NGA50	None
NA75	203
NGA75	None
