All statistics are based on contigs of size >= 200 bp, unless otherwise noted (e.g., "# contigs (>= 0 bp)" and "Total length (>= 0 bp)" include all contigs).

Assembly                         ABYSS_PE_MIS_PE_sakai_mis-1_bi_2x150bp_default__sakai_mis-2_bi_2x150bp_default.91coverage_68.final_broken  ABYSS_PE_MIS_PE_sakai_mis-1_bi_2x150bp_default__sakai_mis-2_bi_2x150bp_default.91coverage_68.final
#Mis_misassemblies               7                                                                                                          21                                                                                                
#Mis_relocations                 6                                                                                                          20                                                                                                
#Mis_translocations              1                                                                                                          1                                                                                                 
#Mis_inversions                  0                                                                                                          0                                                                                                 
#Mis_misassembled contigs        6                                                                                                          16                                                                                                
Mis_Misassembled contigs length  465752                                                                                                     668563                                                                                            
#Mis_local misassemblies         5                                                                                                          18                                                                                                
#mismatches                      1106                                                                                                       1182                                                                                              
#indels                          56                                                                                                         326                                                                                               
#Mis_short indels (<= 5 bp)      52                                                                                                         308                                                                                               
#Mis_long indels (> 5 bp)        4                                                                                                          18                                                                                                
Indels length                    131                                                                                                        647                                                                                               
