Assembly	ABYSS_PE_PGM_mrsa_pgm_200bp_es_316_IonOnev2_ts3.0_morestringent.0.230percent_114-unitigs
#Contigs	2408
#Contigs (>= 0 bp)	4095
#Contigs (>= 1000 bp)	1004
Largest contig	18045
Total length	2947157
Total length (>= 0 bp)	3171678
Total length (>= 1000 bp)	2330568
Reference length	2813862
N50	2067
NG50	2181
N75	1152
NG75	1256
L50	417
LG50	385
L75	893
LG75	810
#local misassemblies	1
#misassemblies	35
#misassembled contigs	35
Misassembled contigs length	44162
Misassemblies inter-contig overlap	346
#unaligned contigs	0 + 15 part
Unaligned contigs length	504
#ambiguously mapped contigs	77
Extra bases in ambiguously mapped contigs	-20444
#N's	0
#N's per 100 kbp	0.00
Genome fraction (%)	97.059
Duplication ratio	1.072
#genes	1710 + 982 part
#predicted genes (unique)	4368
#predicted genes (>= 0 bp)	4389
#predicted genes (>= 300 bp)	2716
#predicted genes (>= 1500 bp)	170
#predicted genes (>= 3000 bp)	12
#mismatches	91
#indels	1336
Indels length	1364
#mismatches per 100 kbp	3.33
#indels per 100 kbp	48.92
GC (%)	32.62
Reference GC (%)	32.81
Average %IDY	99.540
Largest alignment	18045
NA50	2066
NGA50	2176
NA75	1146
NGA75	1252
LA50	417
LGA50	386
LA75	895
LGA75	812
#Mis_misassemblies	35
#Mis_relocations	18
#Mis_translocations	1
#Mis_inversions	16
#Mis_misassembled contigs	35
Mis_Misassembled contigs length	44162
#Mis_local misassemblies	1
#Mis_short indels (<= 5 bp)	1336
#Mis_long indels (> 5 bp)	0
#Una_fully unaligned contigs	0
Una_Fully unaligned length	0
#Una_partially unaligned contigs	15
#Una_with misassembly	0
#Una_both parts are significant	0
Una_Partially unaligned length	504
GAGE_Contigs #	2408
GAGE_Min contig	200
GAGE_Max contig	18045
GAGE_N50	2181 COUNT: 385
GAGE_Genome size	2813862
GAGE_Assembly size	2947157
GAGE_Chaff bases	0
GAGE_Missing reference bases	43565(1.55%)
GAGE_Missing assembly bases	881(0.03%)
GAGE_Missing assembly contigs	0(0.00%)
GAGE_Duplicated reference bases	92178
GAGE_Compressed reference bases	43199
GAGE_Bad trim	881
GAGE_Avg idy	99.93
GAGE_SNPs	64
GAGE_Indels < 5bp	824
GAGE_Indels >= 5	2
GAGE_Inversions	4
GAGE_Relocation	1
GAGE_Translocation	0
GAGE_Corrected contig #	2010
GAGE_Corrected assembly size	2854749
GAGE_Min correct contig	202
GAGE_Max correct contig	18046
GAGE_Corrected N50	2176 COUNT: 386
