Assembly	CLC_MIS_PE_sakai_mis-1_bi_2x250bp_SI_default__sakai_mis-2_bi_2x250bp_SI_default.91coverage.result_broken	CLC_MIS_PE_sakai_mis-1_bi_2x250bp_SI_default__sakai_mis-2_bi_2x250bp_SI_default.91coverage.result
#Contigs (>= 0 bp)	519	498
#Contigs (>= 1000 bp)	133	125
Total length (>= 0 bp)	5461064	5462607
Total length (>= 1000 bp)	5338228	5340896
#Contigs	504	498
Largest contig	356145	377382
Total length	5459767	5462607
Reference length	5594470	5594470
GC (%)	50.23	50.23
Reference GC (%)	50.48	50.48
N50	145614	160380
NG50	145614	149652
N75	76386	81052
NG75	75473	77677
#misassemblies	3	3
#local misassemblies	5	14
#unaligned contigs	234 + 5 part	238 + 7 part
Unaligned contigs length	68785	69903
Genome fraction (%)	94.881	94.977
Duplication ratio	1.005	1.005
#N's per 100 kbp	1.56	29.89
#mismatches per 100 kbp	2.32	2.33
#indels per 100 kbp	0.62	0.83
#genes	5062 + 115 part	5067 + 113 part
#predicted genes (unique)	5530	5530
#predicted genes (>= 0 bp)	5531	5531
#predicted genes (>= 300 bp)	4495	4495
#predicted genes (>= 1500 bp)	677	677
#predicted genes (>= 3000 bp)	69	68
Largest alignment	356145	377382
NA50	145614	149652
NGA50	145614	149652
NA75	76386	81052
NGA75	75473	77677
