calling: java -cp /vol/ngscomparison/software/analysis/quast-2.1/libs/gage:. SizeFasta /vol/codine-tmp/juene/tmp.kyklJJ7wnw/quast/corrected_input/MRSA_COL_Plasmid.fasta |awk '{SUM+=; print SUM}'|tail -n 1
Contig Stats
Total units: 614
Reference: 2813862
BasesInFasta: 2831717
Min: 200
Max: 70813
N10: 41662 COUNT: 6
N25: 30550 COUNT: 18
N50: 18207 COUNT: 48
N75: 9683 COUNT: 101
E-size:21322.5

Genome Size: 2813862
Assembly Size: 2831717
Chaff bases: 0
Missing Reference Bases: 26606(0.95%)
Missing Assembly Bases: 1616(0.06%)
Missing Assembly Contigs: 3(0.49%)
Duplicated Reference Bases: 75283
Compressed Reference Bases: 42520
Bad Trim: 680
Avg Idy: 99.98
SNPs: 52
Indels < 5bp: 491
Indels >= 5: 4
Inversions: 1
Relocation: 3
Translocation: 0

Corrected Contig Stats
calling: java -cp /vol/ngscomparison/software/analysis/quast-2.1/libs/gage:.:. GetFastaStats -o -min 199 -genomeSize 2813862 /vol/codine-tmp/juene/tmp.kyklJJ7wnw/quast/gage/tmp/CLC_PGM_mrsa_pgm_400bp_es_318_IKA_ts3.2_morestringent.0.075percent.result.matches.lens 2> /dev/null
Total units: 369
Reference: 2813862
BasesInFasta: 2756816
Min: 202
Max: 70828
N10: 41663 COUNT: 6
N25: 30269 COUNT: 18
N50: 17858 COUNT: 49
N75: 9418 COUNT: 103
E-size:21053.17

Done
