Assembly	VELVET_MIS_PE_mrsa_mis-1_bi_2x250bp_default__mrsa_mis-2_bi_2x250bp_default.0.460percent_171.final.contigs_broken	VELVET_MIS_PE_mrsa_mis-1_bi_2x250bp_default__mrsa_mis-2_bi_2x250bp_default.0.460percent_171.final.contigs
#Contigs	276	251
#Contigs (>= 0 bp)	276	251
#Contigs (>= 1000 bp)	230	209
Largest contig	64835	92768
Total length	2819888	2821371
Total length (>= 0 bp)	2819888	2821371
Total length (>= 1000 bp)	2798466	2801998
Reference length	2813862	2813862
N50	20872	26239
NG50	20872	26239
N75	11902	12857
NG75	12103	12858
L50	41	33
LG50	41	33
L75	85	72
LG75	84	71
#local misassemblies	1	6
#misassemblies	3	5
#misassembled contigs	3	5
Misassembled contigs length	87569	147141
Misassemblies inter-contig overlap	2622	2622
#unaligned contigs	1 + 0 part	1 + 0 part
Unaligned contigs length	5556	5556
#ambiguously mapped contigs	29	28
Extra bases in ambiguously mapped contigs	-12692	-12386
#N's	0	1483
#N's per 100 kbp	0.00	52.56
Genome fraction (%)	98.643	98.654
Duplication ratio	1.010	1.011
#genes	2577 + 137 part	2591 + 123 part
#predicted genes (unique)	2785	2779
#predicted genes (>= 0 bp)	2790	2784
#predicted genes (>= 300 bp)	2347	2348
#predicted genes (>= 1500 bp)	290	290
#predicted genes (>= 3000 bp)	26	26
#mismatches	85	85
#indels	12	456
Indels length	36	773
#mismatches per 100 kbp	3.06	3.06
#indels per 100 kbp	0.43	16.43
GC (%)	32.73	32.73
Reference GC (%)	32.81	32.81
Average %IDY	99.090	99.065
Largest alignment	64835	74192
NA50	20872	25552
NGA50	20872	26123
NA75	11496	12813
NGA75	11496	12853
LA50	42	35
LGA50	42	34
LA75	86	74
LGA75	86	73
#Mis_misassemblies	3	5
#Mis_relocations	3	5
#Mis_translocations	0	0
#Mis_inversions	0	0
#Mis_misassembled contigs	3	5
Mis_Misassembled contigs length	87569	147141
#Mis_local misassemblies	1	6
#Mis_short indels (<= 5 bp)	11	447
#Mis_long indels (> 5 bp)	1	9
#Una_fully unaligned contigs	1	1
Una_Fully unaligned length	5556	5556
#Una_partially unaligned contigs	0	0
#Una_with misassembly	0	0
#Una_both parts are significant	0	0
Una_Partially unaligned length	0	0
GAGE_Contigs #	276	251
GAGE_Min contig	241	341
GAGE_Max contig	64835	92768
GAGE_N50	20872 COUNT: 41	26239 COUNT: 33
GAGE_Genome size	2813862	2813862
GAGE_Assembly size	2819888	2821371
GAGE_Chaff bases	0	0
GAGE_Missing reference bases	7287(0.26%)	7287(0.26%)
GAGE_Missing assembly bases	5557(0.20%)	7040(0.25%)
GAGE_Missing assembly contigs	1(0.36%)	1(0.40%)
GAGE_Duplicated reference bases	3764	3412
GAGE_Compressed reference bases	37861	37582
GAGE_Bad trim	1	131
GAGE_Avg idy	100.00	100.00
GAGE_SNPs	33	33
GAGE_Indels < 5bp	9	9
GAGE_Indels >= 5	1	23
GAGE_Inversions	1	2
GAGE_Relocation	2	2
GAGE_Translocation	0	0
GAGE_Corrected contig #	269	270
GAGE_Corrected assembly size	2812473	2812825
GAGE_Min correct contig	341	341
GAGE_Max correct contig	64835	64835
GAGE_Corrected N50	20871 COUNT: 42	20871 COUNT: 42
