1: PREPARING DATA
2,3: RUNNING mummer AND CREATING CLUSTERS
# reading input file "/vol/codine-tmp/juene/tmp.lBuLhSIaOA/quast/gage/tmp/NEWBLER_MIS_PE_mrsa_mis-1_bi_2x150bp_default__mrsa_mis-2_bi_2x150bp_default.0.050percent.contigs_broken.ntref" of length 2813864
# construct suffix tree for sequence of length 2813864
# (maximum reference length is 536870908)
# (maximum query length is 4294967295)
# process 28138 characters per dot
#....................................................................................................
# CONSTRUCTIONTIME /vol/ngscomparison/software/analysis/quast-2.1/libs/MUMmer3.23-linux/mummer /vol/codine-tmp/juene/tmp.lBuLhSIaOA/quast/gage/tmp/NEWBLER_MIS_PE_mrsa_mis-1_bi_2x150bp_default__mrsa_mis-2_bi_2x150bp_default.0.050percent.contigs_broken.ntref 1.70
# reading input file "/vol/codine-tmp/juene/tmp.lBuLhSIaOA/quast/corrected_input/NEWBLER_MIS_PE_mrsa_mis-1_bi_2x150bp_default__mrsa_mis-2_bi_2x150bp_default.0.050percent.contigs_broken" of length 1297996
# matching query-file "/vol/codine-tmp/juene/tmp.lBuLhSIaOA/quast/corrected_input/NEWBLER_MIS_PE_mrsa_mis-1_bi_2x150bp_default__mrsa_mis-2_bi_2x150bp_default.0.050percent.contigs_broken"
# against subject-file "/vol/codine-tmp/juene/tmp.lBuLhSIaOA/quast/gage/tmp/NEWBLER_MIS_PE_mrsa_mis-1_bi_2x150bp_default__mrsa_mis-2_bi_2x150bp_default.0.050percent.contigs_broken.ntref"
# COMPLETETIME /vol/ngscomparison/software/analysis/quast-2.1/libs/MUMmer3.23-linux/mummer /vol/codine-tmp/juene/tmp.lBuLhSIaOA/quast/gage/tmp/NEWBLER_MIS_PE_mrsa_mis-1_bi_2x150bp_default__mrsa_mis-2_bi_2x150bp_default.0.050percent.contigs_broken.ntref 2.94
# SPACE /vol/ngscomparison/software/analysis/quast-2.1/libs/MUMmer3.23-linux/mummer /vol/codine-tmp/juene/tmp.lBuLhSIaOA/quast/gage/tmp/NEWBLER_MIS_PE_mrsa_mis-1_bi_2x150bp_default__mrsa_mis-2_bi_2x150bp_default.0.050percent.contigs_broken.ntref 4.00
4: FINISHING DATA
Filtering alignments
Extracting alignment coordinates
Analyzing SNPs
Extracting alignment breakpoints
Generating report file
Found genome size at position 4 with value 2813862 aka 2813862
Calculating point at 0 and the sum is 1000763 and i is281 and lens is 603 and length is 1664
