1: PREPARING DATA
2,3: RUNNING mummer AND CREATING CLUSTERS
# reading input file "/vol/codine-tmp/juene/tmp.eQQ95lEbuA/quast/gage/tmp/SOAP2_MIS_PE_mtbh37-1_mis_2x250bp_nextera_default_99.final.scaf.ntref" of length 4411533
# construct suffix tree for sequence of length 4411533
# (maximum reference length is 536870908)
# (maximum query length is 4294967295)
# process 44115 characters per dot
#....................................................................................................
# CONSTRUCTIONTIME /vol/ngscomparison/software/analysis/quast-2.1/libs/MUMmer3.23-linux/mummer /vol/codine-tmp/juene/tmp.eQQ95lEbuA/quast/gage/tmp/SOAP2_MIS_PE_mtbh37-1_mis_2x250bp_nextera_default_99.final.scaf.ntref 2.48
# reading input file "/vol/codine-tmp/juene/tmp.eQQ95lEbuA/quast/corrected_input/SOAP2_MIS_PE_mtbh37-1_mis_2x250bp_nextera_default_99.final.scaf" of length 4384800
# matching query-file "/vol/codine-tmp/juene/tmp.eQQ95lEbuA/quast/corrected_input/SOAP2_MIS_PE_mtbh37-1_mis_2x250bp_nextera_default_99.final.scaf"
# against subject-file "/vol/codine-tmp/juene/tmp.eQQ95lEbuA/quast/gage/tmp/SOAP2_MIS_PE_mtbh37-1_mis_2x250bp_nextera_default_99.final.scaf.ntref"
# COMPLETETIME /vol/ngscomparison/software/analysis/quast-2.1/libs/MUMmer3.23-linux/mummer /vol/codine-tmp/juene/tmp.eQQ95lEbuA/quast/gage/tmp/SOAP2_MIS_PE_mtbh37-1_mis_2x250bp_nextera_default_99.final.scaf.ntref 7.82
# SPACE /vol/ngscomparison/software/analysis/quast-2.1/libs/MUMmer3.23-linux/mummer /vol/codine-tmp/juene/tmp.eQQ95lEbuA/quast/gage/tmp/SOAP2_MIS_PE_mtbh37-1_mis_2x250bp_nextera_default_99.final.scaf.ntref 8.53
4: FINISHING DATA
Filtering alignments
Extracting alignment coordinates
Analyzing SNPs
Extracting alignment breakpoints
Generating report file
Found genome size at position 4 with value 4411532 aka 4411532
Calculating point at 0 and the sum is 1012726 and i is604 and lens is 636 and length is 23509
Calculating point at 1 and the sum is 2008001 and i is549 and lens is 636 and length is 14434
Calculating point at 2 and the sum is 3007429 and i is464 and lens is 636 and length is 9435
Calculating point at 3 and the sum is 4001286 and i is295 and lens is 636 and length is 3277
