Assembly	SOAP2_PGM_sakai_pgm_mu_200bp_IO_TS3.0Disabled_stringent.0.34percent_123.final.contig
#Contigs	13634
#Contigs (>= 0 bp)	15746
#Contigs (>= 1000 bp)	1936
Largest contig	8971
Total length	7311196
Total length (>= 0 bp)	7640308
Total length (>= 1000 bp)	3374131
Reference length	5594470
N50	899
NG50	1235
N75	246
NG75	700
L50	2234
LG50	1416
L75	6076
LG75	2913
#local misassemblies	1
#misassemblies	8
#misassembled contigs	8
Misassembled contigs length	6007
Misassemblies inter-contig overlap	58
#unaligned contigs	1 + 10 part
Unaligned contigs length	683
#ambiguously mapped contigs	791
Extra bases in ambiguously mapped contigs	-213304
#N's	0
#N's per 100 kbp	0.00
Genome fraction (%)	92.812
Duplication ratio	1.367
#genes	2105 + 3035 part
#predicted genes (unique)	17488
#predicted genes (>= 0 bp)	17814
#predicted genes (>= 300 bp)	5926
#predicted genes (>= 1500 bp)	168
#predicted genes (>= 3000 bp)	3
#mismatches	83
#indels	2337
Indels length	2412
#mismatches per 100 kbp	1.60
#indels per 100 kbp	45.01
GC (%)	50.82
Reference GC (%)	50.48
Average %IDY	99.547
Largest alignment	8971
NA50	894
NGA50	1231
NA75	246
NGA75	693
LA50	2238
LGA50	1418
LA75	6187
LGA75	2921
#Mis_misassemblies	8
#Mis_relocations	5
#Mis_translocations	0
#Mis_inversions	3
#Mis_misassembled contigs	8
Mis_Misassembled contigs length	6007
#Mis_local misassemblies	1
#Mis_short indels (<= 5 bp)	2337
#Mis_long indels (> 5 bp)	0
#Una_fully unaligned contigs	1
Una_Fully unaligned length	244
#Una_partially unaligned contigs	10
#Una_with misassembly	0
#Una_both parts are significant	0
Una_Partially unaligned length	439
GAGE_Contigs #	13634
GAGE_Min contig	200
GAGE_Max contig	8971
GAGE_N50	1235 COUNT: 1416
GAGE_Genome size	5594470
GAGE_Assembly size	7311196
GAGE_Chaff bases	0
GAGE_Missing reference bases	121945(2.18%)
GAGE_Missing assembly bases	936(0.01%)
GAGE_Missing assembly contigs	0(0.00%)
GAGE_Duplicated reference bases	1695872
GAGE_Compressed reference bases	267110
GAGE_Bad trim	936
GAGE_Avg idy	99.95
GAGE_SNPs	51
GAGE_Indels < 5bp	1684
GAGE_Indels >= 5	0
GAGE_Inversions	1
GAGE_Relocation	1
GAGE_Translocation	0
GAGE_Corrected contig #	6722
GAGE_Corrected assembly size	5614082
GAGE_Min correct contig	200
GAGE_Max correct contig	8973
GAGE_Corrected N50	1235 COUNT: 1416
