Assembly	ABYSS_PE_PGM_sakai_pgm_mu_200bp_IO_TS3.0Disabled_stringent.51coverage_102.final
#Mis_misassemblies	6
#Mis_relocations	4
#Mis_translocations	0
#Mis_inversions	2
#Mis_misassembled contigs	6
Mis_Misassembled contigs length	34580
#Mis_local misassemblies	2
#mismatches	70
#indels	1690
#Mis_short indels (<= 5 bp)	1689
#Mis_long indels (> 5 bp)	1
Indels length	1776
