All statistics are based on contigs of size >= 200 bp, unless otherwise noted (e.g., "# contigs (>= 0 bp)" and "Total length (>= 0 bp)" include all contigs).

Assembly                                   ABYSS_PE_MIS_PE_mrsa_mis-1_bi_2x250bp_default__mrsa_mis-2_bi_2x250bp_default.6coverage_32.final_broken  ABYSS_PE_MIS_PE_mrsa_mis-1_bi_2x250bp_default__mrsa_mis-2_bi_2x250bp_default.6coverage_32.final
#Contigs                                   2515                                                                                                    2513                                                                                           
#Contigs (>= 0 bp)                         4140                                                                                                    4138                                                                                           
#Contigs (>= 1000 bp)                      770                                                                                                     770                                                                                            
Largest contig                             25581                                                                                                   25581                                                                                          
Total length                               2332779                                                                                                 2332900                                                                                        
Total length (>= 0 bp)                     2464476                                                                                                 2464597                                                                                        
Total length (>= 1000 bp)                  1468635                                                                                                 1468635                                                                                        
Reference length                           2813862                                                                                                 2813862                                                                                        
N50                                        1313                                                                                                    1313                                                                                           
NG50                                       1061                                                                                                    1061                                                                                           
N75                                        757                                                                                                     757                                                                                            
NG75                                       406                                                                                                     406                                                                                            
L50                                        507                                                                                                     507                                                                                            
LG50                                       711                                                                                                     711                                                                                            
L75                                        1094                                                                                                    1094                                                                                           
LG75                                       1738                                                                                                    1737                                                                                           
#local misassemblies                       0                                                                                                       0                                                                                              
#misassemblies                             2                                                                                                       2                                                                                              
#misassembled contigs                      2                                                                                                       2                                                                                              
Misassembled contigs length                1106                                                                                                    1106                                                                                           
Misassemblies inter-contig overlap         50                                                                                                      50                                                                                             
#unaligned contigs                         22 + 5 part                                                                                             22 + 6 part                                                                                    
Unaligned contigs length                   10351                                                                                                   10959                                                                                          
#ambiguously mapped contigs                9                                                                                                       9                                                                                              
Extra bases in ambiguously mapped contigs  -8453                                                                                                   -8453                                                                                          
#N's                                       0                                                                                                       121                                                                                            
#N's per 100 kbp                           0.00                                                                                                    5.19                                                                                           
Genome fraction (%)                        82.089                                                                                                  82.071                                                                                         
Duplication ratio                          1.002                                                                                                   1.002                                                                                          
#genes                                     923 + 1580 part                                                                                         923 + 1580 part                                                                                
#predicted genes (unique)                  3872                                                                                                    3872                                                                                           
#predicted genes (>= 0 bp)                 3872                                                                                                    3872                                                                                           
#predicted genes (>= 300 bp)               2424                                                                                                    2425                                                                                           
#predicted genes (>= 1500 bp)              89                                                                                                      89                                                                                             
#predicted genes (>= 3000 bp)              7                                                                                                       7                                                                                              
#mismatches                                340                                                                                                     340                                                                                            
#indels                                    21                                                                                                      21                                                                                             
Indels length                              21                                                                                                      21                                                                                             
#mismatches per 100 kbp                    14.72                                                                                                   14.72                                                                                          
#indels per 100 kbp                        0.91                                                                                                    0.91                                                                                           
GC (%)                                     33.00                                                                                                   33.00                                                                                          
Reference GC (%)                           32.81                                                                                                   32.81                                                                                          
Average %IDY                               99.965                                                                                                  99.965                                                                                         
Largest alignment                          25581                                                                                                   25581                                                                                          
NA50                                       1308                                                                                                    1308                                                                                           
NGA50                                      1052                                                                                                    1052                                                                                           
NA75                                       745                                                                                                     745                                                                                            
NGA75                                      392                                                                                                     392                                                                                            
LA50                                       507                                                                                                     507                                                                                            
LGA50                                      713                                                                                                     713                                                                                            
LA75                                       1100                                                                                                    1100                                                                                           
LGA75                                      1762                                                                                                    1762                                                                                           
#Mis_misassemblies                         2                                                                                                       2                                                                                              
#Mis_relocations                           2                                                                                                       2                                                                                              
#Mis_translocations                        0                                                                                                       0                                                                                              
#Mis_inversions                            0                                                                                                       0                                                                                              
#Mis_misassembled contigs                  2                                                                                                       2                                                                                              
Mis_Misassembled contigs length            1106                                                                                                    1106                                                                                           
#Mis_local misassemblies                   0                                                                                                       0                                                                                              
#Mis_short indels (<= 5 bp)                21                                                                                                      21                                                                                             
#Mis_long indels (> 5 bp)                  0                                                                                                       0                                                                                              
#Una_fully unaligned contigs               22                                                                                                      22                                                                                             
Una_Fully unaligned length                 9834                                                                                                    9834                                                                                           
#Una_partially unaligned contigs           5                                                                                                       6                                                                                              
#Una_with misassembly                      0                                                                                                       0                                                                                              
#Una_both parts are significant            1                                                                                                       2                                                                                              
Una_Partially unaligned length             517                                                                                                     1125                                                                                           
GAGE_Contigs #                             2515                                                                                                    2513                                                                                           
GAGE_Min contig                            200                                                                                                     200                                                                                            
GAGE_Max contig                            25581                                                                                                   25581                                                                                          
GAGE_N50                                   1061 COUNT: 711                                                                                         1061 COUNT: 711                                                                                
GAGE_Genome size                           2813862                                                                                                 2813862                                                                                        
GAGE_Assembly size                         2332779                                                                                                 2332900                                                                                        
GAGE_Chaff bases                           0                                                                                                       0                                                                                              
GAGE_Missing reference bases               460689(16.37%)                                                                                          460689(16.37%)                                                                                 
GAGE_Missing assembly bases                8960(0.38%)                                                                                             9081(0.39%)                                                                                    
GAGE_Missing assembly contigs              21(0.83%)                                                                                               21(0.84%)                                                                                      
GAGE_Duplicated reference bases            0                                                                                                       0                                                                                              
GAGE_Compressed reference bases            34030                                                                                                   34030                                                                                          
GAGE_Bad trim                              304                                                                                                     304                                                                                            
GAGE_Avg idy                               99.98                                                                                                   99.98                                                                                          
GAGE_SNPs                                  318                                                                                                     318                                                                                            
GAGE_Indels < 5bp                          20                                                                                                      20                                                                                             
GAGE_Indels >= 5                           1                                                                                                       3                                                                                              
GAGE_Inversions                            2                                                                                                       2                                                                                              
GAGE_Relocation                            1                                                                                                       1                                                                                              
GAGE_Translocation                         0                                                                                                       0                                                                                              
GAGE_Corrected contig #                    2497                                                                                                    2497                                                                                           
GAGE_Corrected assembly size               2323958                                                                                                 2323958                                                                                        
GAGE_Min correct contig                    200                                                                                                     200                                                                                            
GAGE_Max correct contig                    25581                                                                                                   25581                                                                                          
GAGE_Corrected N50                         1055 COUNT: 712                                                                                         1055 COUNT: 712                                                                                
