1: PREPARING DATA
2,3: RUNNING mummer AND CREATING CLUSTERS
# reading input file "/vol/codine-tmp/juene/tmp.wzhFEJlSlA/quast/contigs_reports/nucmer_output/ABYSS_PE_PGM_sakai_pgm_mu_200bp_IO_TS3.0Disabled_stringent.0.025percent_190.final.ntref" of length 5594473
# construct suffix tree for sequence of length 5594473
# (maximum reference length is 536870908)
# (maximum query length is 4294967295)
# process 55944 characters per dot
#....................................................................................................
# CONSTRUCTIONTIME /vol/ngscomparison/software/analysis/quast-2.1/libs/MUMmer3.23-linux/mummer /vol/codine-tmp/juene/tmp.wzhFEJlSlA/quast/contigs_reports/nucmer_output/ABYSS_PE_PGM_sakai_pgm_mu_200bp_IO_TS3.0Disabled_stringent.0.025percent_190.final.ntref 3.44
# reading input file "/vol/codine-tmp/juene/tmp.wzhFEJlSlA/quast/corrected_input/ABYSS_PE_PGM_sakai_pgm_mu_200bp_IO_TS3.0Disabled_stringent.0.025percent_190.final" of length 1917
# matching query-file "/vol/codine-tmp/juene/tmp.wzhFEJlSlA/quast/corrected_input/ABYSS_PE_PGM_sakai_pgm_mu_200bp_IO_TS3.0Disabled_stringent.0.025percent_190.final"
# against subject-file "/vol/codine-tmp/juene/tmp.wzhFEJlSlA/quast/contigs_reports/nucmer_output/ABYSS_PE_PGM_sakai_pgm_mu_200bp_IO_TS3.0Disabled_stringent.0.025percent_190.final.ntref"
# COMPLETETIME /vol/ngscomparison/software/analysis/quast-2.1/libs/MUMmer3.23-linux/mummer /vol/codine-tmp/juene/tmp.wzhFEJlSlA/quast/contigs_reports/nucmer_output/ABYSS_PE_PGM_sakai_pgm_mu_200bp_IO_TS3.0Disabled_stringent.0.025percent_190.final.ntref 3.45
# SPACE /vol/ngscomparison/software/analysis/quast-2.1/libs/MUMmer3.23-linux/mummer /vol/codine-tmp/juene/tmp.wzhFEJlSlA/quast/contigs_reports/nucmer_output/ABYSS_PE_PGM_sakai_pgm_mu_200bp_IO_TS3.0Disabled_stringent.0.025percent_190.final.ntref 5.43
4: FINISHING DATA
