Assembly	#Contigs (>= 0 bp)	#Contigs (>= 1000 bp)	Total length (>= 0 bp)	Total length (>= 1000 bp)	#Contigs	Largest contig	Total length	Reference length	GC (%)	Reference GC (%)	N50	NG50	N75	NG75	#misassemblies	#local misassemblies	#unaligned contigs	Unaligned contigs length	Genome fraction (%)	Duplication ratio	#N's per 100 kbp	#mismatches per 100 kbp	#indels per 100 kbp	#genes	#predicted genes (unique)	#predicted genes (>= 0 bp)	#predicted genes (>= 300 bp)	#predicted genes (>= 1500 bp)	#predicted genes (>= 3000 bp)	Largest alignment	NA50	NGA50	NA75	NGA75
ABYSS_PE_MIS_PE_mtbh37-1_mis_2x250bp_nextera_default__mtbh37-2_mis_2x250bp_nextera_default_98-scaffolds_broken	252	179	4428824	4410593	202	148590	4421329	4411532	65.54	65.61	53500	53500	27199	27199	7	19	0 + 1 part	18	99.207	1.017	2.10	8.75	2.10	3967 + 142 part	4093	4175	3659	577	75	148590	51172	51172	27199	27199
ABYSS_PE_MIS_PE_mtbh37-1_mis_2x250bp_nextera_default__mtbh37-2_mis_2x250bp_nextera_default_98-scaffolds	200	129	4431233	4414027	150	207878	4423738	4411532	65.54	65.61	76130	76130	43545	43545	10	27	0 + 0 part	0	99.238	1.020	56.56	8.79	8.27	4007 + 102 part	4085	4167	3656	579	75	207504	75462	76130	40357	40357
