calling: java -cp /vol/ngscomparison/software/analysis/quast-2.1/libs/gage:. SizeFasta /vol/codine-tmp/juene/tmp.9GxOtNX0pR/quast/corrected_input/MRSA_COL_Plasmid.fasta |awk '{SUM+=; print SUM}'|tail -n 1
Contig Stats
Total units: 210
Reference: 2813862
BasesInFasta: 2825693
Min: 200
Max: 297853
N10: 297853 COUNT: 1
N25: 238924 COUNT: 3
N50: 149897 COUNT: 7
N75: 86911 COUNT: 13
E-size:159371.5

Genome Size: 2813862
Assembly Size: 2825693
Chaff bases: 0
Missing Reference Bases: 5626(0.20%)
Missing Assembly Bases: 48650(1.72%)
Missing Assembly Contigs: 160(76.19%)
Duplicated Reference Bases: 690
Compressed Reference Bases: 32713
Bad Trim: 98
Avg Idy: 99.99
SNPs: 53
Indels < 5bp: 9
Indels >= 5: 8
Inversions: 0
Relocation: 3
Translocation: 0

Corrected Contig Stats
calling: java -cp /vol/ngscomparison/software/analysis/quast-2.1/libs/gage:.:. GetFastaStats -o -min 199 -genomeSize 2813862 /vol/codine-tmp/juene/tmp.9GxOtNX0pR/quast/gage/tmp/CLC_MIS_PE_mrsa_mis-1_bi_2x250bp_default__mrsa_mis-2_bi_2x250bp_default.56coverage.result.matches.lens 2> /dev/null
Total units: 58
Reference: 2813862
BasesInFasta: 2778089
Min: 204
Max: 297853
N10: 297853 COUNT: 1
N25: 192158 COUNT: 3
N50: 112281 COUNT: 8
N75: 56504 COUNT: 16
E-size:137088.35

Done
