All statistics are based on contigs of size >= 200 bp, unless otherwise noted (e.g., "# contigs (>= 0 bp)" and "Total length (>= 0 bp)" include all contigs).

Assembly                         ABYSS_PE_MIS_PE_mrsa_mis-1_bi_2x150bp_default__mrsa_mis-2_bi_2x150bp_default.0.550percent_82.final_broken  ABYSS_PE_MIS_PE_mrsa_mis-1_bi_2x150bp_default__mrsa_mis-2_bi_2x150bp_default.0.550percent_82.final
GAGE_Contigs #                   55                                                                                                         41                                                                                                
GAGE_Min contig                  202                                                                                                        202                                                                                               
GAGE_Max contig                  299133                                                                                                     530204                                                                                            
GAGE_N50                         147372 COUNT: 8                                                                                            155206 COUNT: 6                                                                                   
GAGE_Genome size                 2813862                                                                                                    2813862                                                                                           
GAGE_Assembly size               2790867                                                                                                    2791535                                                                                           
GAGE_Chaff bases                 0                                                                                                          0                                                                                                 
GAGE_Missing reference bases     1763(0.06%)                                                                                                1654(0.06%)                                                                                       
GAGE_Missing assembly bases      2(0.00%)                                                                                                   620(0.02%)                                                                                        
GAGE_Missing assembly contigs    0(0.00%)                                                                                                   0(0.00%)                                                                                          
GAGE_Duplicated reference bases  255                                                                                                        255                                                                                               
GAGE_Compressed reference bases  31826                                                                                                      28727                                                                                             
GAGE_Bad trim                    0                                                                                                          0                                                                                                 
GAGE_Avg idy                     99.99                                                                                                      99.99                                                                                             
GAGE_SNPs                        48                                                                                                         48                                                                                                
GAGE_Indels < 5bp                11                                                                                                         11                                                                                                
GAGE_Indels >= 5                 7                                                                                                          15                                                                                                
GAGE_Inversions                  0                                                                                                          2                                                                                                 
GAGE_Relocation                  2                                                                                                          4                                                                                                 
GAGE_Translocation               0                                                                                                          0                                                                                                 
GAGE_Corrected contig #          63                                                                                                         63                                                                                                
GAGE_Corrected assembly size     2791877                                                                                                    2795051                                                                                           
GAGE_Min correct contig          202                                                                                                        202                                                                                               
GAGE_Max correct contig          299132                                                                                                     299132                                                                                            
GAGE_Corrected N50               112513 COUNT: 9                                                                                            112513 COUNT: 9                                                                                   
