Assembly	GAGE_Contigs #	GAGE_Min contig	GAGE_Max contig	GAGE_N50	GAGE_Genome size	GAGE_Assembly size	GAGE_Chaff bases	GAGE_Missing reference bases	GAGE_Missing assembly bases	GAGE_Missing assembly contigs	GAGE_Duplicated reference bases	GAGE_Compressed reference bases	GAGE_Bad trim	GAGE_Avg idy	GAGE_SNPs	GAGE_Indels < 5bp	GAGE_Indels >= 5	GAGE_Inversions	GAGE_Relocation	GAGE_Translocation	GAGE_Corrected contig #	GAGE_Corrected assembly size	GAGE_Min correct contig	GAGE_Max correct contig	GAGE_Corrected N50
CLC_MIS_PE_sakai_mis-1_bi_2x250bp_SI_default__sakai_mis-2_bi_2x250bp_SI_default.0.95percent.result_broken	654	200	374739	143100 COUNT: 12	5594470	5499239	0	10884(0.19%)	106836(1.94%)	366(55.96%)	15988	238156	690	99.99	75	12	8	1	3	0	250	5377316	203	313896	124191 COUNT: 14
CLC_MIS_PE_sakai_mis-1_bi_2x250bp_SI_default__sakai_mis-2_bi_2x250bp_SI_default.0.95percent.result	645	200	374739	144812 COUNT: 11	5594470	5501909	0	10589(0.19%)	109060(1.98%)	369(57.21%)	15490	237492	968	99.99	75	12	15	1	5	0	251	5377873	203	313896	124191 COUNT: 14
