All statistics are based on contigs of size >= 200 bp, unless otherwise noted (e.g., "# contigs (>= 0 bp)" and "Total length (>= 0 bp)" include all contigs).

Assembly                       CLC_MIS_PE_sakai_mis-1_bi_2x250bp_SI_default__sakai_mis-2_bi_2x250bp_SI_default.0.95percent.result_broken  CLC_MIS_PE_sakai_mis-1_bi_2x250bp_SI_default__sakai_mis-2_bi_2x250bp_SI_default.0.95percent.result
#Contigs (>= 0 bp)             665                                                                                                        645                                                                                               
#Contigs (>= 1000 bp)          142                                                                                                        137                                                                                               
Total length (>= 0 bp)         5500353                                                                                                    5501909                                                                                           
Total length (>= 1000 bp)      5338937                                                                                                    5343910                                                                                           
#Contigs                       654                                                                                                        645                                                                                               
Largest contig                 374739                                                                                                     374739                                                                                            
Total length                   5499239                                                                                                    5501909                                                                                           
Reference length               5594470                                                                                                    5594470                                                                                           
GC (%)                         50.20                                                                                                      50.20                                                                                             
Reference GC (%)               50.48                                                                                                      50.48                                                                                             
N50                            144812                                                                                                     144812                                                                                            
NG50                           143100                                                                                                     144812                                                                                            
N75                            55249                                                                                                      73994                                                                                             
NG75                           53450                                                                                                      64136                                                                                             
#misassemblies                 5                                                                                                          5                                                                                                 
#local misassemblies           4                                                                                                          16                                                                                                
#unaligned contigs             367 + 6 part                                                                                               370 + 8 part                                                                                      
Unaligned contigs length       107053                                                                                                     108120                                                                                            
Genome fraction (%)            94.997                                                                                                     95.082                                                                                            
Duplication ratio              1.005                                                                                                      1.006                                                                                             
#N's per 100 kbp               0.78                                                                                                       29.06                                                                                             
#mismatches per 100 kbp        3.78                                                                                                       3.84                                                                                              
#indels per 100 kbp            0.47                                                                                                       0.51                                                                                              
#genes                         5052 + 131 part                                                                                            5056 + 133 part                                                                                   
#predicted genes (unique)      5660                                                                                                       5660                                                                                              
#predicted genes (>= 0 bp)     5663                                                                                                       5663                                                                                              
#predicted genes (>= 300 bp)   4506                                                                                                       4506                                                                                              
#predicted genes (>= 1500 bp)  671                                                                                                        671                                                                                               
#predicted genes (>= 3000 bp)  67                                                                                                         67                                                                                                
Largest alignment              356098                                                                                                     361961                                                                                            
NA50                           144812                                                                                                     144812                                                                                            
NGA50                          143100                                                                                                     144812                                                                                            
NA75                           55249                                                                                                      73994                                                                                             
NGA75                          53450                                                                                                      64131                                                                                             
