1: PREPARING DATA
2,3: RUNNING mummer AND CREATING CLUSTERS
# reading input file "/vol/codine-tmp/juene/tmp.lDgL7qGybv/quast/contigs_reports/nucmer_output/SOAP2_PGM_sakai_pgm_mu_200bp_IO_TS3.0Disabled_stringent.0.34percent_63.final.contig.ntref" of length 5594473
# construct suffix tree for sequence of length 5594473
# (maximum reference length is 536870908)
# (maximum query length is 4294967295)
# process 55944 characters per dot
#....................................................................................................
# CONSTRUCTIONTIME /vol/ngscomparison/software/analysis/quast-2.1/libs/MUMmer3.23-linux/mummer /vol/codine-tmp/juene/tmp.lDgL7qGybv/quast/contigs_reports/nucmer_output/SOAP2_PGM_sakai_pgm_mu_200bp_IO_TS3.0Disabled_stringent.0.34percent_63.final.contig.ntref 2.95
# reading input file "/vol/codine-tmp/juene/tmp.lDgL7qGybv/quast/corrected_input/SOAP2_PGM_sakai_pgm_mu_200bp_IO_TS3.0Disabled_stringent.0.34percent_63.final.contig" of length 3977439
# matching query-file "/vol/codine-tmp/juene/tmp.lDgL7qGybv/quast/corrected_input/SOAP2_PGM_sakai_pgm_mu_200bp_IO_TS3.0Disabled_stringent.0.34percent_63.final.contig"
# against subject-file "/vol/codine-tmp/juene/tmp.lDgL7qGybv/quast/contigs_reports/nucmer_output/SOAP2_PGM_sakai_pgm_mu_200bp_IO_TS3.0Disabled_stringent.0.34percent_63.final.contig.ntref"
# COMPLETETIME /vol/ngscomparison/software/analysis/quast-2.1/libs/MUMmer3.23-linux/mummer /vol/codine-tmp/juene/tmp.lDgL7qGybv/quast/contigs_reports/nucmer_output/SOAP2_PGM_sakai_pgm_mu_200bp_IO_TS3.0Disabled_stringent.0.34percent_63.final.contig.ntref 6.29
# SPACE /vol/ngscomparison/software/analysis/quast-2.1/libs/MUMmer3.23-linux/mummer /vol/codine-tmp/juene/tmp.lDgL7qGybv/quast/contigs_reports/nucmer_output/SOAP2_PGM_sakai_pgm_mu_200bp_IO_TS3.0Disabled_stringent.0.34percent_63.final.contig.ntref 9.65
4: FINISHING DATA
