calling: java -cp /vol/ngscomparison/software/analysis/quast-2.1/libs/gage:. SizeFasta /vol/codine-tmp/juene/tmp.lXg7e5b191/quast/corrected_input/MRSA_COL_Plasmid.fasta |awk '{SUM+=; print SUM}'|tail -n 1
Contig Stats
Total units: 77
Reference: 2813862
BasesInFasta: 17725
Min: 200
Max: 355
N10: 0 COUNT: 0
N25: 0 COUNT: 0
N50: 0 COUNT: 0
N75: 0 COUNT: 0
E-size:1.47

Genome Size: 2813862
Assembly Size: 17725
Chaff bases: 0
Missing Reference Bases: 2797403(99.42%)
Missing Assembly Bases: 1267(7.15%)
Missing Assembly Contigs: 6(7.79%)
Duplicated Reference Bases: 0
Compressed Reference Bases: 0
Bad Trim: 0
Avg Idy: 99.99
SNPs: 0
Indels < 5bp: 1
Indels >= 5: 0
Inversions: 0
Relocation: 0
Translocation: 0

Corrected Contig Stats
calling: java -cp /vol/ngscomparison/software/analysis/quast-2.1/libs/gage:.:. GetFastaStats -o -min 199 -genomeSize 2813862 /vol/codine-tmp/juene/tmp.lXg7e5b191/quast/gage/tmp/VELVET_PGM_mrsa_pgm_200bp_es_316_IonOnev2_ts3.0_morestringent.0.230percent_33.final.contigs.matches.lens 2> /dev/null
Total units: 71
Reference: 2813862
BasesInFasta: 16459
Min: 200
Max: 355
N10: 0 COUNT: 0
N25: 0 COUNT: 0
N50: 0 COUNT: 0
N75: 0 COUNT: 0
E-size:1.38

Done
