All statistics are based on contigs of size >= 200 bp, unless otherwise noted (e.g., "# contigs (>= 0 bp)" and "Total length (>= 0 bp)" include all contigs).

Assembly                                                                        GAGE_Contigs #  GAGE_Min contig  GAGE_Max contig  GAGE_N50         GAGE_Genome size  GAGE_Assembly size  GAGE_Chaff bases  GAGE_Missing reference bases  GAGE_Missing assembly bases  GAGE_Missing assembly contigs  GAGE_Duplicated reference bases  GAGE_Compressed reference bases  GAGE_Bad trim  GAGE_Avg idy  GAGE_SNPs  GAGE_Indels < 5bp  GAGE_Indels >= 5  GAGE_Inversions  GAGE_Relocation  GAGE_Translocation  GAGE_Corrected contig #  GAGE_Corrected assembly size  GAGE_Min correct contig  GAGE_Max correct contig  GAGE_Corrected N50
CLC_PGM_mtbh37_pgm_400bp_es_318v2_OT2_tsv3.6_morestringent.0.150percent.result  1765            200              30393            6377 COUNT: 201  4411532           4179300             0                 292230(6.62%)                 5925(0.14%)                  1(0.06%)                       44703                            52248                            3499           99.89         451        2998               6                 35               19               0                   1683                     4133352                       200                      27663                    5858 COUNT: 219   
