Assembly	ABYSS_PE_MIS_PE_sakai_mis-1_bi_2x250bp_SI_default__sakai_mis-2_bi_2x250bp_SI_default.0.65percent_70.final_broken	ABYSS_PE_MIS_PE_sakai_mis-1_bi_2x250bp_SI_default__sakai_mis-2_bi_2x250bp_SI_default.0.65percent_70.final
GAGE_Contigs #	576	576
GAGE_Min contig	200	200
GAGE_Max contig	217405	217405
GAGE_N50	72539 COUNT: 23	72539 COUNT: 23
GAGE_Genome size	5594470	5594470
GAGE_Assembly size	5329235	5329235
GAGE_Chaff bases	0	0
GAGE_Missing reference bases	56569(1.01%)	56569(1.01%)
GAGE_Missing assembly bases	0(0.00%)	0(0.00%)
GAGE_Missing assembly contigs	0(0.00%)	0(0.00%)
GAGE_Duplicated reference bases	1888	1888
GAGE_Compressed reference bases	259599	259599
GAGE_Bad trim	0	0
GAGE_Avg idy	99.99	99.99
GAGE_SNPs	179	179
GAGE_Indels < 5bp	15	15
GAGE_Indels >= 5	1	1
GAGE_Inversions	0	0
GAGE_Relocation	2	2
GAGE_Translocation	0	0
GAGE_Corrected contig #	571	571
GAGE_Corrected assembly size	5327349	5327349
GAGE_Min correct contig	200	200
GAGE_Max correct contig	217405	217405
GAGE_Corrected N50	72540 COUNT: 23	72540 COUNT: 23
