Assembly	GAGE_Contigs #	GAGE_Min contig	GAGE_Max contig	GAGE_N50	GAGE_Genome size	GAGE_Assembly size	GAGE_Chaff bases	GAGE_Missing reference bases	GAGE_Missing assembly bases	GAGE_Missing assembly contigs	GAGE_Duplicated reference bases	GAGE_Compressed reference bases	GAGE_Bad trim	GAGE_Avg idy	GAGE_SNPs	GAGE_Indels < 5bp	GAGE_Indels >= 5	GAGE_Inversions	GAGE_Relocation	GAGE_Translocation	GAGE_Corrected contig #	GAGE_Corrected assembly size	GAGE_Min correct contig	GAGE_Max correct contig	GAGE_Corrected N50
SOAP2_MIS_PE_sakai_mis-1_bi_2x250bp_SI_default.0.64percent_73.final.scaf_broken	73624	200	5377	682 COUNT: 2515	5594470	21116631	0	101044(1.81%)	11970701(56.69%)	46984(63.82%)	3192975	297728	399682	99.69	8959	74	1	0	3	0	11471	5875016	200	5377	682 COUNT: 2516
SOAP2_MIS_PE_sakai_mis-1_bi_2x250bp_SI_default.0.64percent_73.final.scaf	73622	200	5377	684 COUNT: 2514	5594470	21121670	0	100524(1.80%)	11972565(56.68%)	46983(63.82%)	3194846	297605	400760	99.69	8945	74	9	0	3	0	11470	5874832	200	5377	682 COUNT: 2516
