Assembly	SOAP2_MIS_PE_sakai_mis-1_bi_2x250bp_SI_default.0.64percent_31.final.scaf_broken	SOAP2_MIS_PE_sakai_mis-1_bi_2x250bp_SI_default.0.64percent_31.final.scaf
#Contigs (>= 0 bp)	128821	128820
#Contigs (>= 1000 bp)	34	34
Total length (>= 0 bp)	20849105	20849216
Total length (>= 1000 bp)	40948	40948
#Contigs	27907	27908
Largest contig	1594	1594
Total length	7139084	7139396
Reference length	5594470	5594470
GC (%)	53.16	53.16
Reference GC (%)	50.48	50.48
N50	244	244
NG50	250	250
N75	220	220
NG75	236	236
#misassemblies	1	1
#local misassemblies	0	0
#unaligned contigs	21153 + 2 part	21154 + 2 part
Unaligned contigs length	4884397	4884709
Genome fraction (%)	39.916	39.916
Duplication ratio	1.009	1.009
#N's per 100 kbp	0.00	1.55
#mismatches per 100 kbp	6.18	6.18
#indels per 100 kbp	0.27	0.27
#genes	186 + 3675 part	186 + 3675 part
#predicted genes (unique)	23100	23080
#predicted genes (>= 0 bp)	23101	23081
#predicted genes (>= 300 bp)	2068	2068
#predicted genes (>= 1500 bp)	0	0
#predicted genes (>= 3000 bp)	0	0
Largest alignment	1594	1594
NA50	None	None
NGA50	None	None
NA75	None	None
NGA75	None	None
