Assembly	GAGE_Contigs #	GAGE_Min contig	GAGE_Max contig	GAGE_N50	GAGE_Genome size	GAGE_Assembly size	GAGE_Chaff bases	GAGE_Missing reference bases	GAGE_Missing assembly bases	GAGE_Missing assembly contigs	GAGE_Duplicated reference bases	GAGE_Compressed reference bases	GAGE_Bad trim	GAGE_Avg idy	GAGE_SNPs	GAGE_Indels < 5bp	GAGE_Indels >= 5	GAGE_Inversions	GAGE_Relocation	GAGE_Translocation	GAGE_Corrected contig #	GAGE_Corrected assembly size	GAGE_Min correct contig	GAGE_Max correct contig	GAGE_Corrected N50
CLC_MIS_PE_sakai_mis-2_bi_2x150bp_default__sakai_mis-1_bi_2x150bp_default.0.300percent.result_broken	300	200	374674	145330 COUNT: 13	5594470	5352462	0	28819(0.52%)	5422(0.10%)	1(0.33%)	8080	251099	6	99.99	162	22	13	0	7	0	300	5342997	201	238224	141494 COUNT: 16
CLC_MIS_PE_sakai_mis-2_bi_2x150bp_default__sakai_mis-1_bi_2x150bp_default.0.300percent.result	285	201	374674	148245 COUNT: 12	5594470	5356125	0	26708(0.48%)	7852(0.15%)	1(0.35%)	8544	253332	681	99.99	162	22	19	2	10	0	299	5342712	201	238224	141494 COUNT: 16
