Assembly	#Contigs (>= 0 bp)	#Contigs (>= 1000 bp)	Total length (>= 0 bp)	Total length (>= 1000 bp)	#Contigs	Largest contig	Total length	Reference length	GC (%)	Reference GC (%)	N50	NG50	N75	NG75	#misassemblies	#local misassemblies	#unaligned contigs	Unaligned contigs length	Genome fraction (%)	Duplication ratio	#N's per 100 kbp	#mismatches per 100 kbp	#indels per 100 kbp	#genes	#predicted genes (unique)	#predicted genes (>= 0 bp)	#predicted genes (>= 300 bp)	#predicted genes (>= 1500 bp)	#predicted genes (>= 3000 bp)	Largest alignment	NA50	NGA50	NA75	NGA75
NEWBLER_MIS_PE_mtbh37-1_mis_2x250bp_nextera_default__mtbh37-2_mis_2x250bp_nextera_default.0.250percent.contigs_broken	218	203	4281210	4269182	218	122995	4281210	4411532	65.49	65.61	32368	31921	23002	21252	0	11	0 + 0 part	0	96.922	1.005	0.00	3.39	2.64	3851 + 166 part	4062	4063	3564	562	70	122991	32368	31921	23002	21252
NEWBLER_MIS_PE_mtbh37-1_mis_2x250bp_nextera_default__mtbh37-2_mis_2x250bp_nextera_default.0.250percent.contigs	94	94	4348903	4348903	94	210850	4348903	4411532	65.49	65.61	75968	75968	50983	49231	3	132	0 + 0 part	0	97.031	1.021	1556.55	3.39	2.64	3855 + 166 part	4043	4043	3562	561	70	207960	73671	70834	42514	37611
