calling: java -cp /vol/ngscomparison/software/analysis/quast-2.1/libs/gage:. SizeFasta /vol/codine-tmp/juene/tmp.tTj3j7EE4P/quast/corrected_input/Mycobacterium_tuberculosis_H37Rv.fasta |awk '{SUM+=; print SUM}'|tail -n 1
Contig Stats
Total units: 615
Reference: 4411532
BasesInFasta: 4219079
Min: 209
Max: 48774
N10: 27173 COUNT: 13
N25: 19704 COUNT: 43
N50: 11853 COUNT: 114
N75: 6376 COUNT: 240
E-size:14028.81

Genome Size: 4411532
Assembly Size: 4219079
Chaff bases: 0
Missing Reference Bases: 156274(3.54%)
Missing Assembly Bases: 1038(0.02%)
Missing Assembly Contigs: 0(0.00%)
Duplicated Reference Bases: 2654
Compressed Reference Bases: 58967
Bad Trim: 1038
Avg Idy: 99.99
SNPs: 184
Indels < 5bp: 28
Indels >= 5: 17
Inversions: 0
Relocation: 3
Translocation: 0

Corrected Contig Stats
calling: java -cp /vol/ngscomparison/software/analysis/quast-2.1/libs/gage:.:. GetFastaStats -o -min 199 -genomeSize 4411532 /vol/codine-tmp/juene/tmp.tTj3j7EE4P/quast/gage/tmp/VELVET_MIS_PE_mtbh37-1_mis_2x250bp_nextera_default__mtbh37-2_mis_2x250bp_nextera_default_105.final.contigs_broken.matches.lens 2> /dev/null
Total units: 630
Reference: 4411532
BasesInFasta: 4218960
Min: 209
Max: 46359
N10: 26712 COUNT: 14
N25: 19385 COUNT: 45
N50: 11541 COUNT: 118
N75: 6278 COUNT: 248
E-size:13395.94

Done
