calling: java -cp /vol/ngscomparison/software/analysis/quast-2.1/libs/gage:. SizeFasta /vol/codine-tmp/juene/tmp.XDKoFtXMlv/quast/corrected_input/Ecoli_Sakai_editedNew_plasmids.fasta |awk '{SUM+=; print SUM}'|tail -n 1
Contig Stats
Total units: 1327
Reference: 5594470
BasesInFasta: 5445186
Min: 200
Max: 73985
N10: 36768 COUNT: 12
N25: 25366 COUNT: 40
N50: 13731 COUNT: 118
N75: 6365 COUNT: 267
E-size:17554.7

Genome Size: 5594470
Assembly Size: 5445186
Chaff bases: 0
Missing Reference Bases: 20410(0.36%)
Missing Assembly Bases: 6179(0.11%)
Missing Assembly Contigs: 4(0.30%)
Duplicated Reference Bases: 17377
Compressed Reference Bases: 270987
Bad Trim: 47
Avg Idy: 99.99
SNPs: 80
Indels < 5bp: 84
Indels >= 5: 43
Inversions: 2
Relocation: 3
Translocation: 0

Corrected Contig Stats
calling: java -cp /vol/ngscomparison/software/analysis/quast-2.1/libs/gage:.:. GetFastaStats -o -min 199 -genomeSize 5594470 /vol/codine-tmp/juene/tmp.XDKoFtXMlv/quast/gage/tmp/SOAP2_MIS_PE_sakai_mis-1_bi_2x150bp_default.0.826percent_117.final.scaf_broken.matches.lens 2> /dev/null
Total units: 1306
Reference: 5594470
BasesInFasta: 5420658
Min: 200
Max: 73985
N10: 34998 COUNT: 12
N25: 24148 COUNT: 42
N50: 12315 COUNT: 127
N75: 5917 COUNT: 290
E-size:16357.17

Done
