calling: java -cp /vol/ngscomparison/software/analysis/quast-2.1/libs/gage:. SizeFasta /vol/codine-tmp/juene/tmp.xE6qMw1Qt7/quast/corrected_input/Ecoli_Sakai_editedNew_plasmids.fasta |awk '{SUM+=; print SUM}'|tail -n 1
Contig Stats
Total units: 864
Reference: 5594470
BasesInFasta: 5390388
Min: 200
Max: 156131
N10: 66894 COUNT: 6
N25: 44482 COUNT: 22
N50: 25819 COUNT: 64
N75: 12660 COUNT: 140
E-size:33255.87

Genome Size: 5594470
Assembly Size: 5390388
Chaff bases: 0
Missing Reference Bases: 50400(0.90%)
Missing Assembly Bases: 1186(0.02%)
Missing Assembly Contigs: 1(0.12%)
Duplicated Reference Bases: 53898
Compressed Reference Bases: 238526
Bad Trim: 976
Avg Idy: 99.97
SNPs: 93
Indels < 5bp: 1288
Indels >= 5: 3
Inversions: 1
Relocation: 4
Translocation: 0

Corrected Contig Stats
calling: java -cp /vol/ngscomparison/software/analysis/quast-2.1/libs/gage:.:. GetFastaStats -o -min 199 -genomeSize 5594470 /vol/codine-tmp/juene/tmp.xE6qMw1Qt7/quast/gage/tmp/CLC_PGM_sakai_pgm_mu_200bp_IO_TS3.0Disabled_stringent.71coverage.result.matches.lens 2> /dev/null
Total units: 663
Reference: 5594470
BasesInFasta: 5338080
Min: 200
Max: 156163
N10: 66903 COUNT: 6
N25: 43490 COUNT: 22
N50: 25660 COUNT: 64
N75: 12120 COUNT: 143
E-size:32877.87

Done
