Assembly	SOAP2_MIS_PE_sakai_mis-1_bi_2x150bp_default.0.826percent_123.final.scaf_broken	SOAP2_MIS_PE_sakai_mis-1_bi_2x150bp_default.0.826percent_123.final.scaf
#Contigs	2202	735
#Contigs (>= 0 bp)	2604	1101
#Contigs (>= 1000 bp)	1207	275
Largest contig	24225	193067
Total length	5406675	5467180
Total length (>= 0 bp)	5468778	5523423
Total length (>= 1000 bp)	4964555	5314760
Reference length	5594470	5594470
N50	4996	40117
NG50	4790	39204
N75	2652	21180
NG75	2440	20769
L50	321	38
LG50	340	39
L75	689	83
LG75	744	88
#local misassemblies	6	186
#misassemblies	4	22
#misassembled contigs	4	18
Misassembled contigs length	17871	172474
Misassemblies inter-contig overlap	9	164
#unaligned contigs	5 + 0 part	14 + 13 part
Unaligned contigs length	6950	30823
#ambiguously mapped contigs	402	367
Extra bases in ambiguously mapped contigs	-146290	-126196
#N's	632	55277
#N's per 100 kbp	11.69	1011.07
Genome fraction (%)	93.727	93.941
Duplication ratio	1.002	1.010
#genes	3875 + 1309 part	4744 + 418 part
#predicted genes (unique)	6680	6148
#predicted genes (>= 0 bp)	6706	6173
#predicted genes (>= 300 bp)	4905	4792
#predicted genes (>= 1500 bp)	515	564
#predicted genes (>= 3000 bp)	41	46
#mismatches	123	197
#indels	164	12251
Indels length	1485	28999
#mismatches per 100 kbp	2.35	3.75
#indels per 100 kbp	3.13	233.11
GC (%)	50.40	50.40
Reference GC (%)	50.48	50.48
Average %IDY	99.236	98.952
Largest alignment	24225	192661
NA50	4969	40117
NGA50	4780	39204
NA75	2619	21124
NGA75	2379	20769
LA50	322	38
LGA50	341	39
LA75	694	84
LGA75	750	88
#Mis_misassemblies	4	22
#Mis_relocations	4	22
#Mis_translocations	0	0
#Mis_inversions	0	0
#Mis_misassembled contigs	4	18
Mis_Misassembled contigs length	17871	172474
#Mis_local misassemblies	6	186
#Mis_short indels (<= 5 bp)	86	11515
#Mis_long indels (> 5 bp)	78	736
#Una_fully unaligned contigs	5	14
Una_Fully unaligned length	6950	16079
#Una_partially unaligned contigs	0	13
#Una_with misassembly	0	0
#Una_both parts are significant	0	11
Una_Partially unaligned length	0	14744
GAGE_Contigs #	2202	735
GAGE_Min contig	200	200
GAGE_Max contig	24225	193067
GAGE_N50	4790 COUNT: 340	39204 COUNT: 39
GAGE_Genome size	5594470	5594470
GAGE_Assembly size	5406675	5467180
GAGE_Chaff bases	0	0
GAGE_Missing reference bases	64141(1.15%)	61106(1.09%)
GAGE_Missing assembly bases	6398(0.12%)	62282(1.14%)
GAGE_Missing assembly contigs	4(0.18%)	5(0.68%)
GAGE_Duplicated reference bases	23656	23470
GAGE_Compressed reference bases	267602	265026
GAGE_Bad trim	85	4429
GAGE_Avg idy	99.99	99.92
GAGE_SNPs	119	122
GAGE_Indels < 5bp	169	598
GAGE_Indels >= 5	82	1295
GAGE_Inversions	1	3
GAGE_Relocation	3	12
GAGE_Translocation	0	0
GAGE_Corrected contig #	2203	2045
GAGE_Corrected assembly size	5375972	5376893
GAGE_Min correct contig	200	200
GAGE_Max correct contig	24233	24233
GAGE_Corrected N50	4508 COUNT: 360	5087 COUNT: 323
