All statistics are based on contigs of size >= 200 bp, unless otherwise noted (e.g., "# contigs (>= 0 bp)" and "Total length (>= 0 bp)" include all contigs).

Assembly                                                                 #Contigs  #Contigs (>= 0 bp)  #Contigs (>= 1000 bp)  Largest contig  Total length  Total length (>= 0 bp)  Total length (>= 1000 bp)  Reference length  N50    NG50   N75    NG75   L50  LG50  L75  LG75  #local misassemblies  #misassemblies  #misassembled contigs  Misassembled contigs length  Misassemblies inter-contig overlap  #unaligned contigs  Unaligned contigs length  #ambiguously mapped contigs  Extra bases in ambiguously mapped contigs  #N's   #N's per 100 kbp  Genome fraction (%)  Duplication ratio  #genes           #predicted genes (unique)  #predicted genes (>= 0 bp)  #predicted genes (>= 300 bp)  #predicted genes (>= 1500 bp)  #predicted genes (>= 3000 bp)  #mismatches  #indels  Indels length  #mismatches per 100 kbp  #indels per 100 kbp  GC (%)  Reference GC (%)  Average %IDY  Largest alignment  NA50   NGA50  NA75   NGA75  LA50  LGA50  LA75  LGA75  #Mis_misassemblies  #Mis_relocations  #Mis_translocations  #Mis_inversions  #Mis_misassembled contigs  Mis_Misassembled contigs length  #Mis_local misassemblies  #Mis_short indels (<= 5 bp)  #Mis_long indels (> 5 bp)  #Una_fully unaligned contigs  Una_Fully unaligned length  #Una_partially unaligned contigs  #Una_with misassembly  #Una_both parts are significant  Una_Partially unaligned length  GAGE_Contigs #  GAGE_Min contig  GAGE_Max contig  GAGE_N50          GAGE_Genome size  GAGE_Assembly size  GAGE_Chaff bases  GAGE_Missing reference bases  GAGE_Missing assembly bases  GAGE_Missing assembly contigs  GAGE_Duplicated reference bases  GAGE_Compressed reference bases  GAGE_Bad trim  GAGE_Avg idy  GAGE_SNPs  GAGE_Indels < 5bp  GAGE_Indels >= 5  GAGE_Inversions  GAGE_Relocation  GAGE_Translocation  GAGE_Corrected contig #  GAGE_Corrected assembly size  GAGE_Min correct contig  GAGE_Max correct contig  GAGE_Corrected N50
SOAP2_MIS_PE_mtbh37-1_mis_2x250bp_nextera_default_121.final.scaf_broken  1277      1403                513                    51758           4489494       4508050                 4271269                    4411532           12171  12336  6506   6860   119  116   243  234   16                    13              12                     28893                        296                                 2 + 4 part          1580                      77                           -29088                                     93     2.07              98.293               1.028              3552 + 512 part  4967                       5021                        3712                          512                            62                             412          58       345            9.50                     1.34                 65.63   65.61             99.759        51758              12108  12261  6506   6860   120   117    243   234    13                  4                 0                    9                12                         28893                            16                        46                           12                         2                             507                         4                                 0                      1                                1073                            1277            200              51758            12336 COUNT: 116  4411532           4489494             0                 18355(0.42%)                  1830(0.04%)                  2(0.16%)                       88380                            62680                            1215           99.99         247        41                 14                0                4                0                   968                      4399416                       206                      51758                    11671 COUNT: 125  
SOAP2_MIS_PE_mtbh37-1_mis_2x250bp_nextera_default_121.final.scaf         853       968                 139                    155433          4512724       4529725                 4322204                    4411532           63806  65658  31410  33301  25   24    49   47    348                   13              12                     101247                       897                                 2 + 5 part          1751                      74                           -27507                                     21768  482.37            98.415               1.033              3615 + 450 part  4844                       4898                        3666                          524                            63                             416          598      2639           9.58                     13.77                65.63   65.61             99.739        154726             63289  65149  30839  31763  25    24     50    48     13                  4                 0                    9                12                         101247                           348                       518                          80                         2                             507                         5                                 0                      1                                1244                            853             200              155433           65658 COUNT: 24   4411532           4512724             0                 18091(0.41%)                  23140(0.51%)                 2(0.23%)                       89349                            60757                            1075           99.98         237        73                 166               0                11               0                   953                      4399272                       200                      51758                    12108 COUNT: 123  
