Assembly	VELVET_MIS_PE_mrsa_mis-1_bi_2x250bp_default__mrsa_mis-2_bi_2x250bp_default.0.460percent_103.final.contigs_broken	VELVET_MIS_PE_mrsa_mis-1_bi_2x250bp_default__mrsa_mis-2_bi_2x250bp_default.0.460percent_103.final.contigs
#Contigs (>= 0 bp)	237	210
#Contigs (>= 1000 bp)	165	142
Total length (>= 0 bp)	2784330	2785278
Total length (>= 1000 bp)	2758182	2761001
#Contigs	237	210
Largest contig	145366	145366
Total length	2784330	2785278
Reference length	2813862	2813862
GC (%)	32.75	32.75
Reference GC (%)	32.81	32.81
N50	31892	34345
NG50	31322	33741
N75	16532	19685
NG75	15192	19666
#misassemblies	4	8
#local misassemblies	0	13
#unaligned contigs	4 + 0 part	4 + 0 part
Unaligned contigs length	4660	4660
Genome fraction (%)	98.204	98.218
Duplication ratio	1.001	1.001
#N's per 100 kbp	0.00	34.04
#mismatches per 100 kbp	1.41	1.41
#indels per 100 kbp	0.36	2.64
#genes	2578 + 124 part	2586 + 117 part
#predicted genes (unique)	2714	2707
#predicted genes (>= 0 bp)	2717	2710
#predicted genes (>= 300 bp)	2315	2316
#predicted genes (>= 1500 bp)	287	287
#predicted genes (>= 3000 bp)	27	27
Largest alignment	145366	145366
NA50	31892	33741
NGA50	31322	33560
NA75	15192	19666
NGA75	14961	19032
