All statistics are based on contigs of size >= 200 bp, unless otherwise noted (e.g., "# contigs (>= 0 bp)" and "Total length (>= 0 bp)" include all contigs).

Assembly                                   VELVET_MIS_PE_sakai_mis-both_bi_2x250bp_SI_default.0.64percent_109.final.contigs_broken  VELVET_MIS_PE_sakai_mis-both_bi_2x250bp_SI_default.0.64percent_109.final.contigs
#Contigs                                   882                                                                                      624                                                                             
#Contigs (>= 0 bp)                         888                                                                                      624                                                                             
#Contigs (>= 1000 bp)                      505                                                                                      288                                                                             
Largest contig                             69882                                                                                    141322                                                                          
Total length                               5414090                                                                                  5441943                                                                         
Total length (>= 0 bp)                     5414931                                                                                  5441943                                                                         
Total length (>= 1000 bp)                  5266164                                                                                  5315287                                                                         
Reference length                           5594470                                                                                  5594470                                                                         
N50                                        16652                                                                                    36026                                                                           
NG50                                       16188                                                                                    35543                                                                           
N75                                        9135                                                                                     18170                                                                           
NG75                                       8150                                                                                     17085                                                                           
L50                                        104                                                                                      47                                                                              
LG50                                       110                                                                                      49                                                                              
L75                                        211                                                                                      98                                                                              
LG75                                       226                                                                                      104                                                                             
#local misassemblies                       4                                                                                        204                                                                             
#misassemblies                             5                                                                                        20                                                                              
#misassembled contigs                      5                                                                                        17                                                                              
Misassembled contigs length                55845                                                                                    263599                                                                          
Misassemblies inter-contig overlap         3415                                                                                     5134                                                                            
#unaligned contigs                         1 + 0 part                                                                               1 + 0 part                                                                      
Unaligned contigs length                   5188                                                                                     5188                                                                            
#ambiguously mapped contigs                267                                                                                      261                                                                             
Extra bases in ambiguously mapped contigs  -117462                                                                                  -114115                                                                         
#N's                                       0                                                                                        27012                                                                           
#N's per 100 kbp                           0.00                                                                                     496.37                                                                          
Genome fraction (%)                        94.494                                                                                   94.586                                                                          
Duplication ratio                          1.002                                                                                    1.007                                                                           
#genes                                     4700 + 507 part                                                                          4745 + 466 part                                                                 
#predicted genes (unique)                  5771                                                                                     5736                                                                            
#predicted genes (>= 0 bp)                 5785                                                                                     5751                                                                            
#predicted genes (>= 300 bp)               4615                                                                                     4617                                                                            
#predicted genes (>= 1500 bp)              623                                                                                      627                                                                             
#predicted genes (>= 3000 bp)              58                                                                                       58                                                                              
#mismatches                                149                                                                                      160                                                                             
#indels                                    17                                                                                       970                                                                             
Indels length                              18                                                                                       1978                                                                            
#mismatches per 100 kbp                    2.82                                                                                     3.02                                                                            
#indels per 100 kbp                        0.32                                                                                     18.33                                                                           
GC (%)                                     50.33                                                                                    50.33                                                                           
Reference GC (%)                           50.48                                                                                    50.48                                                                           
Average %IDY                               98.951                                                                                   98.938                                                                          
Largest alignment                          69882                                                                                    139800                                                                          
NA50                                       16652                                                                                    35161                                                                           
NGA50                                      16188                                                                                    35017                                                                           
NA75                                       9127                                                                                     17708                                                                           
NGA75                                      7931                                                                                     16294                                                                           
LA50                                       104                                                                                      48                                                                              
LGA50                                      110                                                                                      50                                                                              
LA75                                       211                                                                                      100                                                                             
LGA75                                      227                                                                                      107                                                                             
#Mis_misassemblies                         5                                                                                        20                                                                              
#Mis_relocations                           5                                                                                        20                                                                              
#Mis_translocations                        0                                                                                        0                                                                               
#Mis_inversions                            0                                                                                        0                                                                               
#Mis_misassembled contigs                  5                                                                                        17                                                                              
Mis_Misassembled contigs length            55845                                                                                    263599                                                                          
#Mis_local misassemblies                   4                                                                                        204                                                                             
#Mis_short indels (<= 5 bp)                17                                                                                       943                                                                             
#Mis_long indels (> 5 bp)                  0                                                                                        27                                                                              
#Una_fully unaligned contigs               1                                                                                        1                                                                               
Una_Fully unaligned length                 5188                                                                                     5188                                                                            
#Una_partially unaligned contigs           0                                                                                        0                                                                               
#Una_with misassembly                      0                                                                                        0                                                                               
#Una_both parts are significant            0                                                                                        0                                                                               
Una_Partially unaligned length             0                                                                                        0                                                                               
GAGE_Contigs #                             882                                                                                      624                                                                             
GAGE_Min contig                            217                                                                                      217                                                                             
GAGE_Max contig                            69882                                                                                    141322                                                                          
GAGE_N50                                   16188 COUNT: 110                                                                         35543 COUNT: 49                                                                 
GAGE_Genome size                           5594470                                                                                  5594470                                                                         
GAGE_Assembly size                         5414090                                                                                  5441943                                                                         
GAGE_Chaff bases                           0                                                                                        0                                                                               
GAGE_Missing reference bases               41085(0.73%)                                                                             40913(0.73%)                                                                    
GAGE_Missing assembly bases                5305(0.10%)                                                                              32306(0.59%)                                                                    
GAGE_Missing assembly contigs              1(0.11%)                                                                                 1(0.16%)                                                                        
GAGE_Duplicated reference bases            13367                                                                                    12704                                                                           
GAGE_Compressed reference bases            255779                                                                                   254419                                                                          
GAGE_Bad trim                              117                                                                                      437                                                                             
GAGE_Avg idy                               100.00                                                                                   99.99                                                                           
GAGE_SNPs                                  97                                                                                       98                                                                              
GAGE_Indels < 5bp                          18                                                                                       26                                                                              
GAGE_Indels >= 5                           4                                                                                        232                                                                             
GAGE_Inversions                            1                                                                                        6                                                                               
GAGE_Relocation                            3                                                                                        12                                                                              
GAGE_Translocation                         0                                                                                        0                                                                               
GAGE_Corrected contig #                    843                                                                                      845                                                                             
GAGE_Corrected assembly size               5397934                                                                                  5399283                                                                         
GAGE_Min correct contig                    217                                                                                      217                                                                             
GAGE_Max correct contig                    69882                                                                                    69882                                                                           
GAGE_Corrected N50                         16188 COUNT: 110                                                                         16242 COUNT: 109                                                                
