Assembly	ABYSS_PE_PGM_mtbh37_pgm_400bp_es_318v2_OT2_tsv3.6_morestringent_36-unitigs
#Contigs	2124
#Contigs (>= 0 bp)	10341
#Contigs (>= 1000 bp)	1255
Largest contig	14660
Total length	4172210
Total length (>= 0 bp)	4709569
Total length (>= 1000 bp)	3705557
Reference length	4411532
N50	3286
NG50	3064
N75	1775
NG75	1527
L50	394
LG50	432
L75	827
LG75	936
#local misassemblies	2
#misassemblies	0
#misassembled contigs	0
Misassembled contigs length	0
Misassemblies inter-contig overlap	426
#unaligned contigs	1 + 2 part
Unaligned contigs length	837
#ambiguously mapped contigs	32
Extra bases in ambiguously mapped contigs	-12952
#N's	0
#N's per 100 kbp	0.00
Genome fraction (%)	94.199
Duplication ratio	1.001
#genes	2604 + 1408 part
#predicted genes (unique)	5510
#predicted genes (>= 0 bp)	5510
#predicted genes (>= 300 bp)	4133
#predicted genes (>= 1500 bp)	318
#predicted genes (>= 3000 bp)	26
#mismatches	118
#indels	603
Indels length	635
#mismatches per 100 kbp	2.84
#indels per 100 kbp	14.51
GC (%)	65.33
Reference GC (%)	65.61
Average %IDY	99.974
Largest alignment	14660
NA50	3286
NGA50	3064
NA75	1775
NGA75	1527
LA50	394
LGA50	432
LA75	827
LGA75	936
#Mis_misassemblies	0
#Mis_relocations	0
#Mis_translocations	0
#Mis_inversions	0
#Mis_misassembled contigs	0
Mis_Misassembled contigs length	0
#Mis_local misassemblies	2
#Mis_short indels (<= 5 bp)	602
#Mis_long indels (> 5 bp)	1
#Una_fully unaligned contigs	1
Una_Fully unaligned length	783
#Una_partially unaligned contigs	2
#Una_with misassembly	0
#Una_both parts are significant	0
Una_Partially unaligned length	54
GAGE_Contigs #	2124
GAGE_Min contig	200
GAGE_Max contig	14660
GAGE_N50	3064 COUNT: 432
GAGE_Genome size	4411532
GAGE_Assembly size	4172210
GAGE_Chaff bases	0
GAGE_Missing reference bases	226409(5.13%)
GAGE_Missing assembly bases	860(0.02%)
GAGE_Missing assembly contigs	1(0.05%)
GAGE_Duplicated reference bases	0
GAGE_Compressed reference bases	17620
GAGE_Bad trim	77
GAGE_Avg idy	99.98
GAGE_SNPs	83
GAGE_Indels < 5bp	623
GAGE_Indels >= 5	3
GAGE_Inversions	0
GAGE_Relocation	1
GAGE_Translocation	0
GAGE_Corrected contig #	2126
GAGE_Corrected assembly size	4172191
GAGE_Min correct contig	200
GAGE_Max correct contig	14661
GAGE_Corrected N50	3064 COUNT: 433
