Assembly	GAGE_Contigs #	GAGE_Min contig	GAGE_Max contig	GAGE_N50	GAGE_Genome size	GAGE_Assembly size	GAGE_Chaff bases	GAGE_Missing reference bases	GAGE_Missing assembly bases	GAGE_Missing assembly contigs	GAGE_Duplicated reference bases	GAGE_Compressed reference bases	GAGE_Bad trim	GAGE_Avg idy	GAGE_SNPs	GAGE_Indels < 5bp	GAGE_Indels >= 5	GAGE_Inversions	GAGE_Relocation	GAGE_Translocation	GAGE_Corrected contig #	GAGE_Corrected assembly size	GAGE_Min correct contig	GAGE_Max correct contig	GAGE_Corrected N50
CLC_MIS_PE_sakai_mis-1_bi_2x150bp_default__sakai_mis-2_bi_2x150bp_default.21coverage.result_broken	308	201	313877	99593 COUNT: 17	5594470	5348189	0	22809(0.41%)	5525(0.10%)	1(0.32%)	7496	262176	16	99.99	175	33	19	0	7	0	313	5337031	201	237165	92732 COUNT: 20
CLC_MIS_PE_sakai_mis-1_bi_2x150bp_default__sakai_mis-2_bi_2x150bp_default.21coverage.result	284	205	313877	124188 COUNT: 15	5594470	5350927	0	22610(0.40%)	7609(0.14%)	1(0.35%)	6016	260396	675	99.99	177	38	26	3	10	0	315	5338843	201	237165	92732 COUNT: 20
