All statistics are based on contigs of size >= 200 bp, unless otherwise noted (e.g., "# contigs (>= 0 bp)" and "Total length (>= 0 bp)" include all contigs).

Assembly                                                                                                  GAGE_Contigs #  GAGE_Min contig  GAGE_Max contig  GAGE_N50          GAGE_Genome size  GAGE_Assembly size  GAGE_Chaff bases  GAGE_Missing reference bases  GAGE_Missing assembly bases  GAGE_Missing assembly contigs  GAGE_Duplicated reference bases  GAGE_Compressed reference bases  GAGE_Bad trim  GAGE_Avg idy  GAGE_SNPs  GAGE_Indels < 5bp  GAGE_Indels >= 5  GAGE_Inversions  GAGE_Relocation  GAGE_Translocation  GAGE_Corrected contig #  GAGE_Corrected assembly size  GAGE_Min correct contig  GAGE_Max correct contig  GAGE_Corrected N50
CLC_MIS_PE_sakai_mis-1_bi_2x250bp_SI_default__sakai_mis-2_bi_2x250bp_SI_default.0.5percent.result_broken  502             200              327288           109138 COUNT: 17  5594470           5449282             0                 9082(0.16%)                   57649(1.06%)                 201(40.04%)                    16397                            233015                           294            99.99         110        12                 6                 0                5                0                   261                      5377246                       224                      313894                   94274 COUNT: 18   
CLC_MIS_PE_sakai_mis-1_bi_2x250bp_SI_default__sakai_mis-2_bi_2x250bp_SI_default.0.5percent.result         484             200              327288           148304 COUNT: 13  5594470           5451451             0                 9082(0.16%)                   59685(1.09%)                 203(41.94%)                    16292                            232544                           549            99.99         84         12                 19                0                8                1                   262                      5377484                       200                      313894                   94274 COUNT: 18   
