Assembly	CLC_MIS_PE_sakai_mis-1_bi_2x250bp_SI_default__sakai_mis-2_bi_2x250bp_SI_default.0.5percent.result_broken	CLC_MIS_PE_sakai_mis-1_bi_2x250bp_SI_default__sakai_mis-2_bi_2x250bp_SI_default.0.5percent.result
GAGE_Contigs #	502	484
GAGE_Min contig	200	200
GAGE_Max contig	327288	327288
GAGE_N50	109138 COUNT: 17	148304 COUNT: 13
GAGE_Genome size	5594470	5594470
GAGE_Assembly size	5449282	5451451
GAGE_Chaff bases	0	0
GAGE_Missing reference bases	9082(0.16%)	9082(0.16%)
GAGE_Missing assembly bases	57649(1.06%)	59685(1.09%)
GAGE_Missing assembly contigs	201(40.04%)	203(41.94%)
GAGE_Duplicated reference bases	16397	16292
GAGE_Compressed reference bases	233015	232544
GAGE_Bad trim	294	549
GAGE_Avg idy	99.99	99.99
GAGE_SNPs	110	84
GAGE_Indels < 5bp	12	12
GAGE_Indels >= 5	6	19
GAGE_Inversions	0	0
GAGE_Relocation	5	8
GAGE_Translocation	0	1
GAGE_Corrected contig #	261	262
GAGE_Corrected assembly size	5377246	5377484
GAGE_Min correct contig	224	200
GAGE_Max correct contig	313894	313894
GAGE_Corrected N50	94274 COUNT: 18	94274 COUNT: 18
