Assembly	#Contigs (>= 0 bp)	#Contigs (>= 1000 bp)	Total length (>= 0 bp)	Total length (>= 1000 bp)	#Contigs	Largest contig	Total length	Reference length	GC (%)	Reference GC (%)	N50	NG50	N75	NG75	#misassemblies	#local misassemblies	#unaligned contigs	Unaligned contigs length	Genome fraction (%)	Duplication ratio	#N's per 100 kbp	#mismatches per 100 kbp	#indels per 100 kbp	#genes	#predicted genes (unique)	#predicted genes (>= 0 bp)	#predicted genes (>= 300 bp)	#predicted genes (>= 1500 bp)	#predicted genes (>= 3000 bp)	Largest alignment	NA50	NGA50	NA75	NGA75
SOAP2_MIS_PE_sakai_mis-1_bi_2x250bp_SI_default.0.64percent_69.final.scaf_broken	95681	871	24036927	1205098	79537	5068	21837564	5594470	53.79	50.48	250	557	236	330	3	1	56512 + 2985 part	14021525	92.029	1.494	0.00	527.70	4.95	1005 + 4123 part	72858	73006	6069	26	0	5068	None	554	None	325
SOAP2_MIS_PE_sakai_mis-1_bi_2x250bp_SI_default.0.64percent_69.final.scaf	95663	871	24038176	1205098	79532	5068	21840746	5594470	53.79	50.48	250	558	236	331	3	8	56518 + 2986 part	14025764	92.007	1.494	5.72	532.43	6.62	1005 + 4123 part	72866	73014	6069	26	0	5068	None	554	None	325
