Assembly	#Contigs	#Contigs (>= 0 bp)	#Contigs (>= 1000 bp)	Largest contig	Total length	Total length (>= 0 bp)	Total length (>= 1000 bp)	Reference length	N50	NG50	N75	NG75	L50	LG50	L75	LG75	#local misassemblies	#misassemblies	#misassembled contigs	Misassembled contigs length	Misassemblies inter-contig overlap	#unaligned contigs	Unaligned contigs length	#ambiguously mapped contigs	Extra bases in ambiguously mapped contigs	#N's	#N's per 100 kbp	Genome fraction (%)	Duplication ratio	#genes	#predicted genes (unique)	#predicted genes (>= 0 bp)	#predicted genes (>= 300 bp)	#predicted genes (>= 1500 bp)	#predicted genes (>= 3000 bp)	#mismatches	#indels	Indels length	#mismatches per 100 kbp	#indels per 100 kbp	GC (%)	Reference GC (%)	Average %IDY	Largest alignment	NA50	NGA50	NA75	NGA75	LA50	LGA50	LA75	LGA75	#Mis_misassemblies	#Mis_relocations	#Mis_translocations	#Mis_inversions	#Mis_misassembled contigs	Mis_Misassembled contigs length	#Mis_local misassemblies	#Mis_short indels (<= 5 bp)	#Mis_long indels (> 5 bp)	#Una_fully unaligned contigs	Una_Fully unaligned length	#Una_partially unaligned contigs	#Una_with misassembly	#Una_both parts are significant	Una_Partially unaligned length	GAGE_Contigs #	GAGE_Min contig	GAGE_Max contig	GAGE_N50	GAGE_Genome size	GAGE_Assembly size	GAGE_Chaff bases	GAGE_Missing reference bases	GAGE_Missing assembly bases	GAGE_Missing assembly contigs	GAGE_Duplicated reference bases	GAGE_Compressed reference bases	GAGE_Bad trim	GAGE_Avg idy	GAGE_SNPs	GAGE_Indels < 5bp	GAGE_Indels >= 5	GAGE_Inversions	GAGE_Relocation	GAGE_Translocation	GAGE_Corrected contig #	GAGE_Corrected assembly size	GAGE_Min correct contig	GAGE_Max correct contig	GAGE_Corrected N50
CLC_MIS_PE_sakai_mis-2_bi_2x150bp_default__sakai_mis-1_bi_2x150bp_default.0.600percent.result_broken	276	287	146	313894	5360181	5361980	5304972	5594470	142611	141781	66154	56856	14	15	29	31	7	3	3	209603	20732	1 + 0 part	5386	84	-76333	54	1.01	94.320	1.004	4997 + 137 part	5274	5274	4438	669	66	88	101	188	1.67	1.91	50.29	50.48	98.647	313894	141781	141781	66154	55528	15	15	29	32	3	3	0	0	3	209603	7	98	3	1	5386	0	0	0	0	276	200	313894	141781 COUNT: 15	5594470	5360181	0	25275(0.45%)	5475(0.10%)	1(0.36%)	9941	250412	22	99.99	93	15	11	1	4	0	270	5345310	201	313894	124190 COUNT: 16
CLC_MIS_PE_sakai_mis-2_bi_2x150bp_default__sakai_mis-1_bi_2x150bp_default.0.600percent.result	256	256	140	313894	5365347	5365347	5314161	5594470	151304	148175	77657	73158	13	14	25	28	35	3	3	209603	20951	1 + 0 part	5386	70	-65320	3421	63.76	94.546	1.005	5001 + 144 part	5275	5275	4436	669	66	99	103	284	1.87	1.95	50.29	50.48	98.750	313894	147892	147892	76386	73103	14	14	26	28	3	3	0	0	3	209603	35	98	5	1	5386	0	0	0	0	256	200	313894	148175 COUNT: 14	5594470	5365347	0	22750(0.41%)	8830(0.16%)	1(0.39%)	8771	248639	794	99.99	93	15	20	2	7	0	272	5347293	201	313894	124190 COUNT: 16
