All statistics are based on contigs of size >= 200 bp, unless otherwise noted (e.g., "# contigs (>= 0 bp)" and "Total length (>= 0 bp)" include all contigs).

Assembly                                                                                              #Contigs (>= 0 bp)  #Contigs (>= 1000 bp)  Total length (>= 0 bp)  Total length (>= 1000 bp)  #Contigs  Largest contig  Total length  Reference length  GC (%)  Reference GC (%)  N50     NG50    N75    NG75   #misassemblies  #local misassemblies  #unaligned contigs  Unaligned contigs length  Genome fraction (%)  Duplication ratio  #N's per 100 kbp  #mismatches per 100 kbp  #indels per 100 kbp  #genes           #predicted genes (unique)  #predicted genes (>= 0 bp)  #predicted genes (>= 300 bp)  #predicted genes (>= 1500 bp)  #predicted genes (>= 3000 bp)  Largest alignment  NA50    NGA50   NA75   NGA75
CLC_MIS_PE_sakai_mis-2_bi_2x150bp_default__sakai_mis-1_bi_2x150bp_default.0.600percent.result_broken  287                 146                    5361980                 5304972                    276       313894          5360181       5594470           50.29   50.48             142611  141781  66154  56856  3               7                     1 + 0 part          5386                      94.320               1.004              1.01              1.67                     1.91                 4997 + 137 part  5274                       5274                        4438                          669                            66                             313894             141781  141781  66154  55528
CLC_MIS_PE_sakai_mis-2_bi_2x150bp_default__sakai_mis-1_bi_2x150bp_default.0.600percent.result         256                 140                    5365347                 5314161                    256       313894          5365347       5594470           50.29   50.48             151304  148175  77657  73158  3               35                    1 + 0 part          5386                      94.546               1.005              63.76             1.87                     1.95                 5001 + 144 part  5275                       5275                        4436                          669                            66                             313894             147892  147892  76386  73103
