Assembly	ABYSS_PE_MIS_PE_sakai_mis-both_bi_2x250bp_SI_default.0.64percent.NEWBLER_88-scaffolds_broken	ABYSS_PE_MIS_PE_sakai_mis-both_bi_2x250bp_SI_default.0.64percent.NEWBLER_88-scaffolds
GAGE_Contigs #	318	263
GAGE_Min contig	201	201
GAGE_Max contig	224311	377208
GAGE_N50	98608 COUNT: 19	133418 COUNT: 15
GAGE_Genome size	5594470	5594470
GAGE_Assembly size	5487618	5490360
GAGE_Chaff bases	0	0
GAGE_Missing reference bases	12804(0.23%)	15347(0.27%)
GAGE_Missing assembly bases	20(0.00%)	3706(0.07%)
GAGE_Missing assembly contigs	0(0.00%)	0(0.00%)
GAGE_Duplicated reference bases	20762	20405
GAGE_Compressed reference bases	235653	234083
GAGE_Bad trim	0	300
GAGE_Avg idy	99.98	99.98
GAGE_SNPs	520	518
GAGE_Indels < 5bp	36	52
GAGE_Indels >= 5	12	43
GAGE_Inversions	2	7
GAGE_Relocation	5	12
GAGE_Translocation	0	0
GAGE_Corrected contig #	309	306
GAGE_Corrected assembly size	5476988	5476389
GAGE_Min correct contig	205	205
GAGE_Max correct contig	224311	224311
GAGE_Corrected N50	75175 COUNT: 21	75175 COUNT: 21
