All statistics are based on contigs of size >= 200 bp, unless otherwise noted (e.g., "# contigs (>= 0 bp)" and "Total length (>= 0 bp)" include all contigs).

Assembly                       ABYSS_PE_MIS_PE_sakai_mis-both_bi_2x250bp_SI_default.0.64percent.NEWBLER_88-scaffolds_broken  ABYSS_PE_MIS_PE_sakai_mis-both_bi_2x250bp_SI_default.0.64percent.NEWBLER_88-scaffolds
#Contigs (>= 0 bp)             634                                                                                           579                                                                                  
#Contigs (>= 1000 bp)          198                                                                                           180                                                                                  
Total length (>= 0 bp)         5532922                                                                                       5535664                                                                              
Total length (>= 1000 bp)      5429869                                                                                       5450137                                                                              
#Contigs                       318                                                                                           263                                                                                  
Largest contig                 224311                                                                                        377208                                                                               
Total length                   5487618                                                                                       5490360                                                                              
Reference length               5594470                                                                                       5594470                                                                              
GC (%)                         50.38                                                                                         50.38                                                                                
Reference GC (%)               50.48                                                                                         50.48                                                                                
N50                            100189                                                                                        133418                                                                               
NG50                           98608                                                                                         133418                                                                               
N75                            44508                                                                                         67783                                                                                
NG75                           41815                                                                                         56969                                                                                
#misassemblies                 7                                                                                             18                                                                                   
#local misassemblies           3                                                                                             29                                                                                   
#unaligned contigs             0 + 0 part                                                                                    0 + 0 part                                                                           
Unaligned contigs length       0                                                                                             0                                                                                    
Genome fraction (%)            96.566                                                                                        96.886                                                                               
Duplication ratio              1.007                                                                                         1.008                                                                                
#N's per 100 kbp               0.64                                                                                          50.58                                                                                
#mismatches per 100 kbp        14.79                                                                                         15.79                                                                                
#indels per 100 kbp            0.94                                                                                          4.65                                                                                 
#genes                         5076 + 197 part                                                                               5095 + 198 part                                                                      
#predicted genes (unique)      5333                                                                                          5314                                                                                 
#predicted genes (>= 0 bp)     5438                                                                                          5418                                                                                 
#predicted genes (>= 300 bp)   4540                                                                                          4543                                                                                 
#predicted genes (>= 1500 bp)  686                                                                                           686                                                                                  
#predicted genes (>= 3000 bp)  68                                                                                            67                                                                                   
Largest alignment              224311                                                                                        249534                                                                               
NA50                           98608                                                                                         133418                                                                               
NGA50                          96152                                                                                         133418                                                                               
NA75                           43168                                                                                         67783                                                                                
NGA75                          41606                                                                                         56969                                                                                
