All statistics are based on contigs of size >= 200 bp, unless otherwise noted (e.g., "# contigs (>= 0 bp)" and "Total length (>= 0 bp)" include all contigs).

Assembly                                                                                      #Contigs  #Contigs (>= 0 bp)  #Contigs (>= 1000 bp)  Largest contig  Total length  Total length (>= 0 bp)  Total length (>= 1000 bp)  Reference length  N50     NG50    N75    NG75   L50  LG50  L75  LG75  #local misassemblies  #misassemblies  #misassembled contigs  Misassembled contigs length  Misassemblies inter-contig overlap  #unaligned contigs  Unaligned contigs length  #ambiguously mapped contigs  Extra bases in ambiguously mapped contigs  #N's  #N's per 100 kbp  Genome fraction (%)  Duplication ratio  #genes           #predicted genes (unique)  #predicted genes (>= 0 bp)  #predicted genes (>= 300 bp)  #predicted genes (>= 1500 bp)  #predicted genes (>= 3000 bp)  #mismatches  #indels  Indels length  #mismatches per 100 kbp  #indels per 100 kbp  GC (%)  Reference GC (%)  Average %IDY  Largest alignment  NA50    NGA50   NA75   NGA75  LA50  LGA50  LA75  LGA75  #Mis_misassemblies  #Mis_relocations  #Mis_translocations  #Mis_inversions  #Mis_misassembled contigs  Mis_Misassembled contigs length  #Mis_local misassemblies  #Mis_short indels (<= 5 bp)  #Mis_long indels (> 5 bp)  #Una_fully unaligned contigs  Una_Fully unaligned length  #Una_partially unaligned contigs  #Una_with misassembly  #Una_both parts are significant  Una_Partially unaligned length  GAGE_Contigs #  GAGE_Min contig  GAGE_Max contig  GAGE_N50          GAGE_Genome size  GAGE_Assembly size  GAGE_Chaff bases  GAGE_Missing reference bases  GAGE_Missing assembly bases  GAGE_Missing assembly contigs  GAGE_Duplicated reference bases  GAGE_Compressed reference bases  GAGE_Bad trim  GAGE_Avg idy  GAGE_SNPs  GAGE_Indels < 5bp  GAGE_Indels >= 5  GAGE_Inversions  GAGE_Relocation  GAGE_Translocation  GAGE_Corrected contig #  GAGE_Corrected assembly size  GAGE_Min correct contig  GAGE_Max correct contig  GAGE_Corrected N50
ABYSS_PE_MIS_PE_sakai_mis-both_bi_2x250bp_SI_default.0.64percent.NEWBLER_88-scaffolds_broken  318       634                 198                    224311          5487618       5532922                 5429869                    5594470           100189  98608   44508  41815  18   19    37   39    3                     7               7                      334025                       10537                               0 + 0 part          0                         59                           -60100                                     35    0.64              96.566               1.007              5076 + 197 part  5333                       5438                        4540                          686                            68                             799          51       485            14.79                    0.94                 50.38   50.48             98.659        224311             98608   96152   43168  41606  18    19     38    40     7                   7                 0                    0                7                          334025                           3                         39                           12                         0                             0                           0                                 0                      0                                0                               318             201              224311           98608 COUNT: 19   5594470           5487618             0                 12804(0.23%)                  20(0.00%)                    0(0.00%)                       20762                            235653                           0              99.98         520        36                 12                2                5                0                   309                      5476988                       205                      224311                   75175 COUNT: 21   
ABYSS_PE_MIS_PE_sakai_mis-both_bi_2x250bp_SI_default.0.64percent.NEWBLER_88-scaffolds         263       579                 180                    377208          5490360       5535664                 5450137                    5594470           133418  133418  67783  56969  15   15    29   30    29                    18              16                     621650                       12753                               0 + 0 part          0                         33                           -40769                                     2777  50.58             96.886               1.008              5095 + 198 part  5314                       5418                        4543                          686                            67                             856          252      907            15.79                    4.65                 50.38   50.48             98.642        249534             133418  133418  67783  56969  16    16     30    31     18                  18                0                    0                16                         621650                           29                        232                          20                         0                             0                           0                                 0                      0                                0                               263             201              377208           133418 COUNT: 15  5594470           5490360             0                 15347(0.27%)                  3706(0.07%)                  0(0.00%)                       20405                            234083                           300            99.98         518        52                 43                7                12               0                   306                      5476389                       205                      224311                   75175 COUNT: 21   
