All statistics are based on contigs of size >= 200 bp, unless otherwise noted (e.g., "# contigs (>= 0 bp)" and "Total length (>= 0 bp)" include all contigs).

Assembly                                                                                                           #Contigs (>= 0 bp)  #Contigs (>= 1000 bp)  Total length (>= 0 bp)  Total length (>= 1000 bp)  #Contigs  Largest contig  Total length  Reference length  GC (%)  Reference GC (%)  N50     NG50    N75    NG75   #misassemblies  #local misassemblies  #unaligned contigs  Unaligned contigs length  Genome fraction (%)  Duplication ratio  #N's per 100 kbp  #mismatches per 100 kbp  #indels per 100 kbp  #genes           #predicted genes (unique)  #predicted genes (>= 0 bp)  #predicted genes (>= 300 bp)  #predicted genes (>= 1500 bp)  #predicted genes (>= 3000 bp)  Largest alignment  NA50    NGA50   NA75   NGA75
VELVET_MIS_PE_sakai_mis-1_bi_2x150bp_default__sakai_mis-2_bi_2x150bp_default.0.826percent_79.final.contigs_broken  530                 178                    5424179                 5304639                    437       311992          5408012       5594470           50.31   50.48             94285   91085   43789  37914  6               6                     1 + 0 part          5385                      94.716               1.001              0.00              2.96                     0.75                 4993 + 180 part  5451                       5459                        4490                          669                            67                             311992             94285   91085   43789  37914
VELVET_MIS_PE_sakai_mis-1_bi_2x150bp_default__sakai_mis-2_bi_2x150bp_default.0.826percent_79.final.contigs         453                 128                    5428542                 5320457                    365       374953          5413045       5594470           50.31   50.48             146425  146425  82432  77793  10              34                    1 + 1 part          5857                      94.742               1.001              80.60             3.40                     5.13                 5026 + 151 part  5421                       5430                        4485                          667                            66                             362322             145443  145443  77793  73974
