All statistics are based on contigs of size >= 200 bp, unless otherwise noted (e.g., "# contigs (>= 0 bp)" and "Total length (>= 0 bp)" include all contigs).

Assembly                       ABYSS_PE_MIS_PE_mrsa_mis-1_bi_2x150bp_default__mrsa_mis-2_bi_2x150bp_default.0.527percent_114-scaffolds_broken  ABYSS_PE_MIS_PE_mrsa_mis-1_bi_2x150bp_default__mrsa_mis-2_bi_2x150bp_default.0.527percent_114-scaffolds
#Contigs (>= 0 bp)             194                                                                                                             165                                                                                                    
#Contigs (>= 1000 bp)          145                                                                                                             122                                                                                                    
Total length (>= 0 bp)         2820609                                                                                                         2822254                                                                                                
Total length (>= 1000 bp)      2806172                                                                                                         2810469                                                                                                
#Contigs                       172                                                                                                             143                                                                                                    
Largest contig                 84086                                                                                                           118143                                                                                                 
Total length                   2817473                                                                                                         2819118                                                                                                
Reference length               2813862                                                                                                         2813862                                                                                                
GC (%)                         32.86                                                                                                           32.86                                                                                                  
Reference GC (%)               32.81                                                                                                           32.81                                                                                                  
N50                            33222                                                                                                           39112                                                                                                  
NG50                           33222                                                                                                           39112                                                                                                  
N75                            19620                                                                                                           25308                                                                                                  
NG75                           19620                                                                                                           25308                                                                                                  
#misassemblies                 2                                                                                                               5                                                                                                      
#local misassemblies           3                                                                                                               14                                                                                                     
#unaligned contigs             1 + 0 part                                                                                                      1 + 0 part                                                                                             
Unaligned contigs length       227                                                                                                             227                                                                                                    
Genome fraction (%)            99.133                                                                                                          99.210                                                                                                 
Duplication ratio              1.005                                                                                                           1.006                                                                                                  
#N's per 100 kbp               0.57                                                                                                            58.92                                                                                                  
#mismatches per 100 kbp        1.72                                                                                                            1.72                                                                                                   
#indels per 100 kbp            0.79                                                                                                            5.52                                                                                                   
#genes                         2622 + 94 part                                                                                                  2634 + 83 part                                                                                         
#predicted genes (unique)      2688                                                                                                            2683                                                                                                   
#predicted genes (>= 0 bp)     2701                                                                                                            2694                                                                                                   
#predicted genes (>= 300 bp)   2304                                                                                                            2303                                                                                                   
#predicted genes (>= 1500 bp)  293                                                                                                             293                                                                                                    
#predicted genes (>= 3000 bp)  30                                                                                                              30                                                                                                     
Largest alignment              84086                                                                                                           117965                                                                                                 
NA50                           32646                                                                                                           38926                                                                                                  
NGA50                          32646                                                                                                           38926                                                                                                  
NA75                           19567                                                                                                           25240                                                                                                  
NGA75                          19620                                                                                                           25308                                                                                                  
