All statistics are based on contigs of size >= 200 bp, unless otherwise noted (e.g., "# contigs (>= 0 bp)" and "Total length (>= 0 bp)" include all contigs).

Assembly                                                                                            GAGE_Contigs #  GAGE_Min contig  GAGE_Max contig  GAGE_N50         GAGE_Genome size  GAGE_Assembly size  GAGE_Chaff bases  GAGE_Missing reference bases  GAGE_Missing assembly bases  GAGE_Missing assembly contigs  GAGE_Duplicated reference bases  GAGE_Compressed reference bases  GAGE_Bad trim  GAGE_Avg idy  GAGE_SNPs  GAGE_Indels < 5bp  GAGE_Indels >= 5  GAGE_Inversions  GAGE_Relocation  GAGE_Translocation  GAGE_Corrected contig #  GAGE_Corrected assembly size  GAGE_Min correct contig  GAGE_Max correct contig  GAGE_Corrected N50
CLC_MIS_PE_mrsa_mis-1_bi_2x150bp_default__mrsa_mis-2_bi_2x150bp_default.0.350percent.result_broken  57              219              326054           112350 COUNT: 8  2813862           2776203             0                 8672(0.31%)                   5394(0.19%)                  1(1.75%)                       543                              36956                            0              99.99         38         9                  5                 0                3                0                   64                       2771794                       213                      326055                   97479 COUNT: 9    
CLC_MIS_PE_mrsa_mis-1_bi_2x150bp_default__mrsa_mis-2_bi_2x150bp_default.0.350percent.result         52              219              326054           145646 COUNT: 7  2813862           2776355             0                 8672(0.31%)                   5546(0.20%)                  1(1.92%)                       543                              36956                            11             99.99         38         9                  8                 0                4                0                   64                       2771794                       213                      326055                   97479 COUNT: 9    
