1: PREPARING DATA
2,3: RUNNING mummer AND CREATING CLUSTERS
# reading input file "/vol/codine-tmp/juene/tmp.zPl0dtH5Cp/quast/gage/tmp/VELVET_MIS_PE_sakai_mis-1_bi_2x150bp_default__sakai_mis-2_bi_2x150bp_default.0.826percent_87.final.contigs.ntref" of length 5594473
# construct suffix tree for sequence of length 5594473
# (maximum reference length is 536870908)
# (maximum query length is 4294967295)
# process 55944 characters per dot
#....................................................................................................
# CONSTRUCTIONTIME /vol/ngscomparison/software/analysis/quast-2.1/libs/MUMmer3.23-linux/mummer /vol/codine-tmp/juene/tmp.zPl0dtH5Cp/quast/gage/tmp/VELVET_MIS_PE_sakai_mis-1_bi_2x150bp_default__sakai_mis-2_bi_2x150bp_default.0.826percent_87.final.contigs.ntref 3.84
# reading input file "/vol/codine-tmp/juene/tmp.zPl0dtH5Cp/quast/corrected_input/VELVET_MIS_PE_sakai_mis-1_bi_2x150bp_default__sakai_mis-2_bi_2x150bp_default.0.826percent_87.final.contigs" of length 5423227
# matching query-file "/vol/codine-tmp/juene/tmp.zPl0dtH5Cp/quast/corrected_input/VELVET_MIS_PE_sakai_mis-1_bi_2x150bp_default__sakai_mis-2_bi_2x150bp_default.0.826percent_87.final.contigs"
# against subject-file "/vol/codine-tmp/juene/tmp.zPl0dtH5Cp/quast/gage/tmp/VELVET_MIS_PE_sakai_mis-1_bi_2x150bp_default__sakai_mis-2_bi_2x150bp_default.0.826percent_87.final.contigs.ntref"
# COMPLETETIME /vol/ngscomparison/software/analysis/quast-2.1/libs/MUMmer3.23-linux/mummer /vol/codine-tmp/juene/tmp.zPl0dtH5Cp/quast/gage/tmp/VELVET_MIS_PE_sakai_mis-1_bi_2x150bp_default__sakai_mis-2_bi_2x150bp_default.0.826percent_87.final.contigs.ntref 11.67
# SPACE /vol/ngscomparison/software/analysis/quast-2.1/libs/MUMmer3.23-linux/mummer /vol/codine-tmp/juene/tmp.zPl0dtH5Cp/quast/gage/tmp/VELVET_MIS_PE_sakai_mis-1_bi_2x150bp_default__sakai_mis-2_bi_2x150bp_default.0.826percent_87.final.contigs.ntref 10.69
4: FINISHING DATA
Filtering alignments
Extracting alignment coordinates
Analyzing SNPs
Extracting alignment breakpoints
Generating report file
Found genome size at position 4 with value 5594470 aka 5594470
Calculating point at 0 and the sum is 1071677 and i is395 and lens is 401 and length is 144944
Calculating point at 1 and the sum is 2113215 and i is387 and lens is 401 and length is 114962
Calculating point at 2 and the sum is 3052112 and i is377 and lens is 401 and length is 84221
Calculating point at 3 and the sum is 4002127 and i is362 and lens is 401 and length is 49395
Calculating point at 4 and the sum is 5008037 and i is325 and lens is 401 and length is 11623
