Assembly	SOAP2_MIS_PE_sakai_mis-1_bi_2x250bp_SI_default.0.64percent_115.final.scaf_broken	SOAP2_MIS_PE_sakai_mis-1_bi_2x250bp_SI_default.0.64percent_115.final.scaf
#Mis_misassemblies	11	28
#Mis_relocations	11	28
#Mis_translocations	0	0
#Mis_inversions	0	0
#Mis_misassembled contigs	11	22
Mis_Misassembled contigs length	35692	161567
#Mis_local misassemblies	35	494
#mismatches	398	504
#indels	59	1102
#Mis_short indels (<= 5 bp)	49	1025
#Mis_long indels (> 5 bp)	10	77
Indels length	284	2818
