All statistics are based on contigs of size >= 200 bp, unless otherwise noted (e.g., "# contigs (>= 0 bp)" and "Total length (>= 0 bp)" include all contigs).

Assembly                       NEWBLER_MIS_PE_sakai_mis-1_bi_2x150bp_default__sakai_mis-2_bi_2x150bp_default.16coverage.contigs
#Contigs (>= 0 bp)             695                                                                                             
#Contigs (>= 1000 bp)          347                                                                                             
Total length (>= 0 bp)         5311479                                                                                         
Total length (>= 1000 bp)      5185462                                                                                         
#Contigs                       587                                                                                             
Largest contig                 110408                                                                                          
Total length                   5295142                                                                                         
Reference length               5594470                                                                                         
GC (%)                         50.27                                                                                           
Reference GC (%)               50.48                                                                                           
N50                            30769                                                                                           
NG50                           29747                                                                                           
N75                            15773                                                                                           
NG75                           13370                                                                                           
#misassemblies                 4                                                                                               
#local misassemblies           4                                                                                               
#unaligned contigs             1 + 0 part                                                                                      
Unaligned contigs length       5386                                                                                            
Genome fraction (%)            92.797                                                                                          
Duplication ratio              1.001                                                                                           
#N's per 100 kbp               0.00                                                                                            
#mismatches per 100 kbp        4.22                                                                                            
#indels per 100 kbp            0.44                                                                                            
#genes                         4694 + 318 part                                                                                 
#predicted genes (unique)      5385                                                                                            
#predicted genes (>= 0 bp)     5385                                                                                            
#predicted genes (>= 300 bp)   4469                                                                                            
#predicted genes (>= 1500 bp)  646                                                                                             
#predicted genes (>= 3000 bp)  64                                                                                              
Largest alignment              110408                                                                                          
NA50                           30604                                                                                           
NGA50                          29044                                                                                           
NA75                           15411                                                                                           
NGA75                          12129                                                                                           
