All statistics are based on contigs of size >= 200 bp, unless otherwise noted (e.g., "# contigs (>= 0 bp)" and "Total length (>= 0 bp)" include all contigs).

Assembly                                                                                                    #Contigs (>= 0 bp)  #Contigs (>= 1000 bp)  Total length (>= 0 bp)  Total length (>= 1000 bp)  #Contigs  Largest contig  Total length  Reference length  GC (%)  Reference GC (%)  N50     NG50    N75     NG75    #misassemblies  #local misassemblies  #unaligned contigs  Unaligned contigs length  Genome fraction (%)  Duplication ratio  #N's per 100 kbp  #mismatches per 100 kbp  #indels per 100 kbp  #genes          #predicted genes (unique)  #predicted genes (>= 0 bp)  #predicted genes (>= 300 bp)  #predicted genes (>= 1500 bp)  #predicted genes (>= 3000 bp)  Largest alignment  NA50    NGA50   NA75    NGA75 
ABYSS_PE_MIS_PE_mrsa_mis-1_bi_2x150bp_default__mrsa_mis-2_bi_2x150bp_default.0.990percent_104.final_broken  92                  40                     2822902                 2811523                    52        441547          2816916       2813862           32.78   32.81             304739  304739  149051  149051  3               2                     0 + 0 part          0                         99.216               1.005              0.28              1.86                     0.54                 2698 + 19 part  2635                       2645                        2295                          301                            30                             441547             304739  304739  138475  138475
ABYSS_PE_MIS_PE_mrsa_mis-1_bi_2x150bp_default__mrsa_mis-2_bi_2x150bp_default.0.990percent_104.final         79                  31                     2823850                 2814685                    39        872373          2817864       2813862           32.78   32.81             727240  727240  305081  305081  4               7                     0 + 0 part          0                         99.230               1.006              33.93             2.01                     3.01                 2700 + 17 part  2633                       2643                        2296                          301                            30                             872373             326072  326072  248568  248568
