Assembly	#Una_fully unaligned contigs	Una_Fully unaligned length	#Una_partially unaligned contigs	#Una_with misassembly	#Una_both parts are significant	Una_Partially unaligned length	#N's
SOAP2_MIS_PE_mrsa_mis-1_bi_2x150bp_default.0.527percent_51.final.scaf_broken	1	5437	1	0	0	67	132
SOAP2_MIS_PE_mrsa_mis-1_bi_2x150bp_default.0.527percent_51.final.scaf	6	7197	2	0	0	686	18918
