Assembly	SOAP2_MIS_PE_mrsa_mis-1_bi_2x250bp_default.0.460percent_29.final.scaf_broken	SOAP2_MIS_PE_mrsa_mis-1_bi_2x250bp_default.0.460percent_29.final.scaf
#Una_fully unaligned contigs	2234	2431
Una_Fully unaligned length	603087	849325
#Una_partially unaligned contigs	11	166
#Una_with misassembly	0	1
#Una_both parts are significant	0	103
Una_Partially unaligned length	2258	160840
#N's	1970	69973
