All statistics are based on contigs of size >= 200 bp, unless otherwise noted (e.g., "# contigs (>= 0 bp)" and "Total length (>= 0 bp)" include all contigs).

Assembly                                                                 #Contigs (>= 0 bp)  #Contigs (>= 1000 bp)  Total length (>= 0 bp)  Total length (>= 1000 bp)  #Contigs  Largest contig  Total length  Reference length  GC (%)  Reference GC (%)  N50    NG50   N75   NG75  #misassemblies  #local misassemblies  #unaligned contigs  Unaligned contigs length  Genome fraction (%)  Duplication ratio  #N's per 100 kbp  #mismatches per 100 kbp  #indels per 100 kbp  #genes           #predicted genes (unique)  #predicted genes (>= 0 bp)  #predicted genes (>= 300 bp)  #predicted genes (>= 1500 bp)  #predicted genes (>= 3000 bp)  Largest alignment  NA50   NGA50  NA75  NGA75
ABYSS_PE_PGM_sakai_pgm_mu_318_400bp_IO_TS3.4_ms_0.395percent_46-unitigs  8050                693                    5758660                 5009899                    1163      43756           5215037       5594470           50.22   50.48             11739  11003  5800  4548  2               6                     0 + 0 part          0                         92.096               1.001              0.00              1.38                     4.62                 4282 + 677 part  5738                       5738                        4560                          573                            51                             43756              11739  11003  5800  4548 
