1: PREPARING DATA
2,3: RUNNING mummer AND CREATING CLUSTERS
# reading input file "/vol/codine-tmp/juene/tmp.9Qha2YtAYM/quast/gage/tmp/CLC_MIS_PE_sakai_mis-2_bi_2x150bp_default__sakai_mis-1_bi_2x150bp_default.0.100percent.result.ntref" of length 5594473
# construct suffix tree for sequence of length 5594473
# (maximum reference length is 536870908)
# (maximum query length is 4294967295)
# process 55944 characters per dot
#....................................................................................................
# CONSTRUCTIONTIME /vol/ngscomparison/software/analysis/quast-2.1/libs/MUMmer3.23-linux/mummer /vol/codine-tmp/juene/tmp.9Qha2YtAYM/quast/gage/tmp/CLC_MIS_PE_sakai_mis-2_bi_2x150bp_default__sakai_mis-1_bi_2x150bp_default.0.100percent.result.ntref 2.99
# reading input file "/vol/codine-tmp/juene/tmp.9Qha2YtAYM/quast/corrected_input/CLC_MIS_PE_sakai_mis-2_bi_2x150bp_default__sakai_mis-1_bi_2x150bp_default.0.100percent.result" of length 5324949
# matching query-file "/vol/codine-tmp/juene/tmp.9Qha2YtAYM/quast/corrected_input/CLC_MIS_PE_sakai_mis-2_bi_2x150bp_default__sakai_mis-1_bi_2x150bp_default.0.100percent.result"
# against subject-file "/vol/codine-tmp/juene/tmp.9Qha2YtAYM/quast/gage/tmp/CLC_MIS_PE_sakai_mis-2_bi_2x150bp_default__sakai_mis-1_bi_2x150bp_default.0.100percent.result.ntref"
# COMPLETETIME /vol/ngscomparison/software/analysis/quast-2.1/libs/MUMmer3.23-linux/mummer /vol/codine-tmp/juene/tmp.9Qha2YtAYM/quast/gage/tmp/CLC_MIS_PE_sakai_mis-2_bi_2x150bp_default__sakai_mis-1_bi_2x150bp_default.0.100percent.result.ntref 8.81
# SPACE /vol/ngscomparison/software/analysis/quast-2.1/libs/MUMmer3.23-linux/mummer /vol/codine-tmp/juene/tmp.9Qha2YtAYM/quast/gage/tmp/CLC_MIS_PE_sakai_mis-2_bi_2x150bp_default__sakai_mis-1_bi_2x150bp_default.0.100percent.result.ntref 10.60
4: FINISHING DATA
Filtering alignments
Extracting alignment coordinates
Analyzing SNPs
Extracting alignment breakpoints
Generating report file
Found genome size at position 4 with value 5594470 aka 5594470
Calculating point at 0 and the sum is 1005016 and i is844 and lens is 868 and length is 30005
Calculating point at 1 and the sum is 2013202 and i is804 and lens is 868 and length is 20931
Calculating point at 2 and the sum is 3009529 and i is743 and lens is 868 and length is 12714
Calculating point at 3 and the sum is 4004465 and i is643 and lens is 868 and length is 8016
Calculating point at 4 and the sum is 5001602 and i is423 and lens is 868 and length is 2240
