calling: java -cp /vol/ngscomparison/software/analysis/quast-2.1/libs/gage:. SizeFasta /vol/codine-tmp/juene/tmp.9Qha2YtAYM/quast/corrected_input/Ecoli_Sakai_editedNew_plasmids.fasta |awk '{SUM+=; print SUM}'|tail -n 1
Contig Stats
Total units: 727
Reference: 5594470
BasesInFasta: 5324223
Min: 201
Max: 100619
N10: 56403 COUNT: 8
N25: 31269 COUNT: 29
N50: 18085 COUNT: 88
N75: 8249 COUNT: 206
E-size:23658.39

Genome Size: 5594470
Assembly Size: 5324223
Chaff bases: 0
Missing Reference Bases: 65318(1.17%)
Missing Assembly Bases: 9250(0.17%)
Missing Assembly Contigs: 1(0.14%)
Duplicated Reference Bases: 4923
Compressed Reference Bases: 253228
Bad Trim: 645
Avg Idy: 99.96
SNPs: 852
Indels < 5bp: 140
Indels >= 5: 113
Inversions: 16
Relocation: 12
Translocation: 0

Corrected Contig Stats
calling: java -cp /vol/ngscomparison/software/analysis/quast-2.1/libs/gage:.:. GetFastaStats -o -min 199 -genomeSize 5594470 /vol/codine-tmp/juene/tmp.9Qha2YtAYM/quast/gage/tmp/CLC_MIS_PE_sakai_mis-2_bi_2x150bp_default__sakai_mis-1_bi_2x150bp_default.0.100percent.result.matches.lens 2> /dev/null
Total units: 859
Reference: 5594470
BasesInFasta: 5323543
Min: 200
Max: 72517
N10: 39386 COUNT: 11
N25: 26474 COUNT: 38
N50: 14088 COUNT: 110
N75: 6952 COUNT: 251
E-size:18552.15

Done
