All statistics are based on contigs of size >= 200 bp, unless otherwise noted (e.g., "# contigs (>= 0 bp)" and "Total length (>= 0 bp)" include all contigs).

Assembly                         CLC_MIS_PE_sakai_mis-1_bi_2x250bp_SI_default__sakai_mis-2_bi_2x250bp_SI_default.0.95percent.result_broken  CLC_MIS_PE_sakai_mis-1_bi_2x250bp_SI_default__sakai_mis-2_bi_2x250bp_SI_default.0.95percent.result
#Mis_misassemblies               5                                                                                                          5                                                                                                 
#Mis_relocations                 5                                                                                                          5                                                                                                 
#Mis_translocations              0                                                                                                          0                                                                                                 
#Mis_inversions                  0                                                                                                          0                                                                                                 
#Mis_misassembled contigs        4                                                                                                          4                                                                                                 
Mis_Misassembled contigs length  416493                                                                                                     416493                                                                                            
#Mis_local misassemblies         4                                                                                                          16                                                                                                
#mismatches                      201                                                                                                        204                                                                                               
#indels                          25                                                                                                         27                                                                                                
#Mis_short indels (<= 5 bp)      17                                                                                                         17                                                                                                
#Mis_long indels (> 5 bp)        8                                                                                                          10                                                                                                
Indels length                    368                                                                                                        483                                                                                               
