Assembly	VELVET_MIS_PE_mtbh37-1_mis_2x250bp_nextera_default__mtbh37-2_mis_2x250bp_nextera_default_95.final.contigs_broken	VELVET_MIS_PE_mtbh37-1_mis_2x250bp_nextera_default__mtbh37-2_mis_2x250bp_nextera_default_95.final.contigs
#Mis_misassemblies	8	15
#Mis_relocations	8	13
#Mis_translocations	0	0
#Mis_inversions	0	2
#Mis_misassembled contigs	8	13
Mis_Misassembled contigs length	171851	825767
#Mis_local misassemblies	18	131
#mismatches	229	232
#indels	47	384
#Mis_short indels (<= 5 bp)	44	366
#Mis_long indels (> 5 bp)	3	18
Indels length	137	1083
