All statistics are based on contigs of size >= 200 bp, unless otherwise noted (e.g., "# contigs (>= 0 bp)" and "Total length (>= 0 bp)" include all contigs).

Assembly                                                                                                        GAGE_Contigs #  GAGE_Min contig  GAGE_Max contig  GAGE_N50         GAGE_Genome size  GAGE_Assembly size  GAGE_Chaff bases  GAGE_Missing reference bases  GAGE_Missing assembly bases  GAGE_Missing assembly contigs  GAGE_Duplicated reference bases  GAGE_Compressed reference bases  GAGE_Bad trim  GAGE_Avg idy  GAGE_SNPs  GAGE_Indels < 5bp  GAGE_Indels >= 5  GAGE_Inversions  GAGE_Relocation  GAGE_Translocation  GAGE_Corrected contig #  GAGE_Corrected assembly size  GAGE_Min correct contig  GAGE_Max correct contig  GAGE_Corrected N50
ABYSS_PE_MIS_PE_mtbh37-1_mis_2x250bp_nextera_default__mtbh37-2_mis_2x250bp_nextera_default_62-scaffolds_broken  185             205              175813           67247 COUNT: 20  4411532           4419462             0                 24665(0.56%)                  1048(0.02%)                  0(0.00%)                       8792                             12476                            1019           99.99         242        56                 33                2                2                0                   217                      4414783                       205                      175808                   49283 COUNT: 27   
ABYSS_PE_MIS_PE_mtbh37-1_mis_2x250bp_nextera_default__mtbh37-2_mis_2x250bp_nextera_default_62-scaffolds         147             205              207576           81568 COUNT: 17  4411532           4421793             0                 24558(0.56%)                  3247(0.07%)                  0(0.00%)                       8549                             9860                             1712           99.97         244        80                 57                2                3                0                   205                      4415048                       205                      175808                   56757 COUNT: 25   
