All statistics are based on contigs of size >= 200 bp, unless otherwise noted (e.g., "# contigs (>= 0 bp)" and "Total length (>= 0 bp)" include all contigs).

Assembly                                                                                                                 GAGE_Contigs #  GAGE_Min contig  GAGE_Max contig  GAGE_N50         GAGE_Genome size  GAGE_Assembly size  GAGE_Chaff bases  GAGE_Missing reference bases  GAGE_Missing assembly bases  GAGE_Missing assembly contigs  GAGE_Duplicated reference bases  GAGE_Compressed reference bases  GAGE_Bad trim  GAGE_Avg idy  GAGE_SNPs  GAGE_Indels < 5bp  GAGE_Indels >= 5  GAGE_Inversions  GAGE_Relocation  GAGE_Translocation  GAGE_Corrected contig #  GAGE_Corrected assembly size  GAGE_Min correct contig  GAGE_Max correct contig  GAGE_Corrected N50
ABYSS_PE_MIS_PE_mtbh37-1_mis_2x250bp_nextera_default__mtbh37-2_mis_2x250bp_nextera_default.0.850percent_76.final_broken  202             206              162944           59070 COUNT: 26  4411532           4435798             0                 28389(0.64%)                  925(0.02%)                   0(0.00%)                       10634                            8956                             882            99.98         216        58                 31                1                3                0                   234                      4429631                       206                      159195                   40563 COUNT: 32   
ABYSS_PE_MIS_PE_mtbh37-1_mis_2x250bp_nextera_default__mtbh37-2_mis_2x250bp_nextera_default.0.850percent_76.final         152             206              175680           83820 COUNT: 18  4411532           4438047             0                 27836(0.63%)                  2509(0.06%)                  0(0.00%)                       10634                            8022                             882            99.97         201        101                65                2                3                0                   219                      4431215                       206                      175677                   41652 COUNT: 30   
