Assembly	VELVET_MIS_PE_mrsa_mis-1_bi_2x250bp_default__mrsa_mis-2_bi_2x250bp_default.0.460percent_137.final.contigs_broken	VELVET_MIS_PE_mrsa_mis-1_bi_2x250bp_default__mrsa_mis-2_bi_2x250bp_default.0.460percent_137.final.contigs
#Contigs (>= 0 bp)	117	112
#Contigs (>= 1000 bp)	71	70
Total length (>= 0 bp)	2801788	2802015
Total length (>= 1000 bp)	2784893	2787133
#Contigs	117	112
Largest contig	238016	238016
Total length	2801788	2802015
Reference length	2813862	2813862
GC (%)	32.73	32.73
Reference GC (%)	32.81	32.81
N50	73459	75221
NG50	73459	75221
N75	40952	40952
NG75	40952	40952
#misassemblies	4	5
#local misassemblies	2	3
#unaligned contigs	2 + 0 part	2 + 0 part
Unaligned contigs length	4340	4340
Genome fraction (%)	98.783	98.783
Duplication ratio	1.002	1.002
#N's per 100 kbp	0.00	8.10
#mismatches per 100 kbp	1.87	2.12
#indels per 100 kbp	0.32	1.04
#genes	2670 + 42 part	2671 + 41 part
#predicted genes (unique)	2663	2661
#predicted genes (>= 0 bp)	2665	2663
#predicted genes (>= 300 bp)	2308	2306
#predicted genes (>= 1500 bp)	294	295
#predicted genes (>= 3000 bp)	29	29
Largest alignment	238016	238016
NA50	73459	75221
NGA50	73459	75221
NA75	40952	40952
NGA75	40952	40952
