1: PREPARING DATA
2,3: RUNNING mummer AND CREATING CLUSTERS
# reading input file "/vol/codine-tmp/juene/tmp.YPfiCCdhin/quast/gage/tmp/SOAP2_PGM_mtbh37_pgm_400bp_es_318v2_OT2_tsv3.6_morestringent_105.final.contig.ntref" of length 4411533
# construct suffix tree for sequence of length 4411533
# (maximum reference length is 536870908)
# (maximum query length is 4294967295)
# process 44115 characters per dot
#....................................................................................................
# CONSTRUCTIONTIME /vol/ngscomparison/software/analysis/quast-2.1/libs/MUMmer3.23-linux/mummer /vol/codine-tmp/juene/tmp.YPfiCCdhin/quast/gage/tmp/SOAP2_PGM_mtbh37_pgm_400bp_es_318v2_OT2_tsv3.6_morestringent_105.final.contig.ntref 1.99
# reading input file "/vol/codine-tmp/juene/tmp.YPfiCCdhin/quast/corrected_input/SOAP2_PGM_mtbh37_pgm_400bp_es_318v2_OT2_tsv3.6_morestringent_105.final.contig" of length 10705321
# matching query-file "/vol/codine-tmp/juene/tmp.YPfiCCdhin/quast/corrected_input/SOAP2_PGM_mtbh37_pgm_400bp_es_318v2_OT2_tsv3.6_morestringent_105.final.contig"
# against subject-file "/vol/codine-tmp/juene/tmp.YPfiCCdhin/quast/gage/tmp/SOAP2_PGM_mtbh37_pgm_400bp_es_318v2_OT2_tsv3.6_morestringent_105.final.contig.ntref"
# COMPLETETIME /vol/ngscomparison/software/analysis/quast-2.1/libs/MUMmer3.23-linux/mummer /vol/codine-tmp/juene/tmp.YPfiCCdhin/quast/gage/tmp/SOAP2_PGM_mtbh37_pgm_400bp_es_318v2_OT2_tsv3.6_morestringent_105.final.contig.ntref 15.60
# SPACE /vol/ngscomparison/software/analysis/quast-2.1/libs/MUMmer3.23-linux/mummer /vol/codine-tmp/juene/tmp.YPfiCCdhin/quast/gage/tmp/SOAP2_PGM_mtbh37_pgm_400bp_es_318v2_OT2_tsv3.6_morestringent_105.final.contig.ntref 16.09
4: FINISHING DATA
Filtering alignments
Extracting alignment coordinates
Analyzing SNPs
Extracting alignment breakpoints
Generating report file
Found genome size at position 4 with value 4411532 aka 4411532
Calculating point at 0 and the sum is 1000022 and i is20148 and lens is 22091 and length is 363
Calculating point at 1 and the sum is 2000094 and i is16619 and lens is 22091 and length is 225
Calculating point at 2 and the sum is 3000096 and i is11891 and lens is 22091 and length is 210
Calculating point at 3 and the sum is 4000158 and i is7108 and lens is 22091 and length is 208
Calculating point at 4 and the sum is 5000060 and i is2271 and lens is 22091 and length is 205
