Assembly	NEWBLER_MIS_PE_sakai_mis-2_bi_2x150bp_default__sakai_mis-1_bi_2x150bp_default.0.900percent.contigs_broken	NEWBLER_MIS_PE_sakai_mis-2_bi_2x150bp_default__sakai_mis-1_bi_2x150bp_default.0.900percent.contigs
#Contigs (>= 0 bp)	182	93
#Contigs (>= 1000 bp)	145	93
Total length (>= 0 bp)	5233976	5308107
Total length (>= 1000 bp)	5207532	5308107
#Contigs	182	93
Largest contig	259768	375278
Total length	5233976	5308107
Reference length	5594470	5594470
GC (%)	50.24	50.24
Reference GC (%)	50.48	50.48
N50	117545	148136
NG50	93542	147462
N75	46298	76122
NG75	40868	74532
#misassemblies	3	11
#local misassemblies	1	81
#unaligned contigs	1 + 0 part	1 + 0 part
Unaligned contigs length	5386	5386
Genome fraction (%)	92.482	93.198
Duplication ratio	1.000	1.015
#N's per 100 kbp	0.00	1396.56
#mismatches per 100 kbp	0.91	2.76
#indels per 100 kbp	0.23	0.40
#genes	4863 + 118 part	4893 + 134 part
#predicted genes (unique)	5044	5022
#predicted genes (>= 0 bp)	5044	5022
#predicted genes (>= 300 bp)	4321	4323
#predicted genes (>= 1500 bp)	664	663
#predicted genes (>= 3000 bp)	69	68
Largest alignment	259768	361127
NA50	117545	147890
NGA50	93542	145452
NA75	45179	75153
NGA75	39745	66126
