All statistics are based on contigs of size >= 200 bp, unless otherwise noted (e.g., "# contigs (>= 0 bp)" and "Total length (>= 0 bp)" include all contigs).

Assembly                                                                                                   #Contigs (>= 0 bp)  #Contigs (>= 1000 bp)  Total length (>= 0 bp)  Total length (>= 1000 bp)  #Contigs  Largest contig  Total length  Reference length  GC (%)  Reference GC (%)  N50     NG50    N75    NG75   #misassemblies  #local misassemblies  #unaligned contigs  Unaligned contigs length  Genome fraction (%)  Duplication ratio  #N's per 100 kbp  #mismatches per 100 kbp  #indels per 100 kbp  #genes           #predicted genes (unique)  #predicted genes (>= 0 bp)  #predicted genes (>= 300 bp)  #predicted genes (>= 1500 bp)  #predicted genes (>= 3000 bp)  Largest alignment  NA50    NGA50   NA75   NGA75
NEWBLER_MIS_PE_sakai_mis-2_bi_2x150bp_default__sakai_mis-1_bi_2x150bp_default.0.900percent.contigs_broken  182                 145                    5233976                 5207532                    182       259768          5233976       5594470           50.24   50.48             117545  93542   46298  40868  3               1                     1 + 0 part          5386                      92.482               1.000              0.00              0.91                     0.23                 4863 + 118 part  5044                       5044                        4321                          664                            69                             259768             117545  93542   45179  39745
NEWBLER_MIS_PE_sakai_mis-2_bi_2x150bp_default__sakai_mis-1_bi_2x150bp_default.0.900percent.contigs         93                  93                     5308107                 5308107                    93        375278          5308107       5594470           50.24   50.48             148136  147462  76122  74532  11              81                    1 + 0 part          5386                      93.198               1.015              1396.56           2.76                     0.40                 4893 + 134 part  5022                       5022                        4323                          663                            68                             361127             147890  145452  75153  66126
