Assembly	VELVET_MIS_PE_mrsa_mis-1_bi_2x250bp_default__mrsa_mis-2_bi_2x250bp_default.0.460percent_113.final.contigs_broken	VELVET_MIS_PE_mrsa_mis-1_bi_2x250bp_default__mrsa_mis-2_bi_2x250bp_default.0.460percent_113.final.contigs
#Contigs (>= 0 bp)	187	173
#Contigs (>= 1000 bp)	121	111
Total length (>= 0 bp)	2786435	2787313
Total length (>= 1000 bp)	2760271	2764270
#Contigs	187	173
Largest contig	149082	149082
Total length	2786435	2787313
Reference length	2813862	2813862
GC (%)	32.75	32.75
Reference GC (%)	32.81	32.81
N50	41272	45328
NG50	41272	44768
N75	23738	26017
NG75	23539	25907
#misassemblies	3	5
#local misassemblies	2	12
#unaligned contigs	3 + 0 part	3 + 0 part
Unaligned contigs length	4221	4221
Genome fraction (%)	98.283	98.298
Duplication ratio	1.001	1.001
#N's per 100 kbp	0.00	31.50
#mismatches per 100 kbp	1.52	1.48
#indels per 100 kbp	0.36	0.47
#genes	2614 + 92 part	2615 + 91 part
#predicted genes (unique)	2685	2682
#predicted genes (>= 0 bp)	2690	2687
#predicted genes (>= 300 bp)	2309	2307
#predicted genes (>= 1500 bp)	290	290
#predicted genes (>= 3000 bp)	27	27
Largest alignment	149082	149082
NA50	39617	43403
NGA50	39617	43403
NA75	23539	25551
NGA75	22973	25206
