calling: java -cp /vol/ngscomparison/software/analysis/quast-2.1/libs/gage:. SizeFasta /vol/codine-tmp/juene/tmp.31DiSNrVJW/quast/corrected_input/Mycobacterium_tuberculosis_H37Rv.fasta |awk '{SUM+=; print SUM}'|tail -n 1
Contig Stats
Total units: 4009
Reference: 4411532
BasesInFasta: 3749754
Min: 200
Max: 10449
N10: 4951 COUNT: 69
N25: 2996 COUNT: 246
N50: 1404 COUNT: 798
N75: 365 COUNT: 2375
E-size:2005.41

Genome Size: 4411532
Assembly Size: 3749754
Chaff bases: 0
Missing Reference Bases: 800776(18.15%)
Missing Assembly Bases: 32672(0.87%)
Missing Assembly Contigs: 5(0.12%)
Duplicated Reference Bases: 104060
Compressed Reference Bases: 48399
Bad Trim: 29907
Avg Idy: 99.86
SNPs: 763
Indels < 5bp: 3210
Indels >= 5: 11
Inversions: 125
Relocation: 35
Translocation: 0

Corrected Contig Stats
calling: java -cp /vol/ngscomparison/software/analysis/quast-2.1/libs/gage:.:. GetFastaStats -o -min 199 -genomeSize 4411532 /vol/codine-tmp/juene/tmp.31DiSNrVJW/quast/gage/tmp/CLC_PGM_mtbh37_pgm_200bp_es_IonOne_tsv2.0_morestringent.0.975percent.result.matches.lens 2> /dev/null
Total units: 3772
Reference: 4411532
BasesInFasta: 3603973
Min: 200
Max: 10260
N10: 4737 COUNT: 71
N25: 2754 COUNT: 258
N50: 1304 COUNT: 853
N75: 319 COUNT: 2617
E-size:1886.46

Done
