Assembly	VELVET_MIS_PE_mrsa_mis-1_bi_2x250bp_default__mrsa_mis-2_bi_2x250bp_default.0.460percent_123.final.contigs_broken	VELVET_MIS_PE_mrsa_mis-1_bi_2x250bp_default__mrsa_mis-2_bi_2x250bp_default.0.460percent_123.final.contigs
#Mis_misassemblies	2	2
#Mis_relocations	2	2
#Mis_translocations	0	0
#Mis_inversions	0	0
#Mis_misassembled contigs	2	2
Mis_Misassembled contigs length	88433	148838
#Mis_local misassemblies	1	6
#mismatches	35	38
#indels	9	104
#Mis_short indels (<= 5 bp)	9	103
#Mis_long indels (> 5 bp)	0	1
Indels length	9	169
