calling: java -cp /vol/ngscomparison/software/analysis/quast-2.1/libs/gage:. SizeFasta /vol/codine-tmp/juene/tmp.DchLXN7q43/quast/corrected_input/Ecoli_Sakai_editedNew_plasmids.fasta |awk '{SUM+=; print SUM}'|tail -n 1
Contig Stats
Total units: 977
Reference: 5594470
BasesInFasta: 5478063
Min: 201
Max: 127614
N10: 89707 COUNT: 6
N25: 57984 COUNT: 18
N50: 33085 COUNT: 51
N75: 16966 COUNT: 109
E-size:39694.14

Genome Size: 5594470
Assembly Size: 5478063
Chaff bases: 0
Missing Reference Bases: 25234(0.45%)
Missing Assembly Bases: 2267(0.04%)
Missing Assembly Contigs: 6(0.61%)
Duplicated Reference Bases: 114008
Compressed Reference Bases: 245990
Bad Trim: 429
Avg Idy: 99.99
SNPs: 93
Indels < 5bp: 488
Indels >= 5: 5
Inversions: 0
Relocation: 6
Translocation: 0

Corrected Contig Stats
calling: java -cp /vol/ngscomparison/software/analysis/quast-2.1/libs/gage:.:. GetFastaStats -o -min 199 -genomeSize 5594470 /vol/codine-tmp/juene/tmp.DchLXN7q43/quast/gage/tmp/CLC_PGM_sakai_pgm_mu_318_400bp_IO_TS3.4_ms.91coverage.result.matches.lens 2> /dev/null
Total units: 609
Reference: 5594470
BasesInFasta: 5362439
Min: 201
Max: 127616
N10: 86772 COUNT: 6
N25: 55006 COUNT: 19
N50: 32032 COUNT: 52
N75: 15784 COUNT: 112
E-size:38700.39

Done
