Assembly	VELVET_MIS_PE_mtbh37-1_mis_2x250bp_nextera_default__mtbh37-2_mis_2x250bp_nextera_default_109.final.contigs_broken	VELVET_MIS_PE_mtbh37-1_mis_2x250bp_nextera_default__mtbh37-2_mis_2x250bp_nextera_default_109.final.contigs
GAGE_Contigs #	582	277
GAGE_Min contig	201	217
GAGE_Max contig	49836	104295
GAGE_N50	12416 COUNT: 112	33488 COUNT: 40
GAGE_Genome size	4411532	4411532
GAGE_Assembly size	4231575	4270439
GAGE_Chaff bases	0	0
GAGE_Missing reference bases	144260(3.27%)	144237(3.27%)
GAGE_Missing assembly bases	1042(0.02%)	39679(0.93%)
GAGE_Missing assembly contigs	0(0.00%)	0(0.00%)
GAGE_Duplicated reference bases	1981	2180
GAGE_Compressed reference bases	57641	57641
GAGE_Bad trim	1042	1257
GAGE_Avg idy	99.99	99.99
GAGE_SNPs	171	171
GAGE_Indels < 5bp	28	33
GAGE_Indels >= 5	15	310
GAGE_Inversions	0	1
GAGE_Relocation	3	10
GAGE_Translocation	0	0
GAGE_Corrected contig #	596	595
GAGE_Corrected assembly size	4232056	4232079
GAGE_Min correct contig	217	217
GAGE_Max correct contig	49835	49835
GAGE_Corrected N50	12167 COUNT: 116	12167 COUNT: 116
