Assembly	GAGE_Contigs #	GAGE_Min contig	GAGE_Max contig	GAGE_N50	GAGE_Genome size	GAGE_Assembly size	GAGE_Chaff bases	GAGE_Missing reference bases	GAGE_Missing assembly bases	GAGE_Missing assembly contigs	GAGE_Duplicated reference bases	GAGE_Compressed reference bases	GAGE_Bad trim	GAGE_Avg idy	GAGE_SNPs	GAGE_Indels < 5bp	GAGE_Indels >= 5	GAGE_Inversions	GAGE_Relocation	GAGE_Translocation	GAGE_Corrected contig #	GAGE_Corrected assembly size	GAGE_Min correct contig	GAGE_Max correct contig	GAGE_Corrected N50
SOAP2_MIS_PE_mrsa_mis-1_bi_2x250bp_default.0.460percent_33.final.scaf_broken	6009	200	4292	677 COUNT: 1184	2813862	2907474	0	535225(19.02%)	608446(20.93%)	2523(41.99%)	853	2258	498	99.98	58	387	448	0	3	0	3736	2269569	200	4289	601 COUNT: 1337
SOAP2_MIS_PE_mrsa_mis-1_bi_2x250bp_default.0.460percent_33.final.scaf	5090	200	6447	1195 COUNT: 687	2813862	3065439	0	466418(16.58%)	693306(22.62%)	2535(49.80%)	853	3018	14983	99.89	58	531	1883	0	4	0	3646	2257469	200	4289	608 COUNT: 1303
