Assembly	SOAP2_MIS_PE_mrsa_mis-1_bi_2x250bp_default.0.460percent_33.final.scaf_broken	SOAP2_MIS_PE_mrsa_mis-1_bi_2x250bp_default.0.460percent_33.final.scaf
GAGE_Contigs #	6009	5090
GAGE_Min contig	200	200
GAGE_Max contig	4292	6447
GAGE_N50	677 COUNT: 1184	1195 COUNT: 687
GAGE_Genome size	2813862	2813862
GAGE_Assembly size	2907474	3065439
GAGE_Chaff bases	0	0
GAGE_Missing reference bases	535225(19.02%)	466418(16.58%)
GAGE_Missing assembly bases	608446(20.93%)	693306(22.62%)
GAGE_Missing assembly contigs	2523(41.99%)	2535(49.80%)
GAGE_Duplicated reference bases	853	853
GAGE_Compressed reference bases	2258	3018
GAGE_Bad trim	498	14983
GAGE_Avg idy	99.98	99.89
GAGE_SNPs	58	58
GAGE_Indels < 5bp	387	531
GAGE_Indels >= 5	448	1883
GAGE_Inversions	0	0
GAGE_Relocation	3	4
GAGE_Translocation	0	0
GAGE_Corrected contig #	3736	3646
GAGE_Corrected assembly size	2269569	2257469
GAGE_Min correct contig	200	200
GAGE_Max correct contig	4289	4289
GAGE_Corrected N50	601 COUNT: 1337	608 COUNT: 1303
