Assembly	SOAP2_MIS_PE_mrsa_mis-1_bi_2x250bp_default.0.460percent_83.final.scaf_broken	SOAP2_MIS_PE_mrsa_mis-1_bi_2x250bp_default.0.460percent_83.final.scaf
#Contigs (>= 0 bp)	7300	7212
#Contigs (>= 1000 bp)	352	310
Total length (>= 0 bp)	4284787	4287684
Total length (>= 1000 bp)	2706781	2729654
#Contigs	5185	5108
Largest contig	55035	57988
Total length	3950700	3955336
Reference length	2813862	2813862
GC (%)	33.72	33.72
Reference GC (%)	32.81	32.81
N50	7503	8665
NG50	11222	13114
N75	251	251
NG75	6337	8061
#misassemblies	3	4
#local misassemblies	8	27
#unaligned contigs	3591 + 156 part	3592 + 156 part
Unaligned contigs length	925603	926681
Genome fraction (%)	98.197	98.273
Duplication ratio	1.091	1.091
#N's per 100 kbp	5.59	78.83
#mismatches per 100 kbp	19.22	18.52
#indels per 100 kbp	3.18	16.67
#genes	2371 + 319 part	2415 + 278 part
#predicted genes (unique)	7243	7215
#predicted genes (>= 0 bp)	7247	7219
#predicted genes (>= 300 bp)	2412	2409
#predicted genes (>= 1500 bp)	260	263
#predicted genes (>= 3000 bp)	26	26
Largest alignment	55035	57988
NA50	7496	8665
NGA50	11150	13045
NA75	248	248
NGA75	6205	8060
