All statistics are based on contigs of size >= 200 bp, unless otherwise noted (e.g., "# contigs (>= 0 bp)" and "Total length (>= 0 bp)" include all contigs).

Assembly                                                                         #Contigs (>= 0 bp)  #Contigs (>= 1000 bp)  Total length (>= 0 bp)  Total length (>= 1000 bp)  #Contigs  Largest contig  Total length  Reference length  GC (%)  Reference GC (%)  N50    NG50   N75    NG75   #misassemblies  #local misassemblies  #unaligned contigs  Unaligned contigs length  Genome fraction (%)  Duplication ratio  #N's per 100 kbp  #mismatches per 100 kbp  #indels per 100 kbp  #genes           #predicted genes (unique)  #predicted genes (>= 0 bp)  #predicted genes (>= 300 bp)  #predicted genes (>= 1500 bp)  #predicted genes (>= 3000 bp)  Largest alignment  NA50   NGA50  NA75   NGA75
SOAP2_MIS_PE_sakai_mis-1_bi_2x250bp_SI_default.0.64percent_95.final.scaf_broken  4878                791                    5884560                 5075398                    1383      51795           5304137       5594470           50.25   50.48             8956   8502   4796   4123   6               44                    6 + 0 part          7122                      93.053               1.001              5.96              2.77                     1.42                 4213 + 933 part  6050                       6063                        4674                          556                            46                             51795              8952   8501   4779   4120 
SOAP2_MIS_PE_sakai_mis-1_bi_2x250bp_SI_default.0.64percent_95.final.scaf         3981                250                    5927417                 5238565                    588       146301          5362265       5594470           50.26   50.48             46371  45417  25139  21830  24              686                   13 + 13 part        22757                     93.188               1.012              805.13            4.26                     40.09                4289 + 860 part  5878                       5891                        4631                          568                            52                             145144             46181  43382  24729  20013
