Assembly	VELVET_MIS_PE_mtbh37-1_mis_2x250bp_nextera_default__mtbh37-2_mis_2x250bp_nextera_default_201.final.contigs_broken	VELVET_MIS_PE_mtbh37-1_mis_2x250bp_nextera_default__mtbh37-2_mis_2x250bp_nextera_default_201.final.contigs
#Mis_misassemblies	3	3
#Mis_relocations	3	3
#Mis_translocations	0	0
#Mis_inversions	0	0
#Mis_misassembled contigs	3	3
Mis_Misassembled contigs length	8261	10165
#Mis_local misassemblies	3	644
#mismatches	368	365
#indels	39	894
#Mis_short indels (<= 5 bp)	38	885
#Mis_long indels (> 5 bp)	1	9
Indels length	65	1356
