calling: java -cp /vol/ngscomparison/software/analysis/quast-2.1/libs/gage:. SizeFasta /vol/codine-tmp/juene/tmp.N2hkF60gUx/quast/corrected_input/MRSA_COL_Plasmid.fasta |awk '{SUM+=; print SUM}'|tail -n 1
Contig Stats
Total units: 111
Reference: 2813862
BasesInFasta: 2763213
Min: 217
Max: 185163
N10: 148601 COUNT: 2
N25: 86171 COUNT: 6
N50: 55038 COUNT: 16
N75: 31824 COUNT: 32
E-size:68487.2

Genome Size: 2813862
Assembly Size: 2763213
Chaff bases: 0
Missing Reference Bases: 28892(1.03%)
Missing Assembly Bases: 2(0.00%)
Missing Assembly Contigs: 0(0.00%)
Duplicated Reference Bases: 217
Compressed Reference Bases: 33599
Bad Trim: 0
Avg Idy: 99.98
SNPs: 200
Indels < 5bp: 14
Indels >= 5: 13
Inversions: 0
Relocation: 2
Translocation: 0

Corrected Contig Stats
calling: java -cp /vol/ngscomparison/software/analysis/quast-2.1/libs/gage:.:. GetFastaStats -o -min 199 -genomeSize 2813862 /vol/codine-tmp/juene/tmp.N2hkF60gUx/quast/gage/tmp/ABYSS_PE_MIS_PE_mrsa_mis-1_bi_2x150bp_default__mrsa_mis-2_bi_2x150bp_default.0.527percent_34-scaffolds_broken.matches.lens 2> /dev/null
Total units: 125
Reference: 2813862
BasesInFasta: 2765121
Min: 207
Max: 143039
N10: 100247 COUNT: 3
N25: 74694 COUNT: 8
N50: 45774 COUNT: 20
N75: 25940 COUNT: 40
E-size:52586.19

Done
