Assembly	CLC_PGM_mtbh37_pgm_400bp_es_318v2_OT2_tsv3.6_morestringent.0.975percent.result
#Contigs (>= 0 bp)	913
#Contigs (>= 1000 bp)	339
Total length (>= 0 bp)	4349466
Total length (>= 1000 bp)	4158375
#Contigs	913
Largest contig	67205
Total length	4349466
Reference length	4411532
GC (%)	65.35
Reference GC (%)	65.61
N50	18200
NG50	18020
N75	10045
NG75	9647
#misassemblies	17
#local misassemblies	9
#unaligned contigs	2 + 14 part
Unaligned contigs length	2374
Genome fraction (%)	96.123
Duplication ratio	1.026
#N's per 100 kbp	9.27
#mismatches per 100 kbp	4.17
#indels per 100 kbp	27.26
#genes	3712 + 337 part
#predicted genes (unique)	4970
#predicted genes (>= 0 bp)	4978
#predicted genes (>= 300 bp)	3823
#predicted genes (>= 1500 bp)	457
#predicted genes (>= 3000 bp)	44
Largest alignment	67186
NA50	18053
NGA50	17884
NA75	10045
NGA75	9647
