Assembly	CLC_PGM_sakai_pgm_mu_318_400bp_IO_TS3.4_ms.0.925percent.result
#Una_fully unaligned contigs	14
Una_Fully unaligned length	3432
#Una_partially unaligned contigs	8
#Una_with misassembly	0
#Una_both parts are significant	0
Una_Partially unaligned length	652
#N's	2008
