Assembly	VELVET_MIS_PE_sakai_mis-1_bi_2x150bp_default__sakai_mis-2_bi_2x150bp_default.0.826percent_145.final.contigs_broken	VELVET_MIS_PE_sakai_mis-1_bi_2x150bp_default__sakai_mis-2_bi_2x150bp_default.0.826percent_145.final.contigs
#Contigs	11	10
#Contigs (>= 0 bp)	11	10
#Contigs (>= 1000 bp)	0	0
Largest contig	779	966
Total length	6281	6406
Total length (>= 0 bp)	6281	6406
Total length (>= 1000 bp)	0	0
Reference length	5594470	5594470
N50	574	698
NG50	None	None
N75	502	572
NG75	None	None
L50	5	4
LG50	None	None
L75	8	7
LG75	None	None
#local misassemblies	0	1
#misassemblies	0	0
#misassembled contigs	0	0
Misassembled contigs length	0	0
Misassemblies inter-contig overlap	0	0
#unaligned contigs	0 + 0 part	0 + 0 part
Unaligned contigs length	0	0
#ambiguously mapped contigs	10	8
Extra bases in ambiguously mapped contigs	-5583	-4742
#N's	0	125
#N's per 100 kbp	0.00	1951.30
Genome fraction (%)	0.012	0.028
Duplication ratio	1.000	1.081
#genes	1 + 1 part	1 + 2 part
#predicted genes (unique)	14	14
#predicted genes (>= 0 bp)	14	14
#predicted genes (>= 300 bp)	7	7
#predicted genes (>= 1500 bp)	0	0
#predicted genes (>= 3000 bp)	0	0
#mismatches	1	1
#indels	0	0
Indels length	0	0
#mismatches per 100 kbp	143.27	64.98
#indels per 100 kbp	0.00	0.00
GC (%)	55.72	55.72
Reference GC (%)	50.48	50.48
Average %IDY	99.639	99.639
Largest alignment	698	841
NA50	None	None
NGA50	None	None
NA75	None	None
NGA75	None	None
LA50	None	None
LGA50	None	None
LA75	None	None
LGA75	None	None
#Mis_misassemblies	0	0
#Mis_relocations	0	0
#Mis_translocations	0	0
#Mis_inversions	0	0
#Mis_misassembled contigs	0	0
Mis_Misassembled contigs length	0	0
#Mis_local misassemblies	0	1
#Mis_short indels (<= 5 bp)	0	0
#Mis_long indels (> 5 bp)	0	0
#Una_fully unaligned contigs	0	0
Una_Fully unaligned length	0	0
#Una_partially unaligned contigs	0	0
#Una_with misassembly	0	0
#Una_both parts are significant	0	0
Una_Partially unaligned length	0	0
GAGE_Contigs #	11	10
GAGE_Min contig	388	434
GAGE_Max contig	779	966
GAGE_N50	0 COUNT: 0	0 COUNT: 0
GAGE_Genome size	5594470	5594470
GAGE_Assembly size	6281	6406
GAGE_Chaff bases	0	0
GAGE_Missing reference bases	5539512(99.02%)	5539512(99.02%)
GAGE_Missing assembly bases	0(0.00%)	125(1.95%)
GAGE_Missing assembly contigs	0(0.00%)	0(0.00%)
GAGE_Duplicated reference bases	0	0
GAGE_Compressed reference bases	49755	49755
GAGE_Bad trim	0	0
GAGE_Avg idy	99.98	99.98
GAGE_SNPs	1	1
GAGE_Indels < 5bp	0	0
GAGE_Indels >= 5	0	1
GAGE_Inversions	0	0
GAGE_Relocation	0	0
GAGE_Translocation	0	0
GAGE_Corrected contig #	11	11
GAGE_Corrected assembly size	6281	6281
GAGE_Min correct contig	388	388
GAGE_Max correct contig	779	779
GAGE_Corrected N50	0 COUNT: 0	0 COUNT: 0
