1: PREPARING DATA
2,3: RUNNING mummer AND CREATING CLUSTERS
# reading input file "/vol/codine-tmp/juene/tmp.hGqQNyAkCy/quast/contigs_reports/nucmer_output/CLC_PGM_mrsa_pgm_400bp_es_318_IKA_ts3.2_morestringent.0.250percent.result.ntref" of length 2813864
# construct suffix tree for sequence of length 2813864
# (maximum reference length is 536870908)
# (maximum query length is 4294967295)
# process 28138 characters per dot
#....................................................................................................
# CONSTRUCTIONTIME /vol/ngscomparison/software/analysis/quast-2.1/libs/MUMmer3.23-linux/mummer /vol/codine-tmp/juene/tmp.hGqQNyAkCy/quast/contigs_reports/nucmer_output/CLC_PGM_mrsa_pgm_400bp_es_318_IKA_ts3.2_morestringent.0.250percent.result.ntref 1.37
# reading input file "/vol/codine-tmp/juene/tmp.hGqQNyAkCy/quast/corrected_input/CLC_PGM_mrsa_pgm_400bp_es_318_IKA_ts3.2_morestringent.0.250percent.result" of length 2919456
# matching query-file "/vol/codine-tmp/juene/tmp.hGqQNyAkCy/quast/corrected_input/CLC_PGM_mrsa_pgm_400bp_es_318_IKA_ts3.2_morestringent.0.250percent.result"
# against subject-file "/vol/codine-tmp/juene/tmp.hGqQNyAkCy/quast/contigs_reports/nucmer_output/CLC_PGM_mrsa_pgm_400bp_es_318_IKA_ts3.2_morestringent.0.250percent.result.ntref"
# COMPLETETIME /vol/ngscomparison/software/analysis/quast-2.1/libs/MUMmer3.23-linux/mummer /vol/codine-tmp/juene/tmp.hGqQNyAkCy/quast/contigs_reports/nucmer_output/CLC_PGM_mrsa_pgm_400bp_es_318_IKA_ts3.2_morestringent.0.250percent.result.ntref 4.58
# SPACE /vol/ngscomparison/software/analysis/quast-2.1/libs/MUMmer3.23-linux/mummer /vol/codine-tmp/juene/tmp.hGqQNyAkCy/quast/contigs_reports/nucmer_output/CLC_PGM_mrsa_pgm_400bp_es_318_IKA_ts3.2_morestringent.0.250percent.result.ntref 5.57
4: FINISHING DATA
