1: PREPARING DATA
2,3: RUNNING mummer AND CREATING CLUSTERS
# reading input file "/vol/codine-tmp/juene/tmp.f9KZT95k4O/quast/gage/tmp/ABYSS_PE_PGM_mtbh37_pgm_400bp_es_318v2_OT2_tsv3.6_morestringent.0.100percent_58.final.ntref" of length 4411533
# construct suffix tree for sequence of length 4411533
# (maximum reference length is 536870908)
# (maximum query length is 4294967295)
# process 44115 characters per dot
#....................................................................................................
# CONSTRUCTIONTIME /vol/ngscomparison/software/analysis/quast-2.1/libs/MUMmer3.23-linux/mummer /vol/codine-tmp/juene/tmp.f9KZT95k4O/quast/gage/tmp/ABYSS_PE_PGM_mtbh37_pgm_400bp_es_318v2_OT2_tsv3.6_morestringent.0.100percent_58.final.ntref 3.05
# reading input file "/vol/codine-tmp/juene/tmp.f9KZT95k4O/quast/corrected_input/ABYSS_PE_PGM_mtbh37_pgm_400bp_es_318v2_OT2_tsv3.6_morestringent.0.100percent_58.final" of length 3844093
# matching query-file "/vol/codine-tmp/juene/tmp.f9KZT95k4O/quast/corrected_input/ABYSS_PE_PGM_mtbh37_pgm_400bp_es_318v2_OT2_tsv3.6_morestringent.0.100percent_58.final"
# against subject-file "/vol/codine-tmp/juene/tmp.f9KZT95k4O/quast/gage/tmp/ABYSS_PE_PGM_mtbh37_pgm_400bp_es_318v2_OT2_tsv3.6_morestringent.0.100percent_58.final.ntref"
# COMPLETETIME /vol/ngscomparison/software/analysis/quast-2.1/libs/MUMmer3.23-linux/mummer /vol/codine-tmp/juene/tmp.f9KZT95k4O/quast/gage/tmp/ABYSS_PE_PGM_mtbh37_pgm_400bp_es_318v2_OT2_tsv3.6_morestringent.0.100percent_58.final.ntref 8.10
# SPACE /vol/ngscomparison/software/analysis/quast-2.1/libs/MUMmer3.23-linux/mummer /vol/codine-tmp/juene/tmp.f9KZT95k4O/quast/gage/tmp/ABYSS_PE_PGM_mtbh37_pgm_400bp_es_318v2_OT2_tsv3.6_morestringent.0.100percent_58.final.ntref 8.08
4: FINISHING DATA
Filtering alignments
Extracting alignment coordinates
Analyzing SNPs
Extracting alignment breakpoints
Generating report file
Found genome size at position 4 with value 4411532 aka 4411532
Calculating point at 0 and the sum is 1000936 and i is3267 and lens is 3556 and length is 2478
Calculating point at 1 and the sum is 2000857 and i is2749 and lens is 3556 and length is 1492
Calculating point at 2 and the sum is 3000016 and i is1838 and lens is 3556 and length is 805
