1: PREPARING DATA
2,3: RUNNING mummer AND CREATING CLUSTERS
# reading input file "/vol/codine-tmp/juene/tmp.c89F4Y9cHF/quast/gage/tmp/CLC_MIS_PE_mtbh37-1_mis_2x250bp_nextera_default__mtbh37-2_mis_2x250bp_nextera_default.0.175percent.result_broken.ntref" of length 4411533
# construct suffix tree for sequence of length 4411533
# (maximum reference length is 536870908)
# (maximum query length is 4294967295)
# process 44115 characters per dot
#....................................................................................................
# CONSTRUCTIONTIME /vol/ngscomparison/software/analysis/quast-2.1/libs/MUMmer3.23-linux/mummer /vol/codine-tmp/juene/tmp.c89F4Y9cHF/quast/gage/tmp/CLC_MIS_PE_mtbh37-1_mis_2x250bp_nextera_default__mtbh37-2_mis_2x250bp_nextera_default.0.175percent.result_broken.ntref 2.49
# reading input file "/vol/codine-tmp/juene/tmp.c89F4Y9cHF/quast/corrected_input/CLC_MIS_PE_mtbh37-1_mis_2x250bp_nextera_default__mtbh37-2_mis_2x250bp_nextera_default.0.175percent.result_broken" of length 4318963
# matching query-file "/vol/codine-tmp/juene/tmp.c89F4Y9cHF/quast/corrected_input/CLC_MIS_PE_mtbh37-1_mis_2x250bp_nextera_default__mtbh37-2_mis_2x250bp_nextera_default.0.175percent.result_broken"
# against subject-file "/vol/codine-tmp/juene/tmp.c89F4Y9cHF/quast/gage/tmp/CLC_MIS_PE_mtbh37-1_mis_2x250bp_nextera_default__mtbh37-2_mis_2x250bp_nextera_default.0.175percent.result_broken.ntref"
# COMPLETETIME /vol/ngscomparison/software/analysis/quast-2.1/libs/MUMmer3.23-linux/mummer /vol/codine-tmp/juene/tmp.c89F4Y9cHF/quast/gage/tmp/CLC_MIS_PE_mtbh37-1_mis_2x250bp_nextera_default__mtbh37-2_mis_2x250bp_nextera_default.0.175percent.result_broken.ntref 6.68
# SPACE /vol/ngscomparison/software/analysis/quast-2.1/libs/MUMmer3.23-linux/mummer /vol/codine-tmp/juene/tmp.c89F4Y9cHF/quast/gage/tmp/CLC_MIS_PE_mtbh37-1_mis_2x250bp_nextera_default__mtbh37-2_mis_2x250bp_nextera_default.0.175percent.result_broken.ntref 8.47
4: FINISHING DATA
Filtering alignments
Extracting alignment coordinates
Analyzing SNPs
Extracting alignment breakpoints
Generating report file
Found genome size at position 4 with value 4411532 aka 4411532
Calculating point at 0 and the sum is 1012467 and i is611 and lens is 631 and length is 34613
Calculating point at 1 and the sum is 2001383 and i is576 and lens is 631 and length is 22971
Calculating point at 2 and the sum is 3007843 and i is520 and lens is 631 and length is 13986
Calculating point at 3 and the sum is 4000926 and i is394 and lens is 631 and length is 3433
