Assembly	CLC_MIS_PE_sakai_mis-1_bi_2x150bp_default__sakai_mis-2_bi_2x150bp_default.11coverage.result_broken	CLC_MIS_PE_sakai_mis-1_bi_2x150bp_default__sakai_mis-2_bi_2x150bp_default.11coverage.result
#Mis_misassemblies	18	21
#Mis_relocations	18	21
#Mis_translocations	0	0
#Mis_inversions	0	0
#Mis_misassembled contigs	18	21
Mis_Misassembled contigs length	513401	625216
#Mis_local misassemblies	15	42
#mismatches	1070	1081
#indels	299	356
#Mis_short indels (<= 5 bp)	241	292
#Mis_long indels (> 5 bp)	58	64
Indels length	1904	2119
