Assembly	NEWBLER_PGM_sakai_pgm_mu_200bp_IO_TS3.0Disabled_stringent.1coverage.contigs
#Mis_misassemblies	18
#Mis_relocations	8
#Mis_translocations	0
#Mis_inversions	10
#Mis_misassembled contigs	18
Mis_Misassembled contigs length	11610
#Mis_local misassemblies	1
#mismatches	313
#indels	188
#Mis_short indels (<= 5 bp)	186
#Mis_long indels (> 5 bp)	2
Indels length	230
