Assembly	NEWBLER_PGM_sakai_pgm_mu_200bp_IO_TS3.0Disabled_stringent.1coverage.contigs
#Una_fully unaligned contigs	1
Una_Fully unaligned length	496
#Una_partially unaligned contigs	4
#Una_with misassembly	0
#Una_both parts are significant	0
Una_Partially unaligned length	173
#N's	0
