Assembly	VELVET_MIS_PE_mrsa_mis-1_bi_2x250bp_default__mrsa_mis-2_bi_2x250bp_default.0.460percent_227.final.contigs_broken	VELVET_MIS_PE_mrsa_mis-1_bi_2x250bp_default__mrsa_mis-2_bi_2x250bp_default.0.460percent_227.final.contigs
#Contigs	408	390
#Contigs (>= 0 bp)	408	390
#Contigs (>= 1000 bp)	70	84
Largest contig	4666	4666
Total length	353232	355327
Total length (>= 0 bp)	353232	355327
Total length (>= 1000 bp)	93585	118032
Reference length	2813862	2813862
N50	836	863
NG50	None	None
N75	732	742
NG75	None	None
L50	162	149
LG50	None	None
L75	275	260
LG75	None	None
#local misassemblies	0	15
#misassemblies	2	2
#misassembled contigs	2	2
Misassembled contigs length	5656	5656
Misassemblies inter-contig overlap	1	1
#unaligned contigs	3 + 0 part	5 + 0 part
Unaligned contigs length	2999	5535
#ambiguously mapped contigs	12	12
Extra bases in ambiguously mapped contigs	-5925	-5925
#N's	0	2095
#N's per 100 kbp	0.00	589.60
Genome fraction (%)	12.032	11.947
Duplication ratio	1.017	1.023
#genes	101 + 397 part	102 + 394 part
#predicted genes (unique)	563	562
#predicted genes (>= 0 bp)	563	562
#predicted genes (>= 300 bp)	404	404
#predicted genes (>= 1500 bp)	2	2
#predicted genes (>= 3000 bp)	0	0
#mismatches	9	9
#indels	0	77
Indels length	0	77
#mismatches per 100 kbp	2.66	2.68
#indels per 100 kbp	0.00	22.90
GC (%)	35.72	35.72
Reference GC (%)	32.81	32.81
Average %IDY	99.898	99.888
Largest alignment	3998	3998
NA50	824	846
NGA50	None	None
NA75	729	733
NGA75	None	None
LA50	164	154
LGA50	None	None
LA75	278	267
LGA75	None	None
#Mis_misassemblies	2	2
#Mis_relocations	2	2
#Mis_translocations	0	0
#Mis_inversions	0	0
#Mis_misassembled contigs	2	2
Mis_Misassembled contigs length	5656	5656
#Mis_local misassemblies	0	15
#Mis_short indels (<= 5 bp)	0	77
#Mis_long indels (> 5 bp)	0	0
#Una_fully unaligned contigs	3	5
Una_Fully unaligned length	2999	5535
#Una_partially unaligned contigs	0	0
#Una_with misassembly	0	0
#Una_both parts are significant	0	0
Una_Partially unaligned length	0	0
GAGE_Contigs #	408	390
GAGE_Min contig	453	453
GAGE_Max contig	4666	4666
GAGE_N50	0 COUNT: 0	0 COUNT: 0
GAGE_Genome size	2813862	2813862
GAGE_Assembly size	353232	355327
GAGE_Chaff bases	0	0
GAGE_Missing reference bases	2443356(86.83%)	2443356(86.83%)
GAGE_Missing assembly bases	3004(0.85%)	5099(1.44%)
GAGE_Missing assembly contigs	3(0.74%)	3(0.77%)
GAGE_Duplicated reference bases	1132	1132
GAGE_Compressed reference bases	37697	37697
GAGE_Bad trim	5	5
GAGE_Avg idy	100.00	100.00
GAGE_SNPs	9	9
GAGE_Indels < 5bp	0	0
GAGE_Indels >= 5	0	18
GAGE_Inversions	0	0
GAGE_Relocation	1	1
GAGE_Translocation	0	0
GAGE_Corrected contig #	404	404
GAGE_Corrected assembly size	349097	349097
GAGE_Min correct contig	453	453
GAGE_Max correct contig	3998	3998
GAGE_Corrected N50	0 COUNT: 0	0 COUNT: 0
