All statistics are based on contigs of size >= 200 bp, unless otherwise noted (e.g., "# contigs (>= 0 bp)" and "Total length (>= 0 bp)" include all contigs).

Assembly                                                                                                  #Contigs  #Contigs (>= 0 bp)  #Contigs (>= 1000 bp)  Largest contig  Total length  Total length (>= 0 bp)  Total length (>= 1000 bp)  Reference length  N50    NG50   N75    NG75   L50  LG50  L75  LG75  #local misassemblies  #misassemblies  #misassembled contigs  Misassembled contigs length  Misassemblies inter-contig overlap  #unaligned contigs  Unaligned contigs length  #ambiguously mapped contigs  Extra bases in ambiguously mapped contigs  #N's  #N's per 100 kbp  Genome fraction (%)  Duplication ratio  #genes          #predicted genes (unique)  #predicted genes (>= 0 bp)  #predicted genes (>= 300 bp)  #predicted genes (>= 1500 bp)  #predicted genes (>= 3000 bp)  #mismatches  #indels  Indels length  #mismatches per 100 kbp  #indels per 100 kbp  GC (%)  Reference GC (%)  Average %IDY  Largest alignment  NA50   NGA50  NA75   NGA75  LA50  LGA50  LA75  LGA75  #Mis_misassemblies  #Mis_relocations  #Mis_translocations  #Mis_inversions  #Mis_misassembled contigs  Mis_Misassembled contigs length  #Mis_local misassemblies  #Mis_short indels (<= 5 bp)  #Mis_long indels (> 5 bp)  #Una_fully unaligned contigs  Una_Fully unaligned length  #Una_partially unaligned contigs  #Una_with misassembly  #Una_both parts are significant  Una_Partially unaligned length  GAGE_Contigs #  GAGE_Min contig  GAGE_Max contig  GAGE_N50         GAGE_Genome size  GAGE_Assembly size  GAGE_Chaff bases  GAGE_Missing reference bases  GAGE_Missing assembly bases  GAGE_Missing assembly contigs  GAGE_Duplicated reference bases  GAGE_Compressed reference bases  GAGE_Bad trim  GAGE_Avg idy  GAGE_SNPs  GAGE_Indels < 5bp  GAGE_Indels >= 5  GAGE_Inversions  GAGE_Relocation  GAGE_Translocation  GAGE_Corrected contig #  GAGE_Corrected assembly size  GAGE_Min correct contig  GAGE_Max correct contig  GAGE_Corrected N50
ABYSS_PE_MIS_PE_mrsa_mis-1_bi_2x250bp_default__mrsa_mis-2_bi_2x250bp_default.56coverage_114.final_broken  147       211                 79                     185912          2801749       2811189                 2779361                    2813862           71495  66624  37439  37439  13   14    28   28    0                     3               3                      68425                        1                                   0 + 0 part          0                         18                           -8833                                      0     0.00              98.990               1.003              2663 + 54 part  2698                       2701                        2292                          298                            29                             40           9        9              1.44                     0.32                 32.72   32.81             98.766        185912             71495  61981  37439  37439  13    14     28    28     3                   3                 0                    0                3                          68425                            0                         9                            0                          0                             0                           0                                 0                      0                                0                               147             204              185912           66624 COUNT: 14  2813862           2801749             0                 566(0.02%)                    0(0.00%)                     0(0.00%)                       3766                             30028                            0              99.99         42         6                  0                 0                2                0                   132                      2797992                       204                      185911                   61981 COUNT: 14   
ABYSS_PE_MIS_PE_mrsa_mis-1_bi_2x250bp_default__mrsa_mis-2_bi_2x250bp_default.56coverage_114.final         145       209                 77                     185912          2801849       2811289                 2779461                    2813862           71495  66624  37439  37439  13   14    28   28    0                     4               4                      74964                        1                                   0 + 0 part          0                         18                           -8833                                      100   3.57              98.990               1.003              2664 + 53 part  2881                       2884                        2285                          297                            29                             39           10       36             1.40                     0.36                 32.72   32.81             98.762        185912             71495  61981  37439  37439  13    14     28    28     4                   4                 0                    0                4                          74964                            0                         9                            1                          0                             0                           0                                 0                      0                                0                               145             204              185912           66624 COUNT: 14  2813862           2801849             0                 566(0.02%)                    100(0.00%)                   0(0.00%)                       3766                             30028                            0              99.99         42         6                  0                 1                2                0                   132                      2797992                       204                      185911                   61981 COUNT: 14   
