Assembly	SOAP2_PGM_mrsa_pgm_200bp_es_316_IonOnev2_ts3.0_morestringent.0.230percent_89.final.contig
#Mis_misassemblies	18
#Mis_relocations	9
#Mis_translocations	1
#Mis_inversions	8
#Mis_misassembled contigs	18
Mis_Misassembled contigs length	16060
#Mis_local misassemblies	3
#mismatches	99
#indels	1016
#Mis_short indels (<= 5 bp)	1016
#Mis_long indels (> 5 bp)	0
Indels length	1051
