All statistics are based on contigs of size >= 200 bp, unless otherwise noted (e.g., "# contigs (>= 0 bp)" and "Total length (>= 0 bp)" include all contigs).

Assembly                                                                                      #Mis_misassemblies  #Mis_relocations  #Mis_translocations  #Mis_inversions  #Mis_misassembled contigs  Mis_Misassembled contigs length  #Mis_local misassemblies  #mismatches  #indels  #Mis_short indels (<= 5 bp)  #Mis_long indels (> 5 bp)  Indels length
ABYSS_PE_MIS_PE_sakai_mis-both_bi_2x250bp_SI_default.0.64percent.NEWBLER_44-scaffolds_broken  4                   4                 0                    0                4                          144039                           6                         874          70       59                           11                         309          
ABYSS_PE_MIS_PE_sakai_mis-both_bi_2x250bp_SI_default.0.64percent.NEWBLER_44-scaffolds         12                  12                0                    0                10                         213459                           26                        954          269      247                          22                         738          
