Assembly	SOAP2_PGM_sakai_pgm_mu_200bp_IO_TS3.0Disabled_stringent.0.34percent_71.final.contig
#Mis_misassemblies	82
#Mis_relocations	12
#Mis_translocations	0
#Mis_inversions	70
#Mis_misassembled contigs	80
Mis_Misassembled contigs length	18277
#Mis_local misassemblies	2
#mismatches	358
#indels	3833
#Mis_short indels (<= 5 bp)	3833
#Mis_long indels (> 5 bp)	0
Indels length	3927
