All statistics are based on contigs of size >= 200 bp, unless otherwise noted (e.g., "# contigs (>= 0 bp)" and "Total length (>= 0 bp)" include all contigs).

Assembly                                                                       #Contigs  #Contigs (>= 0 bp)  #Contigs (>= 1000 bp)  Largest contig  Total length  Total length (>= 0 bp)  Total length (>= 1000 bp)  Reference length  N50  NG50  N75  NG75  L50    LG50  L75    LG75   #local misassemblies  #misassemblies  #misassembled contigs  Misassembled contigs length  Misassemblies inter-contig overlap  #unaligned contigs  Unaligned contigs length  #ambiguously mapped contigs  Extra bases in ambiguously mapped contigs  #N's  #N's per 100 kbp  Genome fraction (%)  Duplication ratio  #genes           #predicted genes (unique)  #predicted genes (>= 0 bp)  #predicted genes (>= 300 bp)  #predicted genes (>= 1500 bp)  #predicted genes (>= 3000 bp)  #mismatches  #indels  Indels length  #mismatches per 100 kbp  #indels per 100 kbp  GC (%)  Reference GC (%)  Average %IDY  Largest alignment  NA50  NGA50  NA75  NGA75  LA50   LGA50  LA75   LGA75  #Mis_misassemblies  #Mis_relocations  #Mis_translocations  #Mis_inversions  #Mis_misassembled contigs  Mis_Misassembled contigs length  #Mis_local misassemblies  #Mis_short indels (<= 5 bp)  #Mis_long indels (> 5 bp)  #Una_fully unaligned contigs  Una_Fully unaligned length  #Una_partially unaligned contigs  #Una_with misassembly  #Una_both parts are significant  Una_Partially unaligned length  GAGE_Contigs #  GAGE_Min contig  GAGE_Max contig  GAGE_N50         GAGE_Genome size  GAGE_Assembly size  GAGE_Chaff bases  GAGE_Missing reference bases  GAGE_Missing assembly bases  GAGE_Missing assembly contigs  GAGE_Duplicated reference bases  GAGE_Compressed reference bases  GAGE_Bad trim  GAGE_Avg idy  GAGE_SNPs  GAGE_Indels < 5bp  GAGE_Indels >= 5  GAGE_Inversions  GAGE_Relocation  GAGE_Translocation  GAGE_Corrected contig #  GAGE_Corrected assembly size  GAGE_Min correct contig  GAGE_Max correct contig  GAGE_Corrected N50
SOAP2_PGM_mtbh37_pgm_400bp_es_318v2_OT2_tsv3.6_morestringent_101.final.contig  35808     121525              30                     1645            8307266       20711404                34430                      4411532           202  265   201  202   15104  5897  25436  10921  5                     47              47                     13814                        636                                 132 + 21 part       44125                     261                          -54200                                     0     0.00              90.258               2.062              158 + 3815 part  31634                      31896                       2101                          0                              0                              549          16894    17330          13.79                    424.28               65.00   65.61             99.499        1645               201   259    201   202    15216  5946   25549  11033  47                  46                0                    1                47                         13814                            5                         16893                        1                          132                           42003                       21                                0                      0                                2122                            35808           200              1645             265 COUNT: 5897  4411532           8307266             0                 371938(8.43%)                 13355(0.16%)                 23(0.06%)                      3123380                          54182                            6608           99.66         315        11300              5                 1                1                0                   18793                    4671708                       200                      1646                     209 COUNT: 6574   
