Assembly	SOAP2_MIS_PE_sakai_mis-1_bi_2x150bp_default.0.826percent_57.final.scaf_broken	SOAP2_MIS_PE_sakai_mis-1_bi_2x150bp_default.0.826percent_57.final.scaf
GAGE_Contigs #	1128	312
GAGE_Min contig	200	200
GAGE_Max contig	52613	374485
GAGE_N50	10135 COUNT: 168	145219 COUNT: 13
GAGE_Genome size	5594470	5594470
GAGE_Assembly size	5219590	5336967
GAGE_Chaff bases	0	0
GAGE_Missing reference bases	269257(4.81%)	206725(3.70%)
GAGE_Missing assembly bases	5971(0.11%)	77828(1.46%)
GAGE_Missing assembly contigs	2(0.18%)	2(0.64%)
GAGE_Duplicated reference bases	769	4434
GAGE_Compressed reference bases	126757	155789
GAGE_Bad trim	295	10144
GAGE_Avg idy	100.00	99.89
GAGE_SNPs	77	80
GAGE_Indels < 5bp	39	307
GAGE_Indels >= 5	15	944
GAGE_Inversions	4	13
GAGE_Relocation	5	18
GAGE_Translocation	0	0
GAGE_Corrected contig #	1136	1030
GAGE_Corrected assembly size	5211660	5211817
GAGE_Min correct contig	200	200
GAGE_Max correct contig	52613	64744
GAGE_Corrected N50	9919 COUNT: 170	11112 COUNT: 152
