Assembly	ABYSS_PE_PGM_mrsa_pgm_400bp_es_318_IKA_ts3.2_morestringent.0.165percent_44-unitigs
#Mis_misassemblies	1
#Mis_relocations	1
#Mis_translocations	0
#Mis_inversions	0
#Mis_misassembled contigs	1
Mis_Misassembled contigs length	3462
#Mis_local misassemblies	4
#mismatches	77
#indels	90
#Mis_short indels (<= 5 bp)	90
#Mis_long indels (> 5 bp)	0
Indels length	95
