All statistics are based on contigs of size >= 200 bp, unless otherwise noted (e.g., "# contigs (>= 0 bp)" and "Total length (>= 0 bp)" include all contigs).

Assembly                         ABYSS_PE_MIS_PE_sakai_mis-1_bi_2x250bp_SI_default__sakai_mis-2_bi_2x250bp_SI_default.0.9percent_90.final_broken  ABYSS_PE_MIS_PE_sakai_mis-1_bi_2x250bp_SI_default__sakai_mis-2_bi_2x250bp_SI_default.0.9percent_90.final
GAGE_Contigs #                   590                                                                                                              590                                                                                                     
GAGE_Min contig                  200                                                                                                              200                                                                                                     
GAGE_Max contig                  224315                                                                                                           224315                                                                                                  
GAGE_N50                         74821 COUNT: 22                                                                                                  74821 COUNT: 22                                                                                         
GAGE_Genome size                 5594470                                                                                                          5594470                                                                                                 
GAGE_Assembly size               5378321                                                                                                          5378321                                                                                                 
GAGE_Chaff bases                 0                                                                                                                0                                                                                                       
GAGE_Missing reference bases     16691(0.30%)                                                                                                     16691(0.30%)                                                                                            
GAGE_Missing assembly bases      0(0.00%)                                                                                                         0(0.00%)                                                                                                
GAGE_Missing assembly contigs    0(0.00%)                                                                                                         0(0.00%)                                                                                                
GAGE_Duplicated reference bases  5774                                                                                                             5774                                                                                                    
GAGE_Compressed reference bases  274852                                                                                                           274852                                                                                                  
GAGE_Bad trim                    0                                                                                                                0                                                                                                       
GAGE_Avg idy                     100.00                                                                                                           100.00                                                                                                  
GAGE_SNPs                        125                                                                                                              125                                                                                                     
GAGE_Indels < 5bp                12                                                                                                               12                                                                                                      
GAGE_Indels >= 5                 1                                                                                                                1                                                                                                       
GAGE_Inversions                  0                                                                                                                0                                                                                                       
GAGE_Relocation                  3                                                                                                                3                                                                                                       
GAGE_Translocation               0                                                                                                                0                                                                                                       
GAGE_Corrected contig #          571                                                                                                              571                                                                                                     
GAGE_Corrected assembly size     5372625                                                                                                          5372625                                                                                                 
GAGE_Min correct contig          200                                                                                                              200                                                                                                     
GAGE_Max correct contig          224315                                                                                                           224315                                                                                                  
GAGE_Corrected N50               74822 COUNT: 22                                                                                                  74822 COUNT: 22                                                                                         
