Assembly	#Contigs (>= 0 bp)	#Contigs (>= 1000 bp)	Total length (>= 0 bp)	Total length (>= 1000 bp)	#Contigs	Largest contig	Total length	Reference length	GC (%)	Reference GC (%)	N50	NG50	N75	NG75	#misassemblies	#local misassemblies	#unaligned contigs	Unaligned contigs length	Genome fraction (%)	Duplication ratio	#N's per 100 kbp	#mismatches per 100 kbp	#indels per 100 kbp	#genes	#predicted genes (unique)	#predicted genes (>= 0 bp)	#predicted genes (>= 300 bp)	#predicted genes (>= 1500 bp)	#predicted genes (>= 3000 bp)	Largest alignment	NA50	NGA50	NA75	NGA75
ABYSS_PE_MIS_PE_sakai_mis-1_bi_2x250bp_SI_default__sakai_mis-2_bi_2x250bp_SI_default.0.9percent_90.final_broken	1159	206	5456756	5232268	590	224315	5378321	5594470	50.31	50.48	78730	74821	31330	29723	2	2	0 + 0 part	0	94.118	1.002	0.00	1.50	0.27	4883 + 253 part	5494	5511	4460	661	68	224315	78730	74821	31164	29723
ABYSS_PE_MIS_PE_sakai_mis-1_bi_2x250bp_SI_default__sakai_mis-2_bi_2x250bp_SI_default.0.9percent_90.final	1159	206	5456756	5232268	590	224315	5378321	5594470	50.31	50.48	78730	74821	31330	29723	2	2	0 + 0 part	0	94.118	1.002	0.00	1.50	0.27	4883 + 253 part	5494	5511	4460	661	68	224315	78730	74821	31164	29723
