Assembly	ABYSS_PE_PGM_sakai_pgm_mu_200bp_IO_TS3.0Disabled_stringent.0.7percent_136.final
#Una_fully unaligned contigs	1
Una_Fully unaligned length	1413
#Una_partially unaligned contigs	1
#Una_with misassembly	0
#Una_both parts are significant	0
Una_Partially unaligned length	30
#N's	0
