calling: java -cp /vol/ngscomparison/software/analysis/quast-2.1/libs/gage:. SizeFasta /vol/codine-tmp/juene/tmp.FRQD0hVhNj/quast/corrected_input/Ecoli_Sakai_editedNew_plasmids.fasta |awk '{SUM+=; print SUM}'|tail -n 1
Contig Stats
Total units: 960
Reference: 5594470
BasesInFasta: 236224
Min: 200
Max: 550
N10: 0 COUNT: 0
N25: 0 COUNT: 0
N50: 0 COUNT: 0
N75: 0 COUNT: 0
E-size:10.81

Genome Size: 5594470
Assembly Size: 236224
Chaff bases: 0
Missing Reference Bases: 5369776(95.98%)
Missing Assembly Bases: 11985(5.07%)
Missing Assembly Contigs: 44(4.58%)
Duplicated Reference Bases: 0
Compressed Reference Bases: 524
Bad Trim: 145
Avg Idy: 99.96
SNPs: 6
Indels < 5bp: 80
Indels >= 5: 0
Inversions: 0
Relocation: 0
Translocation: 0

Corrected Contig Stats
calling: java -cp /vol/ngscomparison/software/analysis/quast-2.1/libs/gage:.:. GetFastaStats -o -min 199 -genomeSize 5594470 /vol/codine-tmp/juene/tmp.FRQD0hVhNj/quast/gage/tmp/SOAP2_PGM_sakai_pgm_mu_318_400bp_IO_TS3.4_ms_0.395percent_35.final.contig.matches.lens 2> /dev/null
Total units: 914
Reference: 5594470
BasesInFasta: 223936
Min: 200
Max: 550
N10: 0 COUNT: 0
N25: 0 COUNT: 0
N50: 0 COUNT: 0
N75: 0 COUNT: 0
E-size:10.19

Done
