Assembly	CLC_MIS_PE_mrsa_mis-1_bi_2x150bp_default__mrsa_mis-2_bi_2x150bp_default.51coverage.result_broken	CLC_MIS_PE_mrsa_mis-1_bi_2x150bp_default__mrsa_mis-2_bi_2x150bp_default.51coverage.result
GAGE_Contigs #	52	49
GAGE_Min contig	211	211
GAGE_Max contig	553180	553180
GAGE_N50	135228 COUNT: 6	155022 COUNT: 5
GAGE_Genome size	2813862	2813862
GAGE_Assembly size	2777868	2777998
GAGE_Chaff bases	0	0
GAGE_Missing reference bases	6567(0.23%)	6567(0.23%)
GAGE_Missing assembly bases	5403(0.19%)	5533(0.20%)
GAGE_Missing assembly contigs	1(1.92%)	1(2.04%)
GAGE_Duplicated reference bases	358	358
GAGE_Compressed reference bases	37921	37921
GAGE_Bad trim	3	17
GAGE_Avg idy	99.99	99.99
GAGE_SNPs	41	41
GAGE_Indels < 5bp	13	13
GAGE_Indels >= 5	9	11
GAGE_Inversions	1	1
GAGE_Relocation	3	4
GAGE_Translocation	0	0
GAGE_Corrected contig #	64	64
GAGE_Corrected assembly size	2774108	2774108
GAGE_Min correct contig	211	211
GAGE_Max correct contig	297703	297703
GAGE_Corrected N50	97479 COUNT: 9	97479 COUNT: 9
