Assembly	#Contigs	#Contigs (>= 0 bp)	#Contigs (>= 1000 bp)	Largest contig	Total length	Total length (>= 0 bp)	Total length (>= 1000 bp)	Reference length	N50	NG50	N75	NG75	L50	LG50	L75	LG75	#local misassemblies	#misassemblies	#misassembled contigs	Misassembled contigs length	Misassemblies inter-contig overlap	#unaligned contigs	Unaligned contigs length	#ambiguously mapped contigs	Extra bases in ambiguously mapped contigs	#N's	#N's per 100 kbp	Genome fraction (%)	Duplication ratio	#genes	#predicted genes (unique)	#predicted genes (>= 0 bp)	#predicted genes (>= 300 bp)	#predicted genes (>= 1500 bp)	#predicted genes (>= 3000 bp)	#mismatches	#indels	Indels length	#mismatches per 100 kbp	#indels per 100 kbp	GC (%)	Reference GC (%)	Average %IDY	Largest alignment	NA50	NGA50	NA75	NGA75	LA50	LGA50	LA75	LGA75	#Mis_misassemblies	#Mis_relocations	#Mis_translocations	#Mis_inversions	#Mis_misassembled contigs	Mis_Misassembled contigs length	#Mis_local misassemblies	#Mis_short indels (<= 5 bp)	#Mis_long indels (> 5 bp)	#Una_fully unaligned contigs	Una_Fully unaligned length	#Una_partially unaligned contigs	#Una_with misassembly	#Una_both parts are significant	Una_Partially unaligned length	GAGE_Contigs #	GAGE_Min contig	GAGE_Max contig	GAGE_N50	GAGE_Genome size	GAGE_Assembly size	GAGE_Chaff bases	GAGE_Missing reference bases	GAGE_Missing assembly bases	GAGE_Missing assembly contigs	GAGE_Duplicated reference bases	GAGE_Compressed reference bases	GAGE_Bad trim	GAGE_Avg idy	GAGE_SNPs	GAGE_Indels < 5bp	GAGE_Indels >= 5	GAGE_Inversions	GAGE_Relocation	GAGE_Translocation	GAGE_Corrected contig #	GAGE_Corrected assembly size	GAGE_Min correct contig	GAGE_Max correct contig	GAGE_Corrected N50
ABYSS_PE_MIS_PE_sakai_mis-2_bi_2x150bp_default__sakai_mis-1_bi_2x150bp_default.0.850percent_62.final_broken	268	952	181	290859	5476940	5553815	5431907	5594470	100088	98911	50103	45956	17	18	36	38	4	3	3	342534	1141	0 + 0 part	0	44	-42027	38	0.69	95.879	1.013	5053 + 168 part	5250	5362	4516	689	75	1218	52	180	22.71	0.97	50.39	50.48	98.978	261257	98911	95732	50103	45956	18	19	37	39	3	3	0	0	3	342534	4	48	4	0	0	0	0	0	0	268	201	290859	98911 COUNT: 18	5594470	5476940	0	52867(0.94%)	9(0.00%)	0(0.00%)	15793	201789	2	99.97	741	37	8	0	3	0	257	5462639	201	261257	95731 COUNT: 19
ABYSS_PE_MIS_PE_sakai_mis-2_bi_2x150bp_default__sakai_mis-1_bi_2x150bp_default.0.850percent_62.final	216	900	161	375475	5479934	5556809	5448966	5594470	149520	148473	71744	67807	12	13	27	28	21	18	16	646805	1416	0 + 2 part	554	26	-21484	3032	55.33	96.132	1.015	5081 + 164 part	5237	5349	4517	690	74	1247	243	500	23.19	4.52	50.39	50.48	98.953	353964	148473	148263	71744	67807	13	14	28	29	18	17	1	0	16	646805	21	233	10	0	0	2	0	2	554	216	201	375475	148473 COUNT: 13	5594470	5479934	0	52613(0.94%)	2682(0.05%)	0(0.00%)	15793	204824	452	99.96	741	53	26	7	13	1	253	5463799	201	261257	98911 COUNT: 19
