Assembly	VELVET_MIS_PE_mrsa_mis-1_bi_2x250bp_default__mrsa_mis-2_bi_2x250bp_default.0.460percent_129.final.contigs_broken	VELVET_MIS_PE_mrsa_mis-1_bi_2x250bp_default__mrsa_mis-2_bi_2x250bp_default.0.460percent_129.final.contigs
#Contigs (>= 0 bp)	119	111
#Contigs (>= 1000 bp)	71	68
Total length (>= 0 bp)	2794820	2795209
Total length (>= 1000 bp)	2778121	2780605
#Contigs	118	111
Largest contig	238000	238000
Total length	2794621	2795209
Reference length	2813862	2813862
GC (%)	32.73	32.73
Reference GC (%)	32.81	32.81
N50	73459	73459
NG50	73459	73459
N75	43256	45985
NG75	43256	43256
#misassemblies	4	6
#local misassemblies	1	5
#unaligned contigs	2 + 0 part	2 + 0 part
Unaligned contigs length	4308	4308
Genome fraction (%)	98.579	98.597
Duplication ratio	1.001	1.001
#N's per 100 kbp	0.00	13.92
#mismatches per 100 kbp	1.55	1.33
#indels per 100 kbp	0.40	0.94
#genes	2661 + 49 part	2662 + 48 part
#predicted genes (unique)	2660	2660
#predicted genes (>= 0 bp)	2664	2665
#predicted genes (>= 300 bp)	2304	2302
#predicted genes (>= 1500 bp)	296	296
#predicted genes (>= 3000 bp)	30	30
Largest alignment	238000	238000
NA50	73459	73459
NGA50	73459	73459
NA75	43256	43256
NGA75	43256	43256
