Assembly	#Una_fully unaligned contigs	Una_Fully unaligned length	#Una_partially unaligned contigs	#Una_with misassembly	#Una_both parts are significant	Una_Partially unaligned length	#N's
SOAP2_MIS_PE_mrsa_mis-1_bi_2x150bp_default.0.527percent_17.final.scaf_broken	75	26707	29	0	0	1360	2327
SOAP2_MIS_PE_mrsa_mis-1_bi_2x150bp_default.0.527percent_17.final.scaf	202	539047	172	25	104	850392	347218
