All statistics are based on contigs of size >= 200 bp, unless otherwise noted (e.g., "# contigs (>= 0 bp)" and "Total length (>= 0 bp)" include all contigs).

Assembly                         ABYSS_PE_MIS_PE_mtbh37-1_mis_2x250bp_nextera_default__mtbh37-2_mis_2x250bp_nextera_default_32-scaffolds_broken  ABYSS_PE_MIS_PE_mtbh37-1_mis_2x250bp_nextera_default__mtbh37-2_mis_2x250bp_nextera_default_32-scaffolds
#Mis_misassemblies               3                                                                                                               3                                                                                                      
#Mis_relocations                 3                                                                                                               3                                                                                                      
#Mis_translocations              0                                                                                                               0                                                                                                      
#Mis_inversions                  0                                                                                                               0                                                                                                      
#Mis_misassembled contigs        3                                                                                                               3                                                                                                      
Mis_Misassembled contigs length  5717                                                                                                            10030                                                                                                  
#Mis_local misassemblies         30                                                                                                              72                                                                                                     
#mismatches                      428                                                                                                             425                                                                                                    
#indels                          102                                                                                                             412                                                                                                    
#Mis_short indels (<= 5 bp)      82                                                                                                              375                                                                                                    
#Mis_long indels (> 5 bp)        20                                                                                                              37                                                                                                     
Indels length                    566                                                                                                             1214                                                                                                   
