Assembly	CLC_MIS_PE_mrsa_mis-1_bi_2x250bp_default__mrsa_mis-2_bi_2x250bp_default.61coverage.result_broken	CLC_MIS_PE_mrsa_mis-1_bi_2x250bp_default__mrsa_mis-2_bi_2x250bp_default.61coverage.result
#Contigs	218	215
#Contigs (>= 0 bp)	218	215
#Contigs (>= 1000 bp)	43	40
Largest contig	327218	327218
Total length	2827482	2827756
Total length (>= 0 bp)	2827482	2827756
Total length (>= 1000 bp)	2778755	2779029
Reference length	2813862	2813862
N50	122429	148779
NG50	129691	148779
N75	69409	69409
NG75	69409	74472
L50	8	7
LG50	7	7
L75	15	14
LG75	15	13
#local misassemblies	4	6
#misassemblies	3	3
#misassembled contigs	3	3
Misassembled contigs length	454857	454857
Misassemblies inter-contig overlap	1462	1462
#unaligned contigs	166 + 0 part	166 + 0 part
Unaligned contigs length	49826	49826
#ambiguously mapped contigs	7	7
Extra bases in ambiguously mapped contigs	-7675	-7675
#N's	52	326
#N's per 100 kbp	1.84	11.53
Genome fraction (%)	98.479	98.481
Duplication ratio	1.000	1.000
#genes	2680 + 24 part	2681 + 23 part
#predicted genes (unique)	2801	2800
#predicted genes (>= 0 bp)	2801	2800
#predicted genes (>= 300 bp)	2301	2301
#predicted genes (>= 1500 bp)	301	301
#predicted genes (>= 3000 bp)	29	29
#mismatches	119	119
#indels	24	25
Indels length	110	162
#mismatches per 100 kbp	4.29	4.29
#indels per 100 kbp	0.87	0.90
GC (%)	33.00	33.00
Reference GC (%)	32.81	32.81
Average %IDY	98.498	98.494
Largest alignment	327218	327218
NA50	116365	129691
NGA50	116365	129691
NA75	68396	69409
NGA75	68396	69409
LA50	9	8
LGA50	9	8
LA75	17	15
LGA75	17	15
#Mis_misassemblies	3	3
#Mis_relocations	3	3
#Mis_translocations	0	0
#Mis_inversions	0	0
#Mis_misassembled contigs	3	3
Mis_Misassembled contigs length	454857	454857
#Mis_local misassemblies	4	6
#Mis_short indels (<= 5 bp)	22	22
#Mis_long indels (> 5 bp)	2	3
#Una_fully unaligned contigs	166	166
Una_Fully unaligned length	49826	49826
#Una_partially unaligned contigs	0	0
#Una_with misassembly	0	0
#Una_both parts are significant	0	0
Una_Partially unaligned length	0	0
GAGE_Contigs #	218	215
GAGE_Min contig	201	201
GAGE_Max contig	327218	327218
GAGE_N50	129691 COUNT: 7	148779 COUNT: 7
GAGE_Genome size	2813862	2813862
GAGE_Assembly size	2827482	2827756
GAGE_Chaff bases	0	0
GAGE_Missing reference bases	5818(0.21%)	5818(0.21%)
GAGE_Missing assembly bases	49924(1.77%)	50198(1.78%)
GAGE_Missing assembly contigs	166(76.15%)	166(77.21%)
GAGE_Duplicated reference bases	0	0
GAGE_Compressed reference bases	32661	32661
GAGE_Bad trim	92	235
GAGE_Avg idy	99.99	99.99
GAGE_SNPs	58	58
GAGE_Indels < 5bp	15	15
GAGE_Indels >= 5	8	11
GAGE_Inversions	0	0
GAGE_Relocation	2	2
GAGE_Translocation	0	0
GAGE_Corrected contig #	62	62
GAGE_Corrected assembly size	2779162	2779162
GAGE_Min correct contig	206	206
GAGE_Max correct contig	327217	327217
GAGE_Corrected N50	109188 COUNT: 9	109188 COUNT: 9
