Assembly	ABYSS_PE_PGM_mtbh37_pgm_400bp_es_318v2_OT2_tsv3.6_morestringent_52-unitigs
GAGE_Contigs #	2309
GAGE_Min contig	200
GAGE_Max contig	14564
GAGE_N50	2710 COUNT: 480
GAGE_Genome size	4411532
GAGE_Assembly size	4155193
GAGE_Chaff bases	0
GAGE_Missing reference bases	240369(5.45%)
GAGE_Missing assembly bases	889(0.02%)
GAGE_Missing assembly contigs	2(0.09%)
GAGE_Duplicated reference bases	0
GAGE_Compressed reference bases	22374
GAGE_Bad trim	57
GAGE_Avg idy	99.98
GAGE_SNPs	77
GAGE_Indels < 5bp	653
GAGE_Indels >= 5	6
GAGE_Inversions	0
GAGE_Relocation	7
GAGE_Translocation	0
GAGE_Corrected contig #	2320
GAGE_Corrected assembly size	4156406
GAGE_Min correct contig	200
GAGE_Max correct contig	14565
GAGE_Corrected N50	2674 COUNT: 483
