Assembly	NEWBLER_PGM_sakai_pgm_mu_200bp_IO_TS3.0Disabled_stringent.contigs
#Mis_misassemblies	17
#Mis_relocations	3
#Mis_translocations	0
#Mis_inversions	14
#Mis_misassembled contigs	17
Mis_Misassembled contigs length	75394
#Mis_local misassemblies	3
#mismatches	71
#indels	842
#Mis_short indels (<= 5 bp)	841
#Mis_long indels (> 5 bp)	1
Indels length	886
