All statistics are based on contigs of size >= 200 bp, unless otherwise noted (e.g., "# contigs (>= 0 bp)" and "Total length (>= 0 bp)" include all contigs).

Assembly                       VELVET_MIS_PE_mrsa_mis-1_bi_2x150bp_default__mrsa_mis-2_bi_2x150bp_default.0.527percent_23.final.contigs_broken  VELVET_MIS_PE_mrsa_mis-1_bi_2x150bp_default__mrsa_mis-2_bi_2x150bp_default.0.527percent_23.final.contigs
#Contigs (>= 0 bp)             631                                                                                                              509                                                                                                     
#Contigs (>= 1000 bp)          183                                                                                                              90                                                                                                      
Total length (>= 0 bp)         2762940                                                                                                          2766977                                                                                                 
Total length (>= 1000 bp)      2706126                                                                                                          2724463                                                                                                 
#Contigs                       243                                                                                                              125                                                                                                     
Largest contig                 77183                                                                                                            164124                                                                                                  
Total length                   2734839                                                                                                          2739393                                                                                                 
Reference length               2813862                                                                                                          2813862                                                                                                 
GC (%)                         32.65                                                                                                            32.65                                                                                                   
Reference GC (%)               32.81                                                                                                            32.81                                                                                                   
N50                            28171                                                                                                            55061                                                                                                   
NG50                           26796                                                                                                            53670                                                                                                   
N75                            14633                                                                                                            33848                                                                                                   
NG75                           13441                                                                                                            32131                                                                                                   
#misassemblies                 4                                                                                                                7                                                                                                       
#local misassemblies           12                                                                                                               50                                                                                                      
#unaligned contigs             1 + 2 part                                                                                                       1 + 0 part                                                                                              
Unaligned contigs length       6092                                                                                                             5408                                                                                                    
Genome fraction (%)            96.635                                                                                                           96.738                                                                                                  
Duplication ratio              1.000                                                                                                            1.002                                                                                                   
#N's per 100 kbp               0.00                                                                                                             147.37                                                                                                  
#mismatches per 100 kbp        14.49                                                                                                            15.21                                                                                                   
#indels per 100 kbp            3.13                                                                                                             14.22                                                                                                   
#genes                         2506 + 126 part                                                                                                  2550 + 83 part                                                                                          
#predicted genes (unique)      2690                                                                                                             2660                                                                                                    
#predicted genes (>= 0 bp)     2690                                                                                                             2660                                                                                                    
#predicted genes (>= 300 bp)   2295                                                                                                             2283                                                                                                    
#predicted genes (>= 1500 bp)  289                                                                                                              291                                                                                                     
#predicted genes (>= 3000 bp)  30                                                                                                               28                                                                                                      
Largest alignment              77182                                                                                                            164074                                                                                                  
NA50                           26897                                                                                                            53670                                                                                                   
NGA50                          26450                                                                                                            53020                                                                                                   
NA75                           14633                                                                                                            32131                                                                                                   
NGA75                          13388                                                                                                            29100                                                                                                   
