All statistics are based on contigs of size >= 200 bp, unless otherwise noted (e.g., "# contigs (>= 0 bp)" and "Total length (>= 0 bp)" include all contigs).

Assembly                                                                      #Mis_misassemblies  #Mis_relocations  #Mis_translocations  #Mis_inversions  #Mis_misassembled contigs  Mis_Misassembled contigs length  #Mis_local misassemblies  #mismatches  #indels  #Mis_short indels (<= 5 bp)  #Mis_long indels (> 5 bp)  Indels length
SOAP2_MIS_PE_mrsa_mis-1_bi_2x250bp_default.0.460percent_79.final.scaf_broken  4                   4                 0                    0                4                          13532                            5                         1572         208      148                          60                         3287         
SOAP2_MIS_PE_mrsa_mis-1_bi_2x250bp_default.0.460percent_79.final.scaf         6                   6                 0                    0                6                          14681                            52                        1228         1732     1560                         172                        9053         
