Assembly	SOAP2_MIS_PE_mrsa_mis-1_bi_2x250bp_default.0.460percent_79.final.scaf_broken	SOAP2_MIS_PE_mrsa_mis-1_bi_2x250bp_default.0.460percent_79.final.scaf
#Una_fully unaligned contigs	4686	4693
Una_Fully unaligned length	1176148	1185643
#Una_partially unaligned contigs	252	258
#Una_with misassembly	0	0
#Una_both parts are significant	0	4
Una_Partially unaligned length	27176	33845
#N's	379	8543
