1: PREPARING DATA
2,3: RUNNING mummer AND CREATING CLUSTERS
# reading input file "/vol/codine-tmp/juene/tmp.Jhco3awFx3/quast/gage/tmp/NEWBLER_PGM_mrsa_pgm_200bp_es_316_IonOnev2_ts3.0_morestringent.66coverage.contigs.ntref" of length 2813864
# construct suffix tree for sequence of length 2813864
# (maximum reference length is 536870908)
# (maximum query length is 4294967295)
# process 28138 characters per dot
#....................................................................................................
# CONSTRUCTIONTIME /vol/ngscomparison/software/analysis/quast-2.1/libs/MUMmer3.23-linux/mummer /vol/codine-tmp/juene/tmp.Jhco3awFx3/quast/gage/tmp/NEWBLER_PGM_mrsa_pgm_200bp_es_316_IonOnev2_ts3.0_morestringent.66coverage.contigs.ntref 2.17
# reading input file "/vol/codine-tmp/juene/tmp.Jhco3awFx3/quast/corrected_input/NEWBLER_PGM_mrsa_pgm_200bp_es_316_IonOnev2_ts3.0_morestringent.66coverage.contigs" of length 2763939
# matching query-file "/vol/codine-tmp/juene/tmp.Jhco3awFx3/quast/corrected_input/NEWBLER_PGM_mrsa_pgm_200bp_es_316_IonOnev2_ts3.0_morestringent.66coverage.contigs"
# against subject-file "/vol/codine-tmp/juene/tmp.Jhco3awFx3/quast/gage/tmp/NEWBLER_PGM_mrsa_pgm_200bp_es_316_IonOnev2_ts3.0_morestringent.66coverage.contigs.ntref"
# COMPLETETIME /vol/ngscomparison/software/analysis/quast-2.1/libs/MUMmer3.23-linux/mummer /vol/codine-tmp/juene/tmp.Jhco3awFx3/quast/gage/tmp/NEWBLER_PGM_mrsa_pgm_200bp_es_316_IonOnev2_ts3.0_morestringent.66coverage.contigs.ntref 6.43
# SPACE /vol/ngscomparison/software/analysis/quast-2.1/libs/MUMmer3.23-linux/mummer /vol/codine-tmp/juene/tmp.Jhco3awFx3/quast/gage/tmp/NEWBLER_PGM_mrsa_pgm_200bp_es_316_IonOnev2_ts3.0_morestringent.66coverage.contigs.ntref 5.41
4: FINISHING DATA
Filtering alignments
Extracting alignment coordinates
Analyzing SNPs
Extracting alignment breakpoints
Generating report file
Found genome size at position 4 with value 2813862 aka 2813862
Calculating point at 0 and the sum is 1011586 and i is109 and lens is 120 and length is 67890
Calculating point at 1 and the sum is 2001090 and i is86 and lens is 120 and length is 26054
