calling: java -cp /vol/ngscomparison/software/analysis/quast-2.1/libs/gage:. SizeFasta /vol/codine-tmp/juene/tmp.4ANBSbpqou/quast/corrected_input/Mycobacterium_tuberculosis_H37Rv.fasta |awk '{SUM+=; print SUM}'|tail -n 1
Contig Stats
Total units: 44007
Reference: 4411532
BasesInFasta: 11319953
Min: 200
Max: 2096
N10: 660 COUNT: 512
N25: 437 COUNT: 1771
N50: 293 COUNT: 4869
N75: 238 COUNT: 9285
E-size:743.6

Genome Size: 4411532
Assembly Size: 11319953
Chaff bases: 0
Missing Reference Bases: 315303(7.15%)
Missing Assembly Bases: 3519(0.03%)
Missing Assembly Contigs: 4(0.01%)
Duplicated Reference Bases: 5982783
Compressed Reference Bases: 53659
Bad Trim: 2053
Avg Idy: 99.90
SNPs: 88
Indels < 5bp: 3355
Indels >= 5: 4
Inversions: 0
Relocation: 1
Translocation: 0

Corrected Contig Stats
calling: java -cp /vol/ngscomparison/software/analysis/quast-2.1/libs/gage:.:. GetFastaStats -o -min 199 -genomeSize 4411532 /vol/codine-tmp/juene/tmp.4ANBSbpqou/quast/gage/tmp/SOAP2_PGM_mtbh37_pgm_400bp_es_318v2_OT2_tsv3.6_morestringent_119.final.contig.matches.lens 2> /dev/null
Total units: 18823
Reference: 4411532
BasesInFasta: 5331928
Min: 200
Max: 2099
N10: 660 COUNT: 512
N25: 435 COUNT: 1772
N50: 251 COUNT: 5149
N75: 237 COUNT: 9771
E-size:417.25

Done
