Assembly	ABYSS_PE_PGM_mtbh37_pgm_400bp_es_318v2_OT2_tsv3.6_morestringent_118-unitigs
#Mis_misassemblies	6
#Mis_relocations	6
#Mis_translocations	0
#Mis_inversions	0
#Mis_misassembled contigs	6
Mis_Misassembled contigs length	4863
#Mis_local misassemblies	8
#mismatches	87
#indels	1682
#Mis_short indels (<= 5 bp)	1680
#Mis_long indels (> 5 bp)	2
Indels length	1804
