Assembly	SOAP2_PGM_sakai_pgm_mu_318_400bp_IO_TS3.4_ms_0.395percent_49.final.contig
#Contigs (>= 0 bp)	347681
#Contigs (>= 1000 bp)	0
Total length (>= 0 bp)	28166205
Total length (>= 1000 bp)	0
#Contigs	2662
Largest contig	671
Total length	660740
Reference length	5594470
GC (%)	50.59
Reference GC (%)	50.48
N50	238
NG50	None
N75	215
NG75	None
#misassemblies	0
#local misassemblies	0
#unaligned contigs	540 + 0 part
Unaligned contigs length	120702
Genome fraction (%)	9.632
Duplication ratio	1.001
#N's per 100 kbp	0.00
#mismatches per 100 kbp	0.74
#indels per 100 kbp	24.31
#genes	16 + 1539 part
#predicted genes (unique)	2452
#predicted genes (>= 0 bp)	2452
#predicted genes (>= 300 bp)	234
#predicted genes (>= 1500 bp)	0
#predicted genes (>= 3000 bp)	0
Largest alignment	671
NA50	233
NGA50	None
NA75	205
NGA75	None
