All statistics are based on contigs of size >= 200 bp, unless otherwise noted (e.g., "# contigs (>= 0 bp)" and "Total length (>= 0 bp)" include all contigs).

Assembly                       ABYSS_PE_MIS_PE_mrsa_mis-1_bi_2x250bp_default__mrsa_mis-2_bi_2x250bp_default.0.460percent_32-scaffolds_broken  ABYSS_PE_MIS_PE_mrsa_mis-1_bi_2x250bp_default__mrsa_mis-2_bi_2x250bp_default.0.460percent_32-scaffolds
#Contigs (>= 0 bp)             1836                                                                                                           1818                                                                                                  
#Contigs (>= 1000 bp)          140                                                                                                            135                                                                                                   
Total length (>= 0 bp)         2823138                                                                                                        2824037                                                                                               
Total length (>= 1000 bp)      2701124                                                                                                        2705609                                                                                               
#Contigs                       223                                                                                                            212                                                                                                   
Largest contig                 99553                                                                                                          100109                                                                                                
Total length                   2736054                                                                                                        2737692                                                                                               
Reference length               2813862                                                                                                        2813862                                                                                               
GC (%)                         32.62                                                                                                          32.62                                                                                                 
Reference GC (%)               32.81                                                                                                          32.81                                                                                                 
N50                            34865                                                                                                          34935                                                                                                 
NG50                           34837                                                                                                          34844                                                                                                 
N75                            18514                                                                                                          19636                                                                                                 
NG75                           16676                                                                                                          17922                                                                                                 
#misassemblies                 1                                                                                                              2                                                                                                     
#local misassemblies           1                                                                                                              6                                                                                                     
#unaligned contigs             0 + 0 part                                                                                                     0 + 0 part                                                                                            
Unaligned contigs length       0                                                                                                              0                                                                                                     
Genome fraction (%)            96.915                                                                                                         97.056                                                                                                
Duplication ratio              1.001                                                                                                          1.001                                                                                                 
#N's per 100 kbp               0.69                                                                                                           33.53                                                                                                 
#mismatches per 100 kbp        3.92                                                                                                           4.28                                                                                                  
#indels per 100 kbp            0.37                                                                                                           3.84                                                                                                  
#genes                         2558 + 71 part                                                                                                 2562 + 71 part                                                                                        
#predicted genes (unique)      2655                                                                                                           2651                                                                                                  
#predicted genes (>= 0 bp)     2656                                                                                                           2652                                                                                                  
#predicted genes (>= 300 bp)   2265                                                                                                           2265                                                                                                  
#predicted genes (>= 1500 bp)  293                                                                                                            293                                                                                                   
#predicted genes (>= 3000 bp)  26                                                                                                             26                                                                                                    
Largest alignment              99553                                                                                                          99553                                                                                                 
NA50                           34865                                                                                                          34865                                                                                                 
NGA50                          34837                                                                                                          34837                                                                                                 
NA75                           18514                                                                                                          19636                                                                                                 
NGA75                          16676                                                                                                          17922                                                                                                 
