All statistics are based on contigs of size >= 200 bp, unless otherwise noted (e.g., "# contigs (>= 0 bp)" and "Total length (>= 0 bp)" include all contigs).

Assembly                                                                                                       #Contigs (>= 0 bp)  #Contigs (>= 1000 bp)  Total length (>= 0 bp)  Total length (>= 1000 bp)  #Contigs  Largest contig  Total length  Reference length  GC (%)  Reference GC (%)  N50    NG50   N75    NG75   #misassemblies  #local misassemblies  #unaligned contigs  Unaligned contigs length  Genome fraction (%)  Duplication ratio  #N's per 100 kbp  #mismatches per 100 kbp  #indels per 100 kbp  #genes          #predicted genes (unique)  #predicted genes (>= 0 bp)  #predicted genes (>= 300 bp)  #predicted genes (>= 1500 bp)  #predicted genes (>= 3000 bp)  Largest alignment  NA50   NGA50  NA75   NGA75
ABYSS_PE_MIS_PE_mrsa_mis-1_bi_2x250bp_default__mrsa_mis-2_bi_2x250bp_default.0.460percent_32-scaffolds_broken  1836                140                    2823138                 2701124                    223       99553           2736054       2813862           32.62   32.81             34865  34837  18514  16676  1               1                     0 + 0 part          0                         96.915               1.001              0.69              3.92                     0.37                 2558 + 71 part  2655                       2656                        2265                          293                            26                             99553              34865  34837  18514  16676
ABYSS_PE_MIS_PE_mrsa_mis-1_bi_2x250bp_default__mrsa_mis-2_bi_2x250bp_default.0.460percent_32-scaffolds         1818                135                    2824037                 2705609                    212       100109          2737692       2813862           32.62   32.81             34935  34844  19636  17922  2               6                     0 + 0 part          0                         97.056               1.001              33.53             4.28                     3.84                 2562 + 71 part  2651                       2652                        2265                          293                            26                             99553              34865  34837  19636  17922
