1: PREPARING DATA
2,3: RUNNING mummer AND CREATING CLUSTERS
# reading input file "/vol/codine-tmp/juene/tmp.Sus5sSgCJI/quast/gage/tmp/SOAP2_MIS_PE_mtbh37-1_mis_2x250bp_nextera_default_73.final.scaf.ntref" of length 4411533
# construct suffix tree for sequence of length 4411533
# (maximum reference length is 536870908)
# (maximum query length is 4294967295)
# process 44115 characters per dot
#....................................................................................................
# CONSTRUCTIONTIME /vol/ngscomparison/software/analysis/quast-2.1/libs/MUMmer3.23-linux/mummer /vol/codine-tmp/juene/tmp.Sus5sSgCJI/quast/gage/tmp/SOAP2_MIS_PE_mtbh37-1_mis_2x250bp_nextera_default_73.final.scaf.ntref 2.92
# reading input file "/vol/codine-tmp/juene/tmp.Sus5sSgCJI/quast/corrected_input/SOAP2_MIS_PE_mtbh37-1_mis_2x250bp_nextera_default_73.final.scaf" of length 25555148
# matching query-file "/vol/codine-tmp/juene/tmp.Sus5sSgCJI/quast/corrected_input/SOAP2_MIS_PE_mtbh37-1_mis_2x250bp_nextera_default_73.final.scaf"
# against subject-file "/vol/codine-tmp/juene/tmp.Sus5sSgCJI/quast/gage/tmp/SOAP2_MIS_PE_mtbh37-1_mis_2x250bp_nextera_default_73.final.scaf.ntref"
# COMPLETETIME /vol/ngscomparison/software/analysis/quast-2.1/libs/MUMmer3.23-linux/mummer /vol/codine-tmp/juene/tmp.Sus5sSgCJI/quast/gage/tmp/SOAP2_MIS_PE_mtbh37-1_mis_2x250bp_nextera_default_73.final.scaf.ntref 27.12
# SPACE /vol/ngscomparison/software/analysis/quast-2.1/libs/MUMmer3.23-linux/mummer /vol/codine-tmp/juene/tmp.Sus5sSgCJI/quast/gage/tmp/SOAP2_MIS_PE_mtbh37-1_mis_2x250bp_nextera_default_73.final.scaf.ntref 30.28
4: FINISHING DATA
Filtering alignments
Extracting alignment coordinates
Analyzing SNPs
Extracting alignment breakpoints
Generating report file
Found genome size at position 4 with value 4411532 aka 4411532
Calculating point at 0 and the sum is 1000604 and i is11526 and lens is 12450 and length is 795
Calculating point at 1 and the sum is 2000125 and i is9991 and lens is 12450 and length is 542
Calculating point at 2 and the sum is 3000056 and i is7777 and lens is 12450 and length is 379
Calculating point at 3 and the sum is 4000075 and i is4493 and lens is 12450 and length is 250
