1: PREPARING DATA
2,3: RUNNING mummer AND CREATING CLUSTERS
# reading input file "/vol/codine-tmp/juene/tmp.Sus5sSgCJI/quast/gage/tmp/SOAP2_MIS_PE_mtbh37-1_mis_2x250bp_nextera_default_73.final.scaf_broken.ntref" of length 4411533
# construct suffix tree for sequence of length 4411533
# (maximum reference length is 536870908)
# (maximum query length is 4294967295)
# process 44115 characters per dot
#....................................................................................................
# CONSTRUCTIONTIME /vol/ngscomparison/software/analysis/quast-2.1/libs/MUMmer3.23-linux/mummer /vol/codine-tmp/juene/tmp.Sus5sSgCJI/quast/gage/tmp/SOAP2_MIS_PE_mtbh37-1_mis_2x250bp_nextera_default_73.final.scaf_broken.ntref 3.00
# reading input file "/vol/codine-tmp/juene/tmp.Sus5sSgCJI/quast/corrected_input/SOAP2_MIS_PE_mtbh37-1_mis_2x250bp_nextera_default_73.final.scaf_broken" of length 25543224
# matching query-file "/vol/codine-tmp/juene/tmp.Sus5sSgCJI/quast/corrected_input/SOAP2_MIS_PE_mtbh37-1_mis_2x250bp_nextera_default_73.final.scaf_broken"
# against subject-file "/vol/codine-tmp/juene/tmp.Sus5sSgCJI/quast/gage/tmp/SOAP2_MIS_PE_mtbh37-1_mis_2x250bp_nextera_default_73.final.scaf_broken.ntref"
# COMPLETETIME /vol/ngscomparison/software/analysis/quast-2.1/libs/MUMmer3.23-linux/mummer /vol/codine-tmp/juene/tmp.Sus5sSgCJI/quast/gage/tmp/SOAP2_MIS_PE_mtbh37-1_mis_2x250bp_nextera_default_73.final.scaf_broken.ntref 34.21
# SPACE /vol/ngscomparison/software/analysis/quast-2.1/libs/MUMmer3.23-linux/mummer /vol/codine-tmp/juene/tmp.Sus5sSgCJI/quast/gage/tmp/SOAP2_MIS_PE_mtbh37-1_mis_2x250bp_nextera_default_73.final.scaf_broken.ntref 29.99
4: FINISHING DATA
Filtering alignments
Extracting alignment coordinates
Analyzing SNPs
Extracting alignment breakpoints
sh: /vol/codine-tmp/juene/tmp.Sus5sSgCJI/quast/gage/tmp/SOAP2_MIS_PE_mtbh37-1_mis_2x250bp_nextera_default_73.final.scaf_broken.rdiff: Disk quota exceeded
ERROR: Failed to run show-diff, aborting.
/bin/ls: cannot access /vol/codine-tmp/juene/tmp.Sus5sSgCJI/quast/gage/tmp/SOAP2_MIS_PE_mtbh37-1_mis_2x250bp_nextera_default_73.final.scaf_broken.report: No such file or directory
/bin/ls: cannot access /vol/codine-tmp/juene/tmp.Sus5sSgCJI/quast/gage/tmp/SOAP2_MIS_PE_mtbh37-1_mis_2x250bp_nextera_default_73.final.scaf_broken.report: No such file or directory
/bin/ls: cannot access /vol/codine-tmp/juene/tmp.Sus5sSgCJI/quast/gage/tmp/SOAP2_MIS_PE_mtbh37-1_mis_2x250bp_nextera_default_73.final.scaf_broken.report: No such file or directory
/bin/ls: cannot access /vol/codine-tmp/juene/tmp.Sus5sSgCJI/quast/gage/tmp/SOAP2_MIS_PE_mtbh37-1_mis_2x250bp_nextera_default_73.final.scaf_broken.report: No such file or directory
/bin/ls: cannot access /vol/codine-tmp/juene/tmp.Sus5sSgCJI/quast/gage/tmp/SOAP2_MIS_PE_mtbh37-1_mis_2x250bp_nextera_default_73.final.scaf_broken.report: No such file or directory
/bin/ls: cannot access /vol/codine-tmp/juene/tmp.Sus5sSgCJI/quast/gage/tmp/SOAP2_MIS_PE_mtbh37-1_mis_2x250bp_nextera_default_73.final.scaf_broken.qdiff: No such file or directory
/bin/ls: cannot access /vol/codine-tmp/juene/tmp.Sus5sSgCJI/quast/gage/tmp/SOAP2_MIS_PE_mtbh37-1_mis_2x250bp_nextera_default_73.final.scaf_broken.rdiff: No such file or directory
/bin/ls: cannot access /vol/codine-tmp/juene/tmp.Sus5sSgCJI/quast/gage/tmp/SOAP2_MIS_PE_mtbh37-1_mis_2x250bp_nextera_default_73.final.scaf_broken.qdiff: No such file or directory
/bin/ls: cannot access /vol/codine-tmp/juene/tmp.Sus5sSgCJI/quast/gage/tmp/SOAP2_MIS_PE_mtbh37-1_mis_2x250bp_nextera_default_73.final.scaf_broken.report: No such file or directory
/bin/ls: cannot access /vol/codine-tmp/juene/tmp.Sus5sSgCJI/quast/gage/tmp/SOAP2_MIS_PE_mtbh37-1_mis_2x250bp_nextera_default_73.final.scaf_broken.report: No such file or directory
/bin/ls: cannot access /vol/codine-tmp/juene/tmp.Sus5sSgCJI/quast/gage/tmp/SOAP2_MIS_PE_mtbh37-1_mis_2x250bp_nextera_default_73.final.scaf_broken.report: No such file or directory
cat: /vol/codine-tmp/juene/tmp.Sus5sSgCJI/quast/gage/tmp/SOAP2_MIS_PE_mtbh37-1_mis_2x250bp_nextera_default_73.final.scaf_broken.rdiff: No such file or directory
/bin/ls: cannot access /vol/codine-tmp/juene/tmp.Sus5sSgCJI/quast/gage/tmp/SOAP2_MIS_PE_mtbh37-1_mis_2x250bp_nextera_default_73.final.scaf_broken.report: No such file or directory
/bin/ls: cannot access /vol/codine-tmp/juene/tmp.Sus5sSgCJI/quast/gage/tmp/SOAP2_MIS_PE_mtbh37-1_mis_2x250bp_nextera_default_73.final.scaf_broken.report: No such file or directory
/bin/ls: cannot access /vol/codine-tmp/juene/tmp.Sus5sSgCJI/quast/gage/tmp/SOAP2_MIS_PE_mtbh37-1_mis_2x250bp_nextera_default_73.final.scaf_broken.report: No such file or directory
/vol/ngscomparison/software/analysis/quast-2.1/libs/gage/getCorrectnessStats.sh: line 58: /vol/codine-tmp/juene/tmp.Sus5sSgCJI/quast/gage/tmp/SOAP2_MIS_PE_mtbh37-1_mis_2x250bp_nextera_default_73.final.scaf_broken.matches.lens: Disk quota exceeded
cat: write error: Broken pipe
Found genome size at position 4 with value 4411532 aka 4411532
Exception in thread "main" java.io.FileNotFoundException: /vol/codine-tmp/juene/tmp.Sus5sSgCJI/quast/gage/tmp/SOAP2_MIS_PE_mtbh37-1_mis_2x250bp_nextera_default_73.final.scaf_broken.matches.lens (No such file or directory)
	at java.io.FileInputStream.open(Native Method)
	at java.io.FileInputStream.<init>(FileInputStream.java:146)
	at java.io.FileInputStream.<init>(FileInputStream.java:101)
	at java.io.FileReader.<init>(FileReader.java:58)
	at Utils.getFile(Utils.java:185)
	at Utils.getFile(Utils.java:163)
	at GetFastaStats.processFile(GetFastaStats.java:47)
	at GetFastaStats.main(GetFastaStats.java:423)
