Assembly	ABYSS_PE_PGM_mrsa_pgm_400bp_es_318_IKA_ts3.2_morestringent.91coverage_58.final
#Contigs	477
#Contigs (>= 0 bp)	5490
#Contigs (>= 1000 bp)	318
Largest contig	69392
Total length	2737759
Total length (>= 0 bp)	3172944
Total length (>= 1000 bp)	2666602
Reference length	2813862
N50	13784
NG50	13273
N75	6449
NG75	6043
L50	60
LG50	63
L75	133
LG75	142
#local misassemblies	2
#misassemblies	2
#misassembled contigs	2
Misassembled contigs length	22656
Misassemblies inter-contig overlap	568
#unaligned contigs	0 + 0 part
Unaligned contigs length	0
#ambiguously mapped contigs	6
Extra bases in ambiguously mapped contigs	-2194
#N's	0
#N's per 100 kbp	0.00
Genome fraction (%)	97.096
Duplication ratio	1.001
#genes	2380 + 259 part
#predicted genes (unique)	2883
#predicted genes (>= 0 bp)	2885
#predicted genes (>= 300 bp)	2349
#predicted genes (>= 1500 bp)	264
#predicted genes (>= 3000 bp)	23
#mismatches	61
#indels	95
Indels length	101
#mismatches per 100 kbp	2.23
#indels per 100 kbp	3.48
GC (%)	32.59
Reference GC (%)	32.81
Average %IDY	99.898
Largest alignment	69392
NA50	13563
NGA50	12741
NA75	6444
NGA75	5965
LA50	60
LGA50	63
LA75	134
LGA75	143
#Mis_misassemblies	2
#Mis_relocations	2
#Mis_translocations	0
#Mis_inversions	0
#Mis_misassembled contigs	2
Mis_Misassembled contigs length	22656
#Mis_local misassemblies	2
#Mis_short indels (<= 5 bp)	94
#Mis_long indels (> 5 bp)	1
#Una_fully unaligned contigs	0
Una_Fully unaligned length	0
#Una_partially unaligned contigs	0
#Una_with misassembly	0
#Una_both parts are significant	0
Una_Partially unaligned length	0
GAGE_Contigs #	477
GAGE_Min contig	202
GAGE_Max contig	69392
GAGE_N50	13273 COUNT: 63
GAGE_Genome size	2813862
GAGE_Assembly size	2737759
GAGE_Chaff bases	0
GAGE_Missing reference bases	69545(2.47%)
GAGE_Missing assembly bases	3(0.00%)
GAGE_Missing assembly contigs	0(0.00%)
GAGE_Duplicated reference bases	228
GAGE_Compressed reference bases	13533
GAGE_Bad trim	3
GAGE_Avg idy	99.99
GAGE_SNPs	37
GAGE_Indels < 5bp	90
GAGE_Indels >= 5	2
GAGE_Inversions	0
GAGE_Relocation	2
GAGE_Translocation	0
GAGE_Corrected contig #	480
GAGE_Corrected assembly size	2738166
GAGE_Min correct contig	202
GAGE_Max correct contig	69396
GAGE_Corrected N50	12741 COUNT: 64
