Assembly	#Mis_misassemblies	#Mis_relocations	#Mis_translocations	#Mis_inversions	#Mis_misassembled contigs	Mis_Misassembled contigs length	#Mis_local misassemblies	#mismatches	#indels	#Mis_short indels (<= 5 bp)	#Mis_long indels (> 5 bp)	Indels length
VELVET_MIS_PE_sakai_mis-1_bi_2x150bp_default__sakai_mis-2_bi_2x150bp_default.0.826percent_131.final.contigs_broken	6	6	0	0	6	13131	2	331	22	22	0	23
VELVET_MIS_PE_sakai_mis-1_bi_2x150bp_default__sakai_mis-2_bi_2x150bp_default.0.826percent_131.final.contigs	47	46	1	0	36	235234	2565	470	20873	20546	327	40486
