Assembly	SOAP2_MIS_PE_mrsa_mis-1_bi_2x150bp_default.0.527percent_21.final.scaf_broken	SOAP2_MIS_PE_mrsa_mis-1_bi_2x150bp_default.0.527percent_21.final.scaf
#Mis_misassemblies	0	4
#Mis_relocations	0	4
#Mis_translocations	0	0
#Mis_inversions	0	0
#Mis_misassembled contigs	0	3
Mis_Misassembled contigs length	0	112515
#Mis_local misassemblies	6	347
#mismatches	65	32
#indels	743	12610
#Mis_short indels (<= 5 bp)	673	12012
#Mis_long indels (> 5 bp)	70	598
Indels length	1573	27322
