calling: java -cp /vol/ngscomparison/software/analysis/quast-2.1/libs/gage:. SizeFasta /vol/codine-tmp/juene/tmp.D99aIv0sYy/quast/corrected_input/Ecoli_Sakai_editedNew_plasmids.fasta |awk '{SUM+=; print SUM}'|tail -n 1
Contig Stats
Total units: 2658
Reference: 5594470
BasesInFasta: 5622443
Min: 200
Max: 40571
N10: 20944 COUNT: 22
N25: 13506 COUNT: 73
N50: 7762 COUNT: 211
N75: 3885 COUNT: 459
E-size:9745.3

Genome Size: 5594470
Assembly Size: 5622443
Chaff bases: 0
Missing Reference Bases: 30758(0.55%)
Missing Assembly Bases: 176(0.00%)
Missing Assembly Contigs: 0(0.00%)
Duplicated Reference Bases: 168302
Compressed Reference Bases: 275833
Bad Trim: 176
Avg Idy: 99.96
SNPs: 52
Indels < 5bp: 1964
Indels >= 5: 2
Inversions: 0
Relocation: 2
Translocation: 0

Corrected Contig Stats
calling: java -cp /vol/ngscomparison/software/analysis/quast-2.1/libs/gage:.:. GetFastaStats -o -min 199 -genomeSize 5594470 /vol/codine-tmp/juene/tmp.D99aIv0sYy/quast/gage/tmp/ABYSS_PE_PGM_sakai_pgm_mu_200bp_IO_TS3.0Disabled_stringent.0.34percent_116-unitigs.matches.lens 2> /dev/null
Total units: 1929
Reference: 5594470
BasesInFasta: 5454811
Min: 200
Max: 40583
N10: 20955 COUNT: 22
N25: 13441 COUNT: 73
N50: 7766 COUNT: 211
N75: 3882 COUNT: 460
E-size:9727.34

Done
