Assembly	SOAP2_MIS_PE_mtbh37-1_mis_2x250bp_nextera_default_69.final.scaf_broken	SOAP2_MIS_PE_mtbh37-1_mis_2x250bp_nextera_default_69.final.scaf
#Mis_misassemblies	11	11
#Mis_relocations	3	3
#Mis_translocations	0	0
#Mis_inversions	8	8
#Mis_misassembled contigs	11	11
Mis_Misassembled contigs length	2713	2713
#Mis_local misassemblies	3	20
#mismatches	30208	30151
#indels	604	588
#Mis_short indels (<= 5 bp)	602	584
#Mis_long indels (> 5 bp)	2	4
Indels length	647	699
