All statistics are based on contigs of size >= 200 bp, unless otherwise noted (e.g., "# contigs (>= 0 bp)" and "Total length (>= 0 bp)" include all contigs).

Assembly                         ABYSS_PE_MIS_PE_sakai_mis-1_bi_2x150bp_default__sakai_mis-2_bi_2x150bp_default.0.826percent_60-scaffolds_broken  ABYSS_PE_MIS_PE_sakai_mis-1_bi_2x150bp_default__sakai_mis-2_bi_2x150bp_default.0.826percent_60-scaffolds
GAGE_Contigs #                   257                                                                                                              206                                                                                                     
GAGE_Min contig                  203                                                                                                              203                                                                                                     
GAGE_Max contig                  292286                                                                                                           376912                                                                                                  
GAGE_N50                         100084 COUNT: 16                                                                                                 148469 COUNT: 13                                                                                        
GAGE_Genome size                 5594470                                                                                                          5594470                                                                                                 
GAGE_Assembly size               5471683                                                                                                          5474573                                                                                                 
GAGE_Chaff bases                 0                                                                                                                0                                                                                                       
GAGE_Missing reference bases     59294(1.06%)                                                                                                     59849(1.07%)                                                                                            
GAGE_Missing assembly bases      11(0.00%)                                                                                                        2683(0.05%)                                                                                             
GAGE_Missing assembly contigs    0(0.00%)                                                                                                         0(0.00%)                                                                                                
GAGE_Duplicated reference bases  15906                                                                                                            15906                                                                                                   
GAGE_Compressed reference bases  205041                                                                                                           204022                                                                                                  
GAGE_Bad trim                    0                                                                                                                150                                                                                                     
GAGE_Avg idy                     99.97                                                                                                            99.96                                                                                                   
GAGE_SNPs                        741                                                                                                              733                                                                                                     
GAGE_Indels < 5bp                31                                                                                                               34                                                                                                      
GAGE_Indels >= 5                 11                                                                                                               33                                                                                                      
GAGE_Inversions                  1                                                                                                                4                                                                                                       
GAGE_Relocation                  3                                                                                                                19                                                                                                      
GAGE_Translocation               0                                                                                                                1                                                                                                       
GAGE_Corrected contig #          255                                                                                                              255                                                                                                     
GAGE_Corrected assembly size     5458740                                                                                                          5459823                                                                                                 
GAGE_Min correct contig          204                                                                                                              204                                                                                                     
GAGE_Max correct contig          264427                                                                                                           264427                                                                                                  
GAGE_Corrected N50               98911 COUNT: 18                                                                                                  100085 COUNT: 18                                                                                        
