All statistics are based on contigs of size >= 200 bp, unless otherwise noted (e.g., "# contigs (>= 0 bp)" and "Total length (>= 0 bp)" include all contigs).

Assembly                                                                                                         GAGE_Contigs #  GAGE_Min contig  GAGE_Max contig  GAGE_N50          GAGE_Genome size  GAGE_Assembly size  GAGE_Chaff bases  GAGE_Missing reference bases  GAGE_Missing assembly bases  GAGE_Missing assembly contigs  GAGE_Duplicated reference bases  GAGE_Compressed reference bases  GAGE_Bad trim  GAGE_Avg idy  GAGE_SNPs  GAGE_Indels < 5bp  GAGE_Indels >= 5  GAGE_Inversions  GAGE_Relocation  GAGE_Translocation  GAGE_Corrected contig #  GAGE_Corrected assembly size  GAGE_Min correct contig  GAGE_Max correct contig  GAGE_Corrected N50
ABYSS_PE_MIS_PE_sakai_mis-1_bi_2x150bp_default__sakai_mis-2_bi_2x150bp_default.0.826percent_38-scaffolds_broken  274             201              251472           79863 COUNT: 21   5594470           5369450             0                 130092(2.33%)                 477(0.01%)                   0(0.00%)                       3587                             190026                           476            99.97         641        26                 14                0                3                0                   284                      5367145                       201                      221212                   74926 COUNT: 23   
ABYSS_PE_MIS_PE_sakai_mis-1_bi_2x150bp_default__sakai_mis-2_bi_2x150bp_default.0.826percent_38-scaffolds         189             201              375144           124521 COUNT: 13  5594470           5374817             0                 134043(2.40%)                 5037(0.09%)                  0(0.00%)                       1995                             183437                           0              99.96         646        38                 57                8                22               0                   277                      5369311                       201                      221212                   75907 COUNT: 22   
