1: PREPARING DATA
2,3: RUNNING mummer AND CREATING CLUSTERS
# reading input file "/vol/codine-tmp/juene/tmp.bfngmuaJ97/quast/gage/tmp/VELVET_PGM_sakai_pgm_mu_318_400bp_IO_TS3.4_ms_0.395percent_117.final.contigs.ntref" of length 5594473
# construct suffix tree for sequence of length 5594473
# (maximum reference length is 536870908)
# (maximum query length is 4294967295)
# process 55944 characters per dot
#....................................................................................................
# CONSTRUCTIONTIME /vol/ngscomparison/software/analysis/quast-2.1/libs/MUMmer3.23-linux/mummer /vol/codine-tmp/juene/tmp.bfngmuaJ97/quast/gage/tmp/VELVET_PGM_sakai_pgm_mu_318_400bp_IO_TS3.4_ms_0.395percent_117.final.contigs.ntref 3.20
# reading input file "/vol/codine-tmp/juene/tmp.bfngmuaJ97/quast/corrected_input/VELVET_PGM_sakai_pgm_mu_318_400bp_IO_TS3.4_ms_0.395percent_117.final.contigs" of length 7085619
# matching query-file "/vol/codine-tmp/juene/tmp.bfngmuaJ97/quast/corrected_input/VELVET_PGM_sakai_pgm_mu_318_400bp_IO_TS3.4_ms_0.395percent_117.final.contigs"
# against subject-file "/vol/codine-tmp/juene/tmp.bfngmuaJ97/quast/gage/tmp/VELVET_PGM_sakai_pgm_mu_318_400bp_IO_TS3.4_ms_0.395percent_117.final.contigs.ntref"
# COMPLETETIME /vol/ngscomparison/software/analysis/quast-2.1/libs/MUMmer3.23-linux/mummer /vol/codine-tmp/juene/tmp.bfngmuaJ97/quast/gage/tmp/VELVET_PGM_sakai_pgm_mu_318_400bp_IO_TS3.4_ms_0.395percent_117.final.contigs.ntref 10.29
# SPACE /vol/ngscomparison/software/analysis/quast-2.1/libs/MUMmer3.23-linux/mummer /vol/codine-tmp/juene/tmp.bfngmuaJ97/quast/gage/tmp/VELVET_PGM_sakai_pgm_mu_318_400bp_IO_TS3.4_ms_0.395percent_117.final.contigs.ntref 13.21
4: FINISHING DATA
Filtering alignments
Extracting alignment coordinates
Analyzing SNPs
Extracting alignment breakpoints
Generating report file
Found genome size at position 4 with value 5594470 aka 5594470
Calculating point at 0 and the sum is 1000151 and i is15443 and lens is 18402 and length is 302
Calculating point at 1 and the sum is 2000201 and i is11892 and lens is 18402 and length is 265
Calculating point at 2 and the sum is 3000000 and i is7936 and lens is 18402 and length is 242
Calculating point at 3 and the sum is 4000214 and i is3692 and lens is 18402 and length is 233
