All statistics are based on contigs of size >= 200 bp, unless otherwise noted (e.g., "# contigs (>= 0 bp)" and "Total length (>= 0 bp)" include all contigs).

Assembly                         ABYSS_PE_MIS_PE_mrsa_mis-1_bi_2x150bp_default__mrsa_mis-2_bi_2x150bp_default.36coverage_60.final_broken  ABYSS_PE_MIS_PE_mrsa_mis-1_bi_2x150bp_default__mrsa_mis-2_bi_2x150bp_default.36coverage_60.final
#Mis_misassemblies               4                                                                                                        4                                                                                               
#Mis_relocations                 4                                                                                                        4                                                                                               
#Mis_translocations              0                                                                                                        0                                                                                               
#Mis_inversions                  0                                                                                                        0                                                                                               
#Mis_misassembled contigs        4                                                                                                        4                                                                                               
Mis_Misassembled contigs length  214994                                                                                                   214994                                                                                          
#Mis_local misassemblies         1                                                                                                        6                                                                                               
#mismatches                      115                                                                                                      116                                                                                             
#indels                          11                                                                                                       63                                                                                              
#Mis_short indels (<= 5 bp)      10                                                                                                       58                                                                                              
#Mis_long indels (> 5 bp)        1                                                                                                        5                                                                                               
Indels length                    31                                                                                                       147                                                                                             
