Assembly	VELVET_MIS_PE_sakai_mis-both_bi_2x250bp_SI_default.0.64percent_75.final.contigs_broken	VELVET_MIS_PE_sakai_mis-both_bi_2x250bp_SI_default.0.64percent_75.final.contigs
GAGE_Contigs #	602	418
GAGE_Min contig	200	200
GAGE_Max contig	93710	231114
GAGE_N50	29966 COUNT: 57	91116 COUNT: 20
GAGE_Genome size	5594470	5594470
GAGE_Assembly size	5380345	5395484
GAGE_Chaff bases	0	0
GAGE_Missing reference bases	23270(0.42%)	22567(0.40%)
GAGE_Missing assembly bases	5493(0.10%)	19297(0.36%)
GAGE_Missing assembly contigs	1(0.17%)	1(0.24%)
GAGE_Duplicated reference bases	10502	11099
GAGE_Compressed reference bases	260487	260015
GAGE_Bad trim	33	248
GAGE_Avg idy	99.99	99.98
GAGE_SNPs	256	255
GAGE_Indels < 5bp	25	49
GAGE_Indels >= 5	6	152
GAGE_Inversions	3	7
GAGE_Relocation	10	21
GAGE_Translocation	0	0
GAGE_Corrected contig #	585	579
GAGE_Corrected assembly size	5369625	5370227
GAGE_Min correct contig	200	200
GAGE_Max correct contig	93710	93710
GAGE_Corrected N50	29580 COUNT: 58	30472 COUNT: 56
