Assembly	VELVET_MIS_PE_mtbh37-1_mis_2x250bp_nextera_default__mtbh37-2_mis_2x250bp_nextera_default_227.final.contigs_broken	VELVET_MIS_PE_mtbh37-1_mis_2x250bp_nextera_default__mtbh37-2_mis_2x250bp_nextera_default_227.final.contigs
GAGE_Contigs #	1489	1378
GAGE_Min contig	455	680
GAGE_Max contig	1953	3303
GAGE_N50	0 COUNT: 0	0 COUNT: 0
GAGE_Genome size	4411532	4411532
GAGE_Assembly size	1273904	1294445
GAGE_Chaff bases	0	0
GAGE_Missing reference bases	3110117(70.50%)	3110117(70.50%)
GAGE_Missing assembly bases	1282(0.10%)	21823(1.69%)
GAGE_Missing assembly contigs	0(0.00%)	0(0.00%)
GAGE_Duplicated reference bases	0	0
GAGE_Compressed reference bases	37515	37515
GAGE_Bad trim	1282	1279
GAGE_Avg idy	99.99	99.99
GAGE_SNPs	103	103
GAGE_Indels < 5bp	11	11
GAGE_Indels >= 5	0	110
GAGE_Inversions	2	2
GAGE_Relocation	0	1
GAGE_Translocation	0	0
GAGE_Corrected contig #	1490	1490
GAGE_Corrected assembly size	1275360	1275360
GAGE_Min correct contig	455	455
GAGE_Max correct contig	1953	1953
GAGE_Corrected N50	0 COUNT: 0	0 COUNT: 0
