1: PREPARING DATA
2,3: RUNNING mummer AND CREATING CLUSTERS
# reading input file "/vol/codine-tmp/juene/tmp.nBZyq4VmFF/quast/gage/tmp/NEWBLER_PGM_sakai_pgm_mu_318_400bp_IO_TS3.4_ms.0.05percent.contigs.ntref" of length 5594473
# construct suffix tree for sequence of length 5594473
# (maximum reference length is 536870908)
# (maximum query length is 4294967295)
# process 55944 characters per dot
#....................................................................................................
# CONSTRUCTIONTIME /vol/ngscomparison/software/analysis/quast-2.1/libs/MUMmer3.23-linux/mummer /vol/codine-tmp/juene/tmp.nBZyq4VmFF/quast/gage/tmp/NEWBLER_PGM_sakai_pgm_mu_318_400bp_IO_TS3.4_ms.0.05percent.contigs.ntref 2.97
# reading input file "/vol/codine-tmp/juene/tmp.nBZyq4VmFF/quast/corrected_input/NEWBLER_PGM_sakai_pgm_mu_318_400bp_IO_TS3.4_ms.0.05percent.contigs" of length 5272205
# matching query-file "/vol/codine-tmp/juene/tmp.nBZyq4VmFF/quast/corrected_input/NEWBLER_PGM_sakai_pgm_mu_318_400bp_IO_TS3.4_ms.0.05percent.contigs"
# against subject-file "/vol/codine-tmp/juene/tmp.nBZyq4VmFF/quast/gage/tmp/NEWBLER_PGM_sakai_pgm_mu_318_400bp_IO_TS3.4_ms.0.05percent.contigs.ntref"
# COMPLETETIME /vol/ngscomparison/software/analysis/quast-2.1/libs/MUMmer3.23-linux/mummer /vol/codine-tmp/juene/tmp.nBZyq4VmFF/quast/gage/tmp/NEWBLER_PGM_sakai_pgm_mu_318_400bp_IO_TS3.4_ms.0.05percent.contigs.ntref 10.20
# SPACE /vol/ngscomparison/software/analysis/quast-2.1/libs/MUMmer3.23-linux/mummer /vol/codine-tmp/juene/tmp.nBZyq4VmFF/quast/gage/tmp/NEWBLER_PGM_sakai_pgm_mu_318_400bp_IO_TS3.4_ms.0.05percent.contigs.ntref 10.57
4: FINISHING DATA
Filtering alignments
Extracting alignment coordinates
Analyzing SNPs
Extracting alignment breakpoints
Generating report file
Found genome size at position 4 with value 5594470 aka 5594470
Calculating point at 0 and the sum is 1030445 and i is756 and lens is 777 and length is 35460
Calculating point at 1 and the sum is 2009353 and i is721 and lens is 777 and length is 22464
Calculating point at 2 and the sum is 3003487 and i is665 and lens is 777 and length is 14521
Calculating point at 3 and the sum is 4007911 and i is576 and lens is 777 and length is 8971
Calculating point at 4 and the sum is 5001084 and i is358 and lens is 777 and length is 1933
