All statistics are based on contigs of size >= 200 bp, unless otherwise noted (e.g., "# contigs (>= 0 bp)" and "Total length (>= 0 bp)" include all contigs).

Assembly                                                                GAGE_Contigs #  GAGE_Min contig  GAGE_Max contig  GAGE_N50    GAGE_Genome size  GAGE_Assembly size  GAGE_Chaff bases  GAGE_Missing reference bases  GAGE_Missing assembly bases  GAGE_Missing assembly contigs  GAGE_Duplicated reference bases  GAGE_Compressed reference bases  GAGE_Bad trim  GAGE_Avg idy  GAGE_SNPs  GAGE_Indels < 5bp  GAGE_Indels >= 5  GAGE_Inversions  GAGE_Relocation  GAGE_Translocation  GAGE_Corrected contig #  GAGE_Corrected assembly size  GAGE_Min correct contig  GAGE_Max correct contig  GAGE_Corrected N50
SOAP2_MIS_PE_mtbh37-1_mis_2x250bp_nextera_default_17.final.scaf_broken  1912            200              577              0 COUNT: 0  4411532           454942              0                 4187065(94.91%)               230184(50.60%)               1004(52.51%)                   0                                0                                1984           99.85         319        10                 0                 0                0                0                   890                      222063                        200                      577                      0 COUNT: 0        
SOAP2_MIS_PE_mtbh37-1_mis_2x250bp_nextera_default_17.final.scaf         1930            200              858              0 COUNT: 0  4411532           462268              0                 4184652(94.86%)               235097(50.86%)               1007(52.18%)                   0                                0                                5074           99.84         343        10                 5                 0                0                0                   890                      222063                        200                      577                      0 COUNT: 0        
