calling: java -cp /vol/ngscomparison/software/analysis/quast-2.1/libs/gage:. SizeFasta /vol/codine-tmp/juene/tmp.lwl0Zx5DWe/quast/corrected_input/Ecoli_Sakai_editedNew_plasmids.fasta |awk '{SUM+=; print SUM}'|tail -n 1
Contig Stats
Total units: 174
Reference: 5594470
BasesInFasta: 5232874
Min: 2046
Max: 168088
N10: 134086 COUNT: 4
N25: 106138 COUNT: 11
N50: 55084 COUNT: 31
N75: 28562 COUNT: 65
E-size:64811.33

Genome Size: 5594470
Assembly Size: 5232874
Chaff bases: 0
Missing Reference Bases: 253923(4.54%)
Missing Assembly Bases: 46079(0.88%)
Missing Assembly Contigs: 1(0.57%)
Duplicated Reference Bases: 722
Compressed Reference Bases: 158999
Bad Trim: 37
Avg Idy: 99.99
SNPs: 177
Indels < 5bp: 20
Indels >= 5: 82
Inversions: 5
Relocation: 13
Translocation: 0

Corrected Contig Stats
calling: java -cp /vol/ngscomparison/software/analysis/quast-2.1/libs/gage:.:. GetFastaStats -o -min 199 -genomeSize 5594470 /vol/codine-tmp/juene/tmp.lwl0Zx5DWe/quast/gage/tmp/NEWBLER_MIS_PE_sakai_mis-1_bi_2x250bp_SI_default__sakai_mis-2_bi_2x250bp_SI_default.0.125percent.contigs.matches.lens 2> /dev/null
Total units: 275
Reference: 5594470
BasesInFasta: 5187547
Min: 260
Max: 132876
N10: 86224 COUNT: 5
N25: 64377 COUNT: 17
N50: 38412 COUNT: 45
N75: 19782 COUNT: 95
E-size:44745.58

Done
