1: PREPARING DATA
2,3: RUNNING mummer AND CREATING CLUSTERS
# reading input file "/vol/codine-tmp/juene/tmp.Cae3wLbpKi/quast/gage/tmp/CLC_PGM_mtbh37_pgm_400bp_es_318v2_OT2_tsv3.6_morestringent.0.250percent.result.ntref" of length 4411533
# construct suffix tree for sequence of length 4411533
# (maximum reference length is 536870908)
# (maximum query length is 4294967295)
# process 44115 characters per dot
#....................................................................................................
# CONSTRUCTIONTIME /vol/ngscomparison/software/analysis/quast-2.1/libs/MUMmer3.23-linux/mummer /vol/codine-tmp/juene/tmp.Cae3wLbpKi/quast/gage/tmp/CLC_PGM_mtbh37_pgm_400bp_es_318v2_OT2_tsv3.6_morestringent.0.250percent.result.ntref 1.99
# reading input file "/vol/codine-tmp/juene/tmp.Cae3wLbpKi/quast/corrected_input/CLC_PGM_mtbh37_pgm_400bp_es_318v2_OT2_tsv3.6_morestringent.0.250percent.result" of length 4246810
# matching query-file "/vol/codine-tmp/juene/tmp.Cae3wLbpKi/quast/corrected_input/CLC_PGM_mtbh37_pgm_400bp_es_318v2_OT2_tsv3.6_morestringent.0.250percent.result"
# against subject-file "/vol/codine-tmp/juene/tmp.Cae3wLbpKi/quast/gage/tmp/CLC_PGM_mtbh37_pgm_400bp_es_318v2_OT2_tsv3.6_morestringent.0.250percent.result.ntref"
# COMPLETETIME /vol/ngscomparison/software/analysis/quast-2.1/libs/MUMmer3.23-linux/mummer /vol/codine-tmp/juene/tmp.Cae3wLbpKi/quast/gage/tmp/CLC_PGM_mtbh37_pgm_400bp_es_318v2_OT2_tsv3.6_morestringent.0.250percent.result.ntref 7.96
# SPACE /vol/ngscomparison/software/analysis/quast-2.1/libs/MUMmer3.23-linux/mummer /vol/codine-tmp/juene/tmp.Cae3wLbpKi/quast/gage/tmp/CLC_PGM_mtbh37_pgm_400bp_es_318v2_OT2_tsv3.6_morestringent.0.250percent.result.ntref 8.41
4: FINISHING DATA
Filtering alignments
Extracting alignment coordinates
Analyzing SNPs
Extracting alignment breakpoints
Generating report file
Found genome size at position 4 with value 4411532 aka 4411532
Calculating point at 0 and the sum is 1010673 and i is920 and lens is 955 and length is 20314
Calculating point at 1 and the sum is 2001666 and i is859 and lens is 955 and length is 13255
Calculating point at 2 and the sum is 3002831 and i is758 and lens is 955 and length is 7371
Calculating point at 3 and the sum is 4000029 and i is495 and lens is 955 and length is 1275
