Assembly	#Mis_misassemblies	#Mis_relocations	#Mis_translocations	#Mis_inversions	#Mis_misassembled contigs	Mis_Misassembled contigs length	#Mis_local misassemblies	#mismatches	#indels	#Mis_short indels (<= 5 bp)	#Mis_long indels (> 5 bp)	Indels length
SOAP2_MIS_PE_mrsa_mis-1_bi_2x250bp_default.0.460percent_61.final.scaf_broken	1	1	0	0	1	1694	8	32	367	271	96	3943
SOAP2_MIS_PE_mrsa_mis-1_bi_2x250bp_default.0.460percent_61.final.scaf	1	1	0	0	1	3195	104	31	2322	1975	347	13538
