Assembly	VELVET_PGM_mrsa_pgm_400bp_es_318_IKA_ts3.2_morestringent.0.165percent_119.final.contigs
#Mis_misassemblies	407
#Mis_relocations	378
#Mis_translocations	25
#Mis_inversions	4
#Mis_misassembled contigs	407
Mis_Misassembled contigs length	119245
#Mis_local misassemblies	2
#mismatches	1790
#indels	22335
#Mis_short indels (<= 5 bp)	22334
#Mis_long indels (> 5 bp)	1
Indels length	22837
