calling: java -cp /vol/ngscomparison/software/analysis/quast-2.1/libs/gage:. SizeFasta /vol/codine-tmp/juene/tmp.uXBPcP7oiK/quast/corrected_input/Ecoli_Sakai_editedNew_plasmids.fasta |awk '{SUM+=; print SUM}'|tail -n 1
Contig Stats
Total units: 464
Reference: 5594470
BasesInFasta: 5438791
Min: 200
Max: 377972
N10: 374744 COUNT: 2
N25: 327281 COUNT: 4
N50: 149551 COUNT: 11
N75: 75473 COUNT: 23
E-size:186535.9

Genome Size: 5594470
Assembly Size: 5438791
Chaff bases: 0
Missing Reference Bases: 13717(0.25%)
Missing Assembly Bases: 57653(1.06%)
Missing Assembly Contigs: 193(41.59%)
Duplicated Reference Bases: 12925
Compressed Reference Bases: 236124
Bad Trim: 660
Avg Idy: 99.99
SNPs: 91
Indels < 5bp: 13
Indels >= 5: 17
Inversions: 0
Relocation: 5
Translocation: 0

Corrected Contig Stats
calling: java -cp /vol/ngscomparison/software/analysis/quast-2.1/libs/gage:.:. GetFastaStats -o -min 199 -genomeSize 5594470 /vol/codine-tmp/juene/tmp.uXBPcP7oiK/quast/gage/tmp/CLC_MIS_PE_sakai_mis-1_bi_2x250bp_SI_default__sakai_mis-2_bi_2x250bp_SI_default.76coverage.result.matches.lens 2> /dev/null
Total units: 248
Reference: 5594470
BasesInFasta: 5369455
Min: 200
Max: 377429
N10: 356145 COUNT: 2
N25: 204773 COUNT: 5
N50: 121851 COUNT: 14
N75: 64032 COUNT: 30
E-size:146863.52

Done
