Assembly	#Contigs	#Contigs (>= 0 bp)	#Contigs (>= 1000 bp)	Largest contig	Total length	Total length (>= 0 bp)	Total length (>= 1000 bp)	Reference length	N50	NG50	N75	NG75	L50	LG50	L75	LG75	#local misassemblies	#misassemblies	#misassembled contigs	Misassembled contigs length	Misassemblies inter-contig overlap	#unaligned contigs	Unaligned contigs length	#ambiguously mapped contigs	Extra bases in ambiguously mapped contigs	#N's	#N's per 100 kbp	Genome fraction (%)	Duplication ratio	#genes	#predicted genes (unique)	#predicted genes (>= 0 bp)	#predicted genes (>= 300 bp)	#predicted genes (>= 1500 bp)	#predicted genes (>= 3000 bp)	#mismatches	#indels	Indels length	#mismatches per 100 kbp	#indels per 100 kbp	GC (%)	Reference GC (%)	Average %IDY	Largest alignment	NA50	NGA50	NA75	NGA75	LA50	LGA50	LA75	LGA75	#Mis_misassemblies	#Mis_relocations	#Mis_translocations	#Mis_inversions	#Mis_misassembled contigs	Mis_Misassembled contigs length	#Mis_local misassemblies	#Mis_short indels (<= 5 bp)	#Mis_long indels (> 5 bp)	#Una_fully unaligned contigs	Una_Fully unaligned length	#Una_partially unaligned contigs	#Una_with misassembly	#Una_both parts are significant	Una_Partially unaligned length	GAGE_Contigs #	GAGE_Min contig	GAGE_Max contig	GAGE_N50	GAGE_Genome size	GAGE_Assembly size	GAGE_Chaff bases	GAGE_Missing reference bases	GAGE_Missing assembly bases	GAGE_Missing assembly contigs	GAGE_Duplicated reference bases	GAGE_Compressed reference bases	GAGE_Bad trim	GAGE_Avg idy	GAGE_SNPs	GAGE_Indels < 5bp	GAGE_Indels >= 5	GAGE_Inversions	GAGE_Relocation	GAGE_Translocation	GAGE_Corrected contig #	GAGE_Corrected assembly size	GAGE_Min correct contig	GAGE_Max correct contig	GAGE_Corrected N50
VELVET_MIS_PE_sakai_mis-both_bi_2x250bp_SI_default.0.64percent_135.final.contigs_broken	559	561	296	127811	5445325	5445593	5330754	5594470	33068	32980	18028	17142	48	50	100	106	3	5	5	128486	2368	1 + 0 part	5385	202	-106851	0	0.00	95.256	1.001	4931 + 305 part	5585	5599	4594	652	63	125	20	32	2.35	0.38	50.35	50.48	98.843	127811	33068	32980	17902	17057	48	50	101	107	5	5	0	0	5	128486	3	18	2	1	5385	0	0	0	0	559	267	127811	32980 COUNT: 50	5594470	5445325	0	15744(0.28%)	5452(0.10%)	1(0.18%)	12302	247366	67	100.00	81	16	2	1	4	0	534	5428534	267	127811	32861 COUNT: 51
VELVET_MIS_PE_sakai_mis-both_bi_2x250bp_SI_default.0.64percent_135.final.contigs	432	432	203	139839	5459921	5459921	5363239	5594470	61331	59946	33605	32869	31	32	60	63	99	16	13	358931	3320	1 + 0 part	5385	192	-99369	14328	262.42	95.390	1.004	4950 + 296 part	5555	5570	4590	653	63	154	106	522	2.89	1.99	50.35	50.48	98.836	139579	59527	58738	32980	31010	32	33	62	66	16	16	0	0	13	358931	99	91	15	1	5385	0	0	0	0	432	269	139839	59946 COUNT: 32	5594470	5459921	0	15616(0.28%)	19641(0.36%)	1(0.23%)	13472	247785	637	99.99	79	30	91	10	10	0	527	5428143	267	127811	32980 COUNT: 50
