Assembly	#Contigs (>= 0 bp)	#Contigs (>= 1000 bp)	Total length (>= 0 bp)	Total length (>= 1000 bp)	#Contigs	Largest contig	Total length	Reference length	GC (%)	Reference GC (%)	N50	NG50	N75	NG75	#misassemblies	#local misassemblies	#unaligned contigs	Unaligned contigs length	Genome fraction (%)	Duplication ratio	#N's per 100 kbp	#mismatches per 100 kbp	#indels per 100 kbp	#genes	#predicted genes (unique)	#predicted genes (>= 0 bp)	#predicted genes (>= 300 bp)	#predicted genes (>= 1500 bp)	#predicted genes (>= 3000 bp)	Largest alignment	NA50	NGA50	NA75	NGA75
VELVET_MIS_PE_sakai_mis-both_bi_2x250bp_SI_default.0.64percent_135.final.contigs_broken	561	296	5445593	5330754	559	127811	5445325	5594470	50.35	50.48	33068	32980	18028	17142	5	3	1 + 0 part	5385	95.256	1.001	0.00	2.35	0.38	4931 + 305 part	5585	5599	4594	652	63	127811	33068	32980	17902	17057
VELVET_MIS_PE_sakai_mis-both_bi_2x250bp_SI_default.0.64percent_135.final.contigs	432	203	5459921	5363239	432	139839	5459921	5594470	50.35	50.48	61331	59946	33605	32869	16	99	1 + 0 part	5385	95.390	1.004	262.42	2.89	1.99	4950 + 296 part	5555	5570	4590	653	63	139579	59527	58738	32980	31010
