All statistics are based on contigs of size >= 200 bp, unless otherwise noted (e.g., "# contigs (>= 0 bp)" and "Total length (>= 0 bp)" include all contigs).

Assembly                                                                 #Contigs (>= 0 bp)  #Contigs (>= 1000 bp)  Total length (>= 0 bp)  Total length (>= 1000 bp)  #Contigs  Largest contig  Total length  Reference length  GC (%)  Reference GC (%)  N50    NG50   N75    NG75   #misassemblies  #local misassemblies  #unaligned contigs  Unaligned contigs length  Genome fraction (%)  Duplication ratio  #N's per 100 kbp  #mismatches per 100 kbp  #indels per 100 kbp  #genes           #predicted genes (unique)  #predicted genes (>= 0 bp)  #predicted genes (>= 300 bp)  #predicted genes (>= 1500 bp)  #predicted genes (>= 3000 bp)  Largest alignment  NA50   NGA50  NA75   NGA75
SOAP2_MIS_PE_mtbh37-1_mis_2x250bp_nextera_default_109.final.scaf_broken  2170                644                    4579251                 4209091                    1940      41698           4547731       4411532           65.64   65.61             8885   9068   4495   4828   19              23                    2 + 4 part          1579                      98.280               1.042              3.30              11.30                    1.50                 3382 + 684 part  5517                       5565                        3723                          495                            57                             41689              8860   9059   4493   4828 
SOAP2_MIS_PE_mtbh37-1_mis_2x250bp_nextera_default_109.final.scaf         1529                132                    4611064                 4302188                    1325      222161          4582913       4411532           65.64   65.61             63012  63453  31829  36362  19              538                   2 + 4 part          2421                      98.437               1.048              697.44            11.12                    25.88                3457 + 611 part  5327                       5374                        3660                          515                            61                             220471             61040  62789  30643  35871
