All statistics are based on contigs of size >= 200 bp, unless otherwise noted (e.g., "# contigs (>= 0 bp)" and "Total length (>= 0 bp)" include all contigs).

Assembly                                                                                                 GAGE_Contigs #  GAGE_Min contig  GAGE_Max contig  GAGE_N50    GAGE_Genome size  GAGE_Assembly size  GAGE_Chaff bases  GAGE_Missing reference bases  GAGE_Missing assembly bases  GAGE_Missing assembly contigs  GAGE_Duplicated reference bases  GAGE_Compressed reference bases  GAGE_Bad trim  GAGE_Avg idy  GAGE_SNPs  GAGE_Indels < 5bp  GAGE_Indels >= 5  GAGE_Inversions  GAGE_Relocation  GAGE_Translocation  GAGE_Corrected contig #  GAGE_Corrected assembly size  GAGE_Min correct contig  GAGE_Max correct contig  GAGE_Corrected N50
ABYSS_PE_MIS_PE_mrsa_mis-1_bi_2x250bp_default__mrsa_mis-2_bi_2x250bp_default.1coverage_124.final_broken  474             248              2065             0 COUNT: 0  2813862           144363              0                 2642138(93.90%)               0(0.00%)                     0(0.00%)                       160                              28622                            0              99.99         13         1                  0                 0                0                0                   473                      144113                        248                      2065                     0 COUNT: 0        
ABYSS_PE_MIS_PE_mrsa_mis-1_bi_2x250bp_default__mrsa_mis-2_bi_2x250bp_default.1coverage_124.final         474             248              2065             0 COUNT: 0  2813862           144363              0                 2642138(93.90%)               0(0.00%)                     0(0.00%)                       160                              28622                            0              99.99         13         1                  0                 0                0                0                   473                      144113                        248                      2065                     0 COUNT: 0        
