All statistics are based on contigs of size >= 200 bp, unless otherwise noted (e.g., "# contigs (>= 0 bp)" and "Total length (>= 0 bp)" include all contigs).

Assembly                       NEWBLER_MIS_PE_mrsa_mis-1_bi_2x150bp_default__mrsa_mis-2_bi_2x150bp_default.0.600percent.contigs_broken  NEWBLER_MIS_PE_mrsa_mis-1_bi_2x150bp_default__mrsa_mis-2_bi_2x150bp_default.0.600percent.contigs
#Contigs (>= 0 bp)             60                                                                                                       24                                                                                              
#Contigs (>= 1000 bp)          58                                                                                                       24                                                                                              
Total length (>= 0 bp)         2764576                                                                                                  2792172                                                                                         
Total length (>= 1000 bp)      2762955                                                                                                  2792172                                                                                         
#Contigs                       60                                                                                                       24                                                                                              
Largest contig                 453082                                                                                                   813662                                                                                          
Total length                   2764576                                                                                                  2792172                                                                                         
Reference length               2813862                                                                                                  2813862                                                                                         
GC (%)                         32.67                                                                                                    32.67                                                                                           
Reference GC (%)               32.81                                                                                                    32.81                                                                                           
N50                            109736                                                                                                   326635                                                                                          
NG50                           109736                                                                                                   326635                                                                                          
N75                            45713                                                                                                    144719                                                                                          
NG75                           45713                                                                                                    144719                                                                                          
#misassemblies                 2                                                                                                        2                                                                                               
#local misassemblies           2                                                                                                        38                                                                                              
#unaligned contigs             1 + 0 part                                                                                               1 + 0 part                                                                                      
Unaligned contigs length       5386                                                                                                     5386                                                                                            
Genome fraction (%)            97.906                                                                                                   98.073                                                                                          
Duplication ratio              1.000                                                                                                    1.010                                                                                           
#N's per 100 kbp               0.00                                                                                                     988.33                                                                                          
#mismatches per 100 kbp        1.23                                                                                                     1.30                                                                                            
#indels per 100 kbp            0.33                                                                                                     0.33                                                                                            
#genes                         2652 + 27 part                                                                                           2653 + 28 part                                                                                  
#predicted genes (unique)      2603                                                                                                     2600                                                                                            
#predicted genes (>= 0 bp)     2603                                                                                                     2600                                                                                            
#predicted genes (>= 300 bp)   2276                                                                                                     2277                                                                                            
#predicted genes (>= 1500 bp)  299                                                                                                      299                                                                                             
#predicted genes (>= 3000 bp)  30                                                                                                       30                                                                                              
Largest alignment              453082                                                                                                   804616                                                                                          
NA50                           109736                                                                                                   158996                                                                                          
NGA50                          87124                                                                                                    158996                                                                                          
NA75                           45713                                                                                                    144719                                                                                          
NGA75                          43860                                                                                                    144719                                                                                          
