calling: java -cp /vol/ngscomparison/software/analysis/quast-2.1/libs/gage:. SizeFasta /vol/codine-tmp/juene/tmp.DirQL1Xoee/quast/corrected_input/Ecoli_Sakai_editedNew_plasmids.fasta |awk '{SUM+=; print SUM}'|tail -n 1
Contig Stats
Total units: 3320
Reference: 5594470
BasesInFasta: 4971816
Min: 273
Max: 11047
N10: 4781 COUNT: 92
N25: 3118 COUNT: 316
N50: 1796 COUNT: 911
N75: 885 COUNT: 2008
E-size:2236.19

Genome Size: 5594470
Assembly Size: 4971816
Chaff bases: 0
Missing Reference Bases: 612407(10.95%)
Missing Assembly Bases: 3423(0.07%)
Missing Assembly Contigs: 0(0.00%)
Duplicated Reference Bases: 34699
Compressed Reference Bases: 255445
Bad Trim: 3193
Avg Idy: 99.93
SNPs: 152
Indels < 5bp: 2421
Indels >= 5: 16
Inversions: 6
Relocation: 7
Translocation: 0

Corrected Contig Stats
calling: java -cp /vol/ngscomparison/software/analysis/quast-2.1/libs/gage:.:. GetFastaStats -o -min 199 -genomeSize 5594470 /vol/codine-tmp/juene/tmp.DirQL1Xoee/quast/gage/tmp/VELVET_PGM_sakai_pgm_mu_200bp_IO_TS3.0Disabled_stringent.0.34percent_137.final.contigs.matches.lens 2> /dev/null
Total units: 3294
Reference: 5594470
BasesInFasta: 4937996
Min: 264
Max: 11050
N10: 4661 COUNT: 94
N25: 3058 COUNT: 322
N50: 1755 COUNT: 927
N75: 869 COUNT: 2042
E-size:2186.79

Done
