Assembly	GAGE_Contigs #	GAGE_Min contig	GAGE_Max contig	GAGE_N50	GAGE_Genome size	GAGE_Assembly size	GAGE_Chaff bases	GAGE_Missing reference bases	GAGE_Missing assembly bases	GAGE_Missing assembly contigs	GAGE_Duplicated reference bases	GAGE_Compressed reference bases	GAGE_Bad trim	GAGE_Avg idy	GAGE_SNPs	GAGE_Indels < 5bp	GAGE_Indels >= 5	GAGE_Inversions	GAGE_Relocation	GAGE_Translocation	GAGE_Corrected contig #	GAGE_Corrected assembly size	GAGE_Min correct contig	GAGE_Max correct contig	GAGE_Corrected N50
ABYSS_PE_MIS_PE_mrsa_mis-1_bi_2x150bp_default__mrsa_mis-2_bi_2x150bp_default.0.500percent_94.final_broken	72	226	254416	147560 COUNT: 7	2813862	2800073	0	884(0.03%)	2(0.00%)	0(0.00%)	267	30972	0	99.99	51	9	5	1	2	0	79	2800933	226	254417	117441 COUNT: 8
ABYSS_PE_MIS_PE_mrsa_mis-1_bi_2x150bp_default__mrsa_mis-2_bi_2x150bp_default.0.500percent_94.final	59	226	354095	160164 COUNT: 6	2813862	2800734	0	884(0.03%)	663(0.02%)	0(0.00%)	267	30972	0	99.99	51	9	14	3	3	0	79	2800933	226	254417	117441 COUNT: 8
