Assembly	SOAP2_PGM_mrsa_pgm_400bp_es_318_IKA_ts3.2_morestringent.0.165percent_35.final.contig
#Contigs (>= 0 bp)	398564
#Contigs (>= 1000 bp)	0
Total length (>= 0 bp)	22952500
Total length (>= 1000 bp)	0
#Contigs	602
Largest contig	659
Total length	141947
Reference length	2813862
GC (%)	30.24
Reference GC (%)	32.81
N50	224
NG50	None
N75	210
NG75	None
#misassemblies	0
#local misassemblies	0
#unaligned contigs	548 + 0 part
Unaligned contigs length	129783
Genome fraction (%)	0.432
Duplication ratio	1.001
#N's per 100 kbp	0.00
#mismatches per 100 kbp	98.72
#indels per 100 kbp	1094.11
#genes	0 + 52 part
#predicted genes (unique)	301
#predicted genes (>= 0 bp)	301
#predicted genes (>= 300 bp)	4
#predicted genes (>= 1500 bp)	0
#predicted genes (>= 3000 bp)	0
Largest alignment	300
NA50	None
NGA50	None
NA75	None
NGA75	None
