Assembly	SOAP2_PGM_mrsa_pgm_200bp_es_316_IonOnev2_ts3.0_morestringent.0.230percent_35.final.contig
#Contigs (>= 0 bp)	162884
#Contigs (>= 1000 bp)	0
Total length (>= 0 bp)	12278868
Total length (>= 1000 bp)	0
#Contigs	1389
Largest contig	614
Total length	346273
Reference length	2813862
GC (%)	33.16
Reference GC (%)	32.81
N50	240
NG50	None
N75	215
NG75	None
#misassemblies	0
#local misassemblies	0
#unaligned contigs	134 + 4 part
Unaligned contigs length	29095
Genome fraction (%)	11.231
Duplication ratio	1.004
#N's per 100 kbp	0.00
#mismatches per 100 kbp	9.49
#indels per 100 kbp	56.96
#genes	7 + 916 part
#predicted genes (unique)	1292
#predicted genes (>= 0 bp)	1292
#predicted genes (>= 300 bp)	123
#predicted genes (>= 1500 bp)	0
#predicted genes (>= 3000 bp)	0
Largest alignment	614
NA50	239
NGA50	None
NA75	212
NGA75	None
