calling: java -cp /vol/ngscomparison/software/analysis/quast-2.1/libs/gage:. SizeFasta /vol/codine-tmp/juene/tmp.GejbCBR8fQ/quast/corrected_input/Ecoli_Sakai_editedNew_plasmids.fasta |awk '{SUM+=; print SUM}'|tail -n 1
Contig Stats
Total units: 266
Reference: 5594470
BasesInFasta: 5362451
Min: 201
Max: 374869
N10: 313894 COUNT: 2
N25: 238157 COUNT: 5
N50: 145459 COUNT: 14
N75: 66151 COUNT: 28
E-size:150838.54

Genome Size: 5594470
Assembly Size: 5362451
Chaff bases: 0
Missing Reference Bases: 29786(0.53%)
Missing Assembly Bases: 10196(0.19%)
Missing Assembly Contigs: 3(1.13%)
Duplicated Reference Bases: 5241
Compressed Reference Bases: 252185
Bad Trim: 541
Avg Idy: 99.99
SNPs: 124
Indels < 5bp: 18
Indels >= 5: 20
Inversions: 1
Relocation: 6
Translocation: 0

Corrected Contig Stats
calling: java -cp /vol/ngscomparison/software/analysis/quast-2.1/libs/gage:.:. GetFastaStats -o -min 199 -genomeSize 5594470 /vol/codine-tmp/juene/tmp.GejbCBR8fQ/quast/gage/tmp/CLC_MIS_PE_sakai_mis-1_bi_2x150bp_default__sakai_mis-2_bi_2x150bp_default.81coverage.result.matches.lens 2> /dev/null
Total units: 292
Reference: 5594470
BasesInFasta: 5347975
Min: 201
Max: 313894
N10: 211499 COUNT: 3
N25: 183527 COUNT: 7
N50: 106682 COUNT: 17
N75: 43490 COUNT: 36
E-size:117569.27

Done
