Assembly	SOAP2_PGM_sakai_pgm_mu_318_400bp_IO_TS3.4_ms_0.395percent_53.final.contig
#Una_fully unaligned contigs	1147
Una_Fully unaligned length	254064
#Una_partially unaligned contigs	3
#Una_with misassembly	0
#Una_both parts are significant	0
Una_Partially unaligned length	153
#N's	0
