All statistics are based on contigs of size >= 200 bp, unless otherwise noted (e.g., "# contigs (>= 0 bp)" and "Total length (>= 0 bp)" include all contigs).

Assembly                         SOAP2_MIS_PE_sakai_mis-1_bi_2x150bp_default.0.826percent_13.final.scaf
#Mis_misassemblies               0                                                                     
#Mis_relocations                 0                                                                     
#Mis_translocations              0                                                                     
#Mis_inversions                  0                                                                     
#Mis_misassembled contigs        0                                                                     
Mis_Misassembled contigs length  0                                                                     
#Mis_local misassemblies         10                                                                    
#mismatches                      10                                                                    
#indels                          1                                                                     
#Mis_short indels (<= 5 bp)      1                                                                     
#Mis_long indels (> 5 bp)        0                                                                     
Indels length                    1                                                                     
