All statistics are based on contigs of size >= 200 bp, unless otherwise noted (e.g., "# contigs (>= 0 bp)" and "Total length (>= 0 bp)" include all contigs).

Assembly                                                                                      GAGE_Contigs #  GAGE_Min contig  GAGE_Max contig  GAGE_N50          GAGE_Genome size  GAGE_Assembly size  GAGE_Chaff bases  GAGE_Missing reference bases  GAGE_Missing assembly bases  GAGE_Missing assembly contigs  GAGE_Duplicated reference bases  GAGE_Compressed reference bases  GAGE_Bad trim  GAGE_Avg idy  GAGE_SNPs  GAGE_Indels < 5bp  GAGE_Indels >= 5  GAGE_Inversions  GAGE_Relocation  GAGE_Translocation  GAGE_Corrected contig #  GAGE_Corrected assembly size  GAGE_Min correct contig  GAGE_Max correct contig  GAGE_Corrected N50
ABYSS_PE_MIS_PE_sakai_mis-both_bi_2x250bp_SI_default.0.64percent.NEWBLER_80-scaffolds_broken  326             200              227350           99845 COUNT: 19   5594470           5480328             0                 19087(0.34%)                  36(0.00%)                    0(0.00%)                       18835                            227311                           0              99.98         486        35                 11                3                3                0                   315                      5469282                       201                      227350                   72539 COUNT: 23   
ABYSS_PE_MIS_PE_sakai_mis-both_bi_2x250bp_SI_default.0.64percent.NEWBLER_80-scaffolds         275             200              376760           127578 COUNT: 16  5594470           5483157             0                 19049(0.34%)                  2628(0.05%)                  0(0.00%)                       19045                            225924                           450            99.98         484        35                 35                9                10               0                   313                      5469124                       201                      227350                   72539 COUNT: 23   
