All statistics are based on contigs of size >= 200 bp, unless otherwise noted (e.g., "# contigs (>= 0 bp)" and "Total length (>= 0 bp)" include all contigs).

Assembly                                                                                            #Contigs  #Contigs (>= 0 bp)  #Contigs (>= 1000 bp)  Largest contig  Total length  Total length (>= 0 bp)  Total length (>= 1000 bp)  Reference length  N50     NG50    N75    NG75    L50  LG50  L75  LG75  #local misassemblies  #misassemblies  #misassembled contigs  Misassembled contigs length  Misassemblies inter-contig overlap  #unaligned contigs  Unaligned contigs length  #ambiguously mapped contigs  Extra bases in ambiguously mapped contigs  #N's  #N's per 100 kbp  Genome fraction (%)  Duplication ratio  #genes          #predicted genes (unique)  #predicted genes (>= 0 bp)  #predicted genes (>= 300 bp)  #predicted genes (>= 1500 bp)  #predicted genes (>= 3000 bp)  #mismatches  #indels  Indels length  #mismatches per 100 kbp  #indels per 100 kbp  GC (%)  Reference GC (%)  Average %IDY  Largest alignment  NA50    NGA50   NA75   NGA75  LA50  LGA50  LA75  LGA75  #Mis_misassemblies  #Mis_relocations  #Mis_translocations  #Mis_inversions  #Mis_misassembled contigs  Mis_Misassembled contigs length  #Mis_local misassemblies  #Mis_short indels (<= 5 bp)  #Mis_long indels (> 5 bp)  #Una_fully unaligned contigs  Una_Fully unaligned length  #Una_partially unaligned contigs  #Una_with misassembly  #Una_both parts are significant  Una_Partially unaligned length  GAGE_Contigs #  GAGE_Min contig  GAGE_Max contig  GAGE_N50         GAGE_Genome size  GAGE_Assembly size  GAGE_Chaff bases  GAGE_Missing reference bases  GAGE_Missing assembly bases  GAGE_Missing assembly contigs  GAGE_Duplicated reference bases  GAGE_Compressed reference bases  GAGE_Bad trim  GAGE_Avg idy  GAGE_SNPs  GAGE_Indels < 5bp  GAGE_Indels >= 5  GAGE_Inversions  GAGE_Relocation  GAGE_Translocation  GAGE_Corrected contig #  GAGE_Corrected assembly size  GAGE_Min correct contig  GAGE_Max correct contig  GAGE_Corrected N50
CLC_MIS_PE_mrsa_mis-1_bi_2x250bp_default__mrsa_mis-2_bi_2x250bp_default.0.650percent.result_broken  334       335                 33                     338857          2864928       2864967                 2781154                    2813862           150080  150080  88630  109149  6    6     12   11    3                     3               3                      200109                       1849                                292 + 1 part        85086                     7                            -7698                                      21    0.73              98.540               1.000              2690 + 17 part  2916                       2918                        2316                          297                            29                             100          21       155            3.61                     0.76                 33.26   32.81             98.459        338857             149389  149389  88630  88630  6     6      12    12     3                   3                 0                    0                3                          200109                           3                         18                           3                          292                           84740                       1                                 0                      0                                346                             334             200              338857           150080 COUNT: 6  2813862           2864928             0                 4082(0.15%)                   84908(2.96%)                 291(87.13%)                    761                              32130                            416            99.99         53         9                  5                 1                3                0                   48                       2781105                       206                      328906                   149389 COUNT: 6   
CLC_MIS_PE_mrsa_mis-1_bi_2x250bp_default__mrsa_mis-2_bi_2x250bp_default.0.650percent.result         334       334                 33                     338857          2865214       2865214                 2781242                    2813862           150080  150080  88630  109149  6    6     12   11    3                     3               3                      200197                       1849                                292 + 1 part        85284                     7                            -7698                                      268   9.35              98.540               1.000              2690 + 17 part  2917                       2919                        2316                          297                            29                             100          21       155            3.61                     0.76                 33.26   32.81             98.459        338857             149389  149389  88630  88630  6     6      12    12     3                   3                 0                    0                3                          200197                           3                         18                           3                          292                           84938                       1                                 0                      0                                346                             334             200              338857           150080 COUNT: 6  2813862           2865214             0                 4082(0.15%)                   85194(2.97%)                 291(87.13%)                    761                              32130                            504            99.99         53         9                  5                 1                3                0                   48                       2781105                       206                      328906                   149389 COUNT: 6   
