Assembly	ABYSS_PE_MIS_PE_sakai_mis-2_bi_2x150bp_default__sakai_mis-1_bi_2x150bp_default.0.150percent_44.final_broken	ABYSS_PE_MIS_PE_sakai_mis-2_bi_2x150bp_default__sakai_mis-1_bi_2x150bp_default.0.150percent_44.final
GAGE_Contigs #	761	744
GAGE_Min contig	200	200
GAGE_Max contig	85090	85596
GAGE_N50	16616 COUNT: 105	17099 COUNT: 102
GAGE_Genome size	5594470	5594470
GAGE_Assembly size	5293935	5295681
GAGE_Chaff bases	0	0
GAGE_Missing reference bases	139733(2.50%)	147299(2.63%)
GAGE_Missing assembly bases	28(0.00%)	1797(0.03%)
GAGE_Missing assembly contigs	0(0.00%)	1(0.13%)
GAGE_Duplicated reference bases	6655	6655
GAGE_Compressed reference bases	243380	235365
GAGE_Bad trim	0	0
GAGE_Avg idy	99.99	99.98
GAGE_SNPs	343	379
GAGE_Indels < 5bp	27	37
GAGE_Indels >= 5	17	26
GAGE_Inversions	0	2
GAGE_Relocation	3	6
GAGE_Translocation	0	0
GAGE_Corrected contig #	775	771
GAGE_Corrected assembly size	5288996	5289904
GAGE_Min correct contig	200	200
GAGE_Max correct contig	66111	66111
GAGE_Corrected N50	15840 COUNT: 111	16161 COUNT: 110
