All statistics are based on contigs of size >= 200 bp, unless otherwise noted (e.g., "# contigs (>= 0 bp)" and "Total length (>= 0 bp)" include all contigs).

Assembly                                                                                                     GAGE_Contigs #  GAGE_Min contig  GAGE_Max contig  GAGE_N50          GAGE_Genome size  GAGE_Assembly size  GAGE_Chaff bases  GAGE_Missing reference bases  GAGE_Missing assembly bases  GAGE_Missing assembly contigs  GAGE_Duplicated reference bases  GAGE_Compressed reference bases  GAGE_Bad trim  GAGE_Avg idy  GAGE_SNPs  GAGE_Indels < 5bp  GAGE_Indels >= 5  GAGE_Inversions  GAGE_Relocation  GAGE_Translocation  GAGE_Corrected contig #  GAGE_Corrected assembly size  GAGE_Min correct contig  GAGE_Max correct contig  GAGE_Corrected N50
ABYSS_PE_MIS_PE_sakai_mis-2_bi_2x150bp_default__sakai_mis-1_bi_2x150bp_default.0.150percent_44.final_broken  761             200              85090            16616 COUNT: 105  5594470           5293935             0                 139733(2.50%)                 28(0.00%)                    0(0.00%)                       6655                             243380                           0              99.99         343        27                 17                0                3                0                   775                      5288996                       200                      66111                    15840 COUNT: 111  
ABYSS_PE_MIS_PE_sakai_mis-2_bi_2x150bp_default__sakai_mis-1_bi_2x150bp_default.0.150percent_44.final         744             200              85596            17099 COUNT: 102  5594470           5295681             0                 147299(2.63%)                 1797(0.03%)                  1(0.13%)                       6655                             235365                           0              99.98         379        37                 26                2                6                0                   771                      5289904                       200                      66111                    16161 COUNT: 110  
