All statistics are based on contigs of size >= 200 bp, unless otherwise noted (e.g., "# contigs (>= 0 bp)" and "Total length (>= 0 bp)" include all contigs).

Assembly                       CLC_MIS_PE_mtbh37-1_mis_2x250bp_nextera_default__mtbh37-2_mis_2x250bp_nextera_default.0.200percent.result_broken  CLC_MIS_PE_mtbh37-1_mis_2x250bp_nextera_default__mtbh37-2_mis_2x250bp_nextera_default.0.200percent.result
#Contigs (>= 0 bp)             721                                                                                                               501                                                                                                      
#Contigs (>= 1000 bp)          260                                                                                                               238                                                                                                      
Total length (>= 0 bp)         4357952                                                                                                           4369356                                                                                                  
Total length (>= 1000 bp)      4240075                                                                                                           4269530                                                                                                  
#Contigs                       501                                                                                                               501                                                                                                      
Largest contig                 92130                                                                                                             92130                                                                                                    
Total length                   4340288                                                                                                           4369356                                                                                                  
Reference length               4411532                                                                                                           4411532                                                                                                  
GC (%)                         65.57                                                                                                             65.66                                                                                                    
Reference GC (%)               65.61                                                                                                             65.61                                                                                                    
N50                            32474                                                                                                             35702                                                                                                    
NG50                           32307                                                                                                             34666                                                                                                    
N75                            16012                                                                                                             19025                                                                                                    
NG75                           15372                                                                                                             18948                                                                                                    
#misassemblies                 18                                                                                                                20                                                                                                       
#local misassemblies           12                                                                                                                39                                                                                                       
#unaligned contigs             31 + 48 part                                                                                                      79 + 74 part                                                                                             
Unaligned contigs length       14133                                                                                                             36895                                                                                                    
Genome fraction (%)            97.245                                                                                                            97.304                                                                                                   
Duplication ratio              1.013                                                                                                             1.014                                                                                                    
#N's per 100 kbp               8.32                                                                                                              272.65                                                                                                   
#mismatches per 100 kbp        27.93                                                                                                             27.61                                                                                                    
#indels per 100 kbp            7.37                                                                                                              14.56                                                                                                    
#genes                         3800 + 243 part                                                                                                   3827 + 215 part                                                                                          
#predicted genes (unique)      4264                                                                                                              4251                                                                                                     
#predicted genes (>= 0 bp)     4264                                                                                                              4251                                                                                                     
#predicted genes (>= 300 bp)   3646                                                                                                              3645                                                                                                     
#predicted genes (>= 1500 bp)  553                                                                                                               554                                                                                                      
#predicted genes (>= 3000 bp)  70                                                                                                                72                                                                                                       
Largest alignment              92111                                                                                                             92111                                                                                                    
NA50                           31556                                                                                                             33932                                                                                                    
NGA50                          31316                                                                                                             33932                                                                                                    
NA75                           15546                                                                                                             18696                                                                                                    
NGA75                          15331                                                                                                             18463                                                                                                    
