Assembly	#Contigs (>= 0 bp)	#Contigs (>= 1000 bp)	Total length (>= 0 bp)	Total length (>= 1000 bp)	#Contigs	Largest contig	Total length	Reference length	GC (%)	Reference GC (%)	N50	NG50	N75	NG75	#misassemblies	#local misassemblies	#unaligned contigs	Unaligned contigs length	Genome fraction (%)	Duplication ratio	#N's per 100 kbp	#mismatches per 100 kbp	#indels per 100 kbp	#genes	#predicted genes (unique)	#predicted genes (>= 0 bp)	#predicted genes (>= 300 bp)	#predicted genes (>= 1500 bp)	#predicted genes (>= 3000 bp)	Largest alignment	NA50	NGA50	NA75	NGA75
CLC_MIS_PE_mtbh37-1_mis_2x250bp_nextera_default__mtbh37-2_mis_2x250bp_nextera_default.0.200percent.result_broken	721	260	4357952	4240075	501	92130	4340288	4411532	65.57	65.61	32474	32307	16012	15372	18	12	31 + 48 part	14133	97.245	1.013	8.32	27.93	7.37	3800 + 243 part	4264	4264	3646	553	70	92111	31556	31316	15546	15331
CLC_MIS_PE_mtbh37-1_mis_2x250bp_nextera_default__mtbh37-2_mis_2x250bp_nextera_default.0.200percent.result	501	238	4369356	4269530	501	92130	4369356	4411532	65.66	65.61	35702	34666	19025	18948	20	39	79 + 74 part	36895	97.304	1.014	272.65	27.61	14.56	3827 + 215 part	4251	4251	3645	554	72	92111	33932	33932	18696	18463
