Assembly	#Contigs (>= 0 bp)	#Contigs (>= 1000 bp)	Total length (>= 0 bp)	Total length (>= 1000 bp)	#Contigs	Largest contig	Total length	Reference length	GC (%)	Reference GC (%)	N50	NG50	N75	NG75	#misassemblies	#local misassemblies	#unaligned contigs	Unaligned contigs length	Genome fraction (%)	Duplication ratio	#N's per 100 kbp	#mismatches per 100 kbp	#indels per 100 kbp	#genes	#predicted genes (unique)	#predicted genes (>= 0 bp)	#predicted genes (>= 300 bp)	#predicted genes (>= 1500 bp)	#predicted genes (>= 3000 bp)	Largest alignment	NA50	NGA50	NA75	NGA75
NEWBLER_MIS_PE_mtbh37-1_mis_2x250bp_nextera_default__mtbh37-2_mis_2x250bp_nextera_default.0.300percent.contigs_broken	199	183	4291133	4279272	199	125217	4291133	4411532	65.51	65.61	45115	43272	25682	23424	0	4	0 + 1 part	44	97.053	1.005	0.00	3.76	0.96	3874 + 147 part	4029	4030	3543	560	71	125217	45115	43272	25682	23424
NEWBLER_MIS_PE_mtbh37-1_mis_2x250bp_nextera_default__mtbh37-2_mis_2x250bp_nextera_default.0.300percent.contigs	97	97	4350884	4350884	97	202849	4350884	4411532	65.51	65.61	72560	72443	48559	46690	1	106	0 + 0 part	0	97.264	1.019	1373.31	3.85	0.93	3879 + 149 part	4028	4029	3545	561	71	199435	71088	71088	46690	44259
