Assembly	SOAP2_MIS_PE_sakai_mis-1_bi_2x250bp_SI_default.0.64percent_57.final.scaf_broken	SOAP2_MIS_PE_sakai_mis-1_bi_2x250bp_SI_default.0.64percent_57.final.scaf
#Contigs	69157	69160
#Contigs (>= 0 bp)	117658	117654
#Contigs (>= 1000 bp)	338	338
Largest contig	3208	3208
Total length	18107437	18108760
Total length (>= 0 bp)	25725747	25726037
Total length (>= 1000 bp)	427697	427697
Reference length	5594470	5594470
N50	250	250
NG50	370	370
N75	226	226
NG75	251	251
L50	28894	28895
LG50	4679	4679
L75	47835	47837
LG75	9516	9514
#local misassemblies	0	2
#misassemblies	1	1
#misassembled contigs	1	1
Misassembled contigs length	406	406
Misassemblies inter-contig overlap	0	0
#unaligned contigs	58546 + 4 part	58547 + 5 part
Unaligned contigs length	13734686	13735168
#ambiguously mapped contigs	69	69
Extra bases in ambiguously mapped contigs	-17358	-17358
#N's	0	290
#N's per 100 kbp	0.00	1.60
Genome fraction (%)	74.217	74.224
Duplication ratio	1.049	1.049
#genes	574 + 4229 part	574 + 4230 part
#predicted genes (unique)	61535	61537
#predicted genes (>= 0 bp)	61581	61583
#predicted genes (>= 300 bp)	4840	4841
#predicted genes (>= 1500 bp)	3	3
#predicted genes (>= 3000 bp)	0	0
#mismatches	84	84
#indels	7	7
Indels length	7	7
#mismatches per 100 kbp	2.02	2.02
#indels per 100 kbp	0.17	0.17
GC (%)	53.88	53.88
Reference GC (%)	50.48	50.48
Average %IDY	99.996	99.996
Largest alignment	3208	3208
NA50	None	None
NGA50	367	367
NA75	None	None
NGA75	211	211
LA50	None	None
LGA50	4688	4688
LA75	None	None
LGA75	9766	9765
#Mis_misassemblies	1	1
#Mis_relocations	1	1
#Mis_translocations	0	0
#Mis_inversions	0	0
#Mis_misassembled contigs	1	1
Mis_Misassembled contigs length	406	406
#Mis_local misassemblies	0	2
#Mis_short indels (<= 5 bp)	7	7
#Mis_long indels (> 5 bp)	0	0
#Una_fully unaligned contigs	58546	58547
Una_Fully unaligned length	13734507	13734812
#Una_partially unaligned contigs	4	5
#Una_with misassembly	0	0
#Una_both parts are significant	0	0
Una_Partially unaligned length	179	356
GAGE_Contigs #	69157	69160
GAGE_Min contig	200	200
GAGE_Max contig	3208	3208
GAGE_N50	370 COUNT: 4679	370 COUNT: 4679
GAGE_Genome size	5594470	5594470
GAGE_Assembly size	18107437	18108760
GAGE_Chaff bases	0	0
GAGE_Missing reference bases	760934(13.60%)	760685(13.60%)
GAGE_Missing assembly bases	11962117(66.06%)	11962569(66.06%)
GAGE_Missing assembly contigs	50373(72.84%)	50373(72.84%)
GAGE_Duplicated reference bases	942508	943186
GAGE_Compressed reference bases	216109	216109
GAGE_Bad trim	85301	85478
GAGE_Avg idy	99.42	99.42
GAGE_SNPs	17633	17630
GAGE_Indels < 5bp	111	111
GAGE_Indels >= 5	0	2
GAGE_Inversions	0	0
GAGE_Relocation	1	1
GAGE_Translocation	0	0
GAGE_Corrected contig #	13926	13922
GAGE_Corrected assembly size	5120488	5119592
GAGE_Min correct contig	200	200
GAGE_Max correct contig	3208	3208
GAGE_Corrected N50	367 COUNT: 4687	367 COUNT: 4687
