All statistics are based on contigs of size >= 200 bp, unless otherwise noted (e.g., "# contigs (>= 0 bp)" and "Total length (>= 0 bp)" include all contigs).

Assembly                         ABYSS_PE_MIS_PE_mrsa_mis-1_bi_2x250bp_default__mrsa_mis-2_bi_2x250bp_default.0.460percent_128-scaffolds_broken  ABYSS_PE_MIS_PE_mrsa_mis-1_bi_2x250bp_default__mrsa_mis-2_bi_2x250bp_default.0.460percent_128-scaffolds
#Mis_misassemblies               4                                                                                                               4                                                                                                      
#Mis_relocations                 4                                                                                                               4                                                                                                      
#Mis_translocations              0                                                                                                               0                                                                                                      
#Mis_inversions                  0                                                                                                               0                                                                                                      
#Mis_misassembled contigs        4                                                                                                               4                                                                                                      
Mis_Misassembled contigs length  230765                                                                                                          233844                                                                                                 
#Mis_local misassemblies         0                                                                                                               1                                                                                                      
#mismatches                      61                                                                                                              60                                                                                                     
#indels                          9                                                                                                               10                                                                                                     
#Mis_short indels (<= 5 bp)      9                                                                                                               9                                                                                                      
#Mis_long indels (> 5 bp)        0                                                                                                               1                                                                                                      
Indels length                    9                                                                                                               38                                                                                                     
