Assembly	VELVET_MIS_PE_mrsa_mis-1_bi_2x150bp_default__mrsa_mis-2_bi_2x150bp_default.0.527percent_33.final.contigs_broken	VELVET_MIS_PE_mrsa_mis-1_bi_2x150bp_default__mrsa_mis-2_bi_2x150bp_default.0.527percent_33.final.contigs
#Mis_misassemblies	6	10
#Mis_relocations	6	10
#Mis_translocations	0	0
#Mis_inversions	0	0
#Mis_misassembled contigs	6	7
Mis_Misassembled contigs length	96294	351265
#Mis_local misassemblies	15	25
#mismatches	382	382
#indels	85	310
#Mis_short indels (<= 5 bp)	73	263
#Mis_long indels (> 5 bp)	12	47
Indels length	356	1389
