Assembly	VELVET_PGM_mrsa_pgm_400bp_es_318_IKA_ts3.2_morestringent.0.165percent_223.final.contigs
GAGE_Contigs #	1181
GAGE_Min contig	445
GAGE_Max contig	10994
GAGE_N50	1635 COUNT: 492
GAGE_Genome size	2813862
GAGE_Assembly size	2157446
GAGE_Chaff bases	0
GAGE_Missing reference bases	688910(24.48%)
GAGE_Missing assembly bases	213(0.01%)
GAGE_Missing assembly contigs	0(0.00%)
GAGE_Duplicated reference bases	443
GAGE_Compressed reference bases	31044
GAGE_Bad trim	213
GAGE_Avg idy	99.94
GAGE_SNPs	55
GAGE_Indels < 5bp	775
GAGE_Indels >= 5	0
GAGE_Inversions	0
GAGE_Relocation	1
GAGE_Translocation	0
GAGE_Corrected contig #	1183
GAGE_Corrected assembly size	2159926
GAGE_Min correct contig	445
GAGE_Max correct contig	10995
GAGE_Corrected N50	1636 COUNT: 492
