calling: java -cp /vol/ngscomparison/software/analysis/quast-2.1/libs/gage:. SizeFasta /vol/codine-tmp/juene/tmp.y0gdW90dE4/quast/corrected_input/Ecoli_Sakai_editedNew_plasmids.fasta |awk '{SUM+=; print SUM}'|tail -n 1
Contig Stats
Total units: 31074
Reference: 5594470
BasesInFasta: 7423409
Min: 200
Max: 759
N10: 306 COUNT: 1638
N25: 275 COUNT: 4553
N50: 247 COUNT: 9937
N75: 228 COUNT: 15843
E-size:324.57

Genome Size: 5594470
Assembly Size: 7423409
Chaff bases: 0
Missing Reference Bases: 1281043(22.90%)
Missing Assembly Bases: 6046(0.08%)
Missing Assembly Contigs: 7(0.02%)
Duplicated Reference Bases: 2293138
Compressed Reference Bases: 305704
Bad Trim: 4180
Avg Idy: 98.92
SNPs: 1438
Indels < 5bp: 36579
Indels >= 5: 8
Inversions: 139
Relocation: 58
Translocation: 19

Corrected Contig Stats
calling: java -cp /vol/ngscomparison/software/analysis/quast-2.1/libs/gage:.:. GetFastaStats -o -min 199 -genomeSize 5594470 /vol/codine-tmp/juene/tmp.y0gdW90dE4/quast/gage/tmp/VELVET_PGM_sakai_pgm_mu_318_400bp_IO_TS3.4_ms_0.395percent_99.final.contigs.matches.lens 2> /dev/null
Total units: 20270
Reference: 5594470
BasesInFasta: 4880197
Min: 200
Max: 759
N10: 293 COUNT: 1691
N25: 261 COUNT: 4735
N50: 229 COUNT: 10473
N75: 208 COUNT: 16909
E-size:215.36

Done
