Assembly	#Contigs (>= 0 bp)	#Contigs (>= 1000 bp)	Total length (>= 0 bp)	Total length (>= 1000 bp)	#Contigs	Largest contig	Total length	Reference length	GC (%)	Reference GC (%)	N50	NG50	N75	NG75	#misassemblies	#local misassemblies	#unaligned contigs	Unaligned contigs length	Genome fraction (%)	Duplication ratio	#N's per 100 kbp	#mismatches per 100 kbp	#indels per 100 kbp	#genes	#predicted genes (unique)	#predicted genes (>= 0 bp)	#predicted genes (>= 300 bp)	#predicted genes (>= 1500 bp)	#predicted genes (>= 3000 bp)	Largest alignment	NA50	NGA50	NA75	NGA75
VELVET_MIS_PE_mtbh37-1_mis_2x250bp_nextera_default__mtbh37-2_mis_2x250bp_nextera_default_123.final.contigs_broken	404	355	4280391	4253430	404	76565	4280391	4411532	65.45	65.61	18844	18396	10404	9860	6	13	0 + 0 part	0	96.634	1.001	0.00	5.28	0.94	3704 + 352 part	4188	4199	3612	544	68	76565	18711	18322	10385	9713
VELVET_MIS_PE_mtbh37-1_mis_2x250bp_nextera_default__mtbh37-2_mis_2x250bp_nextera_default_123.final.contigs	208	174	4309151	4291449	208	125301	4309151	4411532	65.45	65.61	44123	43239	25879	24388	9	192	0 + 0 part	0	96.644	1.012	667.42	5.23	8.77	3718 + 338 part	4167	4178	3608	546	68	124504	43422	42304	24345	22218
