calling: java -cp /vol/ngscomparison/software/analysis/quast-2.1/libs/gage:. SizeFasta /vol/codine-tmp/juene/tmp.BySuMGK1tk/quast/corrected_input/Ecoli_Sakai_editedNew_plasmids.fasta |awk '{SUM+=; print SUM}'|tail -n 1
Contig Stats
Total units: 429
Reference: 5594470
BasesInFasta: 5460430
Min: 265
Max: 163506
N10: 118787 COUNT: 5
N25: 98846 COUNT: 12
N50: 61896 COUNT: 30
N75: 33329 COUNT: 60
E-size:66213.46

Genome Size: 5594470
Assembly Size: 5460430
Chaff bases: 0
Missing Reference Bases: 15539(0.28%)
Missing Assembly Bases: 19864(0.36%)
Missing Assembly Contigs: 1(0.23%)
Duplicated Reference Bases: 13526
Compressed Reference Bases: 246281
Bad Trim: 655
Avg Idy: 99.99
SNPs: 77
Indels < 5bp: 30
Indels >= 5: 94
Inversions: 8
Relocation: 10
Translocation: 0

Corrected Contig Stats
calling: java -cp /vol/ngscomparison/software/analysis/quast-2.1/libs/gage:.:. GetFastaStats -o -min 199 -genomeSize 5594470 /vol/codine-tmp/juene/tmp.BySuMGK1tk/quast/gage/tmp/VELVET_MIS_PE_sakai_mis-both_bi_2x250bp_SI_default.0.64percent_133.final.contigs.matches.lens 2> /dev/null
Total units: 527
Reference: 5594470
BasesInFasta: 5429219
Min: 265
Max: 127811
N10: 84547 COUNT: 6
N25: 58738 COUNT: 18
N50: 33202 COUNT: 50
N75: 17055 COUNT: 107
E-size:40906.88

Done
