All statistics are based on contigs of size >= 200 bp, unless otherwise noted (e.g., "# contigs (>= 0 bp)" and "Total length (>= 0 bp)" include all contigs).

Assembly                                                                                                        GAGE_Contigs #  GAGE_Min contig  GAGE_Max contig  GAGE_N50         GAGE_Genome size  GAGE_Assembly size  GAGE_Chaff bases  GAGE_Missing reference bases  GAGE_Missing assembly bases  GAGE_Missing assembly contigs  GAGE_Duplicated reference bases  GAGE_Compressed reference bases  GAGE_Bad trim  GAGE_Avg idy  GAGE_SNPs  GAGE_Indels < 5bp  GAGE_Indels >= 5  GAGE_Inversions  GAGE_Relocation  GAGE_Translocation  GAGE_Corrected contig #  GAGE_Corrected assembly size  GAGE_Min correct contig  GAGE_Max correct contig  GAGE_Corrected N50
ABYSS_PE_MIS_PE_mtbh37-1_mis_2x250bp_nextera_default__mtbh37-2_mis_2x250bp_nextera_default_56-scaffolds_broken  193             203              170860           67247 COUNT: 21  4411532           4422777             0                 24064(0.55%)                  905(0.02%)                   0(0.00%)                       8158                             13478                            900            99.98         250        55                 30                1                2                0                   220                      4418570                       203                      145199                   50441 COUNT: 27   
ABYSS_PE_MIS_PE_mtbh37-1_mis_2x250bp_nextera_default__mtbh37-2_mis_2x250bp_nextera_default_56-scaffolds         151             203              212167           91095 COUNT: 17  4411532           4425356             0                 24172(0.55%)                  3360(0.08%)                  0(0.00%)                       7363                             12136                            1646           99.97         250        81                 54                1                4                0                   204                      4419276                       203                      204888                   58187 COUNT: 25   
