All statistics are based on contigs of size >= 200 bp, unless otherwise noted (e.g., "# contigs (>= 0 bp)" and "Total length (>= 0 bp)" include all contigs).

Assembly                         ABYSS_PE_MIS_PE_sakai_mis-1_bi_2x150bp_default__sakai_mis-2_bi_2x150bp_default.0.826percent_66-scaffolds_broken  ABYSS_PE_MIS_PE_sakai_mis-1_bi_2x150bp_default__sakai_mis-2_bi_2x150bp_default.0.826percent_66-scaffolds
GAGE_Contigs #                   254                                                                                                              207                                                                                                     
GAGE_Min contig                  203                                                                                                              209                                                                                                     
GAGE_Max contig                  292288                                                                                                           376797                                                                                                  
GAGE_N50                         100154 COUNT: 16                                                                                                 147260 COUNT: 13                                                                                        
GAGE_Genome size                 5594470                                                                                                          5594470                                                                                                 
GAGE_Assembly size               5485759                                                                                                          5488296                                                                                                 
GAGE_Chaff bases                 0                                                                                                                0                                                                                                       
GAGE_Missing reference bases     42854(0.77%)                                                                                                     42825(0.77%)                                                                                            
GAGE_Missing assembly bases      1114(0.02%)                                                                                                      3428(0.06%)                                                                                             
GAGE_Missing assembly contigs    0(0.00%)                                                                                                         0(0.00%)                                                                                                
GAGE_Duplicated reference bases  16681                                                                                                            16449                                                                                                   
GAGE_Compressed reference bases  204793                                                                                                           204416                                                                                                  
GAGE_Bad trim                    0                                                                                                                250                                                                                                     
GAGE_Avg idy                     99.97                                                                                                            99.96                                                                                                   
GAGE_SNPs                        754                                                                                                              754                                                                                                     
GAGE_Indels < 5bp                36                                                                                                               48                                                                                                      
GAGE_Indels >= 5                 7                                                                                                                25                                                                                                      
GAGE_Inversions                  0                                                                                                                6                                                                                                       
GAGE_Relocation                  4                                                                                                                14                                                                                                      
GAGE_Translocation               1                                                                                                                1                                                                                                       
GAGE_Corrected contig #          245                                                                                                              244                                                                                                     
GAGE_Corrected assembly size     5470414                                                                                                          5471344                                                                                                 
GAGE_Min correct contig          210                                                                                                              210                                                                                                     
GAGE_Max correct contig          264361                                                                                                           264361                                                                                                  
GAGE_Corrected N50               100097 COUNT: 18                                                                                                 100154 COUNT: 18                                                                                        
