Assembly	VELVET_PGM_sakai_pgm_mu_318_400bp_IO_TS3.4_ms_0.395percent_35.final.contigs
#Contigs	7514
#Contigs (>= 0 bp)	29127
#Contigs (>= 1000 bp)	14
Largest contig	1585
Total length	2365212
Total length (>= 0 bp)	4887789
Total length (>= 1000 bp)	16315
Reference length	5594470
N50	314
NG50	None
N75	245
NG75	None
L50	2692
LG50	None
L75	4834
LG75	None
#local misassemblies	0
#misassemblies	0
#misassembled contigs	0
Misassembled contigs length	0
Misassemblies inter-contig overlap	0
#unaligned contigs	0 + 2 part
Unaligned contigs length	45
#ambiguously mapped contigs	29
Extra bases in ambiguously mapped contigs	-7725
#N's	0
#N's per 100 kbp	0.00
Genome fraction (%)	41.902
Duplication ratio	1.006
#genes	97 + 3677 part
#predicted genes (unique)	7787
#predicted genes (>= 0 bp)	7787
#predicted genes (>= 300 bp)	2299
#predicted genes (>= 1500 bp)	0
#predicted genes (>= 3000 bp)	0
#mismatches	73
#indels	626
Indels length	674
#mismatches per 100 kbp	3.11
#indels per 100 kbp	26.70
GC (%)	51.65
Reference GC (%)	50.48
Average %IDY	99.966
Largest alignment	1585
NA50	313
NGA50	None
NA75	245
NGA75	None
LA50	2694
LGA50	None
LA75	4838
LGA75	None
#Mis_misassemblies	0
#Mis_relocations	0
#Mis_translocations	0
#Mis_inversions	0
#Mis_misassembled contigs	0
Mis_Misassembled contigs length	0
#Mis_local misassemblies	0
#Mis_short indels (<= 5 bp)	626
#Mis_long indels (> 5 bp)	0
#Una_fully unaligned contigs	0
Una_Fully unaligned length	0
#Una_partially unaligned contigs	2
#Una_with misassembly	0
#Una_both parts are significant	0
Una_Partially unaligned length	45
GAGE_Contigs #	7514
GAGE_Min contig	200
GAGE_Max contig	1585
GAGE_N50	0 COUNT: 0
GAGE_Genome size	5594470
GAGE_Assembly size	2365212
GAGE_Chaff bases	0
GAGE_Missing reference bases	3232275(57.78%)
GAGE_Missing assembly bases	91(0.00%)
GAGE_Missing assembly contigs	0(0.00%)
GAGE_Duplicated reference bases	0
GAGE_Compressed reference bases	10362
GAGE_Bad trim	91
GAGE_Avg idy	99.97
GAGE_SNPs	81
GAGE_Indels < 5bp	669
GAGE_Indels >= 5	0
GAGE_Inversions	0
GAGE_Relocation	0
GAGE_Translocation	0
GAGE_Corrected contig #	7511
GAGE_Corrected assembly size	2364660
GAGE_Min correct contig	200
GAGE_Max correct contig	1585
GAGE_Corrected N50	0 COUNT: 0
