Assembly	VELVET_PGM_sakai_pgm_mu_318_400bp_IO_TS3.4_ms_0.395percent_35.final.contigs
GAGE_Contigs #	7514
GAGE_Min contig	200
GAGE_Max contig	1585
GAGE_N50	0 COUNT: 0
GAGE_Genome size	5594470
GAGE_Assembly size	2365212
GAGE_Chaff bases	0
GAGE_Missing reference bases	3232275(57.78%)
GAGE_Missing assembly bases	91(0.00%)
GAGE_Missing assembly contigs	0(0.00%)
GAGE_Duplicated reference bases	0
GAGE_Compressed reference bases	10362
GAGE_Bad trim	91
GAGE_Avg idy	99.97
GAGE_SNPs	81
GAGE_Indels < 5bp	669
GAGE_Indels >= 5	0
GAGE_Inversions	0
GAGE_Relocation	0
GAGE_Translocation	0
GAGE_Corrected contig #	7511
GAGE_Corrected assembly size	2364660
GAGE_Min correct contig	200
GAGE_Max correct contig	1585
GAGE_Corrected N50	0 COUNT: 0
