Assembly	ABYSS_PE_PGM_sakai_pgm_mu_318_400bp_IO_TS3.4_ms_0.395percent_128-unitigs
GAGE_Contigs #	2698
GAGE_Min contig	200
GAGE_Max contig	60483
GAGE_N50	10785 COUNT: 149
GAGE_Genome size	5594470
GAGE_Assembly size	5714332
GAGE_Chaff bases	0
GAGE_Missing reference bases	24728(0.44%)
GAGE_Missing assembly bases	143(0.00%)
GAGE_Missing assembly contigs	0(0.00%)
GAGE_Duplicated reference bases	237251
GAGE_Compressed reference bases	260591
GAGE_Bad trim	143
GAGE_Avg idy	99.99
GAGE_SNPs	66
GAGE_Indels < 5bp	438
GAGE_Indels >= 5	2
GAGE_Inversions	1
GAGE_Relocation	2
GAGE_Translocation	0
GAGE_Corrected contig #	1742
GAGE_Corrected assembly size	5476588
GAGE_Min correct contig	200
GAGE_Max correct contig	60484
GAGE_Corrected N50	10735 COUNT: 149
