calling: java -cp /vol/ngscomparison/software/analysis/quast-2.1/libs/gage:. SizeFasta /vol/codine-tmp/juene/tmp.4qmUG6uvVL/quast/corrected_input/MRSA_COL_Plasmid.fasta |awk '{SUM+=; print SUM}'|tail -n 1
Contig Stats
Total units: 205
Reference: 2813862
BasesInFasta: 2738706
Min: 203
Max: 109601
N10: 85135 COUNT: 3
N25: 59470 COUNT: 10
N50: 30760 COUNT: 26
N75: 16405 COUNT: 56
E-size:39086.59

Genome Size: 2813862
Assembly Size: 2738706
Chaff bases: 0
Missing Reference Bases: 47240(1.68%)
Missing Assembly Bases: 7422(0.27%)
Missing Assembly Contigs: 2(0.98%)
Duplicated Reference Bases: 680
Compressed Reference Bases: 38201
Bad Trim: 206
Avg Idy: 99.97
SNPs: 476
Indels < 5bp: 86
Indels >= 5: 59
Inversions: 3
Relocation: 16
Translocation: 0

Corrected Contig Stats
calling: java -cp /vol/ngscomparison/software/analysis/quast-2.1/libs/gage:.:. GetFastaStats -o -min 199 -genomeSize 2813862 /vol/codine-tmp/juene/tmp.4qmUG6uvVL/quast/gage/tmp/VELVET_MIS_PE_mrsa_mis-1_bi_2x250bp_default__mrsa_mis-2_bi_2x250bp_default.0.460percent_23.final.contigs.matches.lens 2> /dev/null
Total units: 278
Reference: 2813862
BasesInFasta: 2730265
Min: 203
Max: 63364
N10: 50809 COUNT: 5
N25: 34835 COUNT: 16
N50: 24228 COUNT: 40
N75: 11967 COUNT: 80
E-size:25476.7

Done
