Assembly	GAGE_Contigs #	GAGE_Min contig	GAGE_Max contig	GAGE_N50	GAGE_Genome size	GAGE_Assembly size	GAGE_Chaff bases	GAGE_Missing reference bases	GAGE_Missing assembly bases	GAGE_Missing assembly contigs	GAGE_Duplicated reference bases	GAGE_Compressed reference bases	GAGE_Bad trim	GAGE_Avg idy	GAGE_SNPs	GAGE_Indels < 5bp	GAGE_Indels >= 5	GAGE_Inversions	GAGE_Relocation	GAGE_Translocation	GAGE_Corrected contig #	GAGE_Corrected assembly size	GAGE_Min correct contig	GAGE_Max correct contig	GAGE_Corrected N50
VELVET_MIS_PE_mtbh37-1_mis_2x250bp_nextera_default__mtbh37-2_mis_2x250bp_nextera_default_23.final.contigs_broken	4440	200	1499	0 COUNT: 0	4411532	1367216	0	3124680(70.83%)	77902(5.70%)	332(7.48%)	0	1125	10	99.99	57	14	1	0	0	0	4107	1289101	200	1499	0 COUNT: 0
VELVET_MIS_PE_mtbh37-1_mis_2x250bp_nextera_default__mtbh37-2_mis_2x250bp_nextera_default_23.final.contigs	4440	200	1499	0 COUNT: 0	4411532	1367216	0	3124680(70.83%)	77902(5.70%)	332(7.48%)	0	1125	10	99.99	57	14	1	0	0	0	4107	1289101	200	1499	0 COUNT: 0
