Assembly	VELVET_MIS_PE_sakai_mis-both_bi_2x250bp_SI_default.0.64percent_181.final.contigs_broken	VELVET_MIS_PE_sakai_mis-both_bi_2x250bp_SI_default.0.64percent_181.final.contigs
#Contigs	714	534
#Contigs (>= 0 bp)	716	534
#Contigs (>= 1000 bp)	506	354
Largest contig	66881	107609
Total length	5483868	5509273
Total length (>= 0 bp)	5484214	5509273
Total length (>= 1000 bp)	5374223	5416861
Reference length	5594470	5594470
N50	18891	31423
NG50	18283	31365
N75	9456	15463
NG75	9024	14766
L50	89	55
LG50	92	56
L75	193	118
LG75	202	122
#local misassemblies	2	165
#misassemblies	5	6
#misassembled contigs	5	6
Misassembled contigs length	54588	72534
Misassemblies inter-contig overlap	852	852
#unaligned contigs	1 + 1 part	1 + 1 part
Unaligned contigs length	5576	5576
#ambiguously mapped contigs	159	152
Extra bases in ambiguously mapped contigs	-107496	-101681
#N's	0	25059
#N's per 100 kbp	0.00	454.85
Genome fraction (%)	95.514	95.608
Duplication ratio	1.005	1.010
#genes	4793 + 491 part	4808 + 481 part
#predicted genes (unique)	5738	5716
#predicted genes (>= 0 bp)	5771	5749
#predicted genes (>= 300 bp)	4734	4734
#predicted genes (>= 1500 bp)	633	633
#predicted genes (>= 3000 bp)	55	55
#mismatches	185	193
#indels	20	415
Indels length	20	906
#mismatches per 100 kbp	3.46	3.61
#indels per 100 kbp	0.37	7.76
GC (%)	50.36	50.36
Reference GC (%)	50.48	50.48
Average %IDY	98.869	98.862
Largest alignment	66881	107240
NA50	18891	31365
NGA50	18283	31005
NA75	9355	15304
NGA75	8935	14146
LA50	89	55
LGA50	92	57
LA75	193	119
LGA75	202	123
#Mis_misassemblies	5	6
#Mis_relocations	4	5
#Mis_translocations	1	1
#Mis_inversions	0	0
#Mis_misassembled contigs	5	6
Mis_Misassembled contigs length	54588	72534
#Mis_local misassemblies	2	165
#Mis_short indels (<= 5 bp)	20	404
#Mis_long indels (> 5 bp)	0	11
#Una_fully unaligned contigs	1	1
Una_Fully unaligned length	5566	5566
#Una_partially unaligned contigs	1	1
#Una_with misassembly	0	0
#Una_both parts are significant	0	0
Una_Partially unaligned length	10	10
GAGE_Contigs #	714	534
GAGE_Min contig	303	361
GAGE_Max contig	66881	107609
GAGE_N50	18283 COUNT: 92	31365 COUNT: 56
GAGE_Genome size	5594470	5594470
GAGE_Assembly size	5483868	5509273
GAGE_Chaff bases	0	0
GAGE_Missing reference bases	14699(0.26%)	14684(0.26%)
GAGE_Missing assembly bases	5826(0.11%)	30900(0.56%)
GAGE_Missing assembly contigs	1(0.14%)	1(0.19%)
GAGE_Duplicated reference bases	13539	14607
GAGE_Compressed reference bases	241549	242183
GAGE_Bad trim	260	873
GAGE_Avg idy	100.00	99.99
GAGE_SNPs	151	150
GAGE_Indels < 5bp	18	23
GAGE_Indels >= 5	3	171
GAGE_Inversions	0	1
GAGE_Relocation	3	7
GAGE_Translocation	1	1
GAGE_Corrected contig #	699	695
GAGE_Corrected assembly size	5467539	5466443
GAGE_Min correct contig	283	283
GAGE_Max correct contig	66880	66880
GAGE_Corrected N50	17771 COUNT: 93	17771 COUNT: 93
