All statistics are based on contigs of size >= 200 bp, unless otherwise noted (e.g., "# contigs (>= 0 bp)" and "Total length (>= 0 bp)" include all contigs).

Assembly                         VELVET_PGM_sakai_pgm_mu_200bp_IO_TS3.0Disabled_stringent.0.34percent_69.final.contigs
GAGE_Contigs #                   1487                                                                                 
GAGE_Min contig                  200                                                                                  
GAGE_Max contig                  46515                                                                                
GAGE_N50                         8101 COUNT: 204                                                                      
GAGE_Genome size                 5594470                                                                              
GAGE_Assembly size               5344754                                                                              
GAGE_Chaff bases                 0                                                                                    
GAGE_Missing reference bases     90335(1.61%)                                                                         
GAGE_Missing assembly bases      1379(0.03%)                                                                          
GAGE_Missing assembly contigs    0(0.00%)                                                                             
GAGE_Duplicated reference bases  10026                                                                                
GAGE_Compressed reference bases  238938                                                                               
GAGE_Bad trim                    518                                                                                  
GAGE_Avg idy                     99.95                                                                                
GAGE_SNPs                        131                                                                                  
GAGE_Indels < 5bp                2269                                                                                 
GAGE_Indels >= 5                 47                                                                                   
GAGE_Inversions                  3                                                                                    
GAGE_Relocation                  49                                                                                   
GAGE_Translocation               0                                                                                    
GAGE_Corrected contig #          1543                                                                                 
GAGE_Corrected assembly size     5335013                                                                              
GAGE_Min correct contig          200                                                                                  
GAGE_Max correct contig          46531                                                                                
GAGE_Corrected N50               7403 COUNT: 228                                                                      
