1: PREPARING DATA
2,3: RUNNING mummer AND CREATING CLUSTERS
# reading input file "/vol/codine-tmp/juene/tmp.Mqg8TEDkaG/quast/contigs_reports/nucmer_output/ABYSS_PE_PGM_mtbh37_pgm_400bp_es_318v2_OT2_tsv3.6_morestringent_88-unitigs.ntref" of length 4411533
# construct suffix tree for sequence of length 4411533
# (maximum reference length is 536870908)
# (maximum query length is 4294967295)
# process 44115 characters per dot
#....................................................................................................
# CONSTRUCTIONTIME /vol/ngscomparison/software/analysis/quast-2.1/libs/MUMmer3.23-linux/mummer /vol/codine-tmp/juene/tmp.Mqg8TEDkaG/quast/contigs_reports/nucmer_output/ABYSS_PE_PGM_mtbh37_pgm_400bp_es_318v2_OT2_tsv3.6_morestringent_88-unitigs.ntref 2.75
# reading input file "/vol/codine-tmp/juene/tmp.Mqg8TEDkaG/quast/corrected_input/ABYSS_PE_PGM_mtbh37_pgm_400bp_es_318v2_OT2_tsv3.6_morestringent_88-unitigs" of length 4120393
# matching query-file "/vol/codine-tmp/juene/tmp.Mqg8TEDkaG/quast/corrected_input/ABYSS_PE_PGM_mtbh37_pgm_400bp_es_318v2_OT2_tsv3.6_morestringent_88-unitigs"
# against subject-file "/vol/codine-tmp/juene/tmp.Mqg8TEDkaG/quast/contigs_reports/nucmer_output/ABYSS_PE_PGM_mtbh37_pgm_400bp_es_318v2_OT2_tsv3.6_morestringent_88-unitigs.ntref"
# COMPLETETIME /vol/ngscomparison/software/analysis/quast-2.1/libs/MUMmer3.23-linux/mummer /vol/codine-tmp/juene/tmp.Mqg8TEDkaG/quast/contigs_reports/nucmer_output/ABYSS_PE_PGM_mtbh37_pgm_400bp_es_318v2_OT2_tsv3.6_morestringent_88-unitigs.ntref 8.14
# SPACE /vol/ngscomparison/software/analysis/quast-2.1/libs/MUMmer3.23-linux/mummer /vol/codine-tmp/juene/tmp.Mqg8TEDkaG/quast/contigs_reports/nucmer_output/ABYSS_PE_PGM_mtbh37_pgm_400bp_es_318v2_OT2_tsv3.6_morestringent_88-unitigs.ntref 8.35
4: FINISHING DATA
