Assembly	ABYSS_PE_PGM_sakai_pgm_mu_318_400bp_IO_TS3.4_ms_0.395percent_44-unitigs
GAGE_Contigs #	1197
GAGE_Min contig	202
GAGE_Max contig	47012
GAGE_N50	10173 COUNT: 162
GAGE_Genome size	5594470
GAGE_Assembly size	5207580
GAGE_Chaff bases	0
GAGE_Missing reference bases	293834(5.25%)
GAGE_Missing assembly bases	72(0.00%)
GAGE_Missing assembly contigs	0(0.00%)
GAGE_Duplicated reference bases	0
GAGE_Compressed reference bases	103601
GAGE_Bad trim	72
GAGE_Avg idy	99.99
GAGE_SNPs	89
GAGE_Indels < 5bp	231
GAGE_Indels >= 5	3
GAGE_Inversions	0
GAGE_Relocation	3
GAGE_Translocation	0
GAGE_Corrected contig #	1201
GAGE_Corrected assembly size	5207872
GAGE_Min correct contig	202
GAGE_Max correct contig	47014
GAGE_Corrected N50	9998 COUNT: 163
