Assembly	SOAP2_MIS_PE_sakai_mis-1_bi_2x150bp_default.0.826percent_79.final.scaf_broken	SOAP2_MIS_PE_sakai_mis-1_bi_2x150bp_default.0.826percent_79.final.scaf
#Una_fully unaligned contigs	1	9
Una_Fully unaligned length	5385	16008
#Una_partially unaligned contigs	0	11
#Una_with misassembly	0	0
#Una_both parts are significant	0	5
Una_Partially unaligned length	0	11972
#N's	45	22604
