All statistics are based on contigs of size >= 200 bp, unless otherwise noted (e.g., "# contigs (>= 0 bp)" and "Total length (>= 0 bp)" include all contigs).

Assembly                                                                                            #Contigs (>= 0 bp)  #Contigs (>= 1000 bp)  Total length (>= 0 bp)  Total length (>= 1000 bp)  #Contigs  Largest contig  Total length  Reference length  GC (%)  Reference GC (%)  N50    NG50   N75    NG75   #misassemblies  #local misassemblies  #unaligned contigs  Unaligned contigs length  Genome fraction (%)  Duplication ratio  #N's per 100 kbp  #mismatches per 100 kbp  #indels per 100 kbp  #genes           #predicted genes (unique)  #predicted genes (>= 0 bp)  #predicted genes (>= 300 bp)  #predicted genes (>= 1500 bp)  #predicted genes (>= 3000 bp)  Largest alignment  NA50   NGA50  NA75   NGA75
CLC_MIS_PE_mrsa_mis-1_bi_2x250bp_default__mrsa_mis-2_bi_2x250bp_default.0.125percent.result_broken  289                 137                    2791295                 2738727                    286       137208          2791253       2813862           32.78   32.81             34889  34638  19400  19400  4               9                     66 + 1 part         22112                     97.931               1.009              1.90              6.57                     1.85                 2588 + 108 part  2794                       2794                        2313                          286                            26                             137208             34638  32842  19399  18781
CLC_MIS_PE_mrsa_mis-1_bi_2x250bp_default__mrsa_mis-2_bi_2x250bp_default.0.125percent.result         283                 137                    2791671                 2740461                    283       137208          2791671       2813862           32.78   32.81             34889  34889  19820  19400  4               12                    66 + 1 part         22112                     97.942               1.009              16.23             6.60                     1.85                 2588 + 108 part  2794                       2794                        2314                          286                            26                             137208             34638  32842  19399  18781
