All statistics are based on contigs of size >= 200 bp, unless otherwise noted (e.g., "# contigs (>= 0 bp)" and "Total length (>= 0 bp)" include all contigs).

Assembly                                                                                 GAGE_Contigs #  GAGE_Min contig  GAGE_Max contig  GAGE_N50          GAGE_Genome size  GAGE_Assembly size  GAGE_Chaff bases  GAGE_Missing reference bases  GAGE_Missing assembly bases  GAGE_Missing assembly contigs  GAGE_Duplicated reference bases  GAGE_Compressed reference bases  GAGE_Bad trim  GAGE_Avg idy  GAGE_SNPs  GAGE_Indels < 5bp  GAGE_Indels >= 5  GAGE_Inversions  GAGE_Relocation  GAGE_Translocation  GAGE_Corrected contig #  GAGE_Corrected assembly size  GAGE_Min correct contig  GAGE_Max correct contig  GAGE_Corrected N50
VELVET_MIS_PE_sakai_mis-both_bi_2x250bp_SI_default.0.64percent_113.final.contigs_broken  854             209              58738            16831 COUNT: 105  5594470           5419231             0                 35781(0.64%)                  5219(0.10%)                  1(0.12%)                       10832                            248933                           23             100.00        97         17                 4                 1                3                0                   826                      5405054                       209                      58738                    16831 COUNT: 105  
VELVET_MIS_PE_sakai_mis-both_bi_2x250bp_SI_default.0.64percent_113.final.contigs         607             225              98486            32804 COUNT: 50   5594470           5446137             0                 35553(0.64%)                  31113(0.57%)                 1(0.16%)                       11845                            247509                           148            100.00        75         17                 218               11               11               0                   821                      5406329                       209                      58738                    16831 COUNT: 105  
