Assembly	CLC_PGM_sakai_pgm_mu_200bp_IO_TS3.0Disabled_stringent.0.125percent.result
#Mis_misassemblies	28
#Mis_relocations	5
#Mis_translocations	0
#Mis_inversions	23
#Mis_misassembled contigs	28
Mis_Misassembled contigs length	129159
#Mis_local misassemblies	3
#mismatches	317
#indels	2332
#Mis_short indels (<= 5 bp)	2331
#Mis_long indels (> 5 bp)	1
Indels length	2418
