1: PREPARING DATA
2,3: RUNNING mummer AND CREATING CLUSTERS
# reading input file "/vol/codine-tmp/juene/tmp.Y6e6SLXoSB/quast/gage/tmp/ABYSS_PE_MIS_PE_sakai_mis-1_bi_2x250bp_SI_default__sakai_mis-2_bi_2x250bp_SI_default.0.125percent_66.final.ntref" of length 5594473
# construct suffix tree for sequence of length 5594473
# (maximum reference length is 536870908)
# (maximum query length is 4294967295)
# process 55944 characters per dot
#....................................................................................................
# CONSTRUCTIONTIME /vol/ngscomparison/software/analysis/quast-2.1/libs/MUMmer3.23-linux/mummer /vol/codine-tmp/juene/tmp.Y6e6SLXoSB/quast/gage/tmp/ABYSS_PE_MIS_PE_sakai_mis-1_bi_2x250bp_SI_default__sakai_mis-2_bi_2x250bp_SI_default.0.125percent_66.final.ntref 2.99
# reading input file "/vol/codine-tmp/juene/tmp.Y6e6SLXoSB/quast/corrected_input/ABYSS_PE_MIS_PE_sakai_mis-1_bi_2x250bp_SI_default__sakai_mis-2_bi_2x250bp_SI_default.0.125percent_66.final" of length 5307513
# matching query-file "/vol/codine-tmp/juene/tmp.Y6e6SLXoSB/quast/corrected_input/ABYSS_PE_MIS_PE_sakai_mis-1_bi_2x250bp_SI_default__sakai_mis-2_bi_2x250bp_SI_default.0.125percent_66.final"
# against subject-file "/vol/codine-tmp/juene/tmp.Y6e6SLXoSB/quast/gage/tmp/ABYSS_PE_MIS_PE_sakai_mis-1_bi_2x250bp_SI_default__sakai_mis-2_bi_2x250bp_SI_default.0.125percent_66.final.ntref"
# COMPLETETIME /vol/ngscomparison/software/analysis/quast-2.1/libs/MUMmer3.23-linux/mummer /vol/codine-tmp/juene/tmp.Y6e6SLXoSB/quast/gage/tmp/ABYSS_PE_MIS_PE_sakai_mis-1_bi_2x250bp_SI_default__sakai_mis-2_bi_2x250bp_SI_default.0.125percent_66.final.ntref 8.30
# SPACE /vol/ngscomparison/software/analysis/quast-2.1/libs/MUMmer3.23-linux/mummer /vol/codine-tmp/juene/tmp.Y6e6SLXoSB/quast/gage/tmp/ABYSS_PE_MIS_PE_sakai_mis-1_bi_2x250bp_SI_default__sakai_mis-2_bi_2x250bp_SI_default.0.125percent_66.final.ntref 10.59
4: FINISHING DATA
Filtering alignments
Extracting alignment coordinates
Analyzing SNPs
Extracting alignment breakpoints
Generating report file
Found genome size at position 4 with value 5594470 aka 5594470
Calculating point at 0 and the sum is 1024304 and i is950 and lens is 978 and length is 28354
Calculating point at 1 and the sum is 2012902 and i is907 and lens is 978 and length is 18439
Calculating point at 2 and the sum is 3008025 and i is843 and lens is 978 and length is 12955
Calculating point at 3 and the sum is 4006693 and i is741 and lens is 978 and length is 7613
Calculating point at 4 and the sum is 5001377 and i is493 and lens is 978 and length is 1868
