Assembly	SOAP2_PGM_mtbh37_pgm_400bp_es_318v2_OT2_tsv3.6_morestringent_81.final.contig
GAGE_Contigs #	8127
GAGE_Min contig	200
GAGE_Max contig	1458
GAGE_N50	213 COUNT: 7338
GAGE_Genome size	4411532
GAGE_Assembly size	2368668
GAGE_Chaff bases	0
GAGE_Missing reference bases	2375876(53.86%)
GAGE_Missing assembly bases	32479(1.37%)
GAGE_Missing assembly contigs	72(0.89%)
GAGE_Duplicated reference bases	152629
GAGE_Compressed reference bases	20841
GAGE_Bad trim	12529
GAGE_Avg idy	99.12
GAGE_SNPs	603
GAGE_Indels < 5bp	14512
GAGE_Indels >= 5	20
GAGE_Inversions	12
GAGE_Relocation	13
GAGE_Translocation	0
GAGE_Corrected contig #	7345
GAGE_Corrected assembly size	2156347
GAGE_Min correct contig	200
GAGE_Max correct contig	1458
GAGE_Corrected N50	0 COUNT: 0
