calling: java -cp /vol/ngscomparison/software/analysis/quast-2.1/libs/gage:. SizeFasta /vol/codine-tmp/juene/tmp.9cW2N1xcEz/quast/corrected_input/MRSA_COL_Plasmid.fasta |awk '{SUM+=; print SUM}'|tail -n 1
Contig Stats
Total units: 2977
Reference: 2813862
BasesInFasta: 2177058
Min: 261
Max: 8259
N10: 1735 COUNT: 114
N25: 1117 COUNT: 423
N50: 646 COUNT: 1272
N75: 318 COUNT: 2745
E-size:835.43

Genome Size: 2813862
Assembly Size: 2177058
Chaff bases: 0
Missing Reference Bases: 617921(21.96%)
Missing Assembly Bases: 2969(0.14%)
Missing Assembly Contigs: 4(0.13%)
Duplicated Reference Bases: 2646
Compressed Reference Bases: 50006
Bad Trim: 56
Avg Idy: 100.00
SNPs: 33
Indels < 5bp: 8
Indels >= 5: 0
Inversions: 1
Relocation: 3
Translocation: 0

Corrected Contig Stats
calling: java -cp /vol/ngscomparison/software/analysis/quast-2.1/libs/gage:.:. GetFastaStats -o -min 199 -genomeSize 2813862 /vol/codine-tmp/juene/tmp.9cW2N1xcEz/quast/gage/tmp/VELVET_MIS_PE_mrsa_mis-1_bi_2x150bp_default__mrsa_mis-2_bi_2x150bp_default.0.527percent_131.final.contigs_broken.matches.lens 2> /dev/null
Total units: 2969
Reference: 2813862
BasesInFasta: 2172035
Min: 261
Max: 8259
N10: 1735 COUNT: 115
N25: 1113 COUNT: 425
N50: 645 COUNT: 1275
N75: 314 COUNT: 2753
E-size:830.2

Done
