All statistics are based on contigs of size >= 200 bp, unless otherwise noted (e.g., "# contigs (>= 0 bp)" and "Total length (>= 0 bp)" include all contigs).

Assembly                                                                                              GAGE_Contigs #  GAGE_Min contig  GAGE_Max contig  GAGE_N50          GAGE_Genome size  GAGE_Assembly size  GAGE_Chaff bases  GAGE_Missing reference bases  GAGE_Missing assembly bases  GAGE_Missing assembly contigs  GAGE_Duplicated reference bases  GAGE_Compressed reference bases  GAGE_Bad trim  GAGE_Avg idy  GAGE_SNPs  GAGE_Indels < 5bp  GAGE_Indels >= 5  GAGE_Inversions  GAGE_Relocation  GAGE_Translocation  GAGE_Corrected contig #  GAGE_Corrected assembly size  GAGE_Min correct contig  GAGE_Max correct contig  GAGE_Corrected N50
CLC_MIS_PE_sakai_mis-1_bi_2x150bp_default__sakai_mis-2_bi_2x150bp_default.0.826percent.result_broken  272             201              313894           124190 COUNT: 16  5594470           5355114             0                 30233(0.54%)                  6117(0.11%)                  3(1.10%)                       4342                             250485                           155            99.99         119        20                 6                 1                4                0                   267                      5345892                       201                      313894                   124190 COUNT: 16  
CLC_MIS_PE_sakai_mis-1_bi_2x150bp_default__sakai_mis-2_bi_2x150bp_default.0.826percent.result         243             201              374716           148157 COUNT: 12  5594470           5358863             0                 27377(0.49%)                  9041(0.17%)                  3(1.23%)                       4702                             252942                           486            99.99         119        22                 17                2                8                0                   266                      5345833                       201                      313894                   124190 COUNT: 16  
