Assembly	CLC_MIS_PE_sakai_mis-1_bi_2x150bp_default__sakai_mis-2_bi_2x150bp_default.0.826percent.result_broken	CLC_MIS_PE_sakai_mis-1_bi_2x150bp_default__sakai_mis-2_bi_2x150bp_default.0.826percent.result
GAGE_Contigs #	272	243
GAGE_Min contig	201	201
GAGE_Max contig	313894	374716
GAGE_N50	124190 COUNT: 16	148157 COUNT: 12
GAGE_Genome size	5594470	5594470
GAGE_Assembly size	5355114	5358863
GAGE_Chaff bases	0	0
GAGE_Missing reference bases	30233(0.54%)	27377(0.49%)
GAGE_Missing assembly bases	6117(0.11%)	9041(0.17%)
GAGE_Missing assembly contigs	3(1.10%)	3(1.23%)
GAGE_Duplicated reference bases	4342	4702
GAGE_Compressed reference bases	250485	252942
GAGE_Bad trim	155	486
GAGE_Avg idy	99.99	99.99
GAGE_SNPs	119	119
GAGE_Indels < 5bp	20	22
GAGE_Indels >= 5	6	17
GAGE_Inversions	1	2
GAGE_Relocation	4	8
GAGE_Translocation	0	0
GAGE_Corrected contig #	267	266
GAGE_Corrected assembly size	5345892	5345833
GAGE_Min correct contig	201	201
GAGE_Max correct contig	313894	313894
GAGE_Corrected N50	124190 COUNT: 16	124190 COUNT: 16
