Assembly	ABYSS_PE_MIS_PE_sakai_mis-2_bi_2x150bp_default__sakai_mis-1_bi_2x150bp_default.0.950percent_70.final_broken	ABYSS_PE_MIS_PE_sakai_mis-2_bi_2x150bp_default__sakai_mis-1_bi_2x150bp_default.0.950percent_70.final
#Contigs	261	204
#Contigs (>= 0 bp)	858	800
#Contigs (>= 1000 bp)	180	156
Largest contig	290859	375305
Total length	5503112	5506302
Total length (>= 0 bp)	5575972	5578967
Total length (>= 1000 bp)	5463229	5478363
Reference length	5594470	5594470
N50	100154	147140
NG50	100104	147140
N75	43590	67817
NG75	43349	66512
L50	18	13
LG50	19	13
L75	38	27
LG75	39	28
#local misassemblies	7	20
#misassemblies	6	22
#misassembled contigs	6	14
Misassembled contigs length	407308	758977
Misassemblies inter-contig overlap	3771	2589
#unaligned contigs	0 + 0 part	0 + 0 part
Unaligned contigs length	0	0
#ambiguously mapped contigs	50	27
Extra bases in ambiguously mapped contigs	-46953	-24239
#N's	24	3019
#N's per 100 kbp	0.44	54.83
Genome fraction (%)	96.138	96.425
Duplication ratio	1.015	1.017
#genes	5078 + 164 part	5102 + 158 part
#predicted genes (unique)	5279	5268
#predicted genes (>= 0 bp)	5409	5396
#predicted genes (>= 300 bp)	4528	4529
#predicted genes (>= 1500 bp)	698	698
#predicted genes (>= 3000 bp)	76	75
#mismatches	907	991
#indels	56	251
Indels length	176	708
#mismatches per 100 kbp	16.86	18.37
#indels per 100 kbp	1.04	4.65
GC (%)	50.40	50.40
Reference GC (%)	50.48	50.48
Average %IDY	98.812	98.827
Largest alignment	227349	353912
NA50	100104	147140
NGA50	100104	147140
NA75	43590	67817
NGA75	42541	66512
LA50	19	14
LGA50	19	14
LA75	39	28
LGA75	40	29
#Mis_misassemblies	6	22
#Mis_relocations	6	22
#Mis_translocations	0	0
#Mis_inversions	0	0
#Mis_misassembled contigs	6	14
Mis_Misassembled contigs length	407308	758977
#Mis_local misassemblies	7	20
#Mis_short indels (<= 5 bp)	52	229
#Mis_long indels (> 5 bp)	4	22
#Una_fully unaligned contigs	0	0
Una_Fully unaligned length	0	0
#Una_partially unaligned contigs	0	0
#Una_with misassembly	0	0
#Una_both parts are significant	0	0
Una_Partially unaligned length	0	0
GAGE_Contigs #	261	204
GAGE_Min contig	200	200
GAGE_Max contig	290859	375305
GAGE_N50	100104 COUNT: 19	147140 COUNT: 13
GAGE_Genome size	5594470	5594470
GAGE_Assembly size	5503112	5506302
GAGE_Chaff bases	0	0
GAGE_Missing reference bases	34541(0.62%)	34607(0.62%)
GAGE_Missing assembly bases	1185(0.02%)	3997(0.07%)
GAGE_Missing assembly contigs	0(0.00%)	0(0.00%)
GAGE_Duplicated reference bases	20222	17650
GAGE_Compressed reference bases	205624	201997
GAGE_Bad trim	0	650
GAGE_Avg idy	99.97	99.97
GAGE_SNPs	537	529
GAGE_Indels < 5bp	39	41
GAGE_Indels >= 5	10	30
GAGE_Inversions	0	6
GAGE_Relocation	5	17
GAGE_Translocation	0	0
GAGE_Corrected contig #	247	247
GAGE_Corrected assembly size	5485250	5487744
GAGE_Min correct contig	202	202
GAGE_Max correct contig	227214	227214
GAGE_Corrected N50	98911 COUNT: 20	98911 COUNT: 20
