All statistics are based on contigs of size >= 200 bp, unless otherwise noted (e.g., "# contigs (>= 0 bp)" and "Total length (>= 0 bp)" include all contigs).

Assembly                         VELVET_MIS_PE_sakai_mis-both_bi_2x250bp_SI_default.0.64percent_121.final.contigs_broken  VELVET_MIS_PE_sakai_mis-both_bi_2x250bp_SI_default.0.64percent_121.final.contigs
#Mis_misassemblies               5                                                                                        15                                                                              
#Mis_relocations                 5                                                                                        15                                                                              
#Mis_translocations              0                                                                                        0                                                                               
#Mis_inversions                  0                                                                                        0                                                                               
#Mis_misassembled contigs        5                                                                                        11                                                                              
Mis_Misassembled contigs length  127926                                                                                   431492                                                                          
#Mis_local misassemblies         3                                                                                        157                                                                             
#mismatches                      116                                                                                      135                                                                             
#indels                          20                                                                                       341                                                                             
#Mis_short indels (<= 5 bp)      20                                                                                       331                                                                             
#Mis_long indels (> 5 bp)        0                                                                                        10                                                                              
Indels length                    20                                                                                       603                                                                             
