1: PREPARING DATA
2,3: RUNNING mummer AND CREATING CLUSTERS
# reading input file "/vol/codine-tmp/juene/tmp.ydhkxShNmY/quast/contigs_reports/nucmer_output/VELVET_MIS_PE_sakai_mis-1_bi_2x150bp_default__sakai_mis-2_bi_2x150bp_default.0.826percent_45.final.contigs.ntref" of length 5594473
# construct suffix tree for sequence of length 5594473
# (maximum reference length is 536870908)
# (maximum query length is 4294967295)
# process 55944 characters per dot
#....................................................................................................
# CONSTRUCTIONTIME /vol/ngscomparison/software/analysis/quast-2.1/libs/MUMmer3.23-linux/mummer /vol/codine-tmp/juene/tmp.ydhkxShNmY/quast/contigs_reports/nucmer_output/VELVET_MIS_PE_sakai_mis-1_bi_2x150bp_default__sakai_mis-2_bi_2x150bp_default.0.826percent_45.final.contigs.ntref 3.95
# reading input file "/vol/codine-tmp/juene/tmp.ydhkxShNmY/quast/corrected_input/VELVET_MIS_PE_sakai_mis-1_bi_2x150bp_default__sakai_mis-2_bi_2x150bp_default.0.826percent_45.final.contigs" of length 5338199
# matching query-file "/vol/codine-tmp/juene/tmp.ydhkxShNmY/quast/corrected_input/VELVET_MIS_PE_sakai_mis-1_bi_2x150bp_default__sakai_mis-2_bi_2x150bp_default.0.826percent_45.final.contigs"
# against subject-file "/vol/codine-tmp/juene/tmp.ydhkxShNmY/quast/contigs_reports/nucmer_output/VELVET_MIS_PE_sakai_mis-1_bi_2x150bp_default__sakai_mis-2_bi_2x150bp_default.0.826percent_45.final.contigs.ntref"
# COMPLETETIME /vol/ngscomparison/software/analysis/quast-2.1/libs/MUMmer3.23-linux/mummer /vol/codine-tmp/juene/tmp.ydhkxShNmY/quast/contigs_reports/nucmer_output/VELVET_MIS_PE_sakai_mis-1_bi_2x150bp_default__sakai_mis-2_bi_2x150bp_default.0.826percent_45.final.contigs.ntref 10.39
# SPACE /vol/ngscomparison/software/analysis/quast-2.1/libs/MUMmer3.23-linux/mummer /vol/codine-tmp/juene/tmp.ydhkxShNmY/quast/contigs_reports/nucmer_output/VELVET_MIS_PE_sakai_mis-1_bi_2x150bp_default__sakai_mis-2_bi_2x150bp_default.0.826percent_45.final.contigs.ntref 10.61
4: FINISHING DATA
