Assembly	VELVET_MIS_PE_sakai_mis-1_bi_2x150bp_default__sakai_mis-2_bi_2x150bp_default.0.826percent_45.final.contigs_broken	VELVET_MIS_PE_sakai_mis-1_bi_2x150bp_default__sakai_mis-2_bi_2x150bp_default.0.826percent_45.final.contigs
#Mis_misassemblies	5	11
#Mis_relocations	5	11
#Mis_translocations	0	0
#Mis_inversions	0	0
#Mis_misassembled contigs	5	11
Mis_Misassembled contigs length	143809	670241
#Mis_local misassemblies	12	69
#mismatches	467	462
#indels	42	446
#Mis_short indels (<= 5 bp)	37	382
#Mis_long indels (> 5 bp)	5	64
Indels length	105	1824
