All statistics are based on contigs of size >= 200 bp, unless otherwise noted (e.g., "# contigs (>= 0 bp)" and "Total length (>= 0 bp)" include all contigs).

Assembly                       VELVET_MIS_PE_mrsa_mis-1_bi_2x250bp_default__mrsa_mis-2_bi_2x250bp_default.0.460percent_19.final.contigs_broken  VELVET_MIS_PE_mrsa_mis-1_bi_2x250bp_default__mrsa_mis-2_bi_2x250bp_default.0.460percent_19.final.contigs
#Contigs (>= 0 bp)             1266                                                                                                             1090                                                                                                    
#Contigs (>= 1000 bp)          483                                                                                                              346                                                                                                     
Total length (>= 0 bp)         2756583                                                                                                          2758966                                                                                                 
Total length (>= 1000 bp)      2628881                                                                                                          2649979                                                                                                 
#Contigs                       661                                                                                                              492                                                                                                     
Largest contig                 35171                                                                                                            58782                                                                                                   
Total length                   2715801                                                                                                          2718993                                                                                                 
Reference length               2813862                                                                                                          2813862                                                                                                 
GC (%)                         32.65                                                                                                            32.65                                                                                                   
Reference GC (%)               32.81                                                                                                            32.81                                                                                                   
N50                            7796                                                                                                             13184                                                                                                   
NG50                           7661                                                                                                             12214                                                                                                   
N75                            4262                                                                                                             6412                                                                                                    
NG75                           3941                                                                                                             5660                                                                                                    
#misassemblies                 16                                                                                                               33                                                                                                      
#local misassemblies           10                                                                                                               37                                                                                                      
#unaligned contigs             4 + 4 part                                                                                                       2 + 0 part                                                                                              
Unaligned contigs length       7942                                                                                                             5629                                                                                                    
Genome fraction (%)            95.694                                                                                                           95.736                                                                                                  
Duplication ratio              1.003                                                                                                            1.004                                                                                                   
#N's per 100 kbp               0.00                                                                                                             87.64                                                                                                   
#mismatches per 100 kbp        23.32                                                                                                            24.17                                                                                                   
#indels per 100 kbp            2.38                                                                                                             22.12                                                                                                   
#genes                         2226 + 385 part                                                                                                  2307 + 304 part                                                                                         
#predicted genes (unique)      2952                                                                                                             2889                                                                                                    
#predicted genes (>= 0 bp)     2952                                                                                                             2889                                                                                                    
#predicted genes (>= 300 bp)   2396                                                                                                             2376                                                                                                    
#predicted genes (>= 1500 bp)  262                                                                                                              269                                                                                                     
#predicted genes (>= 3000 bp)  19                                                                                                               19                                                                                                      
Largest alignment              35171                                                                                                            58782                                                                                                   
NA50                           7661                                                                                                             11540                                                                                                   
NGA50                          7371                                                                                                             11059                                                                                                   
NA75                           4150                                                                                                             5660                                                                                                    
NGA75                          3830                                                                                                             5243                                                                                                    
