All statistics are based on contigs of size >= 200 bp, unless otherwise noted (e.g., "# contigs (>= 0 bp)" and "Total length (>= 0 bp)" include all contigs).

Assembly                                   VELVET_MIS_PE_mrsa_mis-1_bi_2x250bp_default__mrsa_mis-2_bi_2x250bp_default.0.460percent_41.final.contigs_broken  VELVET_MIS_PE_mrsa_mis-1_bi_2x250bp_default__mrsa_mis-2_bi_2x250bp_default.0.460percent_41.final.contigs
#Contigs                                   180                                                                                                              148                                                                                                     
#Contigs (>= 0 bp)                         329                                                                                                              297                                                                                                     
#Contigs (>= 1000 bp)                      138                                                                                                              111                                                                                                     
Largest contig                             91000                                                                                                            144651                                                                                                  
Total length                               2760509                                                                                                          2761433                                                                                                 
Total length (>= 0 bp)                     2776932                                                                                                          2777856                                                                                                 
Total length (>= 1000 bp)                  2744071                                                                                                          2746733                                                                                                 
Reference length                           2813862                                                                                                          2813862                                                                                                 
N50                                        31372                                                                                                            45793                                                                                                   
NG50                                       31068                                                                                                            45793                                                                                                   
N75                                        19593                                                                                                            23131                                                                                                   
NG75                                       19075                                                                                                            21276                                                                                                   
L50                                        25                                                                                                               20                                                                                                      
LG50                                       26                                                                                                               20                                                                                                      
L75                                        53                                                                                                               41                                                                                                      
LG75                                       55                                                                                                               43                                                                                                      
#local misassemblies                       11                                                                                                               20                                                                                                      
#misassemblies                             5                                                                                                                6                                                                                                       
#misassembled contigs                      5                                                                                                                5                                                                                                       
Misassembled contigs length                105411                                                                                                           246816                                                                                                  
Misassemblies inter-contig overlap         3057                                                                                                             3057                                                                                                    
#unaligned contigs                         4 + 1 part                                                                                                       3 + 1 part                                                                                              
Unaligned contigs length                   5384                                                                                                             5154                                                                                                    
#ambiguously mapped contigs                15                                                                                                               15                                                                                                      
Extra bases in ambiguously mapped contigs  -10268                                                                                                           -10268                                                                                                  
#N's                                       0                                                                                                                924                                                                                                     
#N's per 100 kbp                           0.00                                                                                                             33.46                                                                                                   
Genome fraction (%)                        97.522                                                                                                           97.556                                                                                                  
Duplication ratio                          1.001                                                                                                            1.001                                                                                                   
#genes                                     2568 + 90 part                                                                                                   2581 + 77 part                                                                                          
#predicted genes (unique)                  2670                                                                                                             2660                                                                                                    
#predicted genes (>= 0 bp)                 2670                                                                                                             2660                                                                                                    
#predicted genes (>= 300 bp)               2290                                                                                                             2288                                                                                                    
#predicted genes (>= 1500 bp)              292                                                                                                              294                                                                                                     
#predicted genes (>= 3000 bp)              26                                                                                                               26                                                                                                      
#mismatches                                362                                                                                                              369                                                                                                     
#indels                                    29                                                                                                               194                                                                                                     
Indels length                              68                                                                                                               685                                                                                                     
#mismatches per 100 kbp                    13.19                                                                                                            13.44                                                                                                   
#indels per 100 kbp                        1.06                                                                                                             7.07                                                                                                    
GC (%)                                     32.67                                                                                                            32.67                                                                                                   
Reference GC (%)                           32.81                                                                                                            32.81                                                                                                   
Average %IDY                               99.224                                                                                                           99.165                                                                                                  
Largest alignment                          91000                                                                                                            134543                                                                                                  
NA50                                       31068                                                                                                            40693                                                                                                   
NGA50                                      30400                                                                                                            40693                                                                                                   
NA75                                       19593                                                                                                            21574                                                                                                   
NGA75                                      19075                                                                                                            21265                                                                                                   
LA50                                       26                                                                                                               21                                                                                                      
LGA50                                      27                                                                                                               21                                                                                                      
LA75                                       54                                                                                                               43                                                                                                      
LGA75                                      56                                                                                                               45                                                                                                      
#Mis_misassemblies                         5                                                                                                                6                                                                                                       
#Mis_relocations                           5                                                                                                                6                                                                                                       
#Mis_translocations                        0                                                                                                                0                                                                                                       
#Mis_inversions                            0                                                                                                                0                                                                                                       
#Mis_misassembled contigs                  5                                                                                                                5                                                                                                       
Mis_Misassembled contigs length            105411                                                                                                           246816                                                                                                  
#Mis_local misassemblies                   11                                                                                                               20                                                                                                      
#Mis_short indels (<= 5 bp)                28                                                                                                               177                                                                                                     
#Mis_long indels (> 5 bp)                  1                                                                                                                17                                                                                                      
#Una_fully unaligned contigs               4                                                                                                                3                                                                                                       
Una_Fully unaligned length                 5071                                                                                                             4841                                                                                                    
#Una_partially unaligned contigs           1                                                                                                                1                                                                                                       
#Una_with misassembly                      0                                                                                                                0                                                                                                       
#Una_both parts are significant            1                                                                                                                1                                                                                                       
Una_Partially unaligned length             313                                                                                                              313                                                                                                     
GAGE_Contigs #                             180                                                                                                              148                                                                                                     
GAGE_Min contig                            204                                                                                                              204                                                                                                     
GAGE_Max contig                            91000                                                                                                            144651                                                                                                  
GAGE_N50                                   31068 COUNT: 26                                                                                                  45793 COUNT: 20                                                                                         
GAGE_Genome size                           2813862                                                                                                          2813862                                                                                                 
GAGE_Assembly size                         2760509                                                                                                          2761433                                                                                                 
GAGE_Chaff bases                           0                                                                                                                0                                                                                                       
GAGE_Missing reference bases               22881(0.81%)                                                                                                     22850(0.81%)                                                                                            
GAGE_Missing assembly bases                5029(0.18%)                                                                                                      5932(0.21%)                                                                                             
GAGE_Missing assembly contigs              3(1.67%)                                                                                                         3(2.03%)                                                                                                
GAGE_Duplicated reference bases            1727                                                                                                             1727                                                                                                    
GAGE_Compressed reference bases            41744                                                                                                            41781                                                                                                   
GAGE_Bad trim                              188                                                                                                              3                                                                                                       
GAGE_Avg idy                               99.98                                                                                                            99.98                                                                                                   
GAGE_SNPs                                  229                                                                                                              249                                                                                                     
GAGE_Indels < 5bp                          24                                                                                                               35                                                                                                      
GAGE_Indels >= 5                           9                                                                                                                33                                                                                                      
GAGE_Inversions                            0                                                                                                                0                                                                                                       
GAGE_Relocation                            8                                                                                                                11                                                                                                      
GAGE_Translocation                         0                                                                                                                0                                                                                                       
GAGE_Corrected contig #                    188                                                                                                              185                                                                                                     
GAGE_Corrected assembly size               2756823                                                                                                          2756848                                                                                                 
GAGE_Min correct contig                    204                                                                                                              204                                                                                                     
GAGE_Max correct contig                    91000                                                                                                            91000                                                                                                   
GAGE_Corrected N50                         28455 COUNT: 31                                                                                                  29837 COUNT: 29                                                                                         
