Assembly	CLC_MIS_PE_sakai_mis-1_bi_2x250bp_SI_default__sakai_mis-2_bi_2x250bp_SI_default.0.65percent.result_broken	CLC_MIS_PE_sakai_mis-1_bi_2x250bp_SI_default__sakai_mis-2_bi_2x250bp_SI_default.0.65percent.result
GAGE_Contigs #	553	548
GAGE_Min contig	200	200
GAGE_Max contig	377989	377989
GAGE_N50	148175 COUNT: 12	148175 COUNT: 11
GAGE_Genome size	5594470	5594470
GAGE_Assembly size	5468842	5471592
GAGE_Chaff bases	0	0
GAGE_Missing reference bases	11481(0.21%)	10979(0.20%)
GAGE_Missing assembly bases	72649(1.33%)	74470(1.36%)
GAGE_Missing assembly contigs	249(45.03%)	250(45.62%)
GAGE_Duplicated reference bases	20096	20096
GAGE_Compressed reference bases	236871	236718
GAGE_Bad trim	478	1234
GAGE_Avg idy	99.99	99.99
GAGE_SNPs	72	72
GAGE_Indels < 5bp	16	16
GAGE_Indels >= 5	7	10
GAGE_Inversions	0	0
GAGE_Relocation	3	4
GAGE_Translocation	0	0
GAGE_Corrected contig #	249	248
GAGE_Corrected assembly size	5376889	5376525
GAGE_Min correct contig	201	201
GAGE_Max correct contig	377427	377427
GAGE_Corrected N50	110985 COUNT: 14	110985 COUNT: 14
