Assembly	VELVET_MIS_PE_sakai_mis-both_bi_2x250bp_SI_default.0.64percent_83.final.contigs_broken	VELVET_MIS_PE_sakai_mis-both_bi_2x250bp_SI_default.0.64percent_83.final.contigs
#Mis_misassemblies	4	19
#Mis_relocations	4	19
#Mis_translocations	0	0
#Mis_inversions	0	0
#Mis_misassembled contigs	4	12
Mis_Misassembled contigs length	106215	555718
#Mis_local misassemblies	6	107
#mismatches	276	307
#indels	25	396
#Mis_short indels (<= 5 bp)	25	367
#Mis_long indels (> 5 bp)	0	29
Indels length	29	1490
