calling: java -cp /vol/ngscomparison/software/analysis/quast-2.1/libs/gage:. SizeFasta /vol/codine-tmp/juene/tmp.jUfwNm7UsT/quast/corrected_input/Ecoli_Sakai_editedNew_plasmids.fasta |awk '{SUM+=; print SUM}'|tail -n 1
Contig Stats
Total units: 405
Reference: 5594470
BasesInFasta: 5405137
Min: 201
Max: 347201
N10: 315893 COUNT: 2
N25: 195340 COUNT: 6
N50: 106209 COUNT: 15
N75: 40348 COUNT: 37
E-size:130130.23

Genome Size: 5594470
Assembly Size: 5405137
Chaff bases: 0
Missing Reference Bases: 17678(0.32%)
Missing Assembly Bases: 17320(0.32%)
Missing Assembly Contigs: 1(0.25%)
Duplicated Reference Bases: 11265
Compressed Reference Bases: 258776
Bad Trim: 217
Avg Idy: 99.98
SNPs: 227
Indels < 5bp: 59
Indels >= 5: 123
Inversions: 6
Relocation: 18
Translocation: 0

Corrected Contig Stats
calling: java -cp /vol/ngscomparison/software/analysis/quast-2.1/libs/gage:.:. GetFastaStats -o -min 199 -genomeSize 5594470 /vol/codine-tmp/juene/tmp.jUfwNm7UsT/quast/gage/tmp/VELVET_MIS_PE_sakai_mis-both_bi_2x250bp_SI_default.0.64percent_83.final.contigs.matches.lens 2> /dev/null
Total units: 527
Reference: 5594470
BasesInFasta: 5378586
Min: 201
Max: 128309
N10: 98943 COUNT: 5
N25: 58339 COUNT: 17
N50: 35403 COUNT: 47
N75: 16092 COUNT: 105
E-size:42829.03

Done
