1: PREPARING DATA
2,3: RUNNING mummer AND CREATING CLUSTERS
# reading input file "/vol/codine-tmp/juene/tmp.jUfwNm7UsT/quast/gage/tmp/VELVET_MIS_PE_sakai_mis-both_bi_2x250bp_SI_default.0.64percent_83.final.contigs.ntref" of length 5594473
# construct suffix tree for sequence of length 5594473
# (maximum reference length is 536870908)
# (maximum query length is 4294967295)
# process 55944 characters per dot
#....................................................................................................
# CONSTRUCTIONTIME /vol/ngscomparison/software/analysis/quast-2.1/libs/MUMmer3.23-linux/mummer /vol/codine-tmp/juene/tmp.jUfwNm7UsT/quast/gage/tmp/VELVET_MIS_PE_sakai_mis-both_bi_2x250bp_SI_default.0.64percent_83.final.contigs.ntref 3.95
# reading input file "/vol/codine-tmp/juene/tmp.jUfwNm7UsT/quast/corrected_input/VELVET_MIS_PE_sakai_mis-both_bi_2x250bp_SI_default.0.64percent_83.final.contigs" of length 5405541
# matching query-file "/vol/codine-tmp/juene/tmp.jUfwNm7UsT/quast/corrected_input/VELVET_MIS_PE_sakai_mis-both_bi_2x250bp_SI_default.0.64percent_83.final.contigs"
# against subject-file "/vol/codine-tmp/juene/tmp.jUfwNm7UsT/quast/gage/tmp/VELVET_MIS_PE_sakai_mis-both_bi_2x250bp_SI_default.0.64percent_83.final.contigs.ntref"
# COMPLETETIME /vol/ngscomparison/software/analysis/quast-2.1/libs/MUMmer3.23-linux/mummer /vol/codine-tmp/juene/tmp.jUfwNm7UsT/quast/gage/tmp/VELVET_MIS_PE_sakai_mis-both_bi_2x250bp_SI_default.0.64percent_83.final.contigs.ntref 10.87
# SPACE /vol/ngscomparison/software/analysis/quast-2.1/libs/MUMmer3.23-linux/mummer /vol/codine-tmp/juene/tmp.jUfwNm7UsT/quast/gage/tmp/VELVET_MIS_PE_sakai_mis-both_bi_2x250bp_SI_default.0.64percent_83.final.contigs.ntref 10.68
4: FINISHING DATA
Filtering alignments
Extracting alignment coordinates
Analyzing SNPs
Extracting alignment breakpoints
Generating report file
Found genome size at position 4 with value 5594470 aka 5594470
Calculating point at 0 and the sum is 1011612 and i is520 and lens is 530 and length is 80018
Calculating point at 1 and the sum is 2014677 and i is502 and lens is 530 and length is 47499
Calculating point at 2 and the sum is 3012401 and i is477 and lens is 530 and length is 31234
Calculating point at 3 and the sum is 4017069 and i is436 and lens is 530 and length is 19313
Calculating point at 4 and the sum is 5004448 and i is347 and lens is 530 and length is 5717
