All statistics are based on contigs of size >= 200 bp, unless otherwise noted (e.g., "# contigs (>= 0 bp)" and "Total length (>= 0 bp)" include all contigs).

Assembly                                   ABYSS_PE_MIS_PE_mrsa_mis-1_bi_2x150bp_default__mrsa_mis-2_bi_2x150bp_default.0.527percent_72-scaffolds_broken  ABYSS_PE_MIS_PE_mrsa_mis-1_bi_2x150bp_default__mrsa_mis-2_bi_2x150bp_default.0.527percent_72-scaffolds
#Contigs                                   75                                                                                                             55                                                                                                    
#Contigs (>= 0 bp)                         198                                                                                                            178                                                                                                   
#Contigs (>= 1000 bp)                      59                                                                                                             45                                                                                                    
Largest contig                             229478                                                                                                         464720                                                                                                
Total length                               2792386                                                                                                        2793867                                                                                               
Total length (>= 0 bp)                     2807279                                                                                                        2808760                                                                                               
Total length (>= 1000 bp)                  2785086                                                                                                        2789341                                                                                               
Reference length                           2813862                                                                                                        2813862                                                                                               
N50                                        112605                                                                                                         148694                                                                                                
NG50                                       112605                                                                                                         148694                                                                                                
N75                                        51981                                                                                                          74000                                                                                                 
NG75                                       51981                                                                                                          74000                                                                                                 
L50                                        9                                                                                                              6                                                                                                     
LG50                                       9                                                                                                              6                                                                                                     
L75                                        18                                                                                                             12                                                                                                    
LG75                                       18                                                                                                             12                                                                                                    
#local misassemblies                       3                                                                                                              13                                                                                                    
#misassemblies                             4                                                                                                              7                                                                                                     
#misassembled contigs                      4                                                                                                              6                                                                                                     
Misassembled contigs length                190397                                                                                                         299445                                                                                                
Misassemblies inter-contig overlap         2518                                                                                                           2660                                                                                                  
#unaligned contigs                         0 + 0 part                                                                                                     0 + 0 part                                                                                            
Unaligned contigs length                   0                                                                                                              0                                                                                                     
#ambiguously mapped contigs                4                                                                                                              2                                                                                                     
Extra bases in ambiguously mapped contigs  -4919                                                                                                          -5307                                                                                                 
#N's                                       13                                                                                                             1494                                                                                                  
#N's per 100 kbp                           0.47                                                                                                           53.47                                                                                                 
Genome fraction (%)                        98.591                                                                                                         98.587                                                                                                
Duplication ratio                          1.006                                                                                                          1.006                                                                                                 
#genes                                     2663 + 27 part                                                                                                 2666 + 26 part                                                                                        
#predicted genes (unique)                  2641                                                                                                           2638                                                                                                  
#predicted genes (>= 0 bp)                 2661                                                                                                           2656                                                                                                  
#predicted genes (>= 300 bp)               2290                                                                                                           2289                                                                                                  
#predicted genes (>= 1500 bp)              301                                                                                                            301                                                                                                   
#predicted genes (>= 3000 bp)              29                                                                                                             29                                                                                                    
#mismatches                                160                                                                                                            160                                                                                                   
#indels                                    32                                                                                                             61                                                                                                    
Indels length                              92                                                                                                             226                                                                                                   
#mismatches per 100 kbp                    5.77                                                                                                           5.77                                                                                                  
#indels per 100 kbp                        1.15                                                                                                           2.20                                                                                                  
GC (%)                                     32.67                                                                                                          32.67                                                                                                 
Reference GC (%)                           32.81                                                                                                          32.81                                                                                                 
Average %IDY                               98.776                                                                                                         98.729                                                                                                
Largest alignment                          229478                                                                                                         464670                                                                                                
NA50                                       112605                                                                                                         147400                                                                                                
NGA50                                      112605                                                                                                         147400                                                                                                
NA75                                       51981                                                                                                          74000                                                                                                 
NGA75                                      51981                                                                                                          74000                                                                                                 
LA50                                       9                                                                                                              6                                                                                                     
LGA50                                      9                                                                                                              6                                                                                                     
LA75                                       18                                                                                                             12                                                                                                    
LGA75                                      18                                                                                                             12                                                                                                    
#Mis_misassemblies                         4                                                                                                              7                                                                                                     
#Mis_relocations                           4                                                                                                              7                                                                                                     
#Mis_translocations                        0                                                                                                              0                                                                                                     
#Mis_inversions                            0                                                                                                              0                                                                                                     
#Mis_misassembled contigs                  4                                                                                                              6                                                                                                     
Mis_Misassembled contigs length            190397                                                                                                         299445                                                                                                
#Mis_local misassemblies                   3                                                                                                              13                                                                                                    
#Mis_short indels (<= 5 bp)                29                                                                                                             54                                                                                                    
#Mis_long indels (> 5 bp)                  3                                                                                                              7                                                                                                     
#Una_fully unaligned contigs               0                                                                                                              0                                                                                                     
Una_Fully unaligned length                 0                                                                                                              0                                                                                                     
#Una_partially unaligned contigs           0                                                                                                              0                                                                                                     
#Una_with misassembly                      0                                                                                                              0                                                                                                     
#Una_both parts are significant            0                                                                                                              0                                                                                                     
Una_Partially unaligned length             0                                                                                                              0                                                                                                     
GAGE_Contigs #                             75                                                                                                             55                                                                                                    
GAGE_Min contig                            212                                                                                                            212                                                                                                   
GAGE_Max contig                            229478                                                                                                         464720                                                                                                
GAGE_N50                                   112605 COUNT: 9                                                                                                148694 COUNT: 6                                                                                       
GAGE_Genome size                           2813862                                                                                                        2813862                                                                                               
GAGE_Assembly size                         2792386                                                                                                        2793867                                                                                               
GAGE_Chaff bases                           0                                                                                                              0                                                                                                     
GAGE_Missing reference bases               5252(0.19%)                                                                                                    5252(0.19%)                                                                                           
GAGE_Missing assembly bases                1744(0.06%)                                                                                                    3175(0.11%)                                                                                           
GAGE_Missing assembly contigs              0(0.00%)                                                                                                       0(0.00%)                                                                                              
GAGE_Duplicated reference bases            936                                                                                                            936                                                                                                   
GAGE_Compressed reference bases            33643                                                                                                          33629                                                                                                 
GAGE_Bad trim                              1734                                                                                                           1734                                                                                                  
GAGE_Avg idy                               99.99                                                                                                          99.99                                                                                                 
GAGE_SNPs                                  71                                                                                                             71                                                                                                    
GAGE_Indels < 5bp                          14                                                                                                             14                                                                                                    
GAGE_Indels >= 5                           6                                                                                                              19                                                                                                    
GAGE_Inversions                            0                                                                                                              1                                                                                                     
GAGE_Relocation                            4                                                                                                              8                                                                                                     
GAGE_Translocation                         0                                                                                                              0                                                                                                     
GAGE_Corrected contig #                    83                                                                                                             83                                                                                                    
GAGE_Corrected assembly size               2791455                                                                                                        2791576                                                                                               
GAGE_Min correct contig                    212                                                                                                            212                                                                                                   
GAGE_Max correct contig                    208054                                                                                                         208054                                                                                                
GAGE_Corrected N50                         112475 COUNT: 10                                                                                               112475 COUNT: 10                                                                                      
