All statistics are based on contigs of size >= 200 bp, unless otherwise noted (e.g., "# contigs (>= 0 bp)" and "Total length (>= 0 bp)" include all contigs).

Assembly                         ABYSS_PE_MIS_PE_mrsa_mis-1_bi_2x150bp_default__mrsa_mis-2_bi_2x150bp_default.0.527percent_72-scaffolds_broken  ABYSS_PE_MIS_PE_mrsa_mis-1_bi_2x150bp_default__mrsa_mis-2_bi_2x150bp_default.0.527percent_72-scaffolds
GAGE_Contigs #                   75                                                                                                             55                                                                                                    
GAGE_Min contig                  212                                                                                                            212                                                                                                   
GAGE_Max contig                  229478                                                                                                         464720                                                                                                
GAGE_N50                         112605 COUNT: 9                                                                                                148694 COUNT: 6                                                                                       
GAGE_Genome size                 2813862                                                                                                        2813862                                                                                               
GAGE_Assembly size               2792386                                                                                                        2793867                                                                                               
GAGE_Chaff bases                 0                                                                                                              0                                                                                                     
GAGE_Missing reference bases     5252(0.19%)                                                                                                    5252(0.19%)                                                                                           
GAGE_Missing assembly bases      1744(0.06%)                                                                                                    3175(0.11%)                                                                                           
GAGE_Missing assembly contigs    0(0.00%)                                                                                                       0(0.00%)                                                                                              
GAGE_Duplicated reference bases  936                                                                                                            936                                                                                                   
GAGE_Compressed reference bases  33643                                                                                                          33629                                                                                                 
GAGE_Bad trim                    1734                                                                                                           1734                                                                                                  
GAGE_Avg idy                     99.99                                                                                                          99.99                                                                                                 
GAGE_SNPs                        71                                                                                                             71                                                                                                    
GAGE_Indels < 5bp                14                                                                                                             14                                                                                                    
GAGE_Indels >= 5                 6                                                                                                              19                                                                                                    
GAGE_Inversions                  0                                                                                                              1                                                                                                     
GAGE_Relocation                  4                                                                                                              8                                                                                                     
GAGE_Translocation               0                                                                                                              0                                                                                                     
GAGE_Corrected contig #          83                                                                                                             83                                                                                                    
GAGE_Corrected assembly size     2791455                                                                                                        2791576                                                                                               
GAGE_Min correct contig          212                                                                                                            212                                                                                                   
GAGE_Max correct contig          208054                                                                                                         208054                                                                                                
GAGE_Corrected N50               112475 COUNT: 10                                                                                               112475 COUNT: 10                                                                                      
