All statistics are based on contigs of size >= 200 bp, unless otherwise noted (e.g., "# contigs (>= 0 bp)" and "Total length (>= 0 bp)" include all contigs).

Assembly                                                                                                       #Contigs (>= 0 bp)  #Contigs (>= 1000 bp)  Total length (>= 0 bp)  Total length (>= 1000 bp)  #Contigs  Largest contig  Total length  Reference length  GC (%)  Reference GC (%)  N50     NG50    N75    NG75   #misassemblies  #local misassemblies  #unaligned contigs  Unaligned contigs length  Genome fraction (%)  Duplication ratio  #N's per 100 kbp  #mismatches per 100 kbp  #indels per 100 kbp  #genes          #predicted genes (unique)  #predicted genes (>= 0 bp)  #predicted genes (>= 300 bp)  #predicted genes (>= 1500 bp)  #predicted genes (>= 3000 bp)  Largest alignment  NA50    NGA50   NA75   NGA75
ABYSS_PE_MIS_PE_mrsa_mis-1_bi_2x150bp_default__mrsa_mis-2_bi_2x150bp_default.0.527percent_72-scaffolds_broken  198                 59                     2807279                 2785086                    75        229478          2792386       2813862           32.67   32.81             112605  112605  51981  51981  4               3                     0 + 0 part          0                         98.591               1.006              0.47              5.77                     1.15                 2663 + 27 part  2641                       2661                        2290                          301                            29                             229478             112605  112605  51981  51981
ABYSS_PE_MIS_PE_mrsa_mis-1_bi_2x150bp_default__mrsa_mis-2_bi_2x150bp_default.0.527percent_72-scaffolds         178                 45                     2808760                 2789341                    55        464720          2793867       2813862           32.67   32.81             148694  148694  74000  74000  7               13                    0 + 0 part          0                         98.587               1.006              53.47             5.77                     2.20                 2666 + 26 part  2638                       2656                        2289                          301                            29                             464670             147400  147400  74000  74000
