All statistics are based on contigs of size >= 200 bp, unless otherwise noted (e.g., "# contigs (>= 0 bp)" and "Total length (>= 0 bp)" include all contigs).

Assembly                         VELVET_MIS_PE_mtbh37-1_mis_2x250bp_nextera_default__mtbh37-2_mis_2x250bp_nextera_default_171.final.contigs_broken  VELVET_MIS_PE_mtbh37-1_mis_2x250bp_nextera_default__mtbh37-2_mis_2x250bp_nextera_default_171.final.contigs
#Mis_misassemblies               6                                                                                                                  8                                                                                                         
#Mis_relocations                 6                                                                                                                  8                                                                                                         
#Mis_translocations              0                                                                                                                  0                                                                                                         
#Mis_inversions                  0                                                                                                                  0                                                                                                         
#Mis_misassembled contigs        6                                                                                                                  8                                                                                                         
Mis_Misassembled contigs length  50412                                                                                                              92119                                                                                                     
#Mis_local misassemblies         6                                                                                                                  226                                                                                                       
#mismatches                      463                                                                                                                465                                                                                                       
#indels                          28                                                                                                                 331                                                                                                       
#Mis_short indels (<= 5 bp)      26                                                                                                                 322                                                                                                       
#Mis_long indels (> 5 bp)        2                                                                                                                  9                                                                                                         
Indels length                    54                                                                                                                 617                                                                                                       
