Assembly	CLC_PGM_mrsa_pgm_200bp_es_316_IonOnev2_ts3.0_morestringent.0.250percent.result
GAGE_Contigs #	356
GAGE_Min contig	200
GAGE_Max contig	78547
GAGE_N50	22041 COUNT: 42
GAGE_Genome size	2813862
GAGE_Assembly size	2771823
GAGE_Chaff bases	0
GAGE_Missing reference bases	36053(1.28%)
GAGE_Missing assembly bases	818(0.03%)
GAGE_Missing assembly contigs	0(0.00%)
GAGE_Duplicated reference bases	24924
GAGE_Compressed reference bases	38201
GAGE_Bad trim	818
GAGE_Avg idy	99.98
GAGE_SNPs	52
GAGE_Indels < 5bp	525
GAGE_Indels >= 5	3
GAGE_Inversions	1
GAGE_Relocation	2
GAGE_Translocation	0
GAGE_Corrected contig #	260
GAGE_Corrected assembly size	2747066
GAGE_Min correct contig	200
GAGE_Max correct contig	78562
GAGE_Corrected N50	22019 COUNT: 43
