Assembly	VELVET_PGM_mtbh37_pgm_400bp_es_318v2_OT2_tsv3.6_morestringent_217.final.contigs
GAGE_Contigs #	1895
GAGE_Min contig	433
GAGE_Max contig	6715
GAGE_N50	1080 COUNT: 1138
GAGE_Genome size	4411532
GAGE_Assembly size	2842048
GAGE_Chaff bases	0
GAGE_Missing reference bases	1628624(36.92%)
GAGE_Missing assembly bases	998(0.04%)
GAGE_Missing assembly contigs	0(0.00%)
GAGE_Duplicated reference bases	10881
GAGE_Compressed reference bases	27663
GAGE_Bad trim	938
GAGE_Avg idy	99.93
GAGE_SNPs	63
GAGE_Indels < 5bp	1804
GAGE_Indels >= 5	4
GAGE_Inversions	0
GAGE_Relocation	4
GAGE_Translocation	0
GAGE_Corrected contig #	1892
GAGE_Corrected assembly size	2832204
GAGE_Min correct contig	323
GAGE_Max correct contig	6716
GAGE_Corrected N50	1068 COUNT: 1146
