Assembly	CLC_PGM_sakai_pgm_mu_200bp_IO_TS3.0Disabled_stringent.81coverage.result
#Mis_misassemblies	8
#Mis_relocations	4
#Mis_translocations	0
#Mis_inversions	4
#Mis_misassembled contigs	8
Mis_Misassembled contigs length	26998
#Mis_local misassemblies	4
#mismatches	160
#indels	1281
#Mis_short indels (<= 5 bp)	1281
#Mis_long indels (> 5 bp)	0
Indels length	1330
