Assembly	VELVET_MIS_PE_sakai_mis-both_bi_2x250bp_SI_default.0.64percent_195.final.contigs_broken	VELVET_MIS_PE_sakai_mis-both_bi_2x250bp_SI_default.0.64percent_195.final.contigs
#Mis_misassemblies	6	9
#Mis_relocations	5	8
#Mis_translocations	1	1
#Mis_inversions	0	0
#Mis_misassembled contigs	6	9
Mis_Misassembled contigs length	35489	66743
#Mis_local misassemblies	2	381
#mismatches	198	199
#indels	21	1219
#Mis_short indels (<= 5 bp)	21	1206
#Mis_long indels (> 5 bp)	0	13
Indels length	21	1912
