Assembly	VELVET_MIS_PE_sakai_mis-both_bi_2x250bp_SI_default.0.64percent_185.final.contigs_broken	VELVET_MIS_PE_sakai_mis-both_bi_2x250bp_SI_default.0.64percent_185.final.contigs
#Una_fully unaligned contigs	1	1
Una_Fully unaligned length	5570	5570
#Una_partially unaligned contigs	1	1
#Una_with misassembly	0	0
#Una_both parts are significant	0	0
Una_Partially unaligned length	10	10
#N's	0	31456
