All statistics are based on contigs of size >= 200 bp, unless otherwise noted (e.g., "# contigs (>= 0 bp)" and "Total length (>= 0 bp)" include all contigs).

Assembly                                                                                                 GAGE_Contigs #  GAGE_Min contig  GAGE_Max contig  GAGE_N50         GAGE_Genome size  GAGE_Assembly size  GAGE_Chaff bases  GAGE_Missing reference bases  GAGE_Missing assembly bases  GAGE_Missing assembly contigs  GAGE_Duplicated reference bases  GAGE_Compressed reference bases  GAGE_Bad trim  GAGE_Avg idy  GAGE_SNPs  GAGE_Indels < 5bp  GAGE_Indels >= 5  GAGE_Inversions  GAGE_Relocation  GAGE_Translocation  GAGE_Corrected contig #  GAGE_Corrected assembly size  GAGE_Min correct contig  GAGE_Max correct contig  GAGE_Corrected N50
NEWBLER_MIS_PE_mrsa_mis-1_bi_2x150bp_default__mrsa_mis-2_bi_2x150bp_default.0.975percent.contigs_broken  57              871              300619           78866 COUNT: 11  2813862           2756461             0                 32271(1.15%)                  5386(0.20%)                  1(1.75%)                       0                                31173                            0              99.99         30         9                  2                 0                2                0                   59                       2751242                       871                      300619                   77031 COUNT: 11   
NEWBLER_MIS_PE_mrsa_mis-1_bi_2x150bp_default__mrsa_mis-2_bi_2x150bp_default.0.975percent.contigs         24              4440             636011           237701 COUNT: 4  2813862           2780207             0                 32532(1.16%)                  29132(1.05%)                 1(4.17%)                       0                                30912                            0              99.99         30         9                  21                0                9                0                   59                       2751242                       871                      300619                   77031 COUNT: 11   
