Assembly	SOAP2_PGM_sakai_pgm_mu_200bp_IO_TS3.0Disabled_stringent.0.34percent_59.final.contig
#Contigs	10448
#Contigs (>= 0 bp)	114374
#Contigs (>= 1000 bp)	36
Largest contig	2007
Total length	3506839
Total length (>= 0 bp)	14565087
Total length (>= 1000 bp)	42067
Reference length	5594470
N50	345
NG50	241
N75	254
NG75	None
L50	3529
LG50	7176
L75	6501
LG75	None
#local misassemblies	0
#misassemblies	1
#misassembled contigs	1
Misassembled contigs length	215
Misassemblies inter-contig overlap	0
#unaligned contigs	1024 + 5 part
Unaligned contigs length	219833
#ambiguously mapped contigs	39
Extra bases in ambiguously mapped contigs	-9909
#N's	0
#N's per 100 kbp	0.00
Genome fraction (%)	58.187
Duplication ratio	1.007
#genes	242 + 4217 part
#predicted genes (unique)	10650
#predicted genes (>= 0 bp)	10651
#predicted genes (>= 300 bp)	3413
#predicted genes (>= 1500 bp)	0
#predicted genes (>= 3000 bp)	0
#mismatches	24
#indels	382
Indels length	398
#mismatches per 100 kbp	0.74
#indels per 100 kbp	11.73
GC (%)	49.98
Reference GC (%)	50.48
Average %IDY	99.985
Largest alignment	2007
NA50	345
NGA50	239
NA75	254
NGA75	None
LA50	3531
LGA50	7184
LA75	6506
LGA75	None
#Mis_misassemblies	1
#Mis_relocations	1
#Mis_translocations	0
#Mis_inversions	0
#Mis_misassembled contigs	1
Mis_Misassembled contigs length	215
#Mis_local misassemblies	0
#Mis_short indels (<= 5 bp)	382
#Mis_long indels (> 5 bp)	0
#Una_fully unaligned contigs	1024
Una_Fully unaligned length	219469
#Una_partially unaligned contigs	5
#Una_with misassembly	0
#Una_both parts are significant	0
Una_Partially unaligned length	364
GAGE_Contigs #	10448
GAGE_Min contig	200
GAGE_Max contig	2007
GAGE_N50	241 COUNT: 7176
GAGE_Genome size	5594470
GAGE_Assembly size	3506839
GAGE_Chaff bases	0
GAGE_Missing reference bases	2200368(39.33%)
GAGE_Missing assembly bases	36051(1.03%)
GAGE_Missing assembly contigs	117(1.12%)
GAGE_Duplicated reference bases	60326
GAGE_Compressed reference bases	45062
GAGE_Bad trim	10816
GAGE_Avg idy	99.88
GAGE_SNPs	240
GAGE_Indels < 5bp	2854
GAGE_Indels >= 5	4
GAGE_Inversions	7
GAGE_Relocation	2
GAGE_Translocation	1
GAGE_Corrected contig #	9858
GAGE_Corrected assembly size	3380218
GAGE_Min correct contig	200
GAGE_Max correct contig	2007
GAGE_Corrected N50	240 COUNT: 7178
