calling: java -cp /vol/ngscomparison/software/analysis/quast-2.1/libs/gage:. SizeFasta /vol/codine-tmp/juene/tmp.lw5HE7NQzr/quast/corrected_input/Ecoli_Sakai_editedNew_plasmids.fasta |awk '{SUM+=; print SUM}'|tail -n 1
Contig Stats
Total units: 351
Reference: 5594470
BasesInFasta: 5312599
Min: 200
Max: 259768
N10: 211526 COUNT: 3
N25: 156140 COUNT: 8
N50: 117553 COUNT: 17
N75: 43456 COUNT: 38
E-size:109338.74

Genome Size: 5594470
Assembly Size: 5312599
Chaff bases: 0
Missing Reference Bases: 70052(1.25%)
Missing Assembly Bases: 5390(0.10%)
Missing Assembly Contigs: 1(0.28%)
Duplicated Reference Bases: 659
Compressed Reference Bases: 222258
Bad Trim: 4
Avg Idy: 99.99
SNPs: 135
Indels < 5bp: 17
Indels >= 5: 2
Inversions: 0
Relocation: 3
Translocation: 0

Corrected Contig Stats
calling: java -cp /vol/ngscomparison/software/analysis/quast-2.1/libs/gage:.:. GetFastaStats -o -min 199 -genomeSize 5594470 /vol/codine-tmp/juene/tmp.lw5HE7NQzr/quast/gage/tmp/NEWBLER_MIS_PE_sakai_mis-1_bi_2x150bp_default__sakai_mis-2_bi_2x150bp_default.81coverage.contigs.matches.lens 2> /dev/null
Total units: 353
Reference: 5594470
BasesInFasta: 5306867
Min: 200
Max: 259768
N10: 211525 COUNT: 3
N25: 148136 COUNT: 8
N50: 107932 COUNT: 18
N75: 40880 COUNT: 39
E-size:106641.09

Done
