Assembly	NEWBLER_PGM_mrsa_pgm_200bp_es_316_IonOnev2_ts3.0_morestringent.11coverage.contigs
#Contigs	769
#Contigs (>= 0 bp)	863
#Contigs (>= 1000 bp)	556
Largest contig	33597
Total length	2734367
Total length (>= 0 bp)	2747542
Total length (>= 1000 bp)	2617533
Reference length	2813862
N50	6019
NG50	5887
N75	3380
NG75	3162
L50	132
LG50	139
L75	280
LG75	298
#local misassemblies	9
#misassemblies	21
#misassembled contigs	21
Misassembled contigs length	98717
Misassemblies inter-contig overlap	1224
#unaligned contigs	1 + 18 part
Unaligned contigs length	1603
#ambiguously mapped contigs	9
Extra bases in ambiguously mapped contigs	-9754
#N's	0
#N's per 100 kbp	0.00
Genome fraction (%)	96.517
Duplication ratio	1.003
#genes	2142 + 523 part
#predicted genes (unique)	3319
#predicted genes (>= 0 bp)	3319
#predicted genes (>= 300 bp)	2548
#predicted genes (>= 1500 bp)	209
#predicted genes (>= 3000 bp)	13
#mismatches	201
#indels	1006
Indels length	1111
#mismatches per 100 kbp	7.40
#indels per 100 kbp	37.04
GC (%)	32.64
Reference GC (%)	32.81
Average %IDY	99.755
Largest alignment	33597
NA50	5986
NGA50	5887
NA75	3315
NGA75	3141
LA50	133
LGA50	140
LA75	282
LGA75	300
#Mis_misassemblies	21
#Mis_relocations	2
#Mis_translocations	0
#Mis_inversions	19
#Mis_misassembled contigs	21
Mis_Misassembled contigs length	98717
#Mis_local misassemblies	9
#Mis_short indels (<= 5 bp)	1005
#Mis_long indels (> 5 bp)	1
#Una_fully unaligned contigs	1
Una_Fully unaligned length	327
#Una_partially unaligned contigs	18
#Una_with misassembly	0
#Una_both parts are significant	0
Una_Partially unaligned length	1276
GAGE_Contigs #	769
GAGE_Min contig	203
GAGE_Max contig	33597
GAGE_N50	5887 COUNT: 139
GAGE_Genome size	2813862
GAGE_Assembly size	2734367
GAGE_Chaff bases	0
GAGE_Missing reference bases	48857(1.74%)
GAGE_Missing assembly bases	1022(0.04%)
GAGE_Missing assembly contigs	0(0.00%)
GAGE_Duplicated reference bases	1750
GAGE_Compressed reference bases	40500
GAGE_Bad trim	982
GAGE_Avg idy	99.95
GAGE_SNPs	142
GAGE_Indels < 5bp	1049
GAGE_Indels >= 5	11
GAGE_Inversions	8
GAGE_Relocation	5
GAGE_Translocation	0
GAGE_Corrected contig #	778
GAGE_Corrected assembly size	2732067
GAGE_Min correct contig	200
GAGE_Max correct contig	33602
GAGE_Corrected N50	5875 COUNT: 144
