All statistics are based on contigs of size >= 200 bp, unless otherwise noted (e.g., "# contigs (>= 0 bp)" and "Total length (>= 0 bp)" include all contigs).

Assembly                         NEWBLER_MIS_PE_mrsa_mis-1_bi_2x250bp_default__mrsa_mis-2_bi_2x250bp_default.0.050percent.contigs_broken  NEWBLER_MIS_PE_mrsa_mis-1_bi_2x250bp_default__mrsa_mis-2_bi_2x250bp_default.0.050percent.contigs
GAGE_Contigs #                   409                                                                                                      392                                                                                             
GAGE_Min contig                  584                                                                                                      2002                                                                                            
GAGE_Max contig                  26391                                                                                                    26391                                                                                           
GAGE_N50                         2011 COUNT: 388                                                                                          2069 COUNT: 376                                                                                 
GAGE_Genome size                 2813862                                                                                                  2813862                                                                                         
GAGE_Assembly size               1435126                                                                                                  1440363                                                                                         
GAGE_Chaff bases                 0                                                                                                        0                                                                                               
GAGE_Missing reference bases     1350014(47.98%)                                                                                          1350014(47.98%)                                                                                 
GAGE_Missing assembly bases      5064(0.35%)                                                                                              10303(0.72%)                                                                                    
GAGE_Missing assembly contigs    1(0.24%)                                                                                                 1(0.26%)                                                                                        
GAGE_Duplicated reference bases  0                                                                                                        0                                                                                               
GAGE_Compressed reference bases  32624                                                                                                    32520                                                                                           
GAGE_Bad trim                    5                                                                                                        5                                                                                               
GAGE_Avg idy                     99.98                                                                                                    99.98                                                                                           
GAGE_SNPs                        158                                                                                                      158                                                                                             
GAGE_Indels < 5bp                19                                                                                                       19                                                                                              
GAGE_Indels >= 5                 3                                                                                                        13                                                                                              
GAGE_Inversions                  0                                                                                                        1                                                                                               
GAGE_Relocation                  1                                                                                                        5                                                                                               
GAGE_Translocation               0                                                                                                        0                                                                                               
GAGE_Corrected contig #          412                                                                                                      412                                                                                             
GAGE_Corrected assembly size     1432676                                                                                                  1432676                                                                                         
GAGE_Min correct contig          584                                                                                                      584                                                                                             
GAGE_Max correct contig          26391                                                                                                    26391                                                                                           
GAGE_Corrected N50               1724 COUNT: 391                                                                                          1724 COUNT: 391                                                                                 
