1: PREPARING DATA
2,3: RUNNING mummer AND CREATING CLUSTERS
# reading input file "/vol/codine-tmp/juene/tmp.XF3E3T5847/quast/gage/tmp/SOAP2_MIS_PE_mrsa_mis-1_bi_2x150bp_default.0.527percent_117.final.scaf.ntref" of length 2813864
# construct suffix tree for sequence of length 2813864
# (maximum reference length is 536870908)
# (maximum query length is 4294967295)
# process 28138 characters per dot
#....................................................................................................
# CONSTRUCTIONTIME /vol/ngscomparison/software/analysis/quast-2.1/libs/MUMmer3.23-linux/mummer /vol/codine-tmp/juene/tmp.XF3E3T5847/quast/gage/tmp/SOAP2_MIS_PE_mrsa_mis-1_bi_2x150bp_default.0.527percent_117.final.scaf.ntref 1.39
# reading input file "/vol/codine-tmp/juene/tmp.XF3E3T5847/quast/corrected_input/SOAP2_MIS_PE_mrsa_mis-1_bi_2x150bp_default.0.527percent_117.final.scaf" of length 2803268
# matching query-file "/vol/codine-tmp/juene/tmp.XF3E3T5847/quast/corrected_input/SOAP2_MIS_PE_mrsa_mis-1_bi_2x150bp_default.0.527percent_117.final.scaf"
# against subject-file "/vol/codine-tmp/juene/tmp.XF3E3T5847/quast/gage/tmp/SOAP2_MIS_PE_mrsa_mis-1_bi_2x150bp_default.0.527percent_117.final.scaf.ntref"
# COMPLETETIME /vol/ngscomparison/software/analysis/quast-2.1/libs/MUMmer3.23-linux/mummer /vol/codine-tmp/juene/tmp.XF3E3T5847/quast/gage/tmp/SOAP2_MIS_PE_mrsa_mis-1_bi_2x150bp_default.0.527percent_117.final.scaf.ntref 3.93
# SPACE /vol/ngscomparison/software/analysis/quast-2.1/libs/MUMmer3.23-linux/mummer /vol/codine-tmp/juene/tmp.XF3E3T5847/quast/gage/tmp/SOAP2_MIS_PE_mrsa_mis-1_bi_2x150bp_default.0.527percent_117.final.scaf.ntref 5.45
4: FINISHING DATA
Filtering alignments
Extracting alignment coordinates
Analyzing SNPs
Extracting alignment breakpoints
Generating report file
Found genome size at position 4 with value 2813862 aka 2813862
Calculating point at 0 and the sum is 1007129 and i is689 and lens is 756 and length is 9773
Calculating point at 1 and the sum is 2003314 and i is528 and lens is 756 and length is 4083
