All statistics are based on contigs of size >= 200 bp, unless otherwise noted (e.g., "# contigs (>= 0 bp)" and "Total length (>= 0 bp)" include all contigs).

Assembly                         VELVET_MIS_PE_mrsa_mis-1_bi_2x150bp_default__mrsa_mis-2_bi_2x150bp_default.0.527percent_101.final.contigs_broken  VELVET_MIS_PE_mrsa_mis-1_bi_2x150bp_default__mrsa_mis-2_bi_2x150bp_default.0.527percent_101.final.contigs
GAGE_Contigs #                   153                                                                                                               76                                                                                                       
GAGE_Min contig                  201                                                                                                               201                                                                                                      
GAGE_Max contig                  194483                                                                                                            698147                                                                                                   
GAGE_N50                         46638 COUNT: 17                                                                                                   179600 COUNT: 4                                                                                          
GAGE_Genome size                 2813862                                                                                                           2813862                                                                                                  
GAGE_Assembly size               2793298                                                                                                           2797318                                                                                                  
GAGE_Chaff bases                 0                                                                                                                 0                                                                                                        
GAGE_Missing reference bases     2875(0.10%)                                                                                                       2827(0.10%)                                                                                              
GAGE_Missing assembly bases      5495(0.20%)                                                                                                       9459(0.34%)                                                                                              
GAGE_Missing assembly contigs    1(0.65%)                                                                                                          1(1.32%)                                                                                                 
GAGE_Duplicated reference bases  2067                                                                                                              2726                                                                                                     
GAGE_Compressed reference bases  41013                                                                                                             41316                                                                                                    
GAGE_Bad trim                    9                                                                                                                 10                                                                                                       
GAGE_Avg idy                     100.00                                                                                                            99.99                                                                                                    
GAGE_SNPs                        42                                                                                                                42                                                                                                       
GAGE_Indels < 5bp                9                                                                                                                 19                                                                                                       
GAGE_Indels >= 5                 1                                                                                                                 65                                                                                                       
GAGE_Inversions                  0                                                                                                                 5                                                                                                        
GAGE_Relocation                  2                                                                                                                 3                                                                                                        
GAGE_Translocation               0                                                                                                                 0                                                                                                        
GAGE_Corrected contig #          148                                                                                                               143                                                                                                      
GAGE_Corrected assembly size     2785980                                                                                                           2785827                                                                                                  
GAGE_Min correct contig          201                                                                                                               201                                                                                                      
GAGE_Max correct contig          141669                                                                                                            141669                                                                                                   
GAGE_Corrected N50               46641 COUNT: 18                                                                                                   47933 COUNT: 17                                                                                          
