Assembly	GAGE_Contigs #	GAGE_Min contig	GAGE_Max contig	GAGE_N50	GAGE_Genome size	GAGE_Assembly size	GAGE_Chaff bases	GAGE_Missing reference bases	GAGE_Missing assembly bases	GAGE_Missing assembly contigs	GAGE_Duplicated reference bases	GAGE_Compressed reference bases	GAGE_Bad trim	GAGE_Avg idy	GAGE_SNPs	GAGE_Indels < 5bp	GAGE_Indels >= 5	GAGE_Inversions	GAGE_Relocation	GAGE_Translocation	GAGE_Corrected contig #	GAGE_Corrected assembly size	GAGE_Min correct contig	GAGE_Max correct contig	GAGE_Corrected N50
SOAP2_MIS_PE_sakai_mis-1_bi_2x250bp_SI_default.0.64percent_55.final.scaf_broken	65802	200	3208	345 COUNT: 4965	5594470	17177226	0	943893(16.87%)	11505711(66.98%)	48570(73.81%)	697799	188337	75201	99.43	17224	114	0	0	1	0	13504	4895423	200	3208	341 COUNT: 4981
SOAP2_MIS_PE_sakai_mis-1_bi_2x250bp_SI_default.0.64percent_55.final.scaf	65804	200	3208	345 COUNT: 4964	5594470	17178463	0	943569(16.87%)	11506099(66.98%)	48570(73.81%)	698034	188127	75201	99.43	17211	114	3	0	1	0	13503	4895175	200	3208	341 COUNT: 4981
