Assembly	#Contigs (>= 0 bp)	#Contigs (>= 1000 bp)	Total length (>= 0 bp)	Total length (>= 1000 bp)	#Contigs	Largest contig	Total length	Reference length	GC (%)	Reference GC (%)	N50	NG50	N75	NG75	#misassemblies	#local misassemblies	#unaligned contigs	Unaligned contigs length	Genome fraction (%)	Duplication ratio	#N's per 100 kbp	#mismatches per 100 kbp	#indels per 100 kbp	#genes	#predicted genes (unique)	#predicted genes (>= 0 bp)	#predicted genes (>= 300 bp)	#predicted genes (>= 1500 bp)	#predicted genes (>= 3000 bp)	Largest alignment	NA50	NGA50	NA75	NGA75
SOAP2_MIS_PE_sakai_mis-1_bi_2x250bp_SI_default.0.64percent_55.final.scaf_broken	120981	294	25833668	371646	65802	3208	17177226	5594470	53.88	50.48	249	345	225	251	1	0	55368 + 3 part	12972642	71.693	1.045	0.00	3.64	0.15	519 + 4239 part	58335	58363	4636	3	0	3208	None	341	None	None
SOAP2_MIS_PE_sakai_mis-1_bi_2x250bp_SI_default.0.64percent_55.final.scaf	120977	295	25834056	372703	65804	3208	17178463	5594470	53.87	50.48	249	345	225	251	1	2	55370 + 3 part	12974002	71.685	1.045	2.26	3.64	0.15	519 + 4238 part	58338	58366	4636	3	0	3208	None	341	None	None
