Assembly	#Contigs	#Contigs (>= 0 bp)	#Contigs (>= 1000 bp)	Largest contig	Total length	Total length (>= 0 bp)	Total length (>= 1000 bp)	Reference length	N50	NG50	N75	NG75	L50	LG50	L75	LG75	#local misassemblies	#misassemblies	#misassembled contigs	Misassembled contigs length	Misassemblies inter-contig overlap	#unaligned contigs	Unaligned contigs length	#ambiguously mapped contigs	Extra bases in ambiguously mapped contigs	#N's	#N's per 100 kbp	Genome fraction (%)	Duplication ratio	#genes	#predicted genes (unique)	#predicted genes (>= 0 bp)	#predicted genes (>= 300 bp)	#predicted genes (>= 1500 bp)	#predicted genes (>= 3000 bp)	#mismatches	#indels	Indels length	#mismatches per 100 kbp	#indels per 100 kbp	GC (%)	Reference GC (%)	Average %IDY	Largest alignment	NA50	NGA50	NA75	NGA75	LA50	LGA50	LA75	LGA75	#Mis_misassemblies	#Mis_relocations	#Mis_translocations	#Mis_inversions	#Mis_misassembled contigs	Mis_Misassembled contigs length	#Mis_local misassemblies	#Mis_short indels (<= 5 bp)	#Mis_long indels (> 5 bp)	#Una_fully unaligned contigs	Una_Fully unaligned length	#Una_partially unaligned contigs	#Una_with misassembly	#Una_both parts are significant	Una_Partially unaligned length	GAGE_Contigs #	GAGE_Min contig	GAGE_Max contig	GAGE_N50	GAGE_Genome size	GAGE_Assembly size	GAGE_Chaff bases	GAGE_Missing reference bases	GAGE_Missing assembly bases	GAGE_Missing assembly contigs	GAGE_Duplicated reference bases	GAGE_Compressed reference bases	GAGE_Bad trim	GAGE_Avg idy	GAGE_SNPs	GAGE_Indels < 5bp	GAGE_Indels >= 5	GAGE_Inversions	GAGE_Relocation	GAGE_Translocation	GAGE_Corrected contig #	GAGE_Corrected assembly size	GAGE_Min correct contig	GAGE_Max correct contig	GAGE_Corrected N50
ABYSS_PE_MIS_PE_mrsa_mis-1_bi_2x250bp_default__mrsa_mis-2_bi_2x250bp_default.76coverage_96.final_broken	107	234	60	318877	2788943	2807505	2770264	2813862	107143	107143	52504	52504	9	9	18	18	0	2	2	70044	0	0 + 0 part	0	13	-9563	4	0.14	98.663	1.001	2675 + 32 part	2656	2662	2285	299	30	40	10	23	1.44	0.36	32.68	32.81	98.688	318877	107143	107143	52504	52504	9	9	18	18	2	2	0	0	2	70044	0	9	1	0	0	0	0	0	0	107	200	318877	107143 COUNT: 9	2813862	2788943	0	1240(0.04%)	1(0.00%)	0(0.00%)	269	35283	0	99.99	39	6	1	0	2	0	109	2788681	200	318878	107143 COUNT: 9
ABYSS_PE_MIS_PE_mrsa_mis-1_bi_2x250bp_default__mrsa_mis-2_bi_2x250bp_default.76coverage_96.final	100	227	57	318877	2789267	2807829	2772656	2813862	137407	137407	58931	58931	8	8	17	17	2	4	3	74625	0	0 + 0 part	0	11	-8315	328	11.76	98.711	1.001	2675 + 33 part	2656	2662	2285	299	30	40	12	46	1.44	0.43	32.68	32.81	98.656	318877	137407	137407	57719	57719	8	8	17	17	4	4	0	0	3	74625	2	9	3	0	0	0	0	0	0	100	200	318877	137407 COUNT: 8	2813862	2789267	0	922(0.03%)	275(0.01%)	0(0.00%)	269	35586	0	99.99	40	9	5	2	2	0	108	2788734	200	318878	107143 COUNT: 9
