Assembly	CLC_PGM_sakai_pgm_mu_318_400bp_IO_TS3.4_ms.0.25percent.result
#Mis_misassemblies	5
#Mis_relocations	5
#Mis_translocations	0
#Mis_inversions	0
#Mis_misassembled contigs	5
Mis_Misassembled contigs length	160718
#Mis_local misassemblies	7
#mismatches	88
#indels	540
#Mis_short indels (<= 5 bp)	534
#Mis_long indels (> 5 bp)	6
Indels length	634
