Assembly	VELVET_MIS_PE_mrsa_mis-1_bi_2x250bp_default__mrsa_mis-2_bi_2x250bp_default.0.460percent_185.final.contigs_broken	VELVET_MIS_PE_mrsa_mis-1_bi_2x250bp_default__mrsa_mis-2_bi_2x250bp_default.0.460percent_185.final.contigs
#Contigs	608	517
#Contigs (>= 0 bp)	608	517
#Contigs (>= 1000 bp)	505	439
Largest contig	38725	41944
Total length	2837061	2843424
Total length (>= 0 bp)	2837061	2843424
Total length (>= 1000 bp)	2769310	2793293
Reference length	2813862	2813862
N50	7957	9931
NG50	8057	9955
N75	4184	5048
NG75	4364	5150
L50	102	81
LG50	100	80
L75	223	180
LG75	219	175
#local misassemblies	0	24
#misassemblies	4	5
#misassembled contigs	4	5
Misassembled contigs length	44872	50166
Misassemblies inter-contig overlap	2228	2228
#unaligned contigs	1 + 0 part	1 + 1 part
Unaligned contigs length	5400	7020
#ambiguously mapped contigs	29	28
Extra bases in ambiguously mapped contigs	-13460	-13140
#N's	0	6363
#N's per 100 kbp	0.00	223.78
Genome fraction (%)	98.025	98.021
Duplication ratio	1.023	1.024
#genes	2364 + 349 part	2414 + 299 part
#predicted genes (unique)	2993	2982
#predicted genes (>= 0 bp)	3000	2989
#predicted genes (>= 300 bp)	2433	2432
#predicted genes (>= 1500 bp)	264	263
#predicted genes (>= 3000 bp)	19	20
#mismatches	84	84
#indels	10	1194
Indels length	34	3015
#mismatches per 100 kbp	3.05	3.05
#indels per 100 kbp	0.36	43.29
GC (%)	32.75	32.75
Reference GC (%)	32.81	32.81
Average %IDY	99.347	99.260
Largest alignment	38725	41944
NA50	7957	9678
NGA50	7981	9776
NA75	4155	4984
NGA75	4267	5100
LA50	103	82
LGA50	102	81
LA75	225	182
LGA75	220	178
#Mis_misassemblies	4	5
#Mis_relocations	4	5
#Mis_translocations	0	0
#Mis_inversions	0	0
#Mis_misassembled contigs	4	5
Mis_Misassembled contigs length	44872	50166
#Mis_local misassemblies	0	24
#Mis_short indels (<= 5 bp)	9	1153
#Mis_long indels (> 5 bp)	1	41
#Una_fully unaligned contigs	1	1
Una_Fully unaligned length	5400	5400
#Una_partially unaligned contigs	0	1
#Una_with misassembly	0	0
#Una_both parts are significant	0	1
Una_Partially unaligned length	0	1620
GAGE_Contigs #	608	517
GAGE_Min contig	255	369
GAGE_Max contig	38725	41944
GAGE_N50	8057 COUNT: 100	9955 COUNT: 80
GAGE_Genome size	2813862	2813862
GAGE_Assembly size	2837061	2843424
GAGE_Chaff bases	0	0
GAGE_Missing reference bases	24622(0.88%)	24571(0.87%)
GAGE_Missing assembly bases	5446(0.19%)	11737(0.41%)
GAGE_Missing assembly contigs	1(0.16%)	1(0.19%)
GAGE_Duplicated reference bases	3500	3695
GAGE_Compressed reference bases	37669	37669
GAGE_Bad trim	46	56
GAGE_Avg idy	100.00	99.99
GAGE_SNPs	35	35
GAGE_Indels < 5bp	6	11
GAGE_Indels >= 5	0	85
GAGE_Inversions	2	3
GAGE_Relocation	2	3
GAGE_Translocation	0	0
GAGE_Corrected contig #	603	601
GAGE_Corrected assembly size	2829624	2829772
GAGE_Min correct contig	320	320
GAGE_Max correct contig	38725	38725
GAGE_Corrected N50	7981 COUNT: 101	7981 COUNT: 101
