All statistics are based on contigs of size >= 200 bp, unless otherwise noted (e.g., "# contigs (>= 0 bp)" and "Total length (>= 0 bp)" include all contigs).

Assembly                                   VELVET_MIS_PE_sakai_mis-both_bi_2x250bp_SI_default.0.64percent_151.final.contigs_broken  VELVET_MIS_PE_sakai_mis-both_bi_2x250bp_SI_default.0.64percent_151.final.contigs
#Contigs                                   503                                                                                      402                                                                             
#Contigs (>= 0 bp)                         504                                                                                      402                                                                             
#Contigs (>= 1000 bp)                      283                                                                                      204                                                                             
Largest contig                             150463                                                                                   206683                                                                          
Total length                               5456056                                                                                  5468123                                                                         
Total length (>= 0 bp)                     5456149                                                                                  5468123                                                                         
Total length (>= 1000 bp)                  5351845                                                                                  5376963                                                                         
Reference length                           5594470                                                                                  5594470                                                                         
N50                                        36677                                                                                    65008                                                                           
NG50                                       35836                                                                                    64038                                                                           
N75                                        20117                                                                                    32928                                                                           
NG75                                       18825                                                                                    31593                                                                           
L50                                        41                                                                                       25                                                                              
LG50                                       43                                                                                       26                                                                              
L75                                        90                                                                                       55                                                                              
LG75                                       95                                                                                       58                                                                              
#local misassemblies                       2                                                                                        87                                                                              
#misassemblies                             7                                                                                        15                                                                              
#misassembled contigs                      6                                                                                        12                                                                              
Misassembled contigs length                158650                                                                                   518787                                                                          
Misassemblies inter-contig overlap         3503                                                                                     2206                                                                            
#unaligned contigs                         1 + 0 part                                                                               1 + 0 part                                                                      
Unaligned contigs length                   5536                                                                                     5536                                                                            
#ambiguously mapped contigs                182                                                                                      175                                                                             
Extra bases in ambiguously mapped contigs  -108307                                                                                  -104385                                                                         
#N's                                       0                                                                                        11974                                                                           
#N's per 100 kbp                           0.00                                                                                     218.98                                                                          
Genome fraction (%)                        95.427                                                                                   95.499                                                                          
Duplication ratio                          1.001                                                                                    1.003                                                                           
#genes                                     4965 + 299 part                                                                          4971 + 297 part                                                                 
#predicted genes (unique)                  5552                                                                                     5533                                                                            
#predicted genes (>= 0 bp)                 5570                                                                                     5552                                                                            
#predicted genes (>= 300 bp)               4618                                                                                     4611                                                                            
#predicted genes (>= 1500 bp)              651                                                                                      653                                                                             
#predicted genes (>= 3000 bp)              61                                                                                       61                                                                              
#mismatches                                164                                                                                      168                                                                             
#indels                                    35                                                                                       236                                                                             
Indels length                              35                                                                                       496                                                                             
#mismatches per 100 kbp                    3.07                                                                                     3.14                                                                            
#indels per 100 kbp                        0.66                                                                                     4.42                                                                            
GC (%)                                     50.35                                                                                    50.35                                                                           
Reference GC (%)                           50.48                                                                                    50.48                                                                           
Average %IDY                               98.793                                                                                   98.797                                                                          
Largest alignment                          150463                                                                                   165434                                                                          
NA50                                       35836                                                                                    64038                                                                           
NGA50                                      34659                                                                                    63676                                                                           
NA75                                       20051                                                                                    31593                                                                           
NGA75                                      17960                                                                                    31083                                                                           
LA50                                       42                                                                                       26                                                                              
LGA50                                      44                                                                                       27                                                                              
LA75                                       91                                                                                       58                                                                              
LGA75                                      97                                                                                       61                                                                              
#Mis_misassemblies                         7                                                                                        15                                                                              
#Mis_relocations                           7                                                                                        15                                                                              
#Mis_translocations                        0                                                                                        0                                                                               
#Mis_inversions                            0                                                                                        0                                                                               
#Mis_misassembled contigs                  6                                                                                        12                                                                              
Mis_Misassembled contigs length            158650                                                                                   518787                                                                          
#Mis_local misassemblies                   2                                                                                        87                                                                              
#Mis_short indels (<= 5 bp)                35                                                                                       231                                                                             
#Mis_long indels (> 5 bp)                  0                                                                                        5                                                                               
#Una_fully unaligned contigs               1                                                                                        1                                                                               
Una_Fully unaligned length                 5536                                                                                     5536                                                                            
#Una_partially unaligned contigs           0                                                                                        0                                                                               
#Una_with misassembly                      0                                                                                        0                                                                               
#Una_both parts are significant            0                                                                                        0                                                                               
Una_Partially unaligned length             0                                                                                        0                                                                               
GAGE_Contigs #                             503                                                                                      402                                                                             
GAGE_Min contig                            207                                                                                      301                                                                             
GAGE_Max contig                            150463                                                                                   206683                                                                          
GAGE_N50                                   35836 COUNT: 43                                                                          64038 COUNT: 26                                                                 
GAGE_Genome size                           5594470                                                                                  5594470                                                                         
GAGE_Assembly size                         5456056                                                                                  5468123                                                                         
GAGE_Chaff bases                           0                                                                                        0                                                                               
GAGE_Missing reference bases               10436(0.19%)                                                                             10462(0.19%)                                                                    
GAGE_Missing assembly bases                5663(0.10%)                                                                              17627(0.32%)                                                                    
GAGE_Missing assembly contigs              1(0.20%)                                                                                 1(0.25%)                                                                        
GAGE_Duplicated reference bases            8706                                                                                     8601                                                                            
GAGE_Compressed reference bases            238130                                                                                   236297                                                                          
GAGE_Bad trim                              127                                                                                      88                                                                              
GAGE_Avg idy                               99.99                                                                                    99.99                                                                           
GAGE_SNPs                                  111                                                                                      112                                                                             
GAGE_Indels < 5bp                          17                                                                                       14                                                                              
GAGE_Indels >= 5                           2                                                                                        83                                                                              
GAGE_Inversions                            2                                                                                        6                                                                               
GAGE_Relocation                            3                                                                                        12                                                                              
GAGE_Translocation                         0                                                                                        0                                                                               
GAGE_Corrected contig #                    491                                                                                      490                                                                             
GAGE_Corrected assembly size               5444079                                                                                  5444773                                                                         
GAGE_Min correct contig                    285                                                                                      285                                                                             
GAGE_Max correct contig                    150463                                                                                   150463                                                                          
GAGE_Corrected N50                         34659 COUNT: 45                                                                          34659 COUNT: 45                                                                 
