All statistics are based on contigs of size >= 200 bp, unless otherwise noted (e.g., "# contigs (>= 0 bp)" and "Total length (>= 0 bp)" include all contigs).

Assembly                                                                                 #Contigs  #Contigs (>= 0 bp)  #Contigs (>= 1000 bp)  Largest contig  Total length  Total length (>= 0 bp)  Total length (>= 1000 bp)  Reference length  N50    NG50   N75    NG75   L50  LG50  L75  LG75  #local misassemblies  #misassemblies  #misassembled contigs  Misassembled contigs length  Misassemblies inter-contig overlap  #unaligned contigs  Unaligned contigs length  #ambiguously mapped contigs  Extra bases in ambiguously mapped contigs  #N's   #N's per 100 kbp  Genome fraction (%)  Duplication ratio  #genes           #predicted genes (unique)  #predicted genes (>= 0 bp)  #predicted genes (>= 300 bp)  #predicted genes (>= 1500 bp)  #predicted genes (>= 3000 bp)  #mismatches  #indels  Indels length  #mismatches per 100 kbp  #indels per 100 kbp  GC (%)  Reference GC (%)  Average %IDY  Largest alignment  NA50   NGA50  NA75   NGA75  LA50  LGA50  LA75  LGA75  #Mis_misassemblies  #Mis_relocations  #Mis_translocations  #Mis_inversions  #Mis_misassembled contigs  Mis_Misassembled contigs length  #Mis_local misassemblies  #Mis_short indels (<= 5 bp)  #Mis_long indels (> 5 bp)  #Una_fully unaligned contigs  Una_Fully unaligned length  #Una_partially unaligned contigs  #Una_with misassembly  #Una_both parts are significant  Una_Partially unaligned length  GAGE_Contigs #  GAGE_Min contig  GAGE_Max contig  GAGE_N50         GAGE_Genome size  GAGE_Assembly size  GAGE_Chaff bases  GAGE_Missing reference bases  GAGE_Missing assembly bases  GAGE_Missing assembly contigs  GAGE_Duplicated reference bases  GAGE_Compressed reference bases  GAGE_Bad trim  GAGE_Avg idy  GAGE_SNPs  GAGE_Indels < 5bp  GAGE_Indels >= 5  GAGE_Inversions  GAGE_Relocation  GAGE_Translocation  GAGE_Corrected contig #  GAGE_Corrected assembly size  GAGE_Min correct contig  GAGE_Max correct contig  GAGE_Corrected N50
VELVET_MIS_PE_sakai_mis-both_bi_2x250bp_SI_default.0.64percent_151.final.contigs_broken  503       504                 283                    150463          5456056       5456149                 5351845                    5594470           36677  35836  20117  18825  41   43    90   95    2                     7               6                      158650                       3503                                1 + 0 part          5536                      182                          -108307                                    0      0.00              95.427               1.001              4965 + 299 part  5552                       5570                        4618                          651                            61                             164          35       35             3.07                     0.66                 50.35   50.48             98.793        150463             35836  34659  20051  17960  42    44     91    97     7                   7                 0                    0                6                          158650                           2                         35                           0                          1                             5536                        0                                 0                      0                                0                               503             207              150463           35836 COUNT: 43  5594470           5456056             0                 10436(0.19%)                  5663(0.10%)                  1(0.20%)                       8706                             238130                           127            99.99         111        17                 2                 2                3                0                   491                      5444079                       285                      150463                   34659 COUNT: 45   
VELVET_MIS_PE_sakai_mis-both_bi_2x250bp_SI_default.0.64percent_151.final.contigs         402       402                 204                    206683          5468123       5468123                 5376963                    5594470           65008  64038  32928  31593  25   26    55   58    87                    15              12                     518787                       2206                                1 + 0 part          5536                      175                          -104385                                    11974  218.98            95.499               1.003              4971 + 297 part  5533                       5552                        4611                          653                            61                             168          236      496            3.14                     4.42                 50.35   50.48             98.797        165434             64038  63676  31593  31083  26    27     58    61     15                  15                0                    0                12                         518787                           87                        231                          5                          1                             5536                        0                                 0                      0                                0                               402             301              206683           64038 COUNT: 26  5594470           5468123             0                 10462(0.19%)                  17627(0.32%)                 1(0.25%)                       8601                             236297                           88             99.99         112        14                 83                6                12               0                   490                      5444773                       285                      150463                   34659 COUNT: 45   
