All statistics are based on contigs of size >= 200 bp, unless otherwise noted (e.g., "# contigs (>= 0 bp)" and "Total length (>= 0 bp)" include all contigs).

Assembly                                   ABYSS_PE_MIS_PE_mrsa_mis-1_bi_2x250bp_default__mrsa_mis-2_bi_2x250bp_default.0.460percent_122-scaffolds_broken  ABYSS_PE_MIS_PE_mrsa_mis-1_bi_2x250bp_default__mrsa_mis-2_bi_2x250bp_default.0.460percent_122-scaffolds
#Contigs                                   126                                                                                                             121                                                                                                    
#Contigs (>= 0 bp)                         173                                                                                                             168                                                                                                    
#Contigs (>= 1000 bp)                      60                                                                                                              58                                                                                                     
Largest contig                             367619                                                                                                          367619                                                                                                 
Total length                               2813022                                                                                                         2813272                                                                                                
Total length (>= 0 bp)                     2820162                                                                                                         2820412                                                                                                
Total length (>= 1000 bp)                  2789501                                                                                                         2791857                                                                                                
Reference length                           2813862                                                                                                         2813862                                                                                                
N50                                        112238                                                                                                          112238                                                                                                 
NG50                                       112238                                                                                                          112238                                                                                                 
N75                                        47046                                                                                                           47046                                                                                                  
NG75                                       47046                                                                                                           47046                                                                                                  
L50                                        8                                                                                                               8                                                                                                      
LG50                                       8                                                                                                               8                                                                                                      
L75                                        18                                                                                                              18                                                                                                     
LG75                                       18                                                                                                              18                                                                                                     
#local misassemblies                       0                                                                                                               1                                                                                                      
#misassemblies                             5                                                                                                               6                                                                                                      
#misassembled contigs                      5                                                                                                               5                                                                                                      
Misassembled contigs length                229885                                                                                                          234827                                                                                                 
Misassemblies inter-contig overlap         1749                                                                                                            1749                                                                                                   
#unaligned contigs                         0 + 0 part                                                                                                      0 + 0 part                                                                                             
Unaligned contigs length                   0                                                                                                               0                                                                                                      
#ambiguously mapped contigs                19                                                                                                              17                                                                                                     
Extra bases in ambiguously mapped contigs  -13419                                                                                                          -11298                                                                                                 
#N's                                       0                                                                                                               250                                                                                                    
#N's per 100 kbp                           0.00                                                                                                            8.89                                                                                                   
Genome fraction (%)                        99.174                                                                                                          99.209                                                                                                 
Duplication ratio                          1.004                                                                                                           1.004                                                                                                  
#genes                                     2683 + 36 part                                                                                                  2683 + 37 part                                                                                         
#predicted genes (unique)                  2684                                                                                                            2685                                                                                                   
#predicted genes (>= 0 bp)                 2686                                                                                                            2687                                                                                                   
#predicted genes (>= 300 bp)               2292                                                                                                            2292                                                                                                   
#predicted genes (>= 1500 bp)              298                                                                                                             298                                                                                                    
#predicted genes (>= 3000 bp)              30                                                                                                              30                                                                                                     
#mismatches                                63                                                                                                              64                                                                                                     
#indels                                    9                                                                                                               9                                                                                                      
Indels length                              9                                                                                                               9                                                                                                      
#mismatches per 100 kbp                    2.26                                                                                                            2.29                                                                                                   
#indels per 100 kbp                        0.32                                                                                                            0.32                                                                                                   
GC (%)                                     32.77                                                                                                           32.77                                                                                                  
Reference GC (%)                           32.81                                                                                                           32.81                                                                                                  
Average %IDY                               98.766                                                                                                          98.761                                                                                                 
Largest alignment                          367619                                                                                                          367619                                                                                                 
NA50                                       112238                                                                                                          112238                                                                                                 
NGA50                                      112238                                                                                                          112238                                                                                                 
NA75                                       47046                                                                                                           47046                                                                                                  
NGA75                                      47046                                                                                                           47046                                                                                                  
LA50                                       8                                                                                                               8                                                                                                      
LGA50                                      8                                                                                                               8                                                                                                      
LA75                                       18                                                                                                              18                                                                                                     
LGA75                                      18                                                                                                              18                                                                                                     
#Mis_misassemblies                         5                                                                                                               6                                                                                                      
#Mis_relocations                           5                                                                                                               6                                                                                                      
#Mis_translocations                        0                                                                                                               0                                                                                                      
#Mis_inversions                            0                                                                                                               0                                                                                                      
#Mis_misassembled contigs                  5                                                                                                               5                                                                                                      
Mis_Misassembled contigs length            229885                                                                                                          234827                                                                                                 
#Mis_local misassemblies                   0                                                                                                               1                                                                                                      
#Mis_short indels (<= 5 bp)                9                                                                                                               9                                                                                                      
#Mis_long indels (> 5 bp)                  0                                                                                                               0                                                                                                      
#Una_fully unaligned contigs               0                                                                                                               0                                                                                                      
Una_Fully unaligned length                 0                                                                                                               0                                                                                                      
#Una_partially unaligned contigs           0                                                                                                               0                                                                                                      
#Una_with misassembly                      0                                                                                                               0                                                                                                      
#Una_both parts are significant            0                                                                                                               0                                                                                                      
Una_Partially unaligned length             0                                                                                                               0                                                                                                      
GAGE_Contigs #                             126                                                                                                             121                                                                                                    
GAGE_Min contig                            209                                                                                                             209                                                                                                    
GAGE_Max contig                            367619                                                                                                          367619                                                                                                 
GAGE_N50                                   112238 COUNT: 8                                                                                                 112238 COUNT: 8                                                                                        
GAGE_Genome size                           2813862                                                                                                         2813862                                                                                                
GAGE_Assembly size                         2813022                                                                                                         2813272                                                                                                
GAGE_Chaff bases                           0                                                                                                               0                                                                                                      
GAGE_Missing reference bases               362(0.01%)                                                                                                      362(0.01%)                                                                                             
GAGE_Missing assembly bases                0(0.00%)                                                                                                        250(0.01%)                                                                                             
GAGE_Missing assembly contigs              0(0.00%)                                                                                                        0(0.00%)                                                                                               
GAGE_Duplicated reference bases            12685                                                                                                           13421                                                                                                  
GAGE_Compressed reference bases            24330                                                                                                           24901                                                                                                  
GAGE_Bad trim                              0                                                                                                               50                                                                                                     
GAGE_Avg idy                               99.99                                                                                                           99.99                                                                                                  
GAGE_SNPs                                  39                                                                                                              39                                                                                                     
GAGE_Indels < 5bp                          9                                                                                                               9                                                                                                      
GAGE_Indels >= 5                           0                                                                                                               1                                                                                                      
GAGE_Inversions                            1                                                                                                               1                                                                                                      
GAGE_Relocation                            2                                                                                                               2                                                                                                      
GAGE_Translocation                         0                                                                                                               0                                                                                                      
GAGE_Corrected contig #                    101                                                                                                             100                                                                                                    
GAGE_Corrected assembly size               2802091                                                                                                         2801520                                                                                                
GAGE_Min correct contig                    209                                                                                                             209                                                                                                    
GAGE_Max correct contig                    367618                                                                                                          367618                                                                                                 
GAGE_Corrected N50                         112238 COUNT: 8                                                                                                 112238 COUNT: 8                                                                                        
