Assembly	ABYSS_PE_PGM_sakai_pgm_mu_200bp_IO_TS3.0Disabled_stringent.81coverage_124.final
#Contigs (>= 0 bp)	5356
#Contigs (>= 1000 bp)	876
Total length (>= 0 bp)	6160435
Total length (>= 1000 bp)	5080440
#Contigs	3901
Largest contig	39950
Total length	5933726
Reference length	5594470
GC (%)	50.53
Reference GC (%)	50.48
N50	7349
NG50	7802
N75	3148
NG75	3889
#misassemblies	4
#local misassemblies	1
#unaligned contigs	0 + 3 part
Unaligned contigs length	152
Genome fraction (%)	94.742
Duplication ratio	1.082
#N's per 100 kbp	0.00
#mismatches per 100 kbp	0.87
#indels per 100 kbp	31.62
#genes	4240 + 954 part
#predicted genes (unique)	9103
#predicted genes (>= 0 bp)	9187
#predicted genes (>= 300 bp)	5004
#predicted genes (>= 1500 bp)	440
#predicted genes (>= 3000 bp)	31
Largest alignment	39950
NA50	7349
NGA50	7802
NA75	3148
NGA75	3889
