Assembly	ABYSS_PE_PGM_sakai_pgm_mu_200bp_IO_TS3.0Disabled_stringent.0.35percent_60.final
#Contigs (>= 0 bp)	5839
#Contigs (>= 1000 bp)	726
Total length (>= 0 bp)	5738123
Total length (>= 1000 bp)	5045054
#Contigs	1232
Largest contig	45879
Total length	5256045
Reference length	5594470
GC (%)	50.22
Reference GC (%)	50.48
N50	10644
NG50	10072
N75	5231
NG75	4322
#misassemblies	2
#local misassemblies	5
#unaligned contigs	0 + 1 part
Unaligned contigs length	47
Genome fraction (%)	92.767
Duplication ratio	1.001
#N's per 100 kbp	0.00
#mismatches per 100 kbp	1.64
#indels per 100 kbp	24.09
#genes	4306 + 712 part
#predicted genes (unique)	6295
#predicted genes (>= 0 bp)	6295
#predicted genes (>= 300 bp)	4810
#predicted genes (>= 1500 bp)	501
#predicted genes (>= 3000 bp)	32
Largest alignment	45879
NA50	10578
NGA50	10020
NA75	5231
NGA75	4322
