Assembly	GAGE_Contigs #	GAGE_Min contig	GAGE_Max contig	GAGE_N50	GAGE_Genome size	GAGE_Assembly size	GAGE_Chaff bases	GAGE_Missing reference bases	GAGE_Missing assembly bases	GAGE_Missing assembly contigs	GAGE_Duplicated reference bases	GAGE_Compressed reference bases	GAGE_Bad trim	GAGE_Avg idy	GAGE_SNPs	GAGE_Indels < 5bp	GAGE_Indels >= 5	GAGE_Inversions	GAGE_Relocation	GAGE_Translocation	GAGE_Corrected contig #	GAGE_Corrected assembly size	GAGE_Min correct contig	GAGE_Max correct contig	GAGE_Corrected N50
SOAP2_MIS_PE_mrsa_mis-1_bi_2x150bp_default.0.527percent_49.final.scaf_broken	579	200	37529	8721 COUNT: 96	2813862	2728697	0	80266(2.85%)	5870(0.22%)	1(0.17%)	0	13579	175	100.00	48	47	28	0	2	0	600	2721778	202	37529	8565 COUNT: 100
SOAP2_MIS_PE_mrsa_mis-1_bi_2x150bp_default.0.527percent_49.final.scaf	97	213	241010	80420 COUNT: 11	2813862	2774166	0	58515(2.08%)	33859(1.22%)	1(1.03%)	953	20480	1146	99.94	53	173	573	0	13	0	570	2723912	202	37529	8701 COUNT: 96
