Assembly	VELVET_PGM_mtbh37_pgm_400bp_es_318v2_OT2_tsv3.6_morestringent_117.final.contigs
#Una_fully unaligned contigs	14
Una_Fully unaligned length	3596
#Una_partially unaligned contigs	7
#Una_with misassembly	0
#Una_both parts are significant	0
Una_Partially unaligned length	714
#N's	0
