All statistics are based on contigs of size >= 200 bp, unless otherwise noted (e.g., "# contigs (>= 0 bp)" and "Total length (>= 0 bp)" include all contigs).

Assembly                                   VELVET_MIS_PE_sakai_mis-both_bi_2x250bp_SI_default.0.64percent_105.final.contigs_broken  VELVET_MIS_PE_sakai_mis-both_bi_2x250bp_SI_default.0.64percent_105.final.contigs
#Contigs                                   904                                                                                      623                                                                             
#Contigs (>= 0 bp)                         911                                                                                      623                                                                             
#Contigs (>= 1000 bp)                      509                                                                                      275                                                                             
Largest contig                             69882                                                                                    122214                                                                          
Total length                               5409738                                                                                  5439249                                                                         
Total length (>= 0 bp)                     5410693                                                                                  5439249                                                                         
Total length (>= 1000 bp)                  5256963                                                                                  5312400                                                                         
Reference length                           5594470                                                                                  5594470                                                                         
N50                                        16580                                                                                    37339                                                                           
NG50                                       15964                                                                                    36662                                                                           
N75                                        9512                                                                                     20839                                                                           
NG75                                       8579                                                                                     18013                                                                           
L50                                        103                                                                                      46                                                                              
LG50                                       109                                                                                      48                                                                              
L75                                        211                                                                                      93                                                                              
LG75                                       226                                                                                      99                                                                              
#local misassemblies                       3                                                                                        219                                                                             
#misassemblies                             5                                                                                        18                                                                              
#misassembled contigs                      5                                                                                        15                                                                              
Misassembled contigs length                73195                                                                                    222652                                                                          
Misassemblies inter-contig overlap         1621                                                                                     4857                                                                            
#unaligned contigs                         1 + 0 part                                                                               1 + 0 part                                                                      
Unaligned contigs length                   5180                                                                                     5180                                                                            
#ambiguously mapped contigs                280                                                                                      272                                                                             
Extra bases in ambiguously mapped contigs  -118513                                                                                  -114063                                                                         
#N's                                       0                                                                                        28556                                                                           
#N's per 100 kbp                           0.00                                                                                     525.00                                                                          
Genome fraction (%)                        94.391                                                                                   94.516                                                                          
Duplication ratio                          1.001                                                                                    1.007                                                                           
#genes                                     4687 + 514 part                                                                          4740 + 468 part                                                                 
#predicted genes (unique)                  5790                                                                                     5747                                                                            
#predicted genes (>= 0 bp)                 5805                                                                                     5761                                                                            
#predicted genes (>= 300 bp)               4617                                                                                     4613                                                                            
#predicted genes (>= 1500 bp)              627                                                                                      632                                                                             
#predicted genes (>= 3000 bp)              56                                                                                       56                                                                              
#mismatches                                155                                                                                      205                                                                             
#indels                                    16                                                                                       1002                                                                            
Indels length                              18                                                                                       2165                                                                            
#mismatches per 100 kbp                    2.94                                                                                     3.88                                                                            
#indels per 100 kbp                        0.30                                                                                     18.95                                                                           
GC (%)                                     50.33                                                                                    50.33                                                                           
Reference GC (%)                           50.48                                                                                    50.48                                                                           
Average %IDY                               98.994                                                                                   98.975                                                                          
Largest alignment                          69882                                                                                    121642                                                                          
NA50                                       16355                                                                                    36662                                                                           
NGA50                                      15894                                                                                    35719                                                                           
NA75                                       9396                                                                                     18931                                                                           
NGA75                                      8430                                                                                     16859                                                                           
LA50                                       104                                                                                      46                                                                              
LGA50                                      109                                                                                      49                                                                              
LA75                                       213                                                                                      96                                                                              
LGA75                                      228                                                                                      102                                                                             
#Mis_misassemblies                         5                                                                                        18                                                                              
#Mis_relocations                           5                                                                                        18                                                                              
#Mis_translocations                        0                                                                                        0                                                                               
#Mis_inversions                            0                                                                                        0                                                                               
#Mis_misassembled contigs                  5                                                                                        15                                                                              
Mis_Misassembled contigs length            73195                                                                                    222652                                                                          
#Mis_local misassemblies                   3                                                                                        219                                                                             
#Mis_short indels (<= 5 bp)                16                                                                                       969                                                                             
#Mis_long indels (> 5 bp)                  0                                                                                        33                                                                              
#Una_fully unaligned contigs               1                                                                                        1                                                                               
Una_Fully unaligned length                 5180                                                                                     5180                                                                            
#Una_partially unaligned contigs           0                                                                                        0                                                                               
#Una_with misassembly                      0                                                                                        0                                                                               
#Una_both parts are significant            0                                                                                        0                                                                               
Una_Partially unaligned length             0                                                                                        0                                                                               
GAGE_Contigs #                             904                                                                                      623                                                                             
GAGE_Min contig                            201                                                                                      209                                                                             
GAGE_Max contig                            69882                                                                                    122214                                                                          
GAGE_N50                                   15964 COUNT: 109                                                                         36662 COUNT: 48                                                                 
GAGE_Genome size                           5594470                                                                                  5594470                                                                         
GAGE_Assembly size                         5409738                                                                                  5439249                                                                         
GAGE_Chaff bases                           0                                                                                        0                                                                               
GAGE_Missing reference bases               44644(0.80%)                                                                             44156(0.79%)                                                                    
GAGE_Missing assembly bases                5199(0.10%)                                                                              33560(0.62%)                                                                    
GAGE_Missing assembly contigs              1(0.11%)                                                                                 1(0.16%)                                                                        
GAGE_Duplicated reference bases            11735                                                                                    11843                                                                           
GAGE_Compressed reference bases            253138                                                                                   252883                                                                          
GAGE_Bad trim                              19                                                                                       285                                                                             
GAGE_Avg idy                               100.00                                                                                   99.99                                                                           
GAGE_SNPs                                  93                                                                                       93                                                                              
GAGE_Indels < 5bp                          14                                                                                       29                                                                              
GAGE_Indels >= 5                           3                                                                                        247                                                                             
GAGE_Inversions                            0                                                                                        6                                                                               
GAGE_Relocation                            4                                                                                        14                                                                              
GAGE_Translocation                         0                                                                                        0                                                                               
GAGE_Corrected contig #                    872                                                                                      870                                                                             
GAGE_Corrected assembly size               5394726                                                                                  5395672                                                                         
GAGE_Min correct contig                    201                                                                                      201                                                                             
GAGE_Max correct contig                    69882                                                                                    69882                                                                           
GAGE_Corrected N50                         15465 COUNT: 110                                                                         15964 COUNT: 107                                                                
