Assembly	GAGE_Contigs #	GAGE_Min contig	GAGE_Max contig	GAGE_N50	GAGE_Genome size	GAGE_Assembly size	GAGE_Chaff bases	GAGE_Missing reference bases	GAGE_Missing assembly bases	GAGE_Missing assembly contigs	GAGE_Duplicated reference bases	GAGE_Compressed reference bases	GAGE_Bad trim	GAGE_Avg idy	GAGE_SNPs	GAGE_Indels < 5bp	GAGE_Indels >= 5	GAGE_Inversions	GAGE_Relocation	GAGE_Translocation	GAGE_Corrected contig #	GAGE_Corrected assembly size	GAGE_Min correct contig	GAGE_Max correct contig	GAGE_Corrected N50
VELVET_MIS_PE_sakai_mis-both_bi_2x250bp_SI_default.0.64percent_105.final.contigs_broken	904	201	69882	15964 COUNT: 109	5594470	5409738	0	44644(0.80%)	5199(0.10%)	1(0.11%)	11735	253138	19	100.00	93	14	3	0	4	0	872	5394726	201	69882	15465 COUNT: 110
VELVET_MIS_PE_sakai_mis-both_bi_2x250bp_SI_default.0.64percent_105.final.contigs	623	209	122214	36662 COUNT: 48	5594470	5439249	0	44156(0.79%)	33560(0.62%)	1(0.16%)	11843	252883	285	99.99	93	29	247	6	14	0	870	5395672	201	69882	15964 COUNT: 107
