Assembly	VELVET_MIS_PE_sakai_mis-both_bi_2x250bp_SI_default.0.64percent_105.final.contigs_broken	VELVET_MIS_PE_sakai_mis-both_bi_2x250bp_SI_default.0.64percent_105.final.contigs
GAGE_Contigs #	904	623
GAGE_Min contig	201	209
GAGE_Max contig	69882	122214
GAGE_N50	15964 COUNT: 109	36662 COUNT: 48
GAGE_Genome size	5594470	5594470
GAGE_Assembly size	5409738	5439249
GAGE_Chaff bases	0	0
GAGE_Missing reference bases	44644(0.80%)	44156(0.79%)
GAGE_Missing assembly bases	5199(0.10%)	33560(0.62%)
GAGE_Missing assembly contigs	1(0.11%)	1(0.16%)
GAGE_Duplicated reference bases	11735	11843
GAGE_Compressed reference bases	253138	252883
GAGE_Bad trim	19	285
GAGE_Avg idy	100.00	99.99
GAGE_SNPs	93	93
GAGE_Indels < 5bp	14	29
GAGE_Indels >= 5	3	247
GAGE_Inversions	0	6
GAGE_Relocation	4	14
GAGE_Translocation	0	0
GAGE_Corrected contig #	872	870
GAGE_Corrected assembly size	5394726	5395672
GAGE_Min correct contig	201	201
GAGE_Max correct contig	69882	69882
GAGE_Corrected N50	15465 COUNT: 110	15964 COUNT: 107
