All statistics are based on contigs of size >= 200 bp, unless otherwise noted (e.g., "# contigs (>= 0 bp)" and "Total length (>= 0 bp)" include all contigs).

Assembly                                                                                 #Contigs (>= 0 bp)  #Contigs (>= 1000 bp)  Total length (>= 0 bp)  Total length (>= 1000 bp)  #Contigs  Largest contig  Total length  Reference length  GC (%)  Reference GC (%)  N50    NG50   N75    NG75   #misassemblies  #local misassemblies  #unaligned contigs  Unaligned contigs length  Genome fraction (%)  Duplication ratio  #N's per 100 kbp  #mismatches per 100 kbp  #indels per 100 kbp  #genes           #predicted genes (unique)  #predicted genes (>= 0 bp)  #predicted genes (>= 300 bp)  #predicted genes (>= 1500 bp)  #predicted genes (>= 3000 bp)  Largest alignment  NA50   NGA50  NA75   NGA75
VELVET_MIS_PE_sakai_mis-both_bi_2x250bp_SI_default.0.64percent_105.final.contigs_broken  911                 509                    5410693                 5256963                    904       69882           5409738       5594470           50.33   50.48             16580  15964  9512   8579   5               3                     1 + 0 part          5180                      94.391               1.001              0.00              2.94                     0.30                 4687 + 514 part  5790                       5805                        4617                          627                            56                             69882              16355  15894  9396   8430 
VELVET_MIS_PE_sakai_mis-both_bi_2x250bp_SI_default.0.64percent_105.final.contigs         623                 275                    5439249                 5312400                    623       122214          5439249       5594470           50.33   50.48             37339  36662  20839  18013  18              219                   1 + 0 part          5180                      94.516               1.007              525.00            3.88                     18.95                4740 + 468 part  5747                       5761                        4613                          632                            56                             121642             36662  35719  18931  16859
