All statistics are based on contigs of size >= 200 bp, unless otherwise noted (e.g., "# contigs (>= 0 bp)" and "Total length (>= 0 bp)" include all contigs).

Assembly                         ABYSS_PE_MIS_PE_sakai_mis-1_bi_2x150bp_default__sakai_mis-2_bi_2x150bp_default.0.826percent_116-scaffolds_broken  ABYSS_PE_MIS_PE_sakai_mis-1_bi_2x150bp_default__sakai_mis-2_bi_2x150bp_default.0.826percent_116-scaffolds
#Mis_misassemblies               5                                                                                                                 18                                                                                                       
#Mis_relocations                 4                                                                                                                 17                                                                                                       
#Mis_translocations              1                                                                                                                 1                                                                                                        
#Mis_inversions                  0                                                                                                                 0                                                                                                        
#Mis_misassembled contigs        5                                                                                                                 17                                                                                                       
Mis_Misassembled contigs length  154285                                                                                                            319099                                                                                                   
#Mis_local misassemblies         4                                                                                                                 41                                                                                                       
#mismatches                      576                                                                                                               593                                                                                                      
#indels                          112                                                                                                               862                                                                                                      
#Mis_short indels (<= 5 bp)      97                                                                                                                823                                                                                                      
#Mis_long indels (> 5 bp)        15                                                                                                                39                                                                                                       
Indels length                    477                                                                                                               2042                                                                                                     
