calling: java -cp /vol/ngscomparison/software/analysis/quast-2.1/libs/gage:. SizeFasta /vol/codine-tmp/juene/tmp.WWrslgL2Qe/quast/corrected_input/Ecoli_Sakai_editedNew_plasmids.fasta |awk '{SUM+=; print SUM}'|tail -n 1
Contig Stats
Total units: 575
Reference: 5594470
BasesInFasta: 5383860
Min: 200
Max: 106647
N10: 78016 COUNT: 7
N25: 54235 COUNT: 19
N50: 31667 COUNT: 52
N75: 16309 COUNT: 110
E-size:38187.22

Genome Size: 5594470
Assembly Size: 5383860
Chaff bases: 0
Missing Reference Bases: 20904(0.37%)
Missing Assembly Bases: 5480(0.10%)
Missing Assembly Contigs: 1(0.17%)
Duplicated Reference Bases: 13766
Compressed Reference Bases: 263614
Bad Trim: 18
Avg Idy: 99.99
SNPs: 248
Indels < 5bp: 28
Indels >= 5: 5
Inversions: 2
Relocation: 9
Translocation: 0

Corrected Contig Stats
calling: java -cp /vol/ngscomparison/software/analysis/quast-2.1/libs/gage:.:. GetFastaStats -o -min 199 -genomeSize 5594470 /vol/codine-tmp/juene/tmp.WWrslgL2Qe/quast/gage/tmp/VELVET_MIS_PE_sakai_mis-both_bi_2x250bp_SI_default.0.64percent_77.final.contigs_broken.matches.lens 2> /dev/null
Total units: 543
Reference: 5594470
BasesInFasta: 5367630
Min: 200
Max: 106647
N10: 77065 COUNT: 7
N25: 52547 COUNT: 20
N50: 30703 COUNT: 55
N75: 15989 COUNT: 114
E-size:36511.95

Done
