1: PREPARING DATA
2,3: RUNNING mummer AND CREATING CLUSTERS
# reading input file "/vol/codine-tmp/juene/tmp.oCujDmqhwa/quast/gage/tmp/CLC_MIS_PE_sakai_mis-1_bi_2x250bp_SI_default__sakai_mis-2_bi_2x250bp_SI_default.16coverage.result_broken.ntref" of length 5594473
# construct suffix tree for sequence of length 5594473
# (maximum reference length is 536870908)
# (maximum query length is 4294967295)
# process 55944 characters per dot
#....................................................................................................
# CONSTRUCTIONTIME /vol/ngscomparison/software/analysis/quast-2.1/libs/MUMmer3.23-linux/mummer /vol/codine-tmp/juene/tmp.oCujDmqhwa/quast/gage/tmp/CLC_MIS_PE_sakai_mis-1_bi_2x250bp_SI_default__sakai_mis-2_bi_2x250bp_SI_default.16coverage.result_broken.ntref 3.01
# reading input file "/vol/codine-tmp/juene/tmp.oCujDmqhwa/quast/corrected_input/CLC_MIS_PE_sakai_mis-1_bi_2x250bp_SI_default__sakai_mis-2_bi_2x250bp_SI_default.16coverage.result_broken" of length 5383775
# matching query-file "/vol/codine-tmp/juene/tmp.oCujDmqhwa/quast/corrected_input/CLC_MIS_PE_sakai_mis-1_bi_2x250bp_SI_default__sakai_mis-2_bi_2x250bp_SI_default.16coverage.result_broken"
# against subject-file "/vol/codine-tmp/juene/tmp.oCujDmqhwa/quast/gage/tmp/CLC_MIS_PE_sakai_mis-1_bi_2x250bp_SI_default__sakai_mis-2_bi_2x250bp_SI_default.16coverage.result_broken.ntref"
# COMPLETETIME /vol/ngscomparison/software/analysis/quast-2.1/libs/MUMmer3.23-linux/mummer /vol/codine-tmp/juene/tmp.oCujDmqhwa/quast/gage/tmp/CLC_MIS_PE_sakai_mis-1_bi_2x250bp_SI_default__sakai_mis-2_bi_2x250bp_SI_default.16coverage.result_broken.ntref 13.37
# SPACE /vol/ngscomparison/software/analysis/quast-2.1/libs/MUMmer3.23-linux/mummer /vol/codine-tmp/juene/tmp.oCujDmqhwa/quast/gage/tmp/CLC_MIS_PE_sakai_mis-1_bi_2x250bp_SI_default__sakai_mis-2_bi_2x250bp_SI_default.16coverage.result_broken.ntref 10.65
4: FINISHING DATA
Filtering alignments
Extracting alignment coordinates
Analyzing SNPs
Extracting alignment breakpoints
Generating report file
Found genome size at position 4 with value 5594470 aka 5594470
Calculating point at 0 and the sum is 1070242 and i is438 and lens is 448 and length is 77279
Calculating point at 1 and the sum is 2015647 and i is421 and lens is 448 and length is 46147
Calculating point at 2 and the sum is 3009613 and i is395 and lens is 448 and length is 31002
Calculating point at 3 and the sum is 4007351 and i is353 and lens is 448 and length is 18333
Calculating point at 4 and the sum is 5000526 and i is265 and lens is 448 and length is 5861
