Assembly	ABYSS_PE_PGM_sakai_pgm_mu_318_400bp_IO_TS3.4_ms_0.395percent_112-unitigs
#Una_fully unaligned contigs	1
Una_Fully unaligned length	221
#Una_partially unaligned contigs	6
#Una_with misassembly	0
#Una_both parts are significant	0
Una_Partially unaligned length	301
#N's	0
