All statistics are based on contigs of size >= 200 bp, unless otherwise noted (e.g., "# contigs (>= 0 bp)" and "Total length (>= 0 bp)" include all contigs).

Assembly                         ABYSS_PE_MIS_PE_sakai_mis-1_bi_2x250bp_SI_default__sakai_mis-2_bi_2x250bp_SI_default.76coverage_96.final_broken  ABYSS_PE_MIS_PE_sakai_mis-1_bi_2x250bp_SI_default__sakai_mis-2_bi_2x250bp_SI_default.76coverage_96.final
#Mis_misassemblies               7                                                                                                                23                                                                                                      
#Mis_relocations                 7                                                                                                                23                                                                                                      
#Mis_translocations              0                                                                                                                0                                                                                                       
#Mis_inversions                  0                                                                                                                0                                                                                                       
#Mis_misassembled contigs        7                                                                                                                20                                                                                                      
Mis_Misassembled contigs length  346905                                                                                                           377474                                                                                                  
#Mis_local misassemblies         3                                                                                                                18                                                                                                      
#mismatches                      645                                                                                                              671                                                                                                     
#indels                          50                                                                                                               117                                                                                                     
#Mis_short indels (<= 5 bp)      40                                                                                                               101                                                                                                     
#Mis_long indels (> 5 bp)        10                                                                                                               16                                                                                                      
Indels length                    399                                                                                                              619                                                                                                     
