Assembly	#Contigs	#Contigs (>= 0 bp)	#Contigs (>= 1000 bp)	Largest contig	Total length	Total length (>= 0 bp)	Total length (>= 1000 bp)	Reference length	N50	NG50	N75	NG75	L50	LG50	L75	LG75	#local misassemblies	#misassemblies	#misassembled contigs	Misassembled contigs length	Misassemblies inter-contig overlap	#unaligned contigs	Unaligned contigs length	#ambiguously mapped contigs	Extra bases in ambiguously mapped contigs	#N's	#N's per 100 kbp	Genome fraction (%)	Duplication ratio	#genes	#predicted genes (unique)	#predicted genes (>= 0 bp)	#predicted genes (>= 300 bp)	#predicted genes (>= 1500 bp)	#predicted genes (>= 3000 bp)	#mismatches	#indels	Indels length	#mismatches per 100 kbp	#indels per 100 kbp	GC (%)	Reference GC (%)	Average %IDY	Largest alignment	NA50	NGA50	NA75	NGA75	LA50	LGA50	LA75	LGA75	#Mis_misassemblies	#Mis_relocations	#Mis_translocations	#Mis_inversions	#Mis_misassembled contigs	Mis_Misassembled contigs length	#Mis_local misassemblies	#Mis_short indels (<= 5 bp)	#Mis_long indels (> 5 bp)	#Una_fully unaligned contigs	Una_Fully unaligned length	#Una_partially unaligned contigs	#Una_with misassembly	#Una_both parts are significant	Una_Partially unaligned length	GAGE_Contigs #	GAGE_Min contig	GAGE_Max contig	GAGE_N50	GAGE_Genome size	GAGE_Assembly size	GAGE_Chaff bases	GAGE_Missing reference bases	GAGE_Missing assembly bases	GAGE_Missing assembly contigs	GAGE_Duplicated reference bases	GAGE_Compressed reference bases	GAGE_Bad trim	GAGE_Avg idy	GAGE_SNPs	GAGE_Indels < 5bp	GAGE_Indels >= 5	GAGE_Inversions	GAGE_Relocation	GAGE_Translocation	GAGE_Corrected contig #	GAGE_Corrected assembly size	GAGE_Min correct contig	GAGE_Max correct contig	GAGE_Corrected N50
ABYSS_PE_MIS_PE_mrsa_mis-1_bi_2x150bp_default__mrsa_mis-2_bi_2x150bp_default.0.527percent_78-scaffolds_broken	61	166	46	289009	2790893	2804465	2783542	2813862	139157	139157	61473	61473	8	8	15	15	4	3	3	265638	2076	0 + 0 part	0	3	-3653	10	0.36	98.798	1.003	2677 + 21 part	2635	2648	2290	301	29	131	16	78	4.71	0.58	32.67	32.81	98.599	289009	139157	139157	61473	61473	8	8	15	15	3	3	0	0	3	265638	4	13	3	0	0	0	0	0	0	61	224	289009	139157 COUNT: 8	2813862	2790893	0	2014(0.07%)	3(0.00%)	0(0.00%)	0	31984	0	99.99	58	11	7	1	2	0	70	2792581	224	289008	139157 COUNT: 8
ABYSS_PE_MIS_PE_mrsa_mis-1_bi_2x150bp_default__mrsa_mis-2_bi_2x150bp_default.0.527percent_78-scaffolds	43	148	36	572065	2792296	2805868	2789911	2813862	164908	164908	99958	99958	5	5	10	10	12	6	5	411180	5266	0 + 0 part	0	1	-475	1413	50.60	99.024	1.004	2684 + 21 part	2633	2645	2289	301	29	141	143	284	5.06	5.13	32.67	32.81	98.506	571965	150048	150048	75889	75889	5	5	11	11	6	6	0	0	5	411180	12	136	7	0	0	0	0	0	0	43	224	572065	164908 COUNT: 5	2813862	2792296	0	3225(0.11%)	1737(0.06%)	0(0.00%)	0	31132	0	99.99	60	11	18	3	5	0	68	2792089	224	289008	139157 COUNT: 8
