All statistics are based on contigs of size >= 200 bp, unless otherwise noted (e.g., "# contigs (>= 0 bp)" and "Total length (>= 0 bp)" include all contigs).

Assembly                       CLC_MIS_PE_mrsa_mis-1_bi_2x150bp_default__mrsa_mis-2_bi_2x150bp_default.21coverage.result_broken  CLC_MIS_PE_mrsa_mis-1_bi_2x150bp_default__mrsa_mis-2_bi_2x150bp_default.21coverage.result
#Contigs (>= 0 bp)             163                                                                                               155                                                                                      
#Contigs (>= 1000 bp)          103                                                                                               98                                                                                       
Total length (>= 0 bp)         2773139                                                                                           2773446                                                                                  
Total length (>= 1000 bp)      2746611                                                                                           2747914                                                                                  
#Contigs                       161                                                                                               155                                                                                      
Largest contig                 177262                                                                                            177262                                                                                   
Total length                   2772912                                                                                           2773446                                                                                  
Reference length               2813862                                                                                           2813862                                                                                  
GC (%)                         32.66                                                                                             32.66                                                                                    
Reference GC (%)               32.81                                                                                             32.81                                                                                    
N50                            49430                                                                                             54150                                                                                    
NG50                           49430                                                                                             51445                                                                                    
N75                            31370                                                                                             32772                                                                                    
NG75                           29731                                                                                             32161                                                                                    
#misassemblies                 6                                                                                                 6                                                                                        
#local misassemblies           3                                                                                                 8                                                                                        
#unaligned contigs             2 + 2 part                                                                                        2 + 2 part                                                                               
Unaligned contigs length       6632                                                                                              6632                                                                                     
Genome fraction (%)            97.969                                                                                            97.981                                                                                   
Duplication ratio              1.002                                                                                             1.001                                                                                    
#N's per 100 kbp               2.78                                                                                              13.85                                                                                    
#mismatches per 100 kbp        6.42                                                                                              6.42                                                                                     
#indels per 100 kbp            2.10                                                                                              2.18                                                                                     
#genes                         2611 + 77 part                                                                                    2612 + 77 part                                                                           
#predicted genes (unique)      2681                                                                                              2683                                                                                     
#predicted genes (>= 0 bp)     2681                                                                                              2683                                                                                     
#predicted genes (>= 300 bp)   2300                                                                                              2300                                                                                     
#predicted genes (>= 1500 bp)  290                                                                                               291                                                                                      
#predicted genes (>= 3000 bp)  27                                                                                                27                                                                                       
Largest alignment              177262                                                                                            177262                                                                                   
NA50                           49001                                                                                             51445                                                                                    
NGA50                          47091                                                                                             49430                                                                                    
NA75                           29731                                                                                             32161                                                                                    
NGA75                          29668                                                                                             31370                                                                                    
