Assembly	#Contigs (>= 0 bp)	#Contigs (>= 1000 bp)	Total length (>= 0 bp)	Total length (>= 1000 bp)	#Contigs	Largest contig	Total length	Reference length	GC (%)	Reference GC (%)	N50	NG50	N75	NG75	#misassemblies	#local misassemblies	#unaligned contigs	Unaligned contigs length	Genome fraction (%)	Duplication ratio	#N's per 100 kbp	#mismatches per 100 kbp	#indels per 100 kbp	#genes	#predicted genes (unique)	#predicted genes (>= 0 bp)	#predicted genes (>= 300 bp)	#predicted genes (>= 1500 bp)	#predicted genes (>= 3000 bp)	Largest alignment	NA50	NGA50	NA75	NGA75
SOAP2_MIS_PE_sakai_mis-1_bi_2x150bp_default.0.826percent_109.final.scaf_broken	1624	311	5532936	5226604	1008	101477	5444202	5594470	50.34	50.48	32432	31139	15633	14484	6	3	3 + 0 part	5823	94.481	1.001	2.83	1.29	0.89	4799 + 380 part	5854	5881	4519	642	61	101474	32432	31124	15633	14484
SOAP2_MIS_PE_sakai_mis-1_bi_2x150bp_default.0.826percent_109.final.scaf	1219	140	5550467	5319672	648	374805	5468691	5594470	50.35	50.48	124436	124436	67371	50674	30	91	12 + 4 part	16873	94.540	1.010	323.39	3.93	39.89	4955 + 205 part	5731	5756	4509	656	62	356033	124436	124436	67325	50543
