Assembly	SOAP2_MIS_PE_mrsa_mis-1_bi_2x150bp_default.0.527percent_29.final.scaf_broken	SOAP2_MIS_PE_mrsa_mis-1_bi_2x150bp_default.0.527percent_29.final.scaf
GAGE_Contigs #	2992	422
GAGE_Min contig	200	201
GAGE_Max contig	6995	67426
GAGE_N50	1045 COUNT: 773	23441 COUNT: 38
GAGE_Genome size	2813862	2813862
GAGE_Assembly size	2515784	2816255
GAGE_Chaff bases	0	0
GAGE_Missing reference bases	310602(11.04%)	218729(7.77%)
GAGE_Missing assembly bases	11427(0.45%)	220341(7.82%)
GAGE_Missing assembly contigs	32(1.07%)	32(7.58%)
GAGE_Duplicated reference bases	0	0
GAGE_Compressed reference bases	2541	3704
GAGE_Bad trim	1431	12541
GAGE_Avg idy	99.98	99.83
GAGE_SNPs	55	57
GAGE_Indels < 5bp	474	787
GAGE_Indels >= 5	168	3500
GAGE_Inversions	0	0
GAGE_Relocation	0	5
GAGE_Translocation	0	0
GAGE_Corrected contig #	3050	2907
GAGE_Corrected assembly size	2493621	2478775
GAGE_Min correct contig	200	200
GAGE_Max correct contig	5936	5936
GAGE_Corrected N50	1000 COUNT: 815	1043 COUNT: 785
