Assembly	GAGE_Contigs #	GAGE_Min contig	GAGE_Max contig	GAGE_N50	GAGE_Genome size	GAGE_Assembly size	GAGE_Chaff bases	GAGE_Missing reference bases	GAGE_Missing assembly bases	GAGE_Missing assembly contigs	GAGE_Duplicated reference bases	GAGE_Compressed reference bases	GAGE_Bad trim	GAGE_Avg idy	GAGE_SNPs	GAGE_Indels < 5bp	GAGE_Indels >= 5	GAGE_Inversions	GAGE_Relocation	GAGE_Translocation	GAGE_Corrected contig #	GAGE_Corrected assembly size	GAGE_Min correct contig	GAGE_Max correct contig	GAGE_Corrected N50
ABYSS_PE_MIS_PE_mrsa_mis-1_bi_2x150bp_default__mrsa_mis-2_bi_2x150bp_default.0.527percent_96-scaffolds_broken	66	200	239313	116773 COUNT: 8	2813862	2798974	0	793(0.03%)	4(0.00%)	0(0.00%)	1772	28876	0	99.99	52	14	6	0	2	0	71	2797974	200	224541	102426 COUNT: 9
ABYSS_PE_MIS_PE_mrsa_mis-1_bi_2x150bp_default__mrsa_mis-2_bi_2x150bp_default.0.527percent_96-scaffolds	50	200	305896	180556 COUNT: 6	2813862	2799876	0	793(0.03%)	906(0.03%)	0(0.00%)	1772	28876	0	99.99	52	14	20	2	2	0	71	2797974	200	224541	102426 COUNT: 9
