Assembly	VELVET_PGM_mrsa_pgm_400bp_es_318_IKA_ts3.2_morestringent.0.165percent_141.final.contigs
#Contigs	11999
#Contigs (>= 0 bp)	11999
#Contigs (>= 1000 bp)	2
Largest contig	1062
Total length	3866924
Total length (>= 0 bp)	3866924
Total length (>= 1000 bp)	2063
Reference length	2813862
N50	312
NG50	330
N75	289
NG75	307
L50	5358
LG50	3715
L75	8586
LG75	5931
#local misassemblies	1
#misassemblies	203
#misassembled contigs	203
Misassembled contigs length	69684
Misassemblies inter-contig overlap	171
#unaligned contigs	5 + 12 part
Unaligned contigs length	2508
#ambiguously mapped contigs	271
Extra bases in ambiguously mapped contigs	-84125
#N's	0
#N's per 100 kbp	0.00
Genome fraction (%)	67.338
Duplication ratio	1.995
#genes	173 + 2108 part
#predicted genes (unique)	14577
#predicted genes (>= 0 bp)	14710
#predicted genes (>= 300 bp)	495
#predicted genes (>= 1500 bp)	0
#predicted genes (>= 3000 bp)	0
#mismatches	1189
#indels	12953
Indels length	13258
#mismatches per 100 kbp	62.75
#indels per 100 kbp	683.61
GC (%)	33.23
Reference GC (%)	32.81
Average %IDY	99.082
Largest alignment	1062
NA50	309
NGA50	328
NA75	287
NGA75	304
LA50	5393
LGA50	3737
LA75	8645
LGA75	5970
#Mis_misassemblies	203
#Mis_relocations	178
#Mis_translocations	22
#Mis_inversions	3
#Mis_misassembled contigs	203
Mis_Misassembled contigs length	69684
#Mis_local misassemblies	1
#Mis_short indels (<= 5 bp)	12953
#Mis_long indels (> 5 bp)	0
#Una_fully unaligned contigs	5
Una_Fully unaligned length	1726
#Una_partially unaligned contigs	12
#Una_with misassembly	0
#Una_both parts are significant	0
Una_Partially unaligned length	782
GAGE_Contigs #	11999
GAGE_Min contig	281
GAGE_Max contig	1062
GAGE_N50	330 COUNT: 3715
GAGE_Genome size	2813862
GAGE_Assembly size	3866924
GAGE_Chaff bases	0
GAGE_Missing reference bases	880282(31.28%)
GAGE_Missing assembly bases	2068(0.05%)
GAGE_Missing assembly contigs	3(0.03%)
GAGE_Duplicated reference bases	1488974
GAGE_Compressed reference bases	50691
GAGE_Bad trim	986
GAGE_Avg idy	99.27
GAGE_SNPs	991
GAGE_Indels < 5bp	11083
GAGE_Indels >= 5	2
GAGE_Inversions	22
GAGE_Relocation	7
GAGE_Translocation	5
GAGE_Corrected contig #	7220
GAGE_Corrected assembly size	2352466
GAGE_Min correct contig	200
GAGE_Max correct contig	1060
GAGE_Corrected N50	304 COUNT: 3930
