All statistics are based on contigs of size >= 200 bp, unless otherwise noted (e.g., "# contigs (>= 0 bp)" and "Total length (>= 0 bp)" include all contigs).

Assembly                                                                                                               #Una_fully unaligned contigs  Una_Fully unaligned length  #Una_partially unaligned contigs  #Una_with misassembly  #Una_both parts are significant  Una_Partially unaligned length  #N's 
NEWBLER_MIS_PE_mtbh37-1_mis_2x250bp_nextera_default__mtbh37-2_mis_2x250bp_nextera_default.0.975percent.contigs_broken  0                             0                           2                                 0                      0                                124                             0    
NEWBLER_MIS_PE_mtbh37-1_mis_2x250bp_nextera_default__mtbh37-2_mis_2x250bp_nextera_default.0.975percent.contigs         0                             0                           0                                 0                      0                                0                               37695
