Assembly	VELVET_MIS_PE_mtbh37-1_mis_2x250bp_nextera_default__mtbh37-2_mis_2x250bp_nextera_default_37.final.contigs_broken	VELVET_MIS_PE_mtbh37-1_mis_2x250bp_nextera_default__mtbh37-2_mis_2x250bp_nextera_default_37.final.contigs
#Contigs	525	228
#Contigs (>= 0 bp)	664	352
#Contigs (>= 1000 bp)	401	164
Largest contig	61980	160591
Total length	4257095	4274912
Total length (>= 0 bp)	4273174	4289088
Total length (>= 1000 bp)	4194975	4240835
Reference length	4411532	4411532
N50	16797	63207
NG50	16103	60506
N75	9729	31779
NG75	8465	28910
L50	78	23
LG50	83	25
L75	160	49
LG75	173	52
#local misassemblies	43	131
#misassemblies	0	8
#misassembled contigs	0	7
Misassembled contigs length	0	287077
Misassemblies inter-contig overlap	13237	14557
#unaligned contigs	4 + 8 part	3 + 3 part
Unaligned contigs length	3117	3516
#ambiguously mapped contigs	30	28
Extra bases in ambiguously mapped contigs	-28254	-20914
#N's	0	15914
#N's per 100 kbp	0.00	372.26
Genome fraction (%)	95.799	96.130
Duplication ratio	1.003	1.006
#genes	3659 + 369 part	3823 + 210 part
#predicted genes (unique)	4294	4197
#predicted genes (>= 0 bp)	4295	4198
#predicted genes (>= 300 bp)	3660	3621
#predicted genes (>= 1500 bp)	533	539
#predicted genes (>= 3000 bp)	56	58
#mismatches	856	870
#indels	101	1251
Indels length	322	3784
#mismatches per 100 kbp	20.25	20.51
#indels per 100 kbp	2.39	29.50
GC (%)	65.37	65.37
Reference GC (%)	65.61	65.61
Average %IDY	99.741	99.507
Largest alignment	61980	160118
NA50	16797	60654
NGA50	16103	60438
NA75	9729	31779
NGA75	8465	27121
LA50	78	24
LGA50	83	25
LA75	160	49
LGA75	173	52
#Mis_misassemblies	0	8
#Mis_relocations	0	8
#Mis_translocations	0	0
#Mis_inversions	0	0
#Mis_misassembled contigs	0	7
Mis_Misassembled contigs length	0	287077
#Mis_local misassemblies	43	131
#Mis_short indels (<= 5 bp)	94	1126
#Mis_long indels (> 5 bp)	7	125
#Una_fully unaligned contigs	4	3
Una_Fully unaligned length	2141	2421
#Una_partially unaligned contigs	8	3
#Una_with misassembly	0	0
#Una_both parts are significant	0	0
Una_Partially unaligned length	976	1095
GAGE_Contigs #	525	228
GAGE_Min contig	200	200
GAGE_Max contig	61980	160591
GAGE_N50	16103 COUNT: 83	60506 COUNT: 25
GAGE_Genome size	4411532	4411532
GAGE_Assembly size	4257095	4274912
GAGE_Chaff bases	0	0
GAGE_Missing reference bases	108894(2.47%)	105175(2.38%)
GAGE_Missing assembly bases	3325(0.08%)	17834(0.42%)
GAGE_Missing assembly contigs	6(1.14%)	1(0.44%)
GAGE_Duplicated reference bases	1933	1933
GAGE_Compressed reference bases	53880	53932
GAGE_Bad trim	454	2296
GAGE_Avg idy	99.97	99.93
GAGE_SNPs	731	730
GAGE_Indels < 5bp	89	206
GAGE_Indels >= 5	36	281
GAGE_Inversions	1	1
GAGE_Relocation	15	29
GAGE_Translocation	0	0
GAGE_Corrected contig #	564	526
GAGE_Corrected assembly size	4256011	4258358
GAGE_Min correct contig	201	201
GAGE_Max correct contig	52301	73418
GAGE_Corrected N50	14478 COUNT: 95	15195 COUNT: 87
