Assembly	NEWBLER_PGM_mtbh37_pgm_400bp_es_318v2_OT2_tsv3.6_morestringent.0.200percent.contigs
#Mis_misassemblies	0
#Mis_relocations	0
#Mis_translocations	0
#Mis_inversions	0
#Mis_misassembled contigs	0
Mis_Misassembled contigs length	0
#Mis_local misassemblies	18
#mismatches	199
#indels	1491
#Mis_short indels (<= 5 bp)	1489
#Mis_long indels (> 5 bp)	2
Indels length	1626
