All statistics are based on contigs of size >= 200 bp, unless otherwise noted (e.g., "# contigs (>= 0 bp)" and "Total length (>= 0 bp)" include all contigs).

Assembly                          CLC_MIS_PE_sakai_mis-1_bi_2x250bp_SI_default__sakai_mis-2_bi_2x250bp_SI_default.0.925percent.result_broken  CLC_MIS_PE_sakai_mis-1_bi_2x250bp_SI_default__sakai_mis-2_bi_2x250bp_SI_default.0.925percent.result
#Una_fully unaligned contigs      359                                                                                                         364                                                                                                
Una_Fully unaligned length        105297                                                                                                      106610                                                                                             
#Una_partially unaligned contigs  9                                                                                                           12                                                                                                 
#Una_with misassembly             0                                                                                                           0                                                                                                  
#Una_both parts are significant   1                                                                                                           1                                                                                                  
Una_Partially unaligned length    984                                                                                                         1298                                                                                               
#N's                              72                                                                                                          1858                                                                                               
