Assembly	#Contigs	#Contigs (>= 0 bp)	#Contigs (>= 1000 bp)	Largest contig	Total length	Total length (>= 0 bp)	Total length (>= 1000 bp)	Reference length	N50	NG50	N75	NG75	L50	LG50	L75	LG75	#local misassemblies	#misassemblies	#misassembled contigs	Misassembled contigs length	Misassemblies inter-contig overlap	#unaligned contigs	Unaligned contigs length	#ambiguously mapped contigs	Extra bases in ambiguously mapped contigs	#N's	#N's per 100 kbp	Genome fraction (%)	Duplication ratio	#genes	#predicted genes (unique)	#predicted genes (>= 0 bp)	#predicted genes (>= 300 bp)	#predicted genes (>= 1500 bp)	#predicted genes (>= 3000 bp)	#mismatches	#indels	Indels length	#mismatches per 100 kbp	#indels per 100 kbp	GC (%)	Reference GC (%)	Average %IDY	Largest alignment	NA50	NGA50	NA75	NGA75	LA50	LGA50	LA75	LGA75	#Mis_misassemblies	#Mis_relocations	#Mis_translocations	#Mis_inversions	#Mis_misassembled contigs	Mis_Misassembled contigs length	#Mis_local misassemblies	#Mis_short indels (<= 5 bp)	#Mis_long indels (> 5 bp)	#Una_fully unaligned contigs	Una_Fully unaligned length	#Una_partially unaligned contigs	#Una_with misassembly	#Una_both parts are significant	Una_Partially unaligned length	GAGE_Contigs #	GAGE_Min contig	GAGE_Max contig	GAGE_N50	GAGE_Genome size	GAGE_Assembly size	GAGE_Chaff bases	GAGE_Missing reference bases	GAGE_Missing assembly bases	GAGE_Missing assembly contigs	GAGE_Duplicated reference bases	GAGE_Compressed reference bases	GAGE_Bad trim	GAGE_Avg idy	GAGE_SNPs	GAGE_Indels < 5bp	GAGE_Indels >= 5	GAGE_Inversions	GAGE_Relocation	GAGE_Translocation	GAGE_Corrected contig #	GAGE_Corrected assembly size	GAGE_Min correct contig	GAGE_Max correct contig	GAGE_Corrected N50
SOAP2_MIS_PE_sakai_mis-1_bi_2x150bp_default.0.826percent_105.final.scaf_broken	970	1675	260	142819	5440735	5540646	5225982	5594470	44226	42599	21821	19211	36	38	79	85	3	5	5	79567	5	5 + 0 part	6860	448	-145587	145	2.67	94.426	1.001	4838 + 332 part	5821	5847	4482	648	65	64	46	493	1.21	0.87	50.34	50.48	99.030	142819	44226	41161	21821	19211	36	38	79	85	5	5	0	0	5	79567	3	24	22	5	6860	0	0	0	0	970	200	142819	42599 COUNT: 38	5594470	5440735	0	13459(0.24%)	5939(0.11%)	3(0.31%)	19000	282893	30	100.00	64	38	23	1	2	0	917	5415537	200	142818	38971 COUNT: 43
SOAP2_MIS_PE_sakai_mis-1_bi_2x150bp_default.0.826percent_105.final.scaf	661	1317	137	374495	5464594	5556898	5315057	5594470	131770	131770	67371	58793	13	13	27	28	94	26	22	541084	290	9 + 8 part	18048	411	-126608	16397	300.06	94.471	1.007	4947 + 205 part	5724	5746	4485	655	66	157	2033	4588	2.97	38.47	50.35	50.48	98.990	355978	131770	131770	67329	58793	14	14	28	29	26	26	0	0	22	541084	94	1917	116	9	11325	8	0	5	6723	661	200	374495	131770 COUNT: 13	5594470	5464594	0	10474(0.19%)	22750(0.42%)	3(0.45%)	20335	277715	3243	99.98	63	122	179	2	13	0	890	5416301	200	142818	39788 COUNT: 41
