Assembly	SOAP2_PGM_sakai_pgm_mu_318_400bp_IO_TS3.4_ms_0.395percent_55.final.contig
#Contigs	4446
#Contigs (>= 0 bp)	310796
#Contigs (>= 1000 bp)	0
Largest contig	740
Total length	1091617
Total length (>= 0 bp)	28327890
Total length (>= 1000 bp)	0
Reference length	5594470
N50	234
NG50	None
N75	213
NG75	None
L50	1891
LG50	None
L75	3120
LG75	None
#local misassemblies	1
#misassemblies	0
#misassembled contigs	0
Misassembled contigs length	0
Misassemblies inter-contig overlap	165
#unaligned contigs	1580 + 4 part
Unaligned contigs length	350387
#ambiguously mapped contigs	4
Extra bases in ambiguously mapped contigs	-866
#N's	0
#N's per 100 kbp	0.00
Genome fraction (%)	13.219
Duplication ratio	1.001
#genes	25 + 1952 part
#predicted genes (unique)	3802
#predicted genes (>= 0 bp)	3802
#predicted genes (>= 300 bp)	348
#predicted genes (>= 1500 bp)	0
#predicted genes (>= 3000 bp)	0
#mismatches	9
#indels	175
Indels length	181
#mismatches per 100 kbp	1.22
#indels per 100 kbp	23.66
GC (%)	49.80
Reference GC (%)	50.48
Average %IDY	99.972
Largest alignment	740
NA50	223
NGA50	None
NA75	None
NGA75	None
LA50	1937
LGA50	None
LA75	None
LGA75	None
#Mis_misassemblies	0
#Mis_relocations	0
#Mis_translocations	0
#Mis_inversions	0
#Mis_misassembled contigs	0
Mis_Misassembled contigs length	0
#Mis_local misassemblies	1
#Mis_short indels (<= 5 bp)	175
#Mis_long indels (> 5 bp)	0
#Una_fully unaligned contigs	1580
Una_Fully unaligned length	350073
#Una_partially unaligned contigs	4
#Una_with misassembly	0
#Una_both parts are significant	0
Una_Partially unaligned length	314
GAGE_Contigs #	4446
GAGE_Min contig	200
GAGE_Max contig	740
GAGE_N50	0 COUNT: 0
GAGE_Genome size	5594470
GAGE_Assembly size	1091617
GAGE_Chaff bases	0
GAGE_Missing reference bases	4597323(82.18%)
GAGE_Missing assembly bases	78089(7.15%)
GAGE_Missing assembly contigs	304(6.84%)
GAGE_Duplicated reference bases	12771
GAGE_Compressed reference bases	17609
GAGE_Bad trim	7791
GAGE_Avg idy	99.21
GAGE_SNPs	255
GAGE_Indels < 5bp	7073
GAGE_Indels >= 5	3
GAGE_Inversions	5
GAGE_Relocation	2
GAGE_Translocation	2
GAGE_Corrected contig #	3815
GAGE_Corrected assembly size	948717
GAGE_Min correct contig	200
GAGE_Max correct contig	740
GAGE_Corrected N50	0 COUNT: 0
