Assembly	ABYSS_PE_PGM_mrsa_pgm_200bp_es_316_IonOnev2_ts3.0_morestringent.0.200percent_34.final
GAGE_Contigs #	367
GAGE_Min contig	203
GAGE_Max contig	52483
GAGE_N50	16678 COUNT: 54
GAGE_Genome size	2813862
GAGE_Assembly size	2728306
GAGE_Chaff bases	0
GAGE_Missing reference bases	69454(2.47%)
GAGE_Missing assembly bases	8(0.00%)
GAGE_Missing assembly contigs	0(0.00%)
GAGE_Duplicated reference bases	0
GAGE_Compressed reference bases	18921
GAGE_Bad trim	8
GAGE_Avg idy	99.99
GAGE_SNPs	41
GAGE_Indels < 5bp	250
GAGE_Indels >= 5	4
GAGE_Inversions	0
GAGE_Relocation	1
GAGE_Translocation	0
GAGE_Corrected contig #	371
GAGE_Corrected assembly size	2728958
GAGE_Min correct contig	203
GAGE_Max correct contig	52486
GAGE_Corrected N50	16237 COUNT: 54
