Assembly	SOAP2_MIS_PE_sakai_mis-1_bi_2x250bp_SI_default.0.64percent_107.final.scaf_broken	SOAP2_MIS_PE_sakai_mis-1_bi_2x250bp_SI_default.0.64percent_107.final.scaf
#Contigs (>= 0 bp)	5005	4095
#Contigs (>= 1000 bp)	892	363
Total length (>= 0 bp)	5968607	6011389
Total length (>= 1000 bp)	5034413	5238375
#Contigs	3785	2937
Largest contig	33062	144761
Total length	5792934	5845229
Reference length	5594470	5594470
GC (%)	50.46	50.47
Reference GC (%)	50.48	50.48
N50	7255	25367
NG50	7724	26341
N75	3261	9817
NG75	3574	12681
#misassemblies	8	28
#local misassemblies	52	760
#unaligned contigs	10 + 0 part	20 + 8 part
Unaligned contigs length	8119	20963
Genome fraction (%)	94.632	94.669
Duplication ratio	1.063	1.074
#N's per 100 kbp	5.23	737.10
#mismatches per 100 kbp	11.35	12.90
#indels per 100 kbp	1.57	24.38
#genes	4117 + 1075 part	4157 + 1018 part
#predicted genes (unique)	8313	8076
#predicted genes (>= 0 bp)	8386	8147
#predicted genes (>= 300 bp)	4759	4729
#predicted genes (>= 1500 bp)	525	552
#predicted genes (>= 3000 bp)	36	42
Largest alignment	33062	143774
NA50	7219	24296
NGA50	7652	25960
NA75	3246	9398
NGA75	3571	12128
