Assembly	VELVET_MIS_PE_mrsa_mis-1_bi_2x150bp_default__mrsa_mis-2_bi_2x150bp_default.0.527percent_37.final.contigs_broken	VELVET_MIS_PE_mrsa_mis-1_bi_2x150bp_default__mrsa_mis-2_bi_2x150bp_default.0.527percent_37.final.contigs
GAGE_Contigs #	162	93
GAGE_Min contig	207	207
GAGE_Max contig	142350	261061
GAGE_N50	37685 COUNT: 23	84836 COUNT: 11
GAGE_Genome size	2813862	2813862
GAGE_Assembly size	2756781	2759311
GAGE_Chaff bases	0	0
GAGE_Missing reference bases	25972(0.92%)	25474(0.91%)
GAGE_Missing assembly bases	5721(0.21%)	7694(0.28%)
GAGE_Missing assembly contigs	1(0.62%)	1(1.08%)
GAGE_Duplicated reference bases	760	760
GAGE_Compressed reference bases	38570	38425
GAGE_Bad trim	64	63
GAGE_Avg idy	99.97	99.96
GAGE_SNPs	222	227
GAGE_Indels < 5bp	31	50
GAGE_Indels >= 5	13	64
GAGE_Inversions	1	2
GAGE_Relocation	10	23
GAGE_Translocation	0	0
GAGE_Corrected contig #	179	171
GAGE_Corrected assembly size	2754586	2754585
GAGE_Min correct contig	204	204
GAGE_Max correct contig	142350	146481
GAGE_Corrected N50	34451 COUNT: 27	34451 COUNT: 25
