All statistics are based on contigs of size >= 200 bp, unless otherwise noted (e.g., "# contigs (>= 0 bp)" and "Total length (>= 0 bp)" include all contigs).

Assembly                                                                                                         #Contigs  #Contigs (>= 0 bp)  #Contigs (>= 1000 bp)  Largest contig  Total length  Total length (>= 0 bp)  Total length (>= 1000 bp)  Reference length  N50    NG50   N75    NG75   L50  LG50  L75  LG75  #local misassemblies  #misassemblies  #misassembled contigs  Misassembled contigs length  Misassemblies inter-contig overlap  #unaligned contigs  Unaligned contigs length  #ambiguously mapped contigs  Extra bases in ambiguously mapped contigs  #N's  #N's per 100 kbp  Genome fraction (%)  Duplication ratio  #genes           #predicted genes (unique)  #predicted genes (>= 0 bp)  #predicted genes (>= 300 bp)  #predicted genes (>= 1500 bp)  #predicted genes (>= 3000 bp)  #mismatches  #indels  Indels length  #mismatches per 100 kbp  #indels per 100 kbp  GC (%)  Reference GC (%)  Average %IDY  Largest alignment  NA50   NGA50  NA75   NGA75  LA50  LGA50  LA75  LGA75  #Mis_misassemblies  #Mis_relocations  #Mis_translocations  #Mis_inversions  #Mis_misassembled contigs  Mis_Misassembled contigs length  #Mis_local misassemblies  #Mis_short indels (<= 5 bp)  #Mis_long indels (> 5 bp)  #Una_fully unaligned contigs  Una_Fully unaligned length  #Una_partially unaligned contigs  #Una_with misassembly  #Una_both parts are significant  Una_Partially unaligned length  GAGE_Contigs #  GAGE_Min contig  GAGE_Max contig  GAGE_N50         GAGE_Genome size  GAGE_Assembly size  GAGE_Chaff bases  GAGE_Missing reference bases  GAGE_Missing assembly bases  GAGE_Missing assembly contigs  GAGE_Duplicated reference bases  GAGE_Compressed reference bases  GAGE_Bad trim  GAGE_Avg idy  GAGE_SNPs  GAGE_Indels < 5bp  GAGE_Indels >= 5  GAGE_Inversions  GAGE_Relocation  GAGE_Translocation  GAGE_Corrected contig #  GAGE_Corrected assembly size  GAGE_Min correct contig  GAGE_Max correct contig  GAGE_Corrected N50
VELVET_MIS_PE_mrsa_mis-1_bi_2x150bp_default__mrsa_mis-2_bi_2x150bp_default.0.527percent_37.final.contigs_broken  162       334                 124                    142350          2756781       2774071                 2740433                    2813862           37685  37685  24019  23379  23   23    45   47    13                    10              8                      147881                       14331                               2 + 1 part          5990                      12                           -9313                                      0     0.00              97.453               1.005              2561 + 106 part  2670                       2670                        2283                          295                            26                             455          140      251            16.59                    5.11                 32.69   32.81             99.060        142350             36148  35909  23379  23021  23    24     47    48     10                  10                0                    0                8                          147881                           13                        133                          7                          2                             5929                        1                                 0                      0                                61                              162             207              142350           37685 COUNT: 23  2813862           2756781             0                 25972(0.92%)                  5721(0.21%)                  1(0.62%)                       760                              38570                            64             99.97         222        31                 13                1                10               0                   179                      2754586                       204                      142350                   34451 COUNT: 27   
VELVET_MIS_PE_mrsa_mis-1_bi_2x150bp_default__mrsa_mis-2_bi_2x150bp_default.0.527percent_37.final.contigs         93        261                 67                     261061          2759311       2776048                 2749307                    2813862           86485  84836  45530  44047  10   11    21   22    24                    15              11                     442805                       14504                               1 + 1 part          5478                      12                           -9313                                      1977  71.65             97.568               1.005              2602 + 65 part   2649                       2649                        2279                          296                            24                             515          378      1570           18.76                    13.77                32.69   32.81             98.860        261061             79926  79926  45530  44047  11    11     22    23     15                  15                0                    0                11                         442805                           24                        322                          56                         1                             5417                        1                                 0                      0                                61                              93              207              261061           84836 COUNT: 11  2813862           2759311             0                 25474(0.91%)                  7694(0.28%)                  1(1.08%)                       760                              38425                            63             99.96         227        50                 64                2                23               0                   171                      2754585                       204                      146481                   34451 COUNT: 25   
