All statistics are based on contigs of size >= 200 bp, unless otherwise noted (e.g., "# contigs (>= 0 bp)" and "Total length (>= 0 bp)" include all contigs).

Assembly                       CLC_MIS_PE_sakai_mis-1_bi_2x250bp_SI_default__sakai_mis-2_bi_2x250bp_SI_default.0.99percent.result_broken  CLC_MIS_PE_sakai_mis-1_bi_2x250bp_SI_default__sakai_mis-2_bi_2x250bp_SI_default.0.99percent.result
#Contigs (>= 0 bp)             703                                                                                                        677                                                                                               
#Contigs (>= 1000 bp)          133                                                                                                        126                                                                                               
Total length (>= 0 bp)         5505737                                                                                                    5507878                                                                                           
Total length (>= 1000 bp)      5328225                                                                                                    5332622                                                                                           
#Contigs                       682                                                                                                        677                                                                                               
Largest contig                 374791                                                                                                     374791                                                                                            
Total length                   5503455                                                                                                    5507878                                                                                           
Reference length               5594470                                                                                                    5594470                                                                                           
GC (%)                         50.19                                                                                                      50.20                                                                                             
Reference GC (%)               50.48                                                                                                      50.48                                                                                             
N50                            145602                                                                                                     149654                                                                                            
NG50                           145460                                                                                                     148305                                                                                            
N75                            64162                                                                                                      81054                                                                                             
NG75                           58306                                                                                                      77679                                                                                             
#misassemblies                 3                                                                                                          3                                                                                                 
#local misassemblies           4                                                                                                          18                                                                                                
#unaligned contigs             390 + 5 part                                                                                               395 + 8 part                                                                                      
Unaligned contigs length       115204                                                                                                     116854                                                                                            
Genome fraction (%)            94.717                                                                                                     94.846                                                                                            
Duplication ratio              1.005                                                                                                      1.005                                                                                             
#N's per 100 kbp               0.96                                                                                                       39.83                                                                                             
#mismatches per 100 kbp        1.70                                                                                                       1.77                                                                                              
#indels per 100 kbp            0.34                                                                                                       0.36                                                                                              
#genes                         5040 + 125 part                                                                                            5046 + 127 part                                                                                   
#predicted genes (unique)      5694                                                                                                       5697                                                                                              
#predicted genes (>= 0 bp)     5696                                                                                                       5699                                                                                              
#predicted genes (>= 300 bp)   4508                                                                                                       4508                                                                                              
#predicted genes (>= 1500 bp)  674                                                                                                        674                                                                                               
#predicted genes (>= 3000 bp)  67                                                                                                         67                                                                                                
Largest alignment              356042                                                                                                     361370                                                                                            
NA50                           145602                                                                                                     148305                                                                                            
NGA50                          145460                                                                                                     147893                                                                                            
NA75                           64162                                                                                                      81054                                                                                             
NGA75                          58306                                                                                                      77679                                                                                             
