Assembly	#Contigs	#Contigs (>= 0 bp)	#Contigs (>= 1000 bp)	Largest contig	Total length	Total length (>= 0 bp)	Total length (>= 1000 bp)	Reference length	N50	NG50	N75	NG75	L50	LG50	L75	LG75	#local misassemblies	#misassemblies	#misassembled contigs	Misassembled contigs length	Misassemblies inter-contig overlap	#unaligned contigs	Unaligned contigs length	#ambiguously mapped contigs	Extra bases in ambiguously mapped contigs	#N's	#N's per 100 kbp	Genome fraction (%)	Duplication ratio	#genes	#predicted genes (unique)	#predicted genes (>= 0 bp)	#predicted genes (>= 300 bp)	#predicted genes (>= 1500 bp)	#predicted genes (>= 3000 bp)	#mismatches	#indels	Indels length	#mismatches per 100 kbp	#indels per 100 kbp	GC (%)	Reference GC (%)	Average %IDY	Largest alignment	NA50	NGA50	NA75	NGA75	LA50	LGA50	LA75	LGA75	#Mis_misassemblies	#Mis_relocations	#Mis_translocations	#Mis_inversions	#Mis_misassembled contigs	Mis_Misassembled contigs length	#Mis_local misassemblies	#Mis_short indels (<= 5 bp)	#Mis_long indels (> 5 bp)	#Una_fully unaligned contigs	Una_Fully unaligned length	#Una_partially unaligned contigs	#Una_with misassembly	#Una_both parts are significant	Una_Partially unaligned length	GAGE_Contigs #	GAGE_Min contig	GAGE_Max contig	GAGE_N50	GAGE_Genome size	GAGE_Assembly size	GAGE_Chaff bases	GAGE_Missing reference bases	GAGE_Missing assembly bases	GAGE_Missing assembly contigs	GAGE_Duplicated reference bases	GAGE_Compressed reference bases	GAGE_Bad trim	GAGE_Avg idy	GAGE_SNPs	GAGE_Indels < 5bp	GAGE_Indels >= 5	GAGE_Inversions	GAGE_Relocation	GAGE_Translocation	GAGE_Corrected contig #	GAGE_Corrected assembly size	GAGE_Min correct contig	GAGE_Max correct contig	GAGE_Corrected N50
ABYSS_PE_MIS_PE_mtbh37-1_mis_2x250bp_nextera_default__mtbh37-2_mis_2x250bp_nextera_default.0.990percent_76.final_broken	191	253	158	188094	4423695	4431243	4406781	4411532	63372	63372	33113	33113	26	26	50	50	17	5	4	126321	33197	0 + 0 part	0	11	-8253	56	1.27	99.165	1.017	3989 + 121 part	4094	4178	3660	577	77	321	86	482	7.34	1.97	65.53	65.61	99.765	188094	63372	63372	32437	32437	26	26	51	51	5	5	0	0	4	126321	17	73	13	0	0	0	0	0	0	191	206	188094	63372 COUNT: 26	4411532	4423695	0	26843(0.61%)	899(0.02%)	0(0.00%)	13406	29694	868	99.99	249	79	27	1	1	0	214	4413092	206	188085	46825 COUNT: 30
ABYSS_PE_MIS_PE_mtbh37-1_mis_2x250bp_nextera_default__mtbh37-2_mis_2x250bp_nextera_default.0.990percent_76.final	150	212	120	207742	4425792	4433340	4410866	4411532	95961	95961	43544	43544	16	16	33	33	26	7	6	386904	68432	0 + 0 part	0	10	-7707	2153	48.65	99.228	1.025	4018 + 93 part	4090	4174	3661	573	77	331	260	978	7.56	5.94	65.53	65.61	99.776	207544	78351	78351	43355	43355	17	17	35	35	7	7	0	0	6	386904	26	233	27	0	0	0	0	0	0	150	206	207742	95961 COUNT: 16	4411532	4425792	0	26371(0.60%)	2331(0.05%)	0(0.00%)	13406	28642	934	99.97	237	116	52	2	3	0	202	4414662	206	204567	52105 COUNT: 26
