1: PREPARING DATA
2,3: RUNNING mummer AND CREATING CLUSTERS
# reading input file "/vol/codine-tmp/juene/tmp.pCiV4xvZJy/quast/contigs_reports/nucmer_output/ABYSS_PE_PGM_mrsa_pgm_200bp_es_316_IonOnev2_ts3.0_morestringent.86coverage_74.final.ntref" of length 2813864
# construct suffix tree for sequence of length 2813864
# (maximum reference length is 536870908)
# (maximum query length is 4294967295)
# process 28138 characters per dot
#....................................................................................................
# CONSTRUCTIONTIME /vol/ngscomparison/software/analysis/quast-2.1/libs/MUMmer3.23-linux/mummer /vol/codine-tmp/juene/tmp.pCiV4xvZJy/quast/contigs_reports/nucmer_output/ABYSS_PE_PGM_mrsa_pgm_200bp_es_316_IonOnev2_ts3.0_morestringent.86coverage_74.final.ntref 1.83
# reading input file "/vol/codine-tmp/juene/tmp.pCiV4xvZJy/quast/corrected_input/ABYSS_PE_PGM_mrsa_pgm_200bp_es_316_IonOnev2_ts3.0_morestringent.86coverage_74.final" of length 2757379
# matching query-file "/vol/codine-tmp/juene/tmp.pCiV4xvZJy/quast/corrected_input/ABYSS_PE_PGM_mrsa_pgm_200bp_es_316_IonOnev2_ts3.0_morestringent.86coverage_74.final"
# against subject-file "/vol/codine-tmp/juene/tmp.pCiV4xvZJy/quast/contigs_reports/nucmer_output/ABYSS_PE_PGM_mrsa_pgm_200bp_es_316_IonOnev2_ts3.0_morestringent.86coverage_74.final.ntref"
# COMPLETETIME /vol/ngscomparison/software/analysis/quast-2.1/libs/MUMmer3.23-linux/mummer /vol/codine-tmp/juene/tmp.pCiV4xvZJy/quast/contigs_reports/nucmer_output/ABYSS_PE_PGM_mrsa_pgm_200bp_es_316_IonOnev2_ts3.0_morestringent.86coverage_74.final.ntref 5.90
# SPACE /vol/ngscomparison/software/analysis/quast-2.1/libs/MUMmer3.23-linux/mummer /vol/codine-tmp/juene/tmp.pCiV4xvZJy/quast/contigs_reports/nucmer_output/ABYSS_PE_PGM_mrsa_pgm_200bp_es_316_IonOnev2_ts3.0_morestringent.86coverage_74.final.ntref 5.41
4: FINISHING DATA
