Assembly	ABYSS_PE_PGM_mrsa_pgm_200bp_es_316_IonOnev2_ts3.0_morestringent.86coverage_74.final
#Mis_misassemblies	3
#Mis_relocations	2
#Mis_translocations	1
#Mis_inversions	0
#Mis_misassembled contigs	3
Mis_Misassembled contigs length	17935
#Mis_local misassemblies	6
#mismatches	66
#indels	240
#Mis_short indels (<= 5 bp)	240
#Mis_long indels (> 5 bp)	0
Indels length	243
