All statistics are based on contigs of size >= 200 bp, unless otherwise noted (e.g., "# contigs (>= 0 bp)" and "Total length (>= 0 bp)" include all contigs).

Assembly                                                                       #Contigs  #Contigs (>= 0 bp)  #Contigs (>= 1000 bp)  Largest contig  Total length  Total length (>= 0 bp)  Total length (>= 1000 bp)  Reference length  N50     NG50    N75    NG75   L50  LG50  L75  LG75  #local misassemblies  #misassemblies  #misassembled contigs  Misassembled contigs length  Misassemblies inter-contig overlap  #unaligned contigs  Unaligned contigs length  #ambiguously mapped contigs  Extra bases in ambiguously mapped contigs  #N's   #N's per 100 kbp  Genome fraction (%)  Duplication ratio  #genes           #predicted genes (unique)  #predicted genes (>= 0 bp)  #predicted genes (>= 300 bp)  #predicted genes (>= 1500 bp)  #predicted genes (>= 3000 bp)  #mismatches  #indels  Indels length  #mismatches per 100 kbp  #indels per 100 kbp  GC (%)  Reference GC (%)  Average %IDY  Largest alignment  NA50    NGA50   NA75   NGA75  LA50  LGA50  LA75  LGA75  #Mis_misassemblies  #Mis_relocations  #Mis_translocations  #Mis_inversions  #Mis_misassembled contigs  Mis_Misassembled contigs length  #Mis_local misassemblies  #Mis_short indels (<= 5 bp)  #Mis_long indels (> 5 bp)  #Una_fully unaligned contigs  Una_Fully unaligned length  #Una_partially unaligned contigs  #Una_with misassembly  #Una_both parts are significant  Una_Partially unaligned length  GAGE_Contigs #  GAGE_Min contig  GAGE_Max contig  GAGE_N50          GAGE_Genome size  GAGE_Assembly size  GAGE_Chaff bases  GAGE_Missing reference bases  GAGE_Missing assembly bases  GAGE_Missing assembly contigs  GAGE_Duplicated reference bases  GAGE_Compressed reference bases  GAGE_Bad trim  GAGE_Avg idy  GAGE_SNPs  GAGE_Indels < 5bp  GAGE_Indels >= 5  GAGE_Inversions  GAGE_Relocation  GAGE_Translocation  GAGE_Corrected contig #  GAGE_Corrected assembly size  GAGE_Min correct contig  GAGE_Max correct contig  GAGE_Corrected N50
SOAP2_MIS_PE_sakai_mis-1_bi_2x150bp_default.0.826percent_71.final.scaf_broken  663       1886                271                    139200          5309345       5475535                 5163581                    5594470           43595   39414   20440  17945  37   40    81   92    2                     3               3                      83954                        5                                   1 + 1 part          5499                      162                          -83087                                     17     0.32              93.304               1.000              4733 + 302 part  5461                       5465                        4415                          651                            64                             48           14       27             0.92                     0.27                 50.25   50.48             99.262        139200             42558   38169   20387  17900  37    40     82    93     3                   3                 0                    0                3                          83954                            2                         12                           2                          1                             5457                        1                                 0                      0                                42                              663             200              139200           39414 COUNT: 40   5594470           5309345             0                 130182(2.33%)                 5547(0.10%)                  1(0.15%)                       2610                             195044                           76             100.00        60         12                 4                 0                3                0                   657                      5301087                       200                      139201                   37153 COUNT: 41   
SOAP2_MIS_PE_sakai_mis-1_bi_2x150bp_default.0.826percent_71.final.scaf         351       1361                125                    374854          5367895       5503795                 5279634                    5594470           146723  146723  77520  73996  11   11    23   25    123                   48              31                     1343567                      35                                  8 + 10 part         22685                     141                          -65154                                     28279  526.82            93.523               1.009              4887 + 192 part  5405                       5408                        4420                          652                            64                             219          2410     6518           4.19                     46.06                50.27   50.48             99.089        362189             146530  142974  77308  73996  12    13     25    27     48                  48                0                    0                31                         1343567                          123                       2250                         160                        8                             9328                        10                                0                      5                                13357                           351             200              374854           146723 COUNT: 11  5594470           5367895             0                 88679(1.59%)                  36249(0.68%)                 3(0.85%)                       5683                             224210                           4825           99.98         66         70                 315               3                19               0                   635                      5300962                       200                      139201                   40992 COUNT: 38   
