All statistics are based on contigs of size >= 200 bp, unless otherwise noted (e.g., "# contigs (>= 0 bp)" and "Total length (>= 0 bp)" include all contigs).

Assembly                                                                        #Contigs  #Contigs (>= 0 bp)  #Contigs (>= 1000 bp)  Largest contig  Total length  Total length (>= 0 bp)  Total length (>= 1000 bp)  Reference length  N50  NG50  N75  NG75  L50   LG50  L75   LG75  #local misassemblies  #misassemblies  #misassembled contigs  Misassembled contigs length  Misassemblies inter-contig overlap  #unaligned contigs  Unaligned contigs length  #ambiguously mapped contigs  Extra bases in ambiguously mapped contigs  #N's  #N's per 100 kbp  Genome fraction (%)  Duplication ratio  #genes          #predicted genes (unique)  #predicted genes (>= 0 bp)  #predicted genes (>= 300 bp)  #predicted genes (>= 1500 bp)  #predicted genes (>= 3000 bp)  #mismatches  #indels  Indels length  #mismatches per 100 kbp  #indels per 100 kbp  GC (%)  Reference GC (%)  Average %IDY  Largest alignment  NA50  NGA50  NA75  NGA75  LA50  LGA50  LA75  LGA75  #Mis_misassemblies  #Mis_relocations  #Mis_translocations  #Mis_inversions  #Mis_misassembled contigs  Mis_Misassembled contigs length  #Mis_local misassemblies  #Mis_short indels (<= 5 bp)  #Mis_long indels (> 5 bp)  #Una_fully unaligned contigs  Una_Fully unaligned length  #Una_partially unaligned contigs  #Una_with misassembly  #Una_both parts are significant  Una_Partially unaligned length  GAGE_Contigs #  GAGE_Min contig  GAGE_Max contig  GAGE_N50    GAGE_Genome size  GAGE_Assembly size  GAGE_Chaff bases  GAGE_Missing reference bases  GAGE_Missing assembly bases  GAGE_Missing assembly contigs  GAGE_Duplicated reference bases  GAGE_Compressed reference bases  GAGE_Bad trim  GAGE_Avg idy  GAGE_SNPs  GAGE_Indels < 5bp  GAGE_Indels >= 5  GAGE_Inversions  GAGE_Relocation  GAGE_Translocation  GAGE_Corrected contig #  GAGE_Corrected assembly size  GAGE_Min correct contig  GAGE_Max correct contig  GAGE_Corrected N50
VELVET_PGM_mtbh37_pgm_400bp_es_318v2_OT2_tsv3.6_morestringent_53.final.contigs  6159      15727               48                     2123            2109221       3460118                 57202                      4411532           346  None  259  None  2053  None  3832  None  1                     0               0                      0                            153                                 3 + 9 part          1131                      13                           -3349                                      0     0.00              47.416               1.006              97 + 3130 part  6480                       6480                        2027                          0                              0                              137          1185     1245           6.55                     56.65                67.12   65.61             99.932        2123               346   None   259   None   2054  None   3834  None   0                   0                 0                    0                0                          0                                1                         1185                         0                          3                             715                         9                                 0                      0                                416                             6159            200              2123             0 COUNT: 0  4411532           2109221             0                 2311904(52.41%)               553(0.03%)                   0(0.00%)                       244                              4323                             553            99.93         127        1237               1                 0                0                0                   6153                     2108045                       200                      2124                     0 COUNT: 0        
