All statistics are based on contigs of size >= 200 bp, unless otherwise noted (e.g., "# contigs (>= 0 bp)" and "Total length (>= 0 bp)" include all contigs).

Assembly                                                                                                                 #Contigs  #Contigs (>= 0 bp)  #Contigs (>= 1000 bp)  Largest contig  Total length  Total length (>= 0 bp)  Total length (>= 1000 bp)  Reference length  N50   NG50  N75   NG75  L50  LG50  L75   LG75  #local misassemblies  #misassemblies  #misassembled contigs  Misassembled contigs length  Misassemblies inter-contig overlap  #unaligned contigs  Unaligned contigs length  #ambiguously mapped contigs  Extra bases in ambiguously mapped contigs  #N's  #N's per 100 kbp  Genome fraction (%)  Duplication ratio  #genes            #predicted genes (unique)  #predicted genes (>= 0 bp)  #predicted genes (>= 300 bp)  #predicted genes (>= 1500 bp)  #predicted genes (>= 3000 bp)  #mismatches  #indels  Indels length  #mismatches per 100 kbp  #indels per 100 kbp  GC (%)  Reference GC (%)  Average %IDY  Largest alignment  NA50  NGA50  NA75  NGA75  LA50  LGA50  LA75  LGA75  #Mis_misassemblies  #Mis_relocations  #Mis_translocations  #Mis_inversions  #Mis_misassembled contigs  Mis_Misassembled contigs length  #Mis_local misassemblies  #Mis_short indels (<= 5 bp)  #Mis_long indels (> 5 bp)  #Una_fully unaligned contigs  Una_Fully unaligned length  #Una_partially unaligned contigs  #Una_with misassembly  #Una_both parts are significant  Una_Partially unaligned length  GAGE_Contigs #  GAGE_Min contig  GAGE_Max contig  GAGE_N50         GAGE_Genome size  GAGE_Assembly size  GAGE_Chaff bases  GAGE_Missing reference bases  GAGE_Missing assembly bases  GAGE_Missing assembly contigs  GAGE_Duplicated reference bases  GAGE_Compressed reference bases  GAGE_Bad trim  GAGE_Avg idy  GAGE_SNPs  GAGE_Indels < 5bp  GAGE_Indels >= 5  GAGE_Inversions  GAGE_Relocation  GAGE_Translocation  GAGE_Corrected contig #  GAGE_Corrected assembly size  GAGE_Min correct contig  GAGE_Max correct contig  GAGE_Corrected N50
ABYSS_PE_MIS_PE_mtbh37-1_mis_2x250bp_nextera_default__mtbh37-2_mis_2x250bp_nextera_default.0.075percent_42.final_broken  2961      3611                1416                   8867            3887794       3959678                 3041079                    4411532           1932  1704  1106  789   638  782   1297  1717  6                     6               6                      13955                        1511                                1 + 23 part         1966                      19                           -11956                                     0     0.00              87.691               1.002              1843 + 2138 part  5685                       5686                        4128                          233                            12                             901          35       55             23.29                    0.90                 65.42   65.61             99.943        8867               1932  1701   1100  778    639   784    1300  1724   6                   6                 0                    0                6                          13955                            6                         34                           1                          1                             806                         23                                0                      0                                1160                            2961            200              8867             1704 COUNT: 782  4411532           3887794             0                 479739(10.87%)                1969(0.05%)                  1(0.03%)                       0                                55622                            1163           99.97         845        38                 6                 1                3                0                   2969                     3886267                       200                      8867                     1701 COUNT: 785   
ABYSS_PE_MIS_PE_mtbh37-1_mis_2x250bp_nextera_default__mtbh37-2_mis_2x250bp_nextera_default.0.075percent_42.final         2960      3610                1417                   8867            3887858       3959742                 3042434                    4411532           1932  1704  1107  789   638  782   1297  1717  6                     6               6                      13955                        1511                                1 + 23 part         1966                      18                           -12020                                     64    1.65              87.691               1.002              1843 + 2138 part  5685                       5686                        4127                          233                            12                             901          35       55             23.29                    0.90                 65.42   65.61             99.918        8867               1932  1701   1100  778    639   784    1300  1724   6                   6                 0                    0                6                          13955                            6                         34                           1                          1                             806                         23                                0                      0                                1160                            2960            200              8867             1704 COUNT: 782  4411532           3887858             0                 478715(10.85%)                1969(0.05%)                  1(0.03%)                       0                                56582                            1163           99.97         845        38                 6                 1                3                0                   2968                     3886331                       200                      8867                     1701 COUNT: 785   
