All statistics are based on contigs of size >= 200 bp, unless otherwise noted (e.g., "# contigs (>= 0 bp)" and "Total length (>= 0 bp)" include all contigs).

Assembly                         ABYSS_PE_MIS_PE_sakai_mis-1_bi_2x150bp_default__sakai_mis-2_bi_2x150bp_default.0.826percent_124-scaffolds_broken  ABYSS_PE_MIS_PE_sakai_mis-1_bi_2x150bp_default__sakai_mis-2_bi_2x150bp_default.0.826percent_124-scaffolds
GAGE_Contigs #                   581                                                                                                               428                                                                                                      
GAGE_Min contig                  208                                                                                                               208                                                                                                      
GAGE_Max contig                  94345                                                                                                             123441                                                                                                   
GAGE_N50                         21973 COUNT: 73                                                                                                   39909 COUNT: 49                                                                                          
GAGE_Genome size                 5594470                                                                                                           5594470                                                                                                  
GAGE_Assembly size               5608003                                                                                                           5617679                                                                                                  
GAGE_Chaff bases                 0                                                                                                                 0                                                                                                        
GAGE_Missing reference bases     20322(0.36%)                                                                                                      20195(0.36%)                                                                                             
GAGE_Missing assembly bases      5573(0.10%)                                                                                                       14894(0.27%)                                                                                             
GAGE_Missing assembly contigs    1(0.17%)                                                                                                          1(0.23%)                                                                                                 
GAGE_Duplicated reference bases  85664                                                                                                             77807                                                                                                    
GAGE_Compressed reference bases  175544                                                                                                            166168                                                                                                   
GAGE_Bad trim                    1                                                                                                                 351                                                                                                      
GAGE_Avg idy                     99.98                                                                                                             99.98                                                                                                    
GAGE_SNPs                        447                                                                                                               446                                                                                                      
GAGE_Indels < 5bp                284                                                                                                               303                                                                                                      
GAGE_Indels >= 5                 44                                                                                                                172                                                                                                      
GAGE_Inversions                  1                                                                                                                 6                                                                                                        
GAGE_Relocation                  3                                                                                                                 9                                                                                                        
GAGE_Translocation               1                                                                                                                 1                                                                                                        
GAGE_Corrected contig #          574                                                                                                               568                                                                                                      
GAGE_Corrected assembly size     5525177                                                                                                           5534054                                                                                                  
GAGE_Min correct contig          208                                                                                                               208                                                                                                      
GAGE_Max correct contig          94345                                                                                                             94345                                                                                                    
GAGE_Corrected N50               19482 COUNT: 78                                                                                                   20184 COUNT: 76                                                                                          
