Assembly	NEWBLER_MIS_PE_mrsa_mis-1_bi_2x250bp_default__mrsa_mis-2_bi_2x250bp_default.16coverage.contigs
#Mis_misassemblies	3
#Mis_relocations	3
#Mis_translocations	0
#Mis_inversions	0
#Mis_misassembled contigs	3
Mis_Misassembled contigs length	24259
#Mis_local misassemblies	5
#mismatches	180
#indels	32
#Mis_short indels (<= 5 bp)	32
#Mis_long indels (> 5 bp)	0
Indels length	34
