Assembly	GAGE_Contigs #	GAGE_Min contig	GAGE_Max contig	GAGE_N50	GAGE_Genome size	GAGE_Assembly size	GAGE_Chaff bases	GAGE_Missing reference bases	GAGE_Missing assembly bases	GAGE_Missing assembly contigs	GAGE_Duplicated reference bases	GAGE_Compressed reference bases	GAGE_Bad trim	GAGE_Avg idy	GAGE_SNPs	GAGE_Indels < 5bp	GAGE_Indels >= 5	GAGE_Inversions	GAGE_Relocation	GAGE_Translocation	GAGE_Corrected contig #	GAGE_Corrected assembly size	GAGE_Min correct contig	GAGE_Max correct contig	GAGE_Corrected N50
VELVET_MIS_PE_mtbh37-1_mis_2x250bp_nextera_default__mtbh37-2_mis_2x250bp_nextera_default_127.final.contigs_broken	354	219	83010	22218 COUNT: 65	4411532	4296433	0	83590(1.89%)	1011(0.02%)	0(0.00%)	1054	53887	1011	99.99	162	29	15	1	2	0	372	4300822	240	73181	20627 COUNT: 69
VELVET_MIS_PE_mtbh37-1_mis_2x250bp_nextera_default__mtbh37-2_mis_2x250bp_nextera_default_127.final.contigs	193	253	134238	54959 COUNT: 30	4411532	4320357	0	83582(1.89%)	24925(0.58%)	0(0.00%)	1054	53886	1146	99.99	162	30	171	2	3	0	371	4300831	240	73181	20627 COUNT: 69
