1: PREPARING DATA
2,3: RUNNING mummer AND CREATING CLUSTERS
# reading input file "/vol/codine-tmp/juene/tmp.XCrPkTVTG3/quast/contigs_reports/nucmer_output/ABYSS_PE_PGM_sakai_pgm_mu_318_400bp_IO_TS3.4_ms.0.925percent_112.final.ntref" of length 5594473
# construct suffix tree for sequence of length 5594473
# (maximum reference length is 536870908)
# (maximum query length is 4294967295)
# process 55944 characters per dot
#....................................................................................................
# CONSTRUCTIONTIME /vol/ngscomparison/software/analysis/quast-2.1/libs/MUMmer3.23-linux/mummer /vol/codine-tmp/juene/tmp.XCrPkTVTG3/quast/contigs_reports/nucmer_output/ABYSS_PE_PGM_sakai_pgm_mu_318_400bp_IO_TS3.4_ms.0.925percent_112.final.ntref 2.77
# reading input file "/vol/codine-tmp/juene/tmp.XCrPkTVTG3/quast/corrected_input/ABYSS_PE_PGM_sakai_pgm_mu_318_400bp_IO_TS3.4_ms.0.925percent_112.final" of length 6167119
# matching query-file "/vol/codine-tmp/juene/tmp.XCrPkTVTG3/quast/corrected_input/ABYSS_PE_PGM_sakai_pgm_mu_318_400bp_IO_TS3.4_ms.0.925percent_112.final"
# against subject-file "/vol/codine-tmp/juene/tmp.XCrPkTVTG3/quast/contigs_reports/nucmer_output/ABYSS_PE_PGM_sakai_pgm_mu_318_400bp_IO_TS3.4_ms.0.925percent_112.final.ntref"
# COMPLETETIME /vol/ngscomparison/software/analysis/quast-2.1/libs/MUMmer3.23-linux/mummer /vol/codine-tmp/juene/tmp.XCrPkTVTG3/quast/contigs_reports/nucmer_output/ABYSS_PE_PGM_sakai_pgm_mu_318_400bp_IO_TS3.4_ms.0.925percent_112.final.ntref 8.68
# SPACE /vol/ngscomparison/software/analysis/quast-2.1/libs/MUMmer3.23-linux/mummer /vol/codine-tmp/juene/tmp.XCrPkTVTG3/quast/contigs_reports/nucmer_output/ABYSS_PE_PGM_sakai_pgm_mu_318_400bp_IO_TS3.4_ms.0.925percent_112.final.ntref 11.52
4: FINISHING DATA
