1: PREPARING DATA
2,3: RUNNING mummer AND CREATING CLUSTERS
# reading input file "/vol/codine-tmp/juene/tmp.anmUgizCEz/quast/gage/tmp/NEWBLER_MIS_PE_mtbh37-1_mis_2x250bp_nextera_default__mtbh37-2_mis_2x250bp_nextera_default.contigs_broken.ntref" of length 4411533
# construct suffix tree for sequence of length 4411533
# (maximum reference length is 536870908)
# (maximum query length is 4294967295)
# process 44115 characters per dot
#....................................................................................................
# CONSTRUCTIONTIME /vol/ngscomparison/software/analysis/quast-2.1/libs/MUMmer3.23-linux/mummer /vol/codine-tmp/juene/tmp.anmUgizCEz/quast/gage/tmp/NEWBLER_MIS_PE_mtbh37-1_mis_2x250bp_nextera_default__mtbh37-2_mis_2x250bp_nextera_default.contigs_broken.ntref 2.34
# reading input file "/vol/codine-tmp/juene/tmp.anmUgizCEz/quast/corrected_input/NEWBLER_MIS_PE_mtbh37-1_mis_2x250bp_nextera_default__mtbh37-2_mis_2x250bp_nextera_default.contigs_broken" of length 4327285
# matching query-file "/vol/codine-tmp/juene/tmp.anmUgizCEz/quast/corrected_input/NEWBLER_MIS_PE_mtbh37-1_mis_2x250bp_nextera_default__mtbh37-2_mis_2x250bp_nextera_default.contigs_broken"
# against subject-file "/vol/codine-tmp/juene/tmp.anmUgizCEz/quast/gage/tmp/NEWBLER_MIS_PE_mtbh37-1_mis_2x250bp_nextera_default__mtbh37-2_mis_2x250bp_nextera_default.contigs_broken.ntref"
# COMPLETETIME /vol/ngscomparison/software/analysis/quast-2.1/libs/MUMmer3.23-linux/mummer /vol/codine-tmp/juene/tmp.anmUgizCEz/quast/gage/tmp/NEWBLER_MIS_PE_mtbh37-1_mis_2x250bp_nextera_default__mtbh37-2_mis_2x250bp_nextera_default.contigs_broken.ntref 6.47
# SPACE /vol/ngscomparison/software/analysis/quast-2.1/libs/MUMmer3.23-linux/mummer /vol/codine-tmp/juene/tmp.anmUgizCEz/quast/gage/tmp/NEWBLER_MIS_PE_mtbh37-1_mis_2x250bp_nextera_default__mtbh37-2_mis_2x250bp_nextera_default.contigs_broken.ntref 8.48
4: FINISHING DATA
Filtering alignments
Extracting alignment coordinates
Analyzing SNPs
Extracting alignment breakpoints
Generating report file
Found genome size at position 4 with value 4411532 aka 4411532
Calculating point at 0 and the sum is 1015191 and i is130 and lens is 137 and length is 109209
Calculating point at 1 and the sum is 2061790 and i is117 and lens is 137 and length is 66131
Calculating point at 2 and the sum is 3027809 and i is101 and lens is 137 and length is 49892
Calculating point at 3 and the sum is 4012396 and i is64 and lens is 137 and length is 13526
