All statistics are based on contigs of size >= 200 bp, unless otherwise noted (e.g., "# contigs (>= 0 bp)" and "Total length (>= 0 bp)" include all contigs).

Assembly                                                                        #Contigs (>= 0 bp)  #Contigs (>= 1000 bp)  Total length (>= 0 bp)  Total length (>= 1000 bp)  #Contigs  Largest contig  Total length  Reference length  GC (%)  Reference GC (%)  N50    NG50   N75    NG75   #misassemblies  #local misassemblies  #unaligned contigs  Unaligned contigs length  Genome fraction (%)  Duplication ratio  #N's per 100 kbp  #mismatches per 100 kbp  #indels per 100 kbp  #genes            #predicted genes (unique)  #predicted genes (>= 0 bp)  #predicted genes (>= 300 bp)  #predicted genes (>= 1500 bp)  #predicted genes (>= 3000 bp)  Largest alignment  NA50   NGA50  NA75   NGA75
SOAP2_MIS_PE_sakai_mis-1_bi_2x150bp_default.0.826percent_125.final.scaf_broken  3214                1520                   5426172                 4721363                    2854      19186           5370218       5594470           50.43   50.48             3368   3229   1809   1599   2               8                     5 + 1 part          6976                      93.110               1.002              14.15             2.27                     4.09                 3423 + 1752 part  7161                       7189                        5119                          439                            32                             19186              3342   3210   1791   1555 
SOAP2_MIS_PE_sakai_mis-1_bi_2x150bp_default.0.826percent_125.final.scaf         1151                350                    5501369                 5287878                    826       132319          5451048       5594470           50.43   50.48             33298  32443  13817  12953  17              287                   14 + 10 part        28522                     93.379               1.013              1393.44           4.23                     329.92               4568 + 588 part   6403                       6425                        4946                          493                            41                             131906             33248  32068  13684  12554
