Assembly	SOAP2_PGM_mrsa_pgm_400bp_es_318_IKA_ts3.2_morestringent.0.165percent_45.final.contig
#Contigs	3109
#Contigs (>= 0 bp)	320151
#Contigs (>= 1000 bp)	0
Largest contig	659
Total length	710414
Total length (>= 0 bp)	24148959
Total length (>= 1000 bp)	0
Reference length	2813862
N50	220
NG50	None
N75	208
NG75	None
L50	1407
LG50	None
L75	2238
LG75	None
#local misassemblies	0
#misassemblies	0
#misassembled contigs	0
Misassembled contigs length	0
Misassemblies inter-contig overlap	0
#unaligned contigs	2934 + 1 part
Unaligned contigs length	670140
#ambiguously mapped contigs	1
Extra bases in ambiguously mapped contigs	-216
#N's	0
#N's per 100 kbp	0.00
Genome fraction (%)	1.411
Duplication ratio	1.009
#genes	0 + 150 part
#predicted genes (unique)	1553
#predicted genes (>= 0 bp)	1553
#predicted genes (>= 300 bp)	8
#predicted genes (>= 1500 bp)	0
#predicted genes (>= 3000 bp)	0
#mismatches	16
#indels	295
Indels length	304
#mismatches per 100 kbp	40.29
#indels per 100 kbp	742.77
GC (%)	30.70
Reference GC (%)	32.81
Average %IDY	99.164
Largest alignment	370
NA50	None
NGA50	None
NA75	None
NGA75	None
LA50	None
LGA50	None
LA75	None
LGA75	None
#Mis_misassemblies	0
#Mis_relocations	0
#Mis_translocations	0
#Mis_inversions	0
#Mis_misassembled contigs	0
Mis_Misassembled contigs length	0
#Mis_local misassemblies	0
#Mis_short indels (<= 5 bp)	295
#Mis_long indels (> 5 bp)	0
#Una_fully unaligned contigs	2934
Una_Fully unaligned length	669981
#Una_partially unaligned contigs	1
#Una_with misassembly	0
#Una_both parts are significant	0
Una_Partially unaligned length	159
GAGE_Contigs #	3109
GAGE_Min contig	200
GAGE_Max contig	659
GAGE_N50	0 COUNT: 0
GAGE_Genome size	2813862
GAGE_Assembly size	710414
GAGE_Chaff bases	0
GAGE_Missing reference bases	2543185(90.38%)
GAGE_Missing assembly bases	426286(60.01%)
GAGE_Missing assembly contigs	1757(56.51%)
GAGE_Duplicated reference bases	3924
GAGE_Compressed reference bases	1531
GAGE_Bad trim	18550
GAGE_Avg idy	96.55
GAGE_SNPs	549
GAGE_Indels < 5bp	8636
GAGE_Indels >= 5	2
GAGE_Inversions	1
GAGE_Relocation	0
GAGE_Translocation	0
GAGE_Corrected contig #	1000
GAGE_Corrected assembly size	222581
GAGE_Min correct contig	200
GAGE_Max correct contig	370
GAGE_Corrected N50	0 COUNT: 0
