Assembly	#Contigs	#Contigs (>= 0 bp)	#Contigs (>= 1000 bp)	Largest contig	Total length	Total length (>= 0 bp)	Total length (>= 1000 bp)	Reference length	N50	NG50	N75	NG75	L50	LG50	L75	LG75	#local misassemblies	#misassemblies	#misassembled contigs	Misassembled contigs length	Misassemblies inter-contig overlap	#unaligned contigs	Unaligned contigs length	#ambiguously mapped contigs	Extra bases in ambiguously mapped contigs	#N's	#N's per 100 kbp	Genome fraction (%)	Duplication ratio	#genes	#predicted genes (unique)	#predicted genes (>= 0 bp)	#predicted genes (>= 300 bp)	#predicted genes (>= 1500 bp)	#predicted genes (>= 3000 bp)	#mismatches	#indels	Indels length	#mismatches per 100 kbp	#indels per 100 kbp	GC (%)	Reference GC (%)	Average %IDY	Largest alignment	NA50	NGA50	NA75	NGA75	LA50	LGA50	LA75	LGA75	#Mis_misassemblies	#Mis_relocations	#Mis_translocations	#Mis_inversions	#Mis_misassembled contigs	Mis_Misassembled contigs length	#Mis_local misassemblies	#Mis_short indels (<= 5 bp)	#Mis_long indels (> 5 bp)	#Una_fully unaligned contigs	Una_Fully unaligned length	#Una_partially unaligned contigs	#Una_with misassembly	#Una_both parts are significant	Una_Partially unaligned length	GAGE_Contigs #	GAGE_Min contig	GAGE_Max contig	GAGE_N50	GAGE_Genome size	GAGE_Assembly size	GAGE_Chaff bases	GAGE_Missing reference bases	GAGE_Missing assembly bases	GAGE_Missing assembly contigs	GAGE_Duplicated reference bases	GAGE_Compressed reference bases	GAGE_Bad trim	GAGE_Avg idy	GAGE_SNPs	GAGE_Indels < 5bp	GAGE_Indels >= 5	GAGE_Inversions	GAGE_Relocation	GAGE_Translocation	GAGE_Corrected contig #	GAGE_Corrected assembly size	GAGE_Min correct contig	GAGE_Max correct contig	GAGE_Corrected N50
ABYSS_PE_MIS_PE_mrsa_mis-1_bi_2x150bp_default__mrsa_mis-2_bi_2x150bp_default.0.950percent_98.final_broken	51	114	39	345380	2799482	2809080	2793920	2813862	225822	225822	125115	125115	5	5	10	10	2	2	2	149732	766	0 + 0 part	0	11	-9142	8	0.29	98.986	1.002	2691 + 20 part	2625	2632	2292	302	30	71	13	61	2.55	0.47	32.71	32.81	98.496	345380	225822	225822	125115	125115	5	5	10	10	2	2	0	0	2	149732	2	11	2	0	0	0	0	0	0	51	203	345380	225822 COUNT: 5	2813862	2799482	0	671(0.02%)	1(0.00%)	0(0.00%)	911	27171	0	99.99	56	11	3	0	2	0	54	2799914	203	345380	163095 COUNT: 6
ABYSS_PE_MIS_PE_mrsa_mis-1_bi_2x150bp_default__mrsa_mis-2_bi_2x150bp_default.0.950percent_98.final	34	97	27	812402	2800645	2810243	2797296	2813862	329086	329086	305764	305764	3	3	5	5	9	4	4	1217167	766	0 + 0 part	0	8	-8189	1171	41.81	99.002	1.003	2695 + 16 part	2622	2629	2291	302	30	76	128	262	2.73	4.59	32.71	32.81	98.487	773801	324956	324956	149639	149639	3	3	6	6	4	4	0	0	4	1217167	9	123	5	0	0	0	0	0	0	34	203	812402	329086 COUNT: 3	2813862	2800645	0	671(0.02%)	1164(0.04%)	0(0.00%)	911	27163	50	99.99	56	11	13	0	4	0	54	2799914	203	345380	163095 COUNT: 6
