All statistics are based on contigs of size >= 200 bp, unless otherwise noted (e.g., "# contigs (>= 0 bp)" and "Total length (>= 0 bp)" include all contigs).

Assembly                                                                                          #Contigs (>= 0 bp)  #Contigs (>= 1000 bp)  Total length (>= 0 bp)  Total length (>= 1000 bp)  #Contigs  Largest contig  Total length  Reference length  GC (%)  Reference GC (%)  N50     NG50    N75    NG75   #misassemblies  #local misassemblies  #unaligned contigs  Unaligned contigs length  Genome fraction (%)  Duplication ratio  #N's per 100 kbp  #mismatches per 100 kbp  #indels per 100 kbp  #genes          #predicted genes (unique)  #predicted genes (>= 0 bp)  #predicted genes (>= 300 bp)  #predicted genes (>= 1500 bp)  #predicted genes (>= 3000 bp)  Largest alignment  NA50    NGA50   NA75   NGA75
CLC_MIS_PE_mrsa_mis-1_bi_2x150bp_default__mrsa_mis-2_bi_2x150bp_default.41coverage.result_broken  52                  47                     2776131                 2772523                    52        326057          2776131       2813862           32.67   32.81             113962  113962  68310  68310  4               9                     1 + 0 part          5386                      98.291               1.004              1.58              4.19                     1.23                 2670 + 28 part  2622                       2622                        2284                          297                            29                             326057             112301  112301  68310  61332
CLC_MIS_PE_mrsa_mis-1_bi_2x150bp_default__mrsa_mis-2_bi_2x150bp_default.41coverage.result         50                  45                     2776346                 2772738                    50        326057          2776346       2813862           32.67   32.81             146319  146319  73830  73830  4               11                    1 + 0 part          5386                      98.291               1.004              9.33              4.19                     1.23                 2670 + 28 part  2621                       2621                        2284                          297                            29                             326057             112301  112301  68310  68310
