Assembly	VELVET_PGM_mrsa_pgm_400bp_es_318_IKA_ts3.2_morestringent.0.165percent_99.final.contigs
#Mis_misassemblies	513
#Mis_relocations	473
#Mis_translocations	35
#Mis_inversions	5
#Mis_misassembled contigs	513
Mis_Misassembled contigs length	130623
#Mis_local misassemblies	3
#mismatches	1905
#indels	30320
#Mis_short indels (<= 5 bp)	30319
#Mis_long indels (> 5 bp)	1
Indels length	31150
