Assembly	SOAP2_MIS_PE_mrsa_mis-1_bi_2x250bp_default.0.460percent_65.final.scaf_broken	SOAP2_MIS_PE_mrsa_mis-1_bi_2x250bp_default.0.460percent_65.final.scaf
#Contigs	10723	10291
#Contigs (>= 0 bp)	15754	15217
#Contigs (>= 1000 bp)	977	950
Largest contig	7932	11452
Total length	4655065	4690382
Total length (>= 0 bp)	5346812	5365747
Total length (>= 1000 bp)	1930275	2164501
Reference length	2813862	2813862
N50	617	762
NG50	1539	2011
N75	248	249
NG75	829	1062
L50	1477	1157
LG50	556	419
L75	5508	5047
LG75	1175	898
#local misassemblies	11	90
#misassemblies	2	4
#misassembled contigs	2	4
Misassembled contigs length	2706	12283
Misassemblies inter-contig overlap	142	142
#unaligned contigs	6095 + 474 part	6167 + 491 part
Unaligned contigs length	1508805	1604800
#ambiguously mapped contigs	45	45
Extra bases in ambiguously mapped contigs	-10774	-10774
#N's	802	19738
#N's per 100 kbp	17.23	420.82
Genome fraction (%)	96.171	94.255
Duplication ratio	1.159	1.159
#genes	1252 + 1411 part	1396 + 1240 part
#predicted genes (unique)	11969	11869
#predicted genes (>= 0 bp)	11992	11890
#predicted genes (>= 300 bp)	3000	2996
#predicted genes (>= 1500 bp)	85	88
#predicted genes (>= 3000 bp)	3	4
#mismatches	4007	3850
#indels	425	2720
Indels length	3798	13079
#mismatches per 100 kbp	148.07	145.16
#indels per 100 kbp	15.71	102.56
GC (%)	34.49	34.49
Reference GC (%)	32.81	32.81
Average %IDY	98.654	98.406
Largest alignment	7932	11452
NA50	605	636
NGA50	1530	1960
NA75	None	None
NGA75	817	948
LA50	1486	1237
LGA50	556	426
LA75	None	None
LGA75	1179	935
#Mis_misassemblies	2	4
#Mis_relocations	2	4
#Mis_translocations	0	0
#Mis_inversions	0	0
#Mis_misassembled contigs	2	4
Mis_Misassembled contigs length	2706	12283
#Mis_local misassemblies	11	90
#Mis_short indels (<= 5 bp)	348	2432
#Mis_long indels (> 5 bp)	77	288
#Una_fully unaligned contigs	6095	6167
Una_Fully unaligned length	1470997	1550474
#Una_partially unaligned contigs	474	491
#Una_with misassembly	0	0
#Una_both parts are significant	0	14
Una_Partially unaligned length	37808	54326
GAGE_Contigs #	10723	10291
GAGE_Min contig	200	200
GAGE_Max contig	7932	11452
GAGE_N50	1539 COUNT: 556	2011 COUNT: 419
GAGE_Genome size	2813862	2813862
GAGE_Assembly size	4655065	4690382
GAGE_Chaff bases	0	0
GAGE_Missing reference bases	53874(1.91%)	48769(1.73%)
GAGE_Missing assembly bases	1319122(28.34%)	1338969(28.55%)
GAGE_Missing assembly contigs	5321(49.62%)	5322(51.72%)
GAGE_Duplicated reference bases	463554	473439
GAGE_Compressed reference bases	50652	50926
GAGE_Bad trim	44695	46509
GAGE_Avg idy	99.88	99.86
GAGE_SNPs	1706	1584
GAGE_Indels < 5bp	227	265
GAGE_Indels >= 5	87	442
GAGE_Inversions	0	0
GAGE_Relocation	2	3
GAGE_Translocation	0	0
GAGE_Corrected contig #	3195	3162
GAGE_Corrected assembly size	2851765	2847902
GAGE_Min correct contig	200	200
GAGE_Max correct contig	7834	7834
GAGE_Corrected N50	1440 COUNT: 589	1447 COUNT: 585
