Assembly	SOAP2_MIS_PE_mrsa_mis-1_bi_2x250bp_default.0.460percent_65.final.scaf_broken	SOAP2_MIS_PE_mrsa_mis-1_bi_2x250bp_default.0.460percent_65.final.scaf
GAGE_Contigs #	10723	10291
GAGE_Min contig	200	200
GAGE_Max contig	7932	11452
GAGE_N50	1539 COUNT: 556	2011 COUNT: 419
GAGE_Genome size	2813862	2813862
GAGE_Assembly size	4655065	4690382
GAGE_Chaff bases	0	0
GAGE_Missing reference bases	53874(1.91%)	48769(1.73%)
GAGE_Missing assembly bases	1319122(28.34%)	1338969(28.55%)
GAGE_Missing assembly contigs	5321(49.62%)	5322(51.72%)
GAGE_Duplicated reference bases	463554	473439
GAGE_Compressed reference bases	50652	50926
GAGE_Bad trim	44695	46509
GAGE_Avg idy	99.88	99.86
GAGE_SNPs	1706	1584
GAGE_Indels < 5bp	227	265
GAGE_Indels >= 5	87	442
GAGE_Inversions	0	0
GAGE_Relocation	2	3
GAGE_Translocation	0	0
GAGE_Corrected contig #	3195	3162
GAGE_Corrected assembly size	2851765	2847902
GAGE_Min correct contig	200	200
GAGE_Max correct contig	7834	7834
GAGE_Corrected N50	1440 COUNT: 589	1447 COUNT: 585
