All statistics are based on contigs of size >= 200 bp, unless otherwise noted (e.g., "# contigs (>= 0 bp)" and "Total length (>= 0 bp)" include all contigs).

Assembly                                                                      #Contigs  #Contigs (>= 0 bp)  #Contigs (>= 1000 bp)  Largest contig  Total length  Total length (>= 0 bp)  Total length (>= 1000 bp)  Reference length  N50  NG50  N75  NG75  L50   LG50  L75   LG75  #local misassemblies  #misassemblies  #misassembled contigs  Misassembled contigs length  Misassemblies inter-contig overlap  #unaligned contigs  Unaligned contigs length  #ambiguously mapped contigs  Extra bases in ambiguously mapped contigs  #N's   #N's per 100 kbp  Genome fraction (%)  Duplication ratio  #genes            #predicted genes (unique)  #predicted genes (>= 0 bp)  #predicted genes (>= 300 bp)  #predicted genes (>= 1500 bp)  #predicted genes (>= 3000 bp)  #mismatches  #indels  Indels length  #mismatches per 100 kbp  #indels per 100 kbp  GC (%)  Reference GC (%)  Average %IDY  Largest alignment  NA50  NGA50  NA75  NGA75  LA50  LGA50  LA75  LGA75  #Mis_misassemblies  #Mis_relocations  #Mis_translocations  #Mis_inversions  #Mis_misassembled contigs  Mis_Misassembled contigs length  #Mis_local misassemblies  #Mis_short indels (<= 5 bp)  #Mis_long indels (> 5 bp)  #Una_fully unaligned contigs  Una_Fully unaligned length  #Una_partially unaligned contigs  #Una_with misassembly  #Una_both parts are significant  Una_Partially unaligned length  GAGE_Contigs #  GAGE_Min contig  GAGE_Max contig  GAGE_N50         GAGE_Genome size  GAGE_Assembly size  GAGE_Chaff bases  GAGE_Missing reference bases  GAGE_Missing assembly bases  GAGE_Missing assembly contigs  GAGE_Duplicated reference bases  GAGE_Compressed reference bases  GAGE_Bad trim  GAGE_Avg idy  GAGE_SNPs  GAGE_Indels < 5bp  GAGE_Indels >= 5  GAGE_Inversions  GAGE_Relocation  GAGE_Translocation  GAGE_Corrected contig #  GAGE_Corrected assembly size  GAGE_Min correct contig  GAGE_Max correct contig  GAGE_Corrected N50
SOAP2_MIS_PE_mrsa_mis-1_bi_2x250bp_default.0.460percent_65.final.scaf_broken  10723     15754               977                    7932            4655065       5346812                 1930275                    2813862           617  1539  248  829   1477  556   5508  1175  11                    2               2                      2706                         142                                 6095 + 474 part     1508805                   45                           -10774                                     802    17.23             96.171               1.159              1252 + 1411 part  11969                      11992                       3000                          85                             3                              4007         425      3798           148.07                   15.71                34.49   32.81             98.654        7932               605   1530   None  817    1486  556    None  1179   2                   2                 0                    0                2                          2706                             11                        348                          77                         6095                          1470997                     474                               0                      0                                37808                           10723           200              7932             1539 COUNT: 556  2813862           4655065             0                 53874(1.91%)                  1319122(28.34%)              5321(49.62%)                   463554                           50652                            44695          99.88         1706       227                87                0                2                0                   3195                     2851765                       200                      7834                     1440 COUNT: 589   
SOAP2_MIS_PE_mrsa_mis-1_bi_2x250bp_default.0.460percent_65.final.scaf         10291     15217               950                    11452           4690382       5365747                 2164501                    2813862           762  2011  249  1062  1157  419   5047  898   90                    4               4                      12283                        142                                 6167 + 491 part     1604800                   45                           -10774                                     19738  420.82            94.255               1.159              1396 + 1240 part  11869                      11890                       2996                          88                             4                              3850         2720     13079          145.16                   102.56               34.49   32.81             98.406        11452              636   1960   None  948    1237  426    None  935    4                   4                 0                    0                4                          12283                            90                        2432                         288                        6167                          1550474                     491                               0                      14                               54326                           10291           200              11452            2011 COUNT: 419  2813862           4690382             0                 48769(1.73%)                  1338969(28.55%)              5322(51.72%)                   473439                           50926                            46509          99.86         1584       265                442               0                3                0                   3162                     2847902                       200                      7834                     1447 COUNT: 585   
