All statistics are based on contigs of size >= 200 bp, unless otherwise noted (e.g., "# contigs (>= 0 bp)" and "Total length (>= 0 bp)" include all contigs).

Assembly                                   VELVET_MIS_PE_mrsa_mis-1_bi_2x250bp_default__mrsa_mis-2_bi_2x250bp_default.0.460percent_209.final.contigs_broken  VELVET_MIS_PE_mrsa_mis-1_bi_2x250bp_default__mrsa_mis-2_bi_2x250bp_default.0.460percent_209.final.contigs
#Contigs                                   1827                                                                                                              1462                                                                                                     
#Contigs (>= 0 bp)                         1827                                                                                                              1462                                                                                                     
#Contigs (>= 1000 bp)                      988                                                                                                               934                                                                                                      
Largest contig                             26144                                                                                                             26144                                                                                                    
Total length                               2486281                                                                                                           2522093                                                                                                  
Total length (>= 0 bp)                     2486281                                                                                                           2522093                                                                                                  
Total length (>= 1000 bp)                  1845355                                                                                                           2109180                                                                                                  
Reference length                           2813862                                                                                                           2813862                                                                                                  
N50                                        1508                                                                                                              2083                                                                                                     
NG50                                       1345                                                                                                              1860                                                                                                     
N75                                        983                                                                                                               1233                                                                                                     
NG75                                       836                                                                                                               999                                                                                                      
L50                                        494                                                                                                               343                                                                                                      
LG50                                       609                                                                                                               417                                                                                                      
L75                                        1008                                                                                                              737                                                                                                      
LG75                                       1280                                                                                                              936                                                                                                      
#local misassemblies                       1                                                                                                                 253                                                                                                      
#misassemblies                             3                                                                                                                 3                                                                                                        
#misassembled contigs                      3                                                                                                                 3                                                                                                        
Misassembled contigs length                7417                                                                                                              7417                                                                                                     
Misassemblies inter-contig overlap         635                                                                                                               635                                                                                                      
#unaligned contigs                         4 + 1 part                                                                                                        6 + 3 part                                                                                               
Unaligned contigs length                   5401                                                                                                              14133                                                                                                    
#ambiguously mapped contigs                20                                                                                                                17                                                                                                       
Extra bases in ambiguously mapped contigs  -11213                                                                                                            -9288                                                                                                    
#N's                                       0                                                                                                                 35812                                                                                                    
#N's per 100 kbp                           0.00                                                                                                              1419.93                                                                                                  
Genome fraction (%)                        84.294                                                                                                            84.032                                                                                                   
Duplication ratio                          1.041                                                                                                             1.057                                                                                                    
#genes                                     1189 + 1327 part                                                                                                  1244 + 1269 part                                                                                         
#predicted genes (unique)                  3448                                                                                                              3413                                                                                                     
#predicted genes (>= 0 bp)                 3450                                                                                                              3415                                                                                                     
#predicted genes (>= 300 bp)               2483                                                                                                              2486                                                                                                     
#predicted genes (>= 1500 bp)              128                                                                                                               128                                                                                                      
#predicted genes (>= 3000 bp)              7                                                                                                                 7                                                                                                        
#mismatches                                91                                                                                                                95                                                                                                       
#indels                                    5                                                                                                                 2625                                                                                                     
Indels length                              5                                                                                                                 5479                                                                                                     
#mismatches per 100 kbp                    3.84                                                                                                              4.02                                                                                                     
#indels per 100 kbp                        0.21                                                                                                              111.02                                                                                                   
GC (%)                                     33.30                                                                                                             33.30                                                                                                    
Reference GC (%)                           32.81                                                                                                             32.81                                                                                                    
Average %IDY                               99.717                                                                                                            99.582                                                                                                   
Largest alignment                          26144                                                                                                             26144                                                                                                    
NA50                                       1501                                                                                                              1994                                                                                                     
NGA50                                      1339                                                                                                              1777                                                                                                     
NA75                                       979                                                                                                               1166                                                                                                     
NGA75                                      823                                                                                                               945                                                                                                      
LA50                                       495                                                                                                               356                                                                                                      
LGA50                                      611                                                                                                               433                                                                                                      
LA75                                       1012                                                                                                              769                                                                                                      
LGA75                                      1285                                                                                                              978                                                                                                      
#Mis_misassemblies                         3                                                                                                                 3                                                                                                        
#Mis_relocations                           3                                                                                                                 3                                                                                                        
#Mis_translocations                        0                                                                                                                 0                                                                                                        
#Mis_inversions                            0                                                                                                                 0                                                                                                        
#Mis_misassembled contigs                  3                                                                                                                 3                                                                                                        
Mis_Misassembled contigs length            7417                                                                                                              7417                                                                                                     
#Mis_local misassemblies                   1                                                                                                                 253                                                                                                      
#Mis_short indels (<= 5 bp)                5                                                                                                                 2571                                                                                                     
#Mis_long indels (> 5 bp)                  0                                                                                                                 54                                                                                                       
#Una_fully unaligned contigs               4                                                                                                                 6                                                                                                        
Una_Fully unaligned length                 5374                                                                                                              11243                                                                                                    
#Una_partially unaligned contigs           1                                                                                                                 3                                                                                                        
#Una_with misassembly                      0                                                                                                                 0                                                                                                        
#Una_both parts are significant            0                                                                                                                 2                                                                                                        
Una_Partially unaligned length             27                                                                                                                2890                                                                                                     
GAGE_Contigs #                             1827                                                                                                              1462                                                                                                     
GAGE_Min contig                            417                                                                                                               417                                                                                                      
GAGE_Max contig                            26144                                                                                                             26144                                                                                                    
GAGE_N50                                   1345 COUNT: 609                                                                                                   1860 COUNT: 417                                                                                          
GAGE_Genome size                           2813862                                                                                                           2813862                                                                                                  
GAGE_Assembly size                         2486281                                                                                                           2522093                                                                                                  
GAGE_Chaff bases                           0                                                                                                                 0                                                                                                        
GAGE_Missing reference bases               404326(14.37%)                                                                                                    404326(14.37%)                                                                                           
GAGE_Missing assembly bases                5420(0.22%)                                                                                                       41232(1.63%)                                                                                             
GAGE_Missing assembly contigs              4(0.22%)                                                                                                          2(0.14%)                                                                                                 
GAGE_Duplicated reference bases            1876                                                                                                              1459                                                                                                     
GAGE_Compressed reference bases            44144                                                                                                             43714                                                                                                    
GAGE_Bad trim                              46                                                                                                                43                                                                                                       
GAGE_Avg idy                               100.00                                                                                                            100.00                                                                                                   
GAGE_SNPs                                  72                                                                                                                72                                                                                                       
GAGE_Indels < 5bp                          5                                                                                                                 5                                                                                                        
GAGE_Indels >= 5                           1                                                                                                                 360                                                                                                      
GAGE_Inversions                            0                                                                                                                 0                                                                                                        
GAGE_Relocation                            2                                                                                                                 3                                                                                                        
GAGE_Translocation                         0                                                                                                                 0                                                                                                        
GAGE_Corrected contig #                    1822                                                                                                              1823                                                                                                     
GAGE_Corrected assembly size               2479623                                                                                                           2480040                                                                                                  
GAGE_Min correct contig                    417                                                                                                               417                                                                                                      
GAGE_Max correct contig                    26144                                                                                                             26144                                                                                                    
GAGE_Corrected N50                         1339 COUNT: 611                                                                                                   1339 COUNT: 611                                                                                          
