All statistics are based on contigs of size >= 200 bp, unless otherwise noted (e.g., "# contigs (>= 0 bp)" and "Total length (>= 0 bp)" include all contigs).

Assembly                                                                                                          #Contigs (>= 0 bp)  #Contigs (>= 1000 bp)  Total length (>= 0 bp)  Total length (>= 1000 bp)  #Contigs  Largest contig  Total length  Reference length  GC (%)  Reference GC (%)  N50   NG50  N75   NG75  #misassemblies  #local misassemblies  #unaligned contigs  Unaligned contigs length  Genome fraction (%)  Duplication ratio  #N's per 100 kbp  #mismatches per 100 kbp  #indels per 100 kbp  #genes            #predicted genes (unique)  #predicted genes (>= 0 bp)  #predicted genes (>= 300 bp)  #predicted genes (>= 1500 bp)  #predicted genes (>= 3000 bp)  Largest alignment  NA50  NGA50  NA75  NGA75
VELVET_MIS_PE_mrsa_mis-1_bi_2x250bp_default__mrsa_mis-2_bi_2x250bp_default.0.460percent_209.final.contigs_broken  1827                988                    2486281                 1845355                    1827      26144           2486281       2813862           33.30   32.81             1508  1345  983   836   3               1                     4 + 1 part          5401                      84.294               1.041              0.00              3.84                     0.21                 1189 + 1327 part  3448                       3450                        2483                          128                            7                              26144              1501  1339   979   823  
VELVET_MIS_PE_mrsa_mis-1_bi_2x250bp_default__mrsa_mis-2_bi_2x250bp_default.0.460percent_209.final.contigs         1462                934                    2522093                 2109180                    1462      26144           2522093       2813862           33.30   32.81             2083  1860  1233  999   3               253                   6 + 3 part          14133                     84.032               1.057              1419.93           4.02                     111.02               1244 + 1269 part  3413                       3415                        2486                          128                            7                              26144              1994  1777   1166  945  
