calling: java -cp /vol/ngscomparison/software/analysis/quast-2.1/libs/gage:. SizeFasta /vol/codine-tmp/juene/tmp.HY0CVn429Q/quast/corrected_input/Ecoli_Sakai_editedNew_plasmids.fasta |awk '{SUM+=; print SUM}'|tail -n 1
Contig Stats
Total units: 270
Reference: 5594470
BasesInFasta: 5478323
Min: 207
Max: 376754
N10: 224186 COUNT: 2
N25: 184976 COUNT: 6
N50: 107420 COUNT: 16
N75: 41801 COUNT: 36
E-size:123522.53

Genome Size: 5594470
Assembly Size: 5478323
Chaff bases: 0
Missing Reference Bases: 27808(0.50%)
Missing Assembly Bases: 2279(0.04%)
Missing Assembly Contigs: 0(0.00%)
Duplicated Reference Bases: 28684
Compressed Reference Bases: 239098
Bad Trim: 261
Avg Idy: 99.97
SNPs: 506
Indels < 5bp: 32
Indels >= 5: 38
Inversions: 7
Relocation: 7
Translocation: 0

Corrected Contig Stats
calling: java -cp /vol/ngscomparison/software/analysis/quast-2.1/libs/gage:.:. GetFastaStats -o -min 199 -genomeSize 5594470 /vol/codine-tmp/juene/tmp.HY0CVn429Q/quast/gage/tmp/ABYSS_PE_MIS_PE_sakai_mis-both_bi_2x250bp_SI_default.0.64percent.NEWBLER_74-scaffolds.matches.lens 2> /dev/null
Total units: 307
Reference: 5594470
BasesInFasta: 5451282
Min: 201
Max: 224186
N10: 199594 COUNT: 3
N25: 141296 COUNT: 8
N50: 73237 COUNT: 23
N75: 35882 COUNT: 48
E-size:88760.23

Done
