Assembly	#Contigs	#Contigs (>= 0 bp)	#Contigs (>= 1000 bp)	Largest contig	Total length	Total length (>= 0 bp)	Total length (>= 1000 bp)	Reference length	N50	NG50	N75	NG75	L50	LG50	L75	LG75	#local misassemblies	#misassemblies	#misassembled contigs	Misassembled contigs length	Misassemblies inter-contig overlap	#unaligned contigs	Unaligned contigs length	#ambiguously mapped contigs	Extra bases in ambiguously mapped contigs	#N's	#N's per 100 kbp	Genome fraction (%)	Duplication ratio	#genes	#predicted genes (unique)	#predicted genes (>= 0 bp)	#predicted genes (>= 300 bp)	#predicted genes (>= 1500 bp)	#predicted genes (>= 3000 bp)	#mismatches	#indels	Indels length	#mismatches per 100 kbp	#indels per 100 kbp	GC (%)	Reference GC (%)	Average %IDY	Largest alignment	NA50	NGA50	NA75	NGA75	LA50	LGA50	LA75	LGA75	#Mis_misassemblies	#Mis_relocations	#Mis_translocations	#Mis_inversions	#Mis_misassembled contigs	Mis_Misassembled contigs length	#Mis_local misassemblies	#Mis_short indels (<= 5 bp)	#Mis_long indels (> 5 bp)	#Una_fully unaligned contigs	Una_Fully unaligned length	#Una_partially unaligned contigs	#Una_with misassembly	#Una_both parts are significant	Una_Partially unaligned length	GAGE_Contigs #	GAGE_Min contig	GAGE_Max contig	GAGE_N50	GAGE_Genome size	GAGE_Assembly size	GAGE_Chaff bases	GAGE_Missing reference bases	GAGE_Missing assembly bases	GAGE_Missing assembly contigs	GAGE_Duplicated reference bases	GAGE_Compressed reference bases	GAGE_Bad trim	GAGE_Avg idy	GAGE_SNPs	GAGE_Indels < 5bp	GAGE_Indels >= 5	GAGE_Inversions	GAGE_Relocation	GAGE_Translocation	GAGE_Corrected contig #	GAGE_Corrected assembly size	GAGE_Min correct contig	GAGE_Max correct contig	GAGE_Corrected N50
CLC_MIS_PE_mrsa_mis-1_bi_2x150bp_default__mrsa_mis-2_bi_2x150bp_default.0.150percent.result_broken	112	112	90	149487	2777341	2777341	2765895	2813862	52833	52833	33699	32224	17	17	34	35	7	3	3	87745	869	1 + 0 part	5386	7	-8791	73	2.63	98.112	1.001	2641 + 56 part	2761	2762	2286	295	29	143	52	348	5.18	1.88	32.66	32.81	98.883	149484	52833	52062	33699	32224	17	18	34	35	3	3	0	0	3	87745	7	40	12	1	5386	0	0	0	0	112	204	149487	52833 COUNT: 17	2813862	2777341	0	8395(0.30%)	5527(0.20%)	1(0.89%)	492	40409	93	99.99	89	20	12	1	7	0	128	2772160	204	142558	48190 COUNT: 19
CLC_MIS_PE_mrsa_mis-1_bi_2x150bp_default__mrsa_mis-2_bi_2x150bp_default.0.150percent.result	108	108	89	149800	2777542	2777542	2767975	2813862	52833	52833	35025	35025	17	17	34	34	10	3	3	87745	869	1 + 0 part	5386	6	-8573	274	9.86	98.119	1.001	2642 + 55 part	2759	2760	2284	295	29	143	54	366	5.18	1.96	32.66	32.81	98.883	149702	52833	52062	34700	34696	17	18	34	35	3	3	0	0	3	87745	10	41	13	1	5386	0	0	0	0	108	204	149800	52833 COUNT: 17	2813862	2777542	0	8395(0.30%)	5728(0.21%)	1(0.93%)	492	40409	93	99.99	89	20	14	1	8	0	128	2772160	204	142558	48190 COUNT: 19
