Assembly	ABYSS_PE_MIS_PE_mrsa_mis-1_bi_2x150bp_default__mrsa_mis-2_bi_2x150bp_default.11coverage_32.final_broken	ABYSS_PE_MIS_PE_mrsa_mis-1_bi_2x150bp_default__mrsa_mis-2_bi_2x150bp_default.11coverage_32.final
GAGE_Contigs #	1144	1143
GAGE_Min contig	201	201
GAGE_Max contig	37535	37535
GAGE_N50	3890 COUNT: 200	3890 COUNT: 200
GAGE_Genome size	2813862	2813862
GAGE_Assembly size	2645047	2645481
GAGE_Chaff bases	0	0
GAGE_Missing reference bases	140968(5.01%)	140826(5.00%)
GAGE_Missing assembly bases	5058(0.19%)	5363(0.20%)
GAGE_Missing assembly contigs	2(0.17%)	2(0.17%)
GAGE_Duplicated reference bases	0	0
GAGE_Compressed reference bases	36342	36406
GAGE_Bad trim	0	255
GAGE_Avg idy	99.99	99.99
GAGE_SNPs	151	157
GAGE_Indels < 5bp	7	7
GAGE_Indels >= 5	1	2
GAGE_Inversions	0	0
GAGE_Relocation	2	2
GAGE_Translocation	0	0
GAGE_Corrected contig #	1145	1144
GAGE_Corrected assembly size	2640143	2640132
GAGE_Min correct contig	201	201
GAGE_Max correct contig	37535	37535
GAGE_Corrected N50	3864 COUNT: 201	3864 COUNT: 201
