Assembly	#Contigs (>= 0 bp)	#Contigs (>= 1000 bp)	Total length (>= 0 bp)	Total length (>= 1000 bp)	#Contigs	Largest contig	Total length	Reference length	GC (%)	Reference GC (%)	N50	NG50	N75	NG75	#misassemblies	#local misassemblies	#unaligned contigs	Unaligned contigs length	Genome fraction (%)	Duplication ratio	#N's per 100 kbp	#mismatches per 100 kbp	#indels per 100 kbp	#genes	#predicted genes (unique)	#predicted genes (>= 0 bp)	#predicted genes (>= 300 bp)	#predicted genes (>= 1500 bp)	#predicted genes (>= 3000 bp)	Largest alignment	NA50	NGA50	NA75	NGA75
SOAP2_MIS_PE_sakai_mis-1_bi_2x250bp_SI_default.0.64percent_105.final.scaf_broken	5450	943	6010758	5006683	4089	31015	5817531	5594470	50.46	50.48	6605	6917	2951	3332	9	64	9 + 3 part	7621	94.558	1.068	5.14	12.76	1.30	4029 + 1152 part	8531	8606	4774	517	34	31015	6586	6898	2903	3329
SOAP2_MIS_PE_sakai_mis-1_bi_2x250bp_SI_default.0.64percent_105.final.scaf	4461	375	6056712	5229284	3173	144620	5874559	5594470	50.47	50.48	24436	25880	9356	11413	30	829	22 + 12 part	24650	94.626	1.079	787.34	13.62	25.80	4082 + 1090 part	8253	8326	4723	542	41	143594	22933	25524	9040	10826
