All statistics are based on contigs of size >= 200 bp, unless otherwise noted (e.g., "# contigs (>= 0 bp)" and "Total length (>= 0 bp)" include all contigs).

Assembly                                                                                                          #Contigs  #Contigs (>= 0 bp)  #Contigs (>= 1000 bp)  Largest contig  Total length  Total length (>= 0 bp)  Total length (>= 1000 bp)  Reference length  N50    NG50   N75    NG75   L50  LG50  L75  LG75  #local misassemblies  #misassemblies  #misassembled contigs  Misassembled contigs length  Misassemblies inter-contig overlap  #unaligned contigs  Unaligned contigs length  #ambiguously mapped contigs  Extra bases in ambiguously mapped contigs  #N's  #N's per 100 kbp  Genome fraction (%)  Duplication ratio  #genes          #predicted genes (unique)  #predicted genes (>= 0 bp)  #predicted genes (>= 300 bp)  #predicted genes (>= 1500 bp)  #predicted genes (>= 3000 bp)  #mismatches  #indels  Indels length  #mismatches per 100 kbp  #indels per 100 kbp  GC (%)  Reference GC (%)  Average %IDY  Largest alignment  NA50   NGA50  NA75   NGA75  LA50  LGA50  LA75  LGA75  #Mis_misassemblies  #Mis_relocations  #Mis_translocations  #Mis_inversions  #Mis_misassembled contigs  Mis_Misassembled contigs length  #Mis_local misassemblies  #Mis_short indels (<= 5 bp)  #Mis_long indels (> 5 bp)  #Una_fully unaligned contigs  Una_Fully unaligned length  #Una_partially unaligned contigs  #Una_with misassembly  #Una_both parts are significant  Una_Partially unaligned length  GAGE_Contigs #  GAGE_Min contig  GAGE_Max contig  GAGE_N50         GAGE_Genome size  GAGE_Assembly size  GAGE_Chaff bases  GAGE_Missing reference bases  GAGE_Missing assembly bases  GAGE_Missing assembly contigs  GAGE_Duplicated reference bases  GAGE_Compressed reference bases  GAGE_Bad trim  GAGE_Avg idy  GAGE_SNPs  GAGE_Indels < 5bp  GAGE_Indels >= 5  GAGE_Inversions  GAGE_Relocation  GAGE_Translocation  GAGE_Corrected contig #  GAGE_Corrected assembly size  GAGE_Min correct contig  GAGE_Max correct contig  GAGE_Corrected N50
VELVET_MIS_PE_mrsa_mis-1_bi_2x250bp_default__mrsa_mis-2_bi_2x250bp_default.0.460percent_111.final.contigs_broken  191       191                 126                    149078          2785626       2785626                 2761335                    2813862           38904  38357  21380  20610  19   20    42   43    2                     3               3                      136003                       609                                 2 + 0 part          5218                      46                           -14767                                     0     0.00              98.228               1.001              2610 + 94 part  2694                       2698                        2311                          288                            27                             41           10       10             1.48                     0.36                 32.75   32.81             99.027        149078             38357  37566  20610  19950  19    20     43    44     3                   3                 0                    0                3                          136003                           2                         10                           0                          2                             5218                        0                                 0                      0                                0                               191             221              149078           38357 COUNT: 20  2813862           2785626             0                 12614(0.45%)                  5220(0.19%)                  2(1.05%)                       1820                             43283                            2              100.00        38         9                  2                 1                2                0                   187                      2779203                       221                      149078                   37566 COUNT: 21   
VELVET_MIS_PE_mrsa_mis-1_bi_2x250bp_default__mrsa_mis-2_bi_2x250bp_default.0.460percent_111.final.contigs         176       176                 114                    149078          2786325       2786325                 2764280                    2813862           41718  41567  24466  23736  17   18    38   39    10                    7               5                      203981                       1070                                2 + 0 part          5218                      45                           -14120                                     699   25.09             98.272               1.001              2612 + 92 part  2692                       2696                        2309                          289                            27                             48           15       163            1.74                     0.54                 32.75   32.81             99.037        149078             41609  39426  23736  22969  17    18     39    40     7                   7                 0                    0                5                          203981                           10                        9                            6                          2                             5218                        0                                 0                      0                                0                               176             221              149078           41567 COUNT: 18  2813862           2786325             0                 12614(0.45%)                  5919(0.21%)                  2(1.14%)                       1820                             43283                            2              100.00        37         9                  12                5                2                0                   186                      2778982                       221                      149078                   37566 COUNT: 21   
