Assembly	NEWBLER_PGM_sakai_pgm_mu_200bp_IO_TS3.0Disabled_stringent.71coverage.contigs
#Contigs	358
#Contigs (>= 0 bp)	470
#Contigs (>= 1000 bp)	169
Largest contig	288180
Total length	5321685
Total length (>= 0 bp)	5337587
Total length (>= 1000 bp)	5242254
Reference length	5594470
N50	96015
NG50	87691
N75	46437
NG75	40566
L50	18
LG50	20
L75	37
LG75	42
#local misassemblies	4
#misassemblies	3
#misassembled contigs	3
Misassembled contigs length	331334
Misassemblies inter-contig overlap	604
#unaligned contigs	1 + 1 part
Unaligned contigs length	268
#ambiguously mapped contigs	125
Extra bases in ambiguously mapped contigs	-87756
#N's	0
#N's per 100 kbp	0.00
Genome fraction (%)	93.570
Duplication ratio	1.000
#genes	4907 + 173 part
#predicted genes (unique)	5692
#predicted genes (>= 0 bp)	5692
#predicted genes (>= 300 bp)	4655
#predicted genes (>= 1500 bp)	569
#predicted genes (>= 3000 bp)	50
#mismatches	52
#indels	952
Indels length	991
#mismatches per 100 kbp	0.99
#indels per 100 kbp	18.19
GC (%)	50.27
Reference GC (%)	50.48
Average %IDY	98.993
Largest alignment	221571
NA50	90888
NGA50	87691
NA75	46435
NGA75	40498
LA50	19
LGA50	20
LA75	38
LGA75	43
#Mis_misassemblies	3
#Mis_relocations	3
#Mis_translocations	0
#Mis_inversions	0
#Mis_misassembled contigs	3
Mis_Misassembled contigs length	331334
#Mis_local misassemblies	4
#Mis_short indels (<= 5 bp)	951
#Mis_long indels (> 5 bp)	1
#Una_fully unaligned contigs	1
Una_Fully unaligned length	223
#Una_partially unaligned contigs	1
#Una_with misassembly	0
#Una_both parts are significant	0
Una_Partially unaligned length	45
GAGE_Contigs #	358
GAGE_Min contig	200
GAGE_Max contig	288180
GAGE_N50	87691 COUNT: 20
GAGE_Genome size	5594470
GAGE_Assembly size	5321685
GAGE_Chaff bases	0
GAGE_Missing reference bases	62581(1.12%)
GAGE_Missing assembly bases	48(0.00%)
GAGE_Missing assembly contigs	0(0.00%)
GAGE_Duplicated reference bases	311
GAGE_Compressed reference bases	218545
GAGE_Bad trim	48
GAGE_Avg idy	99.98
GAGE_SNPs	90
GAGE_Indels < 5bp	1012
GAGE_Indels >= 5	5
GAGE_Inversions	0
GAGE_Relocation	3
GAGE_Translocation	0
GAGE_Corrected contig #	363
GAGE_Corrected assembly size	5322596
GAGE_Min correct contig	200
GAGE_Max correct contig	221601
GAGE_Corrected N50	83023 COUNT: 22
