All statistics are based on contigs of size >= 200 bp, unless otherwise noted (e.g., "# contigs (>= 0 bp)" and "Total length (>= 0 bp)" include all contigs).

Assembly                                                                                                  GAGE_Contigs #  GAGE_Min contig  GAGE_Max contig  GAGE_N50          GAGE_Genome size  GAGE_Assembly size  GAGE_Chaff bases  GAGE_Missing reference bases  GAGE_Missing assembly bases  GAGE_Missing assembly contigs  GAGE_Duplicated reference bases  GAGE_Compressed reference bases  GAGE_Bad trim  GAGE_Avg idy  GAGE_SNPs  GAGE_Indels < 5bp  GAGE_Indels >= 5  GAGE_Inversions  GAGE_Relocation  GAGE_Translocation  GAGE_Corrected contig #  GAGE_Corrected assembly size  GAGE_Min correct contig  GAGE_Max correct contig  GAGE_Corrected N50
CLC_MIS_PE_sakai_mis-1_bi_2x250bp_SI_default__sakai_mis-2_bi_2x250bp_SI_default.96coverage.result_broken  545             201              361670           149270 COUNT: 13  5594470           5468520             0                 10844(0.19%)                  76465(1.40%)                 259(47.52%)                    15265                            234738                           527            99.99         91         16                 11                0                2                0                   247                      5377094                       201                      361670                   108204 COUNT: 15  
CLC_MIS_PE_sakai_mis-1_bi_2x250bp_SI_default__sakai_mis-2_bi_2x250bp_SI_default.96coverage.result         543             201              374691           149652 COUNT: 11  5594470           5472188             0                 10204(0.18%)                  79573(1.45%)                 264(48.62%)                    16902                            236575                           1059           99.99         119        16                 15                1                4                0                   244                      5375732                       201                      361670                   108204 COUNT: 15  
