All statistics are based on contigs of size >= 200 bp, unless otherwise noted (e.g., "# contigs (>= 0 bp)" and "Total length (>= 0 bp)" include all contigs).

Assembly                       CLC_MIS_PE_sakai_mis-1_bi_2x250bp_SI_default__sakai_mis-2_bi_2x250bp_SI_default.96coverage.result_broken  CLC_MIS_PE_sakai_mis-1_bi_2x250bp_SI_default__sakai_mis-2_bi_2x250bp_SI_default.96coverage.result
#Contigs (>= 0 bp)             564                                                                                                       543                                                                                              
#Contigs (>= 1000 bp)          135                                                                                                       130                                                                                              
Total length (>= 0 bp)         5470533                                                                                                   5472188                                                                                          
Total length (>= 1000 bp)      5333315                                                                                                   5337842                                                                                          
#Contigs                       545                                                                                                       543                                                                                              
Largest contig                 361670                                                                                                    374691                                                                                           
Total length                   5468520                                                                                                   5472188                                                                                          
Reference length               5594470                                                                                                   5594470                                                                                          
GC (%)                         50.22                                                                                                     50.23                                                                                            
Reference GC (%)               50.48                                                                                                     50.48                                                                                            
N50                            149270                                                                                                    160425                                                                                           
NG50                           149270                                                                                                    149652                                                                                           
N75                            75473                                                                                                     81052                                                                                            
NG75                           73278                                                                                                     77677                                                                                            
#misassemblies                 2                                                                                                         2                                                                                                
#local misassemblies           6                                                                                                         14                                                                                               
#unaligned contigs             260 + 6 part                                                                                              265 + 10 part                                                                                    
Unaligned contigs length       76925                                                                                                     79831                                                                                            
Genome fraction (%)            94.842                                                                                                    95.006                                                                                           
Duplication ratio              1.005                                                                                                     1.005                                                                                            
#N's per 100 kbp               1.77                                                                                                      32.11                                                                                            
#mismatches per 100 kbp        1.77                                                                                                      1.77                                                                                             
#indels per 100 kbp            0.90                                                                                                      1.02                                                                                             
#genes                         5054 + 123 part                                                                                           5064 + 122 part                                                                                  
#predicted genes (unique)      5571                                                                                                      5575                                                                                             
#predicted genes (>= 0 bp)     5571                                                                                                      5575                                                                                             
#predicted genes (>= 300 bp)   4509                                                                                                      4509                                                                                             
#predicted genes (>= 1500 bp)  668                                                                                                       669                                                                                              
#predicted genes (>= 3000 bp)  69                                                                                                        68                                                                                               
Largest alignment              361670                                                                                                    361670                                                                                           
NA50                           147892                                                                                                    149652                                                                                           
NGA50                          147892                                                                                                    149270                                                                                           
NA75                           75473                                                                                                     81052                                                                                            
NGA75                          73278                                                                                                     77677                                                                                            
