Assembly	ABYSS_PE_MIS_PE_sakai_mis-both_bi_2x250bp_SI_default.0.64percent.NEWBLER_84-scaffolds_broken	ABYSS_PE_MIS_PE_sakai_mis-both_bi_2x250bp_SI_default.0.64percent.NEWBLER_84-scaffolds
#Mis_misassemblies	5	15
#Mis_relocations	5	15
#Mis_translocations	0	0
#Mis_inversions	0	0
#Mis_misassembled contigs	5	14
Mis_Misassembled contigs length	220413	520926
#Mis_local misassemblies	3	27
#mismatches	702	705
#indels	44	195
#Mis_short indels (<= 5 bp)	34	170
#Mis_long indels (> 5 bp)	10	25
Indels length	449	940
