calling: java -cp /vol/ngscomparison/software/analysis/quast-2.1/libs/gage:. SizeFasta /vol/codine-tmp/juene/tmp.Y2baCxayg2/quast/corrected_input/Mycobacterium_tuberculosis_H37Rv.fasta |awk '{SUM+=; print SUM}'|tail -n 1
Contig Stats
Total units: 139
Reference: 4411532
BasesInFasta: 4321026
Min: 499
Max: 195811
N10: 150776 COUNT: 3
N25: 98849 COUNT: 8
N50: 63172 COUNT: 23
N75: 41423 COUNT: 44
E-size:75554.93

Genome Size: 4411532
Assembly Size: 4321026
Chaff bases: 0
Missing Reference Bases: 80132(1.82%)
Missing Assembly Bases: 246(0.01%)
Missing Assembly Contigs: 0(0.00%)
Duplicated Reference Bases: 0
Compressed Reference Bases: 11905
Bad Trim: 246
Avg Idy: 99.99
SNPs: 107
Indels < 5bp: 32
Indels >= 5: 6
Inversions: 0
Relocation: 1
Translocation: 0

Corrected Contig Stats
calling: java -cp /vol/ngscomparison/software/analysis/quast-2.1/libs/gage:.:. GetFastaStats -o -min 199 -genomeSize 4411532 /vol/codine-tmp/juene/tmp.Y2baCxayg2/quast/gage/tmp/NEWBLER_MIS_PE_mtbh37-1_mis_2x250bp_nextera_default__mtbh37-2_mis_2x250bp_nextera_default.0.700percent.contigs_broken.matches.lens 2> /dev/null
Total units: 146
Reference: 4411532
BasesInFasta: 4321271
Min: 499
Max: 187140
N10: 144848 COUNT: 3
N25: 90232 COUNT: 9
N50: 62906 COUNT: 25
N75: 36413 COUNT: 47
E-size:69038.28

Done
