All statistics are based on contigs of size >= 200 bp, unless otherwise noted (e.g., "# contigs (>= 0 bp)" and "Total length (>= 0 bp)" include all contigs).

Assembly                                                                                      #Contigs  #Contigs (>= 0 bp)  #Contigs (>= 1000 bp)  Largest contig  Total length  Total length (>= 0 bp)  Total length (>= 1000 bp)  Reference length  N50    NG50   N75    NG75   L50  LG50  L75  LG75  #local misassemblies  #misassemblies  #misassembled contigs  Misassembled contigs length  Misassemblies inter-contig overlap  #unaligned contigs  Unaligned contigs length  #ambiguously mapped contigs  Extra bases in ambiguously mapped contigs  #N's  #N's per 100 kbp  Genome fraction (%)  Duplication ratio  #genes           #predicted genes (unique)  #predicted genes (>= 0 bp)  #predicted genes (>= 300 bp)  #predicted genes (>= 1500 bp)  #predicted genes (>= 3000 bp)  #mismatches  #indels  Indels length  #mismatches per 100 kbp  #indels per 100 kbp  GC (%)  Reference GC (%)  Average %IDY  Largest alignment  NA50   NGA50  NA75   NGA75  LA50  LGA50  LA75  LGA75  #Mis_misassemblies  #Mis_relocations  #Mis_translocations  #Mis_inversions  #Mis_misassembled contigs  Mis_Misassembled contigs length  #Mis_local misassemblies  #Mis_short indels (<= 5 bp)  #Mis_long indels (> 5 bp)  #Una_fully unaligned contigs  Una_Fully unaligned length  #Una_partially unaligned contigs  #Una_with misassembly  #Una_both parts are significant  Una_Partially unaligned length  GAGE_Contigs #  GAGE_Min contig  GAGE_Max contig  GAGE_N50         GAGE_Genome size  GAGE_Assembly size  GAGE_Chaff bases  GAGE_Missing reference bases  GAGE_Missing assembly bases  GAGE_Missing assembly contigs  GAGE_Duplicated reference bases  GAGE_Compressed reference bases  GAGE_Bad trim  GAGE_Avg idy  GAGE_SNPs  GAGE_Indels < 5bp  GAGE_Indels >= 5  GAGE_Inversions  GAGE_Relocation  GAGE_Translocation  GAGE_Corrected contig #  GAGE_Corrected assembly size  GAGE_Min correct contig  GAGE_Max correct contig  GAGE_Corrected N50
ABYSS_PE_MIS_PE_sakai_mis-both_bi_2x250bp_SI_default.0.64percent.NEWBLER_36-scaffolds_broken  341       2039                236                    158181          5335781       5465472                 5281530                    5594470           57485  55032  27959  24056  28   30    62   70    9                     2               2                      82446                        1071                                0 + 0 part          0                         55                           -53946                                     146   2.74              93.914               1.006              4894 + 180 part  5178                       5248                        4402                          668                            66                             788          39       196            15.00                    0.74                 50.29   50.48             99.318        158181             57485  55032  27924  24056  28    30     63    70     2                   2                 0                    0                2                          82446                            9                         33                           6                          0                             0                           0                                 0                      0                                0                               341             202              158181           55032 COUNT: 30  5594470           5335781             0                 145359(2.60%)                 40(0.00%)                    0(0.00%)                       4728                             190464                           39             99.98         654        32                 14                0                2                0                   349                      5332306                       202                      155238                   52899 COUNT: 32   
ABYSS_PE_MIS_PE_sakai_mis-both_bi_2x250bp_SI_default.0.64percent.NEWBLER_36-scaffolds         279       1966                202                    218771          5340791       5469198                 5299689                    5594470           67102  65495  32925  29461  25   27    51   57    32                    6               5                      148306                       1435                                1 + 2 part          2032                      30                           -35686                                     3872  72.50             94.219               1.006              4925 + 177 part  5164                       5231                        4405                          670                            66                             845          177      606            16.03                    3.36                 50.29   50.48             99.199        218771             67102  65495  32735  29461  25    27     51    57     6                   6                 0                    0                5                          148306                           32                        156                          21                         1                             694                         2                                 0                      2                                1338                            279             203              218771           65495 COUNT: 27  5594470           5340791             0                 147771(2.64%)                 3241(0.06%)                  0(0.00%)                       4783                             189523                           793            99.96         645        52                 51                3                8                0                   334                      5333679                       202                      155238                   52899 COUNT: 31   
