Assembly	VELVET_MIS_PE_mtbh37-1_mis_2x250bp_nextera_default__mtbh37-2_mis_2x250bp_nextera_default_165.final.contigs_broken	VELVET_MIS_PE_mtbh37-1_mis_2x250bp_nextera_default__mtbh37-2_mis_2x250bp_nextera_default_165.final.contigs
#Contigs	486	281
#Contigs (>= 0 bp)	486	281
#Contigs (>= 1000 bp)	439	255
Largest contig	71538	127963
Total length	4297808	4329195
Total length (>= 0 bp)	4297808	4329195
Total length (>= 1000 bp)	4268289	4313463
Reference length	4411532	4411532
N50	14770	29204
NG50	14111	28449
N75	8332	16019
NG75	7764	14760
L50	88	45
LG50	92	46
L75	185	94
LG75	195	98
#local misassemblies	6	201
#misassemblies	8	8
#misassembled contigs	8	8
Misassembled contigs length	65714	79099
Misassemblies inter-contig overlap	7157	5714
#unaligned contigs	0 + 1 part	0 + 0 part
Unaligned contigs length	13	0
#ambiguously mapped contigs	17	17
Extra bases in ambiguously mapped contigs	-12388	-12388
#N's	0	31387
#N's per 100 kbp	0.00	725.01
Genome fraction (%)	96.902	96.907
Duplication ratio	1.004	1.011
#genes	3642 + 460 part	3652 + 450 part
#predicted genes (unique)	4295	4266
#predicted genes (>= 0 bp)	4321	4292
#predicted genes (>= 300 bp)	3673	3676
#predicted genes (>= 1500 bp)	518	520
#predicted genes (>= 3000 bp)	64	63
#mismatches	587	588
#indels	54	208
Indels length	81	500
#mismatches per 100 kbp	13.73	13.75
#indels per 100 kbp	1.26	4.87
GC (%)	65.45	65.45
Reference GC (%)	65.61	65.61
Average %IDY	99.783	99.778
Largest alignment	71538	125992
NA50	14708	28204
NGA50	14042	28046
NA75	8153	15178
NGA75	7640	14042
LA50	89	46
LGA50	93	47
LA75	186	96
LGA75	197	101
#Mis_misassemblies	8	8
#Mis_relocations	8	8
#Mis_translocations	0	0
#Mis_inversions	0	0
#Mis_misassembled contigs	8	8
Mis_Misassembled contigs length	65714	79099
#Mis_local misassemblies	6	201
#Mis_short indels (<= 5 bp)	52	199
#Mis_long indels (> 5 bp)	2	9
#Una_fully unaligned contigs	0	0
Una_Fully unaligned length	0	0
#Una_partially unaligned contigs	1	0
#Una_with misassembly	0	0
#Una_both parts are significant	0	0
Una_Partially unaligned length	13	0
GAGE_Contigs #	486	281
GAGE_Min contig	329	329
GAGE_Max contig	71538	127963
GAGE_N50	14111 COUNT: 92	28449 COUNT: 46
GAGE_Genome size	4411532	4411532
GAGE_Assembly size	4297808	4329195
GAGE_Chaff bases	0	0
GAGE_Missing reference bases	96312(2.18%)	96312(2.18%)
GAGE_Missing assembly bases	1256(0.03%)	32667(0.75%)
GAGE_Missing assembly contigs	0(0.00%)	0(0.00%)
GAGE_Duplicated reference bases	2747	2747
GAGE_Compressed reference bases	49340	49340
GAGE_Bad trim	1256	1038
GAGE_Avg idy	99.98	99.98
GAGE_SNPs	212	212
GAGE_Indels < 5bp	26	26
GAGE_Indels >= 5	6	208
GAGE_Inversions	1	2
GAGE_Relocation	4	6
GAGE_Translocation	0	0
GAGE_Corrected contig #	499	499
GAGE_Corrected assembly size	4303277	4303253
GAGE_Min correct contig	240	240
GAGE_Max correct contig	71538	71538
GAGE_Corrected N50	14019 COUNT: 95	14019 COUNT: 95
