Assembly	VELVET_PGM_sakai_pgm_mu_318_400bp_IO_TS3.4_ms_0.395percent_69.final.contigs
#Contigs	5418
#Contigs (>= 0 bp)	33821
#Contigs (>= 1000 bp)	0
Largest contig	621
Total length	1217672
Total length (>= 0 bp)	5953563
Total length (>= 1000 bp)	0
Reference length	5594470
N50	218
NG50	None
N75	206
NG75	None
L50	2478
LG50	None
L75	3914
LG75	None
#local misassemblies	1
#misassemblies	127
#misassembled contigs	127
Misassembled contigs length	28327
Misassemblies inter-contig overlap	217
#unaligned contigs	468 + 68 part
Unaligned contigs length	112625
#ambiguously mapped contigs	71
Extra bases in ambiguously mapped contigs	-15411
#N's	0
#N's per 100 kbp	0.00
Genome fraction (%)	17.852
Duplication ratio	1.091
#genes	13 + 2601 part
#predicted genes (unique)	4118
#predicted genes (>= 0 bp)	4118
#predicted genes (>= 300 bp)	52
#predicted genes (>= 1500 bp)	0
#predicted genes (>= 3000 bp)	0
#mismatches	630
#indels	15495
Indels length	15797
#mismatches per 100 kbp	63.08
#indels per 100 kbp	1551.47
GC (%)	49.46
Reference GC (%)	50.48
Average %IDY	98.344
Largest alignment	621
NA50	214
NGA50	None
NA75	202
NGA75	None
LA50	2519
LGA50	None
LA75	3987
LGA75	None
#Mis_misassemblies	127
#Mis_relocations	120
#Mis_translocations	7
#Mis_inversions	0
#Mis_misassembled contigs	127
Mis_Misassembled contigs length	28327
#Mis_local misassemblies	1
#Mis_short indels (<= 5 bp)	15495
#Mis_long indels (> 5 bp)	0
#Una_fully unaligned contigs	468
Una_Fully unaligned length	105210
#Una_partially unaligned contigs	68
#Una_with misassembly	0
#Una_both parts are significant	0
Una_Partially unaligned length	7415
GAGE_Contigs #	5418
GAGE_Min contig	200
GAGE_Max contig	621
GAGE_N50	0 COUNT: 0
GAGE_Genome size	5594470
GAGE_Assembly size	1217672
GAGE_Chaff bases	0
GAGE_Missing reference bases	4437881(79.33%)
GAGE_Missing assembly bases	22630(1.86%)
GAGE_Missing assembly contigs	59(1.09%)
GAGE_Duplicated reference bases	37246
GAGE_Compressed reference bases	81781
GAGE_Bad trim	8919
GAGE_Avg idy	98.26
GAGE_SNPs	656
GAGE_Indels < 5bp	17164
GAGE_Indels >= 5	6
GAGE_Inversions	71
GAGE_Relocation	29
GAGE_Translocation	10
GAGE_Corrected contig #	4564
GAGE_Corrected assembly size	1028454
GAGE_Min correct contig	200
GAGE_Max correct contig	622
GAGE_Corrected N50	0 COUNT: 0
