Assembly	CLC_MIS_PE_mtbh37-1_mis_2x250bp_nextera_default__mtbh37-2_mis_2x250bp_nextera_default.0.450percent.result_broken	CLC_MIS_PE_mtbh37-1_mis_2x250bp_nextera_default__mtbh37-2_mis_2x250bp_nextera_default.0.450percent.result
#Contigs	376	470
#Contigs (>= 0 bp)	792	470
#Contigs (>= 1000 bp)	156	133
Largest contig	231084	232437
Total length	4376101	4422304
Total length (>= 0 bp)	4406956	4422304
Total length (>= 1000 bp)	4305672	4323418
Reference length	4411532	4411532
N50	60581	68450
NG50	60581	68450
N75	31646	36269
NG75	31019	36269
L50	24	19
LG50	24	19
L75	50	41
LG75	51	41
#local misassemblies	8	41
#misassemblies	6	8
#misassembled contigs	6	8
Misassembled contigs length	137441	138729
Misassemblies inter-contig overlap	22195	32163
#unaligned contigs	62 + 41 part	162 + 85 part
Unaligned contigs length	20814	55528
#ambiguously mapped contigs	27	26
Extra bases in ambiguously mapped contigs	-16572	-16349
#N's	387	16059
#N's per 100 kbp	8.84	363.14
Genome fraction (%)	97.912	97.965
Duplication ratio	1.010	1.014
#genes	3929 + 120 part	3940 + 109 part
#predicted genes (unique)	4185	4174
#predicted genes (>= 0 bp)	4187	4177
#predicted genes (>= 300 bp)	3574	3568
#predicted genes (>= 1500 bp)	566	567
#predicted genes (>= 3000 bp)	73	73
#mismatches	398	413
#indels	206	273
Indels length	619	862
#mismatches per 100 kbp	9.21	9.56
#indels per 100 kbp	4.77	6.32
GC (%)	65.66	65.83
Reference GC (%)	65.61	65.61
Average %IDY	99.320	99.241
Largest alignment	231084	232437
NA50	60581	68450
NGA50	60581	68450
NA75	30898	36269
NGA75	30811	36269
LA50	24	19
LGA50	24	19
LA75	51	41
LGA75	52	41
#Mis_misassemblies	6	8
#Mis_relocations	6	8
#Mis_translocations	0	0
#Mis_inversions	0	0
#Mis_misassembled contigs	6	8
Mis_Misassembled contigs length	137441	138729
#Mis_local misassemblies	8	41
#Mis_short indels (<= 5 bp)	189	247
#Mis_long indels (> 5 bp)	17	26
#Una_fully unaligned contigs	62	162
Una_Fully unaligned length	16684	43034
#Una_partially unaligned contigs	41	85
#Una_with misassembly	0	0
#Una_both parts are significant	0	2
Una_Partially unaligned length	4130	12494
GAGE_Contigs #	376	470
GAGE_Min contig	200	200
GAGE_Max contig	231084	232437
GAGE_N50	60581 COUNT: 24	68450 COUNT: 19
GAGE_Genome size	4411532	4411532
GAGE_Assembly size	4376101	4422304
GAGE_Chaff bases	0	0
GAGE_Missing reference bases	30112(0.68%)	28032(0.64%)
GAGE_Missing assembly bases	21829(0.50%)	61856(1.40%)
GAGE_Missing assembly contigs	62(16.49%)	161(34.26%)
GAGE_Duplicated reference bases	19943	24302
GAGE_Compressed reference bases	51841	52217
GAGE_Bad trim	4767	14022
GAGE_Avg idy	99.98	99.97
GAGE_SNPs	265	273
GAGE_Indels < 5bp	53	62
GAGE_Indels >= 5	23	60
GAGE_Inversions	1	1
GAGE_Relocation	4	6
GAGE_Translocation	0	0
GAGE_Corrected contig #	247	234
GAGE_Corrected assembly size	4335558	4335948
GAGE_Min correct contig	207	207
GAGE_Max correct contig	231080	232433
GAGE_Corrected N50	46328 COUNT: 28	48118 COUNT: 27
