All statistics are based on contigs of size >= 200 bp, unless otherwise noted (e.g., "# contigs (>= 0 bp)" and "Total length (>= 0 bp)" include all contigs).

Assembly                         CLC_MIS_PE_mtbh37-1_mis_2x250bp_nextera_default__mtbh37-2_mis_2x250bp_nextera_default.0.450percent.result_broken  CLC_MIS_PE_mtbh37-1_mis_2x250bp_nextera_default__mtbh37-2_mis_2x250bp_nextera_default.0.450percent.result
GAGE_Contigs #                   376                                                                                                               470                                                                                                      
GAGE_Min contig                  200                                                                                                               200                                                                                                      
GAGE_Max contig                  231084                                                                                                            232437                                                                                                   
GAGE_N50                         60581 COUNT: 24                                                                                                   68450 COUNT: 19                                                                                          
GAGE_Genome size                 4411532                                                                                                           4411532                                                                                                  
GAGE_Assembly size               4376101                                                                                                           4422304                                                                                                  
GAGE_Chaff bases                 0                                                                                                                 0                                                                                                        
GAGE_Missing reference bases     30112(0.68%)                                                                                                      28032(0.64%)                                                                                             
GAGE_Missing assembly bases      21829(0.50%)                                                                                                      61856(1.40%)                                                                                             
GAGE_Missing assembly contigs    62(16.49%)                                                                                                        161(34.26%)                                                                                              
GAGE_Duplicated reference bases  19943                                                                                                             24302                                                                                                    
GAGE_Compressed reference bases  51841                                                                                                             52217                                                                                                    
GAGE_Bad trim                    4767                                                                                                              14022                                                                                                    
GAGE_Avg idy                     99.98                                                                                                             99.97                                                                                                    
GAGE_SNPs                        265                                                                                                               273                                                                                                      
GAGE_Indels < 5bp                53                                                                                                                62                                                                                                       
GAGE_Indels >= 5                 23                                                                                                                60                                                                                                       
GAGE_Inversions                  1                                                                                                                 1                                                                                                        
GAGE_Relocation                  4                                                                                                                 6                                                                                                        
GAGE_Translocation               0                                                                                                                 0                                                                                                        
GAGE_Corrected contig #          247                                                                                                               234                                                                                                      
GAGE_Corrected assembly size     4335558                                                                                                           4335948                                                                                                  
GAGE_Min correct contig          207                                                                                                               207                                                                                                      
GAGE_Max correct contig          231080                                                                                                            232433                                                                                                   
GAGE_Corrected N50               46328 COUNT: 28                                                                                                   48118 COUNT: 27                                                                                          
