Assembly	VELVET_PGM_mrsa_pgm_200bp_es_316_IonOnev2_ts3.0_morestringent.0.230percent_125.final.contigs
#Mis_misassemblies	16
#Mis_relocations	3
#Mis_translocations	0
#Mis_inversions	13
#Mis_misassembled contigs	16
Mis_Misassembled contigs length	13050
#Mis_local misassemblies	0
#mismatches	187
#indels	1475
#Mis_short indels (<= 5 bp)	1475
#Mis_long indels (> 5 bp)	0
Indels length	1493
