All statistics are based on contigs of size >= 200 bp, unless otherwise noted (e.g., "# contigs (>= 0 bp)" and "Total length (>= 0 bp)" include all contigs).

Assembly                                   ABYSS_PE_MIS_PE_sakai_mis-1_bi_2x250bp_SI_default__sakai_mis-2_bi_2x250bp_SI_default.0.85percent_90.final_broken  ABYSS_PE_MIS_PE_sakai_mis-1_bi_2x250bp_SI_default__sakai_mis-2_bi_2x250bp_SI_default.0.85percent_90.final
#Contigs                                   591                                                                                                               591                                                                                                      
#Contigs (>= 0 bp)                         1158                                                                                                              1158                                                                                                     
#Contigs (>= 1000 bp)                      207                                                                                                               207                                                                                                      
Largest contig                             224315                                                                                                            224315                                                                                                   
Total length                               5378494                                                                                                           5378494                                                                                                  
Total length (>= 0 bp)                     5456733                                                                                                           5456733                                                                                                  
Total length (>= 1000 bp)                  5232515                                                                                                           5232515                                                                                                  
Reference length                           5594470                                                                                                           5594470                                                                                                  
N50                                        84282                                                                                                             84282                                                                                                    
NG50                                       81499                                                                                                             81499                                                                                                    
N75                                        32092                                                                                                             32092                                                                                                    
NG75                                       29887                                                                                                             29887                                                                                                    
L50                                        20                                                                                                                20                                                                                                       
LG50                                       21                                                                                                                21                                                                                                       
L75                                        44                                                                                                                44                                                                                                       
LG75                                       49                                                                                                                49                                                                                                       
#local misassemblies                       2                                                                                                                 2                                                                                                        
#misassemblies                             2                                                                                                                 2                                                                                                        
#misassembled contigs                      2                                                                                                                 2                                                                                                        
Misassembled contigs length                80742                                                                                                             80742                                                                                                    
Misassemblies inter-contig overlap         81                                                                                                                81                                                                                                       
#unaligned contigs                         0 + 0 part                                                                                                        0 + 0 part                                                                                               
Unaligned contigs length                   0                                                                                                                 0                                                                                                        
#ambiguously mapped contigs                173                                                                                                               173                                                                                                      
Extra bases in ambiguously mapped contigs  -104238                                                                                                           -104238                                                                                                  
#N's                                       0                                                                                                                 0                                                                                                        
#N's per 100 kbp                           0.00                                                                                                              0.00                                                                                                     
Genome fraction (%)                        94.108                                                                                                            94.108                                                                                                   
Duplication ratio                          1.002                                                                                                             1.002                                                                                                    
#genes                                     4885 + 254 part                                                                                                   4885 + 254 part                                                                                          
#predicted genes (unique)                  5495                                                                                                              5495                                                                                                     
#predicted genes (>= 0 bp)                 5513                                                                                                              5513                                                                                                     
#predicted genes (>= 300 bp)               4461                                                                                                              4461                                                                                                     
#predicted genes (>= 1500 bp)              658                                                                                                               658                                                                                                      
#predicted genes (>= 3000 bp)              68                                                                                                                68                                                                                                       
#mismatches                                54                                                                                                                54                                                                                                       
#indels                                    14                                                                                                                14                                                                                                       
Indels length                              19                                                                                                                19                                                                                                       
#mismatches per 100 kbp                    1.03                                                                                                              1.03                                                                                                     
#indels per 100 kbp                        0.27                                                                                                              0.27                                                                                                     
GC (%)                                     50.31                                                                                                             50.31                                                                                                    
Reference GC (%)                           50.48                                                                                                             50.48                                                                                                    
Average %IDY                               98.875                                                                                                            98.875                                                                                                   
Largest alignment                          224315                                                                                                            224315                                                                                                   
NA50                                       84282                                                                                                             84282                                                                                                    
NGA50                                      81499                                                                                                             81499                                                                                                    
NA75                                       32092                                                                                                             32092                                                                                                    
NGA75                                      29723                                                                                                             29723                                                                                                    
LA50                                       20                                                                                                                20                                                                                                       
LGA50                                      21                                                                                                                21                                                                                                       
LA75                                       44                                                                                                                44                                                                                                       
LGA75                                      50                                                                                                                50                                                                                                       
#Mis_misassemblies                         2                                                                                                                 2                                                                                                        
#Mis_relocations                           2                                                                                                                 2                                                                                                        
#Mis_translocations                        0                                                                                                                 0                                                                                                        
#Mis_inversions                            0                                                                                                                 0                                                                                                        
#Mis_misassembled contigs                  2                                                                                                                 2                                                                                                        
Mis_Misassembled contigs length            80742                                                                                                             80742                                                                                                    
#Mis_local misassemblies                   2                                                                                                                 2                                                                                                        
#Mis_short indels (<= 5 bp)                13                                                                                                                13                                                                                                       
#Mis_long indels (> 5 bp)                  1                                                                                                                 1                                                                                                        
#Una_fully unaligned contigs               0                                                                                                                 0                                                                                                        
Una_Fully unaligned length                 0                                                                                                                 0                                                                                                        
#Una_partially unaligned contigs           0                                                                                                                 0                                                                                                        
#Una_with misassembly                      0                                                                                                                 0                                                                                                        
#Una_both parts are significant            0                                                                                                                 0                                                                                                        
Una_Partially unaligned length             0                                                                                                                 0                                                                                                        
GAGE_Contigs #                             591                                                                                                               591                                                                                                      
GAGE_Min contig                            200                                                                                                               200                                                                                                      
GAGE_Max contig                            224315                                                                                                            224315                                                                                                   
GAGE_N50                                   81499 COUNT: 21                                                                                                   81499 COUNT: 21                                                                                          
GAGE_Genome size                           5594470                                                                                                           5594470                                                                                                  
GAGE_Assembly size                         5378494                                                                                                           5378494                                                                                                  
GAGE_Chaff bases                           0                                                                                                                 0                                                                                                        
GAGE_Missing reference bases               16872(0.30%)                                                                                                      16872(0.30%)                                                                                             
GAGE_Missing assembly bases                0(0.00%)                                                                                                          0(0.00%)                                                                                                 
GAGE_Missing assembly contigs              0(0.00%)                                                                                                          0(0.00%)                                                                                                 
GAGE_Duplicated reference bases            6217                                                                                                              6217                                                                                                     
GAGE_Compressed reference bases            276056                                                                                                            276056                                                                                                   
GAGE_Bad trim                              0                                                                                                                 0                                                                                                        
GAGE_Avg idy                               100.00                                                                                                            100.00                                                                                                   
GAGE_SNPs                                  123                                                                                                               123                                                                                                      
GAGE_Indels < 5bp                          12                                                                                                                12                                                                                                       
GAGE_Indels >= 5                           1                                                                                                                 1                                                                                                        
GAGE_Inversions                            0                                                                                                                 0                                                                                                        
GAGE_Relocation                            3                                                                                                                 3                                                                                                        
GAGE_Translocation                         0                                                                                                                 0                                                                                                        
GAGE_Corrected contig #                    572                                                                                                               572                                                                                                      
GAGE_Corrected assembly size               5372355                                                                                                           5372355                                                                                                  
GAGE_Min correct contig                    200                                                                                                               200                                                                                                      
GAGE_Max correct contig                    224315                                                                                                            224315                                                                                                   
GAGE_Corrected N50                         81499 COUNT: 21                                                                                                   81499 COUNT: 21                                                                                          
