All statistics are based on contigs of size >= 200 bp, unless otherwise noted (e.g., "# contigs (>= 0 bp)" and "Total length (>= 0 bp)" include all contigs).

Assembly                         ABYSS_PE_MIS_PE_mtbh37-1_mis_2x250bp_nextera_default__mtbh37-2_mis_2x250bp_nextera_default_70-scaffolds_broken  ABYSS_PE_MIS_PE_mtbh37-1_mis_2x250bp_nextera_default__mtbh37-2_mis_2x250bp_nextera_default_70-scaffolds
#Mis_misassemblies               6                                                                                                               7                                                                                                      
#Mis_relocations                 5                                                                                                               6                                                                                                      
#Mis_translocations              0                                                                                                               0                                                                                                      
#Mis_inversions                  1                                                                                                               1                                                                                                      
#Mis_misassembled contigs        5                                                                                                               6                                                                                                      
Mis_Misassembled contigs length  125966                                                                                                          264266                                                                                                 
#Mis_local misassemblies         17                                                                                                              25                                                                                                     
#mismatches                      307                                                                                                             313                                                                                                    
#indels                          80                                                                                                              204                                                                                                    
#Mis_short indels (<= 5 bp)      67                                                                                                              172                                                                                                    
#Mis_long indels (> 5 bp)        13                                                                                                              32                                                                                                     
Indels length                    343                                                                                                             806                                                                                                    
