Assembly	SOAP2_MIS_PE_mrsa_mis-1_bi_2x150bp_default.0.527percent_77.final.scaf_broken	SOAP2_MIS_PE_mrsa_mis-1_bi_2x150bp_default.0.527percent_77.final.scaf
#Contigs (>= 0 bp)	702	566
#Contigs (>= 1000 bp)	86	30
Total length (>= 0 bp)	2850145	2855231
Total length (>= 1000 bp)	2744120	2771128
#Contigs	153	58
Largest contig	207772	464135
Total length	2770374	2781108
Reference length	2813862	2813862
GC (%)	32.68	32.69
Reference GC (%)	32.81	32.81
N50	55336	237495
NG50	55336	237495
N75	31461	109034
NG75	29915	109034
#misassemblies	1	12
#local misassemblies	0	30
#unaligned contigs	2 + 1 part	1 + 1 part
Unaligned contigs length	6045	6448
Genome fraction (%)	97.950	98.117
Duplication ratio	1.000	1.002
#N's per 100 kbp	0.36	183.24
#mismatches per 100 kbp	1.20	3.95
#indels per 100 kbp	0.33	29.37
#genes	2622 + 59 part	2648 + 24 part
#predicted genes (unique)	2665	2646
#predicted genes (>= 0 bp)	2668	2647
#predicted genes (>= 300 bp)	2281	2283
#predicted genes (>= 1500 bp)	299	299
#predicted genes (>= 3000 bp)	27	28
Largest alignment	207772	464027
NA50	55336	237381
NGA50	55336	237381
NA75	31461	105848
NGA75	29915	105848
