1: PREPARING DATA
2,3: RUNNING mummer AND CREATING CLUSTERS
# reading input file "/vol/codine-tmp/juene/tmp.LQablWjCoy/quast/contigs_reports/nucmer_output/NEWBLER_PGM_sakai_pgm_mu_318_400bp_IO_TS3.4_ms.0.975percent.contigs.ntref" of length 5594473
# construct suffix tree for sequence of length 5594473
# (maximum reference length is 536870908)
# (maximum query length is 4294967295)
# process 55944 characters per dot
#....................................................................................................
# CONSTRUCTIONTIME /vol/ngscomparison/software/analysis/quast-2.1/libs/MUMmer3.23-linux/mummer /vol/codine-tmp/juene/tmp.LQablWjCoy/quast/contigs_reports/nucmer_output/NEWBLER_PGM_sakai_pgm_mu_318_400bp_IO_TS3.4_ms.0.975percent.contigs.ntref 3.45
# reading input file "/vol/codine-tmp/juene/tmp.LQablWjCoy/quast/corrected_input/NEWBLER_PGM_sakai_pgm_mu_318_400bp_IO_TS3.4_ms.0.975percent.contigs" of length 5356227
# matching query-file "/vol/codine-tmp/juene/tmp.LQablWjCoy/quast/corrected_input/NEWBLER_PGM_sakai_pgm_mu_318_400bp_IO_TS3.4_ms.0.975percent.contigs"
# against subject-file "/vol/codine-tmp/juene/tmp.LQablWjCoy/quast/contigs_reports/nucmer_output/NEWBLER_PGM_sakai_pgm_mu_318_400bp_IO_TS3.4_ms.0.975percent.contigs.ntref"
# COMPLETETIME /vol/ngscomparison/software/analysis/quast-2.1/libs/MUMmer3.23-linux/mummer /vol/codine-tmp/juene/tmp.LQablWjCoy/quast/contigs_reports/nucmer_output/NEWBLER_PGM_sakai_pgm_mu_318_400bp_IO_TS3.4_ms.0.975percent.contigs.ntref 11.01
# SPACE /vol/ngscomparison/software/analysis/quast-2.1/libs/MUMmer3.23-linux/mummer /vol/codine-tmp/juene/tmp.LQablWjCoy/quast/contigs_reports/nucmer_output/NEWBLER_PGM_sakai_pgm_mu_318_400bp_IO_TS3.4_ms.0.975percent.contigs.ntref 10.63
4: FINISHING DATA
