All statistics are based on contigs of size >= 200 bp, unless otherwise noted (e.g., "# contigs (>= 0 bp)" and "Total length (>= 0 bp)" include all contigs).

Assembly                                   ABYSS_PE_MIS_PE_sakai_mis-1_bi_2x150bp_default__sakai_mis-2_bi_2x150bp_default.0.826percent_122-scaffolds_broken  ABYSS_PE_MIS_PE_sakai_mis-1_bi_2x150bp_default__sakai_mis-2_bi_2x150bp_default.0.826percent_122-scaffolds
#Contigs                                   500                                                                                                               360                                                                                                      
#Contigs (>= 0 bp)                         560                                                                                                               419                                                                                                      
#Contigs (>= 1000 bp)                      392                                                                                                               290                                                                                                      
Largest contig                             123387                                                                                                            154591                                                                                                   
Total length                               5607222                                                                                                           5616312                                                                                                  
Total length (>= 0 bp)                     5616634                                                                                                           5625550                                                                                                  
Total length (>= 1000 bp)                  5550234                                                                                                           5583090                                                                                                  
Reference length                           5594470                                                                                                           5594470                                                                                                  
N50                                        28008                                                                                                             46245                                                                                                    
NG50                                       28008                                                                                                             46245                                                                                                    
N75                                        14046                                                                                                             27892                                                                                                    
NG75                                       14115                                                                                                             27970                                                                                                    
L50                                        62                                                                                                                38                                                                                                       
LG50                                       62                                                                                                                38                                                                                                       
L75                                        133                                                                                                               77                                                                                                       
LG75                                       132                                                                                                               76                                                                                                       
#local misassemblies                       6                                                                                                                 62                                                                                                       
#misassemblies                             8                                                                                                                 23                                                                                                       
#misassembled contigs                      8                                                                                                                 19                                                                                                       
Misassembled contigs length                151687                                                                                                            234891                                                                                                   
Misassemblies inter-contig overlap         21786                                                                                                             58215                                                                                                    
#unaligned contigs                         1 + 0 part                                                                                                        2 + 0 part                                                                                               
Unaligned contigs length                   5477                                                                                                              6402                                                                                                     
#ambiguously mapped contigs                56                                                                                                                43                                                                                                       
Extra bases in ambiguously mapped contigs  -75810                                                                                                            -62983                                                                                                   
#N's                                       177                                                                                                               9093                                                                                                     
#N's per 100 kbp                           3.16                                                                                                              161.90                                                                                                   
Genome fraction (%)                        97.495                                                                                                            97.529                                                                                                   
Duplication ratio                          1.017                                                                                                             1.027                                                                                                    
#genes                                     5002 + 345 part                                                                                                   5054 + 291 part                                                                                          
#predicted genes (unique)                  5553                                                                                                              5525                                                                                                     
#predicted genes (>= 0 bp)                 5716                                                                                                              5686                                                                                                     
#predicted genes (>= 300 bp)               4708                                                                                                              4704                                                                                                     
#predicted genes (>= 1500 bp)              677                                                                                                               679                                                                                                      
#predicted genes (>= 3000 bp)              62                                                                                                                61                                                                                                       
#mismatches                                494                                                                                                               501                                                                                                      
#indels                                    213                                                                                                               1459                                                                                                     
Indels length                              850                                                                                                               3466                                                                                                     
#mismatches per 100 kbp                    9.06                                                                                                              9.18                                                                                                     
#indels per 100 kbp                        3.91                                                                                                              26.74                                                                                                    
GC (%)                                     50.48                                                                                                             50.48                                                                                                    
Reference GC (%)                           50.48                                                                                                             50.48                                                                                                    
Average %IDY                               98.699                                                                                                            98.664                                                                                                   
Largest alignment                          123387                                                                                                            154421                                                                                                   
NA50                                       27892                                                                                                             45437                                                                                                    
NGA50                                      27892                                                                                                             46046                                                                                                    
NA75                                       14046                                                                                                             27687                                                                                                    
NGA75                                      14046                                                                                                             27687                                                                                                    
LA50                                       63                                                                                                                39                                                                                                       
LGA50                                      63                                                                                                                38                                                                                                       
LA75                                       134                                                                                                               78                                                                                                       
LGA75                                      134                                                                                                               78                                                                                                       
#Mis_misassemblies                         8                                                                                                                 23                                                                                                       
#Mis_relocations                           6                                                                                                                 21                                                                                                       
#Mis_translocations                        2                                                                                                                 2                                                                                                        
#Mis_inversions                            0                                                                                                                 0                                                                                                        
#Mis_misassembled contigs                  8                                                                                                                 19                                                                                                       
Mis_Misassembled contigs length            151687                                                                                                            234891                                                                                                   
#Mis_local misassemblies                   6                                                                                                                 62                                                                                                       
#Mis_short indels (<= 5 bp)                184                                                                                                               1393                                                                                                     
#Mis_long indels (> 5 bp)                  29                                                                                                                66                                                                                                       
#Una_fully unaligned contigs               1                                                                                                                 2                                                                                                        
Una_Fully unaligned length                 5477                                                                                                              6402                                                                                                     
#Una_partially unaligned contigs           0                                                                                                                 0                                                                                                        
#Una_with misassembly                      0                                                                                                                 0                                                                                                        
#Una_both parts are significant            0                                                                                                                 0                                                                                                        
Una_Partially unaligned length             0                                                                                                                 0                                                                                                        
GAGE_Contigs #                             500                                                                                                               360                                                                                                      
GAGE_Min contig                            200                                                                                                               200                                                                                                      
GAGE_Max contig                            123387                                                                                                            154591                                                                                                   
GAGE_N50                                   28008 COUNT: 62                                                                                                   46245 COUNT: 38                                                                                          
GAGE_Genome size                           5594470                                                                                                           5594470                                                                                                  
GAGE_Assembly size                         5607222                                                                                                           5616312                                                                                                  
GAGE_Chaff bases                           0                                                                                                                 0                                                                                                        
GAGE_Missing reference bases               15512(0.28%)                                                                                                      15425(0.28%)                                                                                             
GAGE_Missing assembly bases                5548(0.10%)                                                                                                       14325(0.26%)                                                                                             
GAGE_Missing assembly contigs              1(0.20%)                                                                                                          1(0.28%)                                                                                                 
GAGE_Duplicated reference bases            60688                                                                                                             61427                                                                                                    
GAGE_Compressed reference bases            179720                                                                                                            179352                                                                                                   
GAGE_Bad trim                              0                                                                                                                 400                                                                                                      
GAGE_Avg idy                               99.98                                                                                                             99.98                                                                                                    
GAGE_SNPs                                  398                                                                                                               399                                                                                                      
GAGE_Indels < 5bp                          244                                                                                                               262                                                                                                      
GAGE_Indels >= 5                           36                                                                                                                152                                                                                                      
GAGE_Inversions                            1                                                                                                                 7                                                                                                        
GAGE_Relocation                            3                                                                                                                 9                                                                                                        
GAGE_Translocation                         2                                                                                                                 3                                                                                                        
GAGE_Corrected contig #                    486                                                                                                               483                                                                                                      
GAGE_Corrected assembly size               5551586                                                                                                           5552203                                                                                                  
GAGE_Min correct contig                    204                                                                                                               204                                                                                                      
GAGE_Max correct contig                    123387                                                                                                            123387                                                                                                   
GAGE_Corrected N50                         26310 COUNT: 65                                                                                                   26310 COUNT: 64                                                                                          
