Assembly	ABYSS_PE_MIS_PE_sakai_mis-1_bi_2x150bp_default__sakai_mis-2_bi_2x150bp_default.0.826percent_122-scaffolds_broken	ABYSS_PE_MIS_PE_sakai_mis-1_bi_2x150bp_default__sakai_mis-2_bi_2x150bp_default.0.826percent_122-scaffolds
#Contigs (>= 0 bp)	560	419
#Contigs (>= 1000 bp)	392	290
Total length (>= 0 bp)	5616634	5625550
Total length (>= 1000 bp)	5550234	5583090
#Contigs	500	360
Largest contig	123387	154591
Total length	5607222	5616312
Reference length	5594470	5594470
GC (%)	50.48	50.48
Reference GC (%)	50.48	50.48
N50	28008	46245
NG50	28008	46245
N75	14046	27892
NG75	14115	27970
#misassemblies	8	23
#local misassemblies	6	62
#unaligned contigs	1 + 0 part	2 + 0 part
Unaligned contigs length	5477	6402
Genome fraction (%)	97.495	97.529
Duplication ratio	1.017	1.027
#N's per 100 kbp	3.16	161.90
#mismatches per 100 kbp	9.06	9.18
#indels per 100 kbp	3.91	26.74
#genes	5002 + 345 part	5054 + 291 part
#predicted genes (unique)	5553	5525
#predicted genes (>= 0 bp)	5716	5686
#predicted genes (>= 300 bp)	4708	4704
#predicted genes (>= 1500 bp)	677	679
#predicted genes (>= 3000 bp)	62	61
Largest alignment	123387	154421
NA50	27892	45437
NGA50	27892	46046
NA75	14046	27687
NGA75	14046	27687
