calling: java -cp /vol/ngscomparison/software/analysis/quast-2.1/libs/gage:. SizeFasta /vol/codine-tmp/juene/tmp.DgjeRmnAm8/quast/corrected_input/Ecoli_Sakai_editedNew_plasmids.fasta |awk '{SUM+=; print SUM}'|tail -n 1
Contig Stats
Total units: 695
Reference: 5594470
BasesInFasta: 5244892
Min: 201
Max: 74728
N10: 44312 COUNT: 11
N25: 32778 COUNT: 33
N50: 20648 COUNT: 86
N75: 9878 COUNT: 182
E-size:22852.25

Genome Size: 5594470
Assembly Size: 5244892
Chaff bases: 0
Missing Reference Bases: 165614(2.96%)
Missing Assembly Bases: 8881(0.17%)
Missing Assembly Contigs: 2(0.29%)
Duplicated Reference Bases: 5273
Compressed Reference Bases: 205348
Bad Trim: 2464
Avg Idy: 99.97
SNPs: 1367
Indels < 5bp: 159
Indels >= 5: 51
Inversions: 5
Relocation: 10
Translocation: 0

Corrected Contig Stats
calling: java -cp /vol/ngscomparison/software/analysis/quast-2.1/libs/gage:.:. GetFastaStats -o -min 199 -genomeSize 5594470 /vol/codine-tmp/juene/tmp.DgjeRmnAm8/quast/gage/tmp/VELVET_MIS_PE_sakai_mis-1_bi_2x150bp_default__sakai_mis-2_bi_2x150bp_default.0.826percent_23.final.contigs_broken.matches.lens 2> /dev/null
Total units: 749
Reference: 5594470
BasesInFasta: 5232615
Min: 201
Max: 58099
N10: 41292 COUNT: 12
N25: 28722 COUNT: 36
N50: 16683 COUNT: 100
N75: 8644 COUNT: 214
E-size:19940.39

Done
