1: PREPARING DATA
2,3: RUNNING mummer AND CREATING CLUSTERS
# reading input file "/vol/codine-tmp/juene/tmp.piqWgB5cad/quast/gage/tmp/NEWBLER_PGM_mrsa_pgm_400bp_es_318_IKA_ts3.2_morestringent.36coverage.contigs.ntref" of length 2813864
# construct suffix tree for sequence of length 2813864
# (maximum reference length is 536870908)
# (maximum query length is 4294967295)
# process 28138 characters per dot
#....................................................................................................
# CONSTRUCTIONTIME /vol/ngscomparison/software/analysis/quast-2.1/libs/MUMmer3.23-linux/mummer /vol/codine-tmp/juene/tmp.piqWgB5cad/quast/gage/tmp/NEWBLER_PGM_mrsa_pgm_400bp_es_318_IKA_ts3.2_morestringent.36coverage.contigs.ntref 1.43
# reading input file "/vol/codine-tmp/juene/tmp.piqWgB5cad/quast/corrected_input/NEWBLER_PGM_mrsa_pgm_400bp_es_318_IKA_ts3.2_morestringent.36coverage.contigs" of length 2776275
# matching query-file "/vol/codine-tmp/juene/tmp.piqWgB5cad/quast/corrected_input/NEWBLER_PGM_mrsa_pgm_400bp_es_318_IKA_ts3.2_morestringent.36coverage.contigs"
# against subject-file "/vol/codine-tmp/juene/tmp.piqWgB5cad/quast/gage/tmp/NEWBLER_PGM_mrsa_pgm_400bp_es_318_IKA_ts3.2_morestringent.36coverage.contigs.ntref"
# COMPLETETIME /vol/ngscomparison/software/analysis/quast-2.1/libs/MUMmer3.23-linux/mummer /vol/codine-tmp/juene/tmp.piqWgB5cad/quast/gage/tmp/NEWBLER_PGM_mrsa_pgm_400bp_es_318_IKA_ts3.2_morestringent.36coverage.contigs.ntref 4.60
# SPACE /vol/ngscomparison/software/analysis/quast-2.1/libs/MUMmer3.23-linux/mummer /vol/codine-tmp/juene/tmp.piqWgB5cad/quast/gage/tmp/NEWBLER_PGM_mrsa_pgm_400bp_es_318_IKA_ts3.2_morestringent.36coverage.contigs.ntref 5.42
4: FINISHING DATA
Filtering alignments
Extracting alignment coordinates
Analyzing SNPs
Extracting alignment breakpoints
Generating report file
Found genome size at position 4 with value 2813862 aka 2813862
Calculating point at 0 and the sum is 1129101 and i is59 and lens is 64 and length is 144730
Calculating point at 1 and the sum is 2058889 and i is49 and lens is 64 and length is 69098
