1: PREPARING DATA
2,3: RUNNING mummer AND CREATING CLUSTERS
# reading input file "/vol/codine-tmp/juene/tmp.hxyNanmv5Q/quast/gage/tmp/ABYSS_PE_PGM_sakai_pgm_mu_318_400bp_IO_TS3.4_ms_0.395percent_42-unitigs.ntref" of length 5594473
# construct suffix tree for sequence of length 5594473
# (maximum reference length is 536870908)
# (maximum query length is 4294967295)
# process 55944 characters per dot
#....................................................................................................
# CONSTRUCTIONTIME /vol/ngscomparison/software/analysis/quast-2.1/libs/MUMmer3.23-linux/mummer /vol/codine-tmp/juene/tmp.hxyNanmv5Q/quast/gage/tmp/ABYSS_PE_PGM_sakai_pgm_mu_318_400bp_IO_TS3.4_ms_0.395percent_42-unitigs.ntref 2.96
# reading input file "/vol/codine-tmp/juene/tmp.hxyNanmv5Q/quast/corrected_input/ABYSS_PE_PGM_sakai_pgm_mu_318_400bp_IO_TS3.4_ms_0.395percent_42-unitigs" of length 5202807
# matching query-file "/vol/codine-tmp/juene/tmp.hxyNanmv5Q/quast/corrected_input/ABYSS_PE_PGM_sakai_pgm_mu_318_400bp_IO_TS3.4_ms_0.395percent_42-unitigs"
# against subject-file "/vol/codine-tmp/juene/tmp.hxyNanmv5Q/quast/gage/tmp/ABYSS_PE_PGM_sakai_pgm_mu_318_400bp_IO_TS3.4_ms_0.395percent_42-unitigs.ntref"
# COMPLETETIME /vol/ngscomparison/software/analysis/quast-2.1/libs/MUMmer3.23-linux/mummer /vol/codine-tmp/juene/tmp.hxyNanmv5Q/quast/gage/tmp/ABYSS_PE_PGM_sakai_pgm_mu_318_400bp_IO_TS3.4_ms_0.395percent_42-unitigs.ntref 8.31
# SPACE /vol/ngscomparison/software/analysis/quast-2.1/libs/MUMmer3.23-linux/mummer /vol/codine-tmp/juene/tmp.hxyNanmv5Q/quast/gage/tmp/ABYSS_PE_PGM_sakai_pgm_mu_318_400bp_IO_TS3.4_ms_0.395percent_42-unitigs.ntref 10.51
4: FINISHING DATA
Filtering alignments
Extracting alignment coordinates
Analyzing SNPs
Extracting alignment breakpoints
Generating report file
Found genome size at position 4 with value 5594470 aka 5594470
Calculating point at 0 and the sum is 1018691 and i is1224 and lens is 1264 and length is 18816
Calculating point at 1 and the sum is 2002424 and i is1160 and lens is 1264 and length is 12666
Calculating point at 2 and the sum is 3002631 and i is1065 and lens is 1264 and length is 8590
Calculating point at 3 and the sum is 4004324 and i is906 and lens is 1264 and length is 4502
Calculating point at 4 and the sum is 5000199 and i is481 and lens is 1264 and length is 909
