calling: java -cp /vol/ngscomparison/software/analysis/quast-2.1/libs/gage:. SizeFasta /vol/codine-tmp/juene/tmp.hxyNanmv5Q/quast/corrected_input/Ecoli_Sakai_editedNew_plasmids.fasta |awk '{SUM+=; print SUM}'|tail -n 1
Contig Stats
Total units: 1257
Reference: 5594470
BasesInFasta: 5201551
Min: 200
Max: 46900
N10: 23556 COUNT: 19
N25: 16197 COUNT: 62
N50: 9659 COUNT: 176
N75: 3844 COUNT: 401
E-size:11356.47

Genome Size: 5594470
Assembly Size: 5201551
Chaff bases: 0
Missing Reference Bases: 307475(5.50%)
Missing Assembly Bases: 52(0.00%)
Missing Assembly Contigs: 0(0.00%)
Duplicated Reference Bases: 0
Compressed Reference Bases: 95577
Bad Trim: 52
Avg Idy: 99.99
SNPs: 83
Indels < 5bp: 228
Indels >= 5: 4
Inversions: 0
Relocation: 3
Translocation: 0

Corrected Contig Stats
calling: java -cp /vol/ngscomparison/software/analysis/quast-2.1/libs/gage:.:. GetFastaStats -o -min 199 -genomeSize 5594470 /vol/codine-tmp/juene/tmp.hxyNanmv5Q/quast/gage/tmp/ABYSS_PE_PGM_sakai_pgm_mu_318_400bp_IO_TS3.4_ms_0.395percent_42-unitigs.matches.lens 2> /dev/null
Total units: 1262
Reference: 5594470
BasesInFasta: 5201950
Min: 200
Max: 46902
N10: 23557 COUNT: 19
N25: 16198 COUNT: 62
N50: 9548 COUNT: 177
N75: 3843 COUNT: 405
E-size:11284.48

Done
