1: PREPARING DATA
2,3: RUNNING mummer AND CREATING CLUSTERS
# reading input file "/vol/codine-tmp/juene/tmp.q29E7lBfCn/quast/gage/tmp/ABYSS_PE_MIS_PE_sakai_mis-both_bi_2x250bp_SI_default.0.64percent.NEWBLER_114-scaffolds_broken.ntref" of length 5594473
# construct suffix tree for sequence of length 5594473
# (maximum reference length is 536870908)
# (maximum query length is 4294967295)
# process 55944 characters per dot
#....................................................................................................
# CONSTRUCTIONTIME /vol/ngscomparison/software/analysis/quast-2.1/libs/MUMmer3.23-linux/mummer /vol/codine-tmp/juene/tmp.q29E7lBfCn/quast/gage/tmp/ABYSS_PE_MIS_PE_sakai_mis-both_bi_2x250bp_SI_default.0.64percent.NEWBLER_114-scaffolds_broken.ntref 4.59
# reading input file "/vol/codine-tmp/juene/tmp.q29E7lBfCn/quast/corrected_input/ABYSS_PE_MIS_PE_sakai_mis-both_bi_2x250bp_SI_default.0.64percent.NEWBLER_114-scaffolds_broken" of length 5628099
# matching query-file "/vol/codine-tmp/juene/tmp.q29E7lBfCn/quast/corrected_input/ABYSS_PE_MIS_PE_sakai_mis-both_bi_2x250bp_SI_default.0.64percent.NEWBLER_114-scaffolds_broken"
# against subject-file "/vol/codine-tmp/juene/tmp.q29E7lBfCn/quast/gage/tmp/ABYSS_PE_MIS_PE_sakai_mis-both_bi_2x250bp_SI_default.0.64percent.NEWBLER_114-scaffolds_broken.ntref"
# COMPLETETIME /vol/ngscomparison/software/analysis/quast-2.1/libs/MUMmer3.23-linux/mummer /vol/codine-tmp/juene/tmp.q29E7lBfCn/quast/gage/tmp/ABYSS_PE_MIS_PE_sakai_mis-both_bi_2x250bp_SI_default.0.64percent.NEWBLER_114-scaffolds_broken.ntref 13.41
# SPACE /vol/ngscomparison/software/analysis/quast-2.1/libs/MUMmer3.23-linux/mummer /vol/codine-tmp/juene/tmp.q29E7lBfCn/quast/gage/tmp/ABYSS_PE_MIS_PE_sakai_mis-both_bi_2x250bp_SI_default.0.64percent.NEWBLER_114-scaffolds_broken.ntref 10.88
4: FINISHING DATA
Filtering alignments
Extracting alignment coordinates
Analyzing SNPs
Extracting alignment breakpoints
Generating report file
Found genome size at position 4 with value 5594470 aka 5594470
Calculating point at 0 and the sum is 1048868 and i is329 and lens is 334 and length is 156560
Calculating point at 1 and the sum is 2100449 and i is321 and lens is 334 and length is 108918
Calculating point at 2 and the sum is 3016606 and i is310 and lens is 334 and length is 70815
Calculating point at 3 and the sum is 4044450 and i is292 and lens is 334 and length is 45007
Calculating point at 4 and the sum is 5003970 and i is253 and lens is 334 and length is 11635
