calling: java -cp /vol/ngscomparison/software/analysis/quast-2.1/libs/gage:. SizeFasta /vol/codine-tmp/juene/tmp.q29E7lBfCn/quast/corrected_input/Ecoli_Sakai_editedNew_plasmids.fasta |awk '{SUM+=; print SUM}'|tail -n 1
Contig Stats
Total units: 365
Reference: 5594470
BasesInFasta: 5627735
Min: 205
Max: 238060
N10: 213204 COUNT: 3
N25: 147132 COUNT: 8
N50: 96571 COUNT: 19
N75: 47677 COUNT: 39
E-size:106161.38

Genome Size: 5594470
Assembly Size: 5627735
Chaff bases: 0
Missing Reference Bases: 6424(0.11%)
Missing Assembly Bases: 14(0.00%)
Missing Assembly Contigs: 0(0.00%)
Duplicated Reference Bases: 127646
Compressed Reference Bases: 206383
Bad Trim: 0
Avg Idy: 99.98
SNPs: 511
Indels < 5bp: 33
Indels >= 5: 10
Inversions: 1
Relocation: 3
Translocation: 0

Corrected Contig Stats
calling: java -cp /vol/ngscomparison/software/analysis/quast-2.1/libs/gage:.:. GetFastaStats -o -min 199 -genomeSize 5594470 /vol/codine-tmp/juene/tmp.q29E7lBfCn/quast/gage/tmp/ABYSS_PE_MIS_PE_sakai_mis-both_bi_2x250bp_SI_default.0.64percent.NEWBLER_114-scaffolds_broken.matches.lens 2> /dev/null
Total units: 333
Reference: 5594470
BasesInFasta: 5505852
Min: 205
Max: 238055
N10: 213203 COUNT: 3
N25: 143052 COUNT: 8
N50: 77477 COUNT: 21
N75: 38910 COUNT: 46
E-size:94831.68

Done
