All statistics are based on contigs of size >= 200 bp, unless otherwise noted (e.g., "# contigs (>= 0 bp)" and "Total length (>= 0 bp)" include all contigs).

Assembly                                                               #Contigs  #Contigs (>= 0 bp)  #Contigs (>= 1000 bp)  Largest contig  Total length  Total length (>= 0 bp)  Total length (>= 1000 bp)  Reference length  N50   NG50  N75   NG75  L50  LG50  L75  LG75  #local misassemblies  #misassemblies  #misassembled contigs  Misassembled contigs length  Misassemblies inter-contig overlap  #unaligned contigs  Unaligned contigs length  #ambiguously mapped contigs  Extra bases in ambiguously mapped contigs  #N's  #N's per 100 kbp  Genome fraction (%)  Duplication ratio  #genes            #predicted genes (unique)  #predicted genes (>= 0 bp)  #predicted genes (>= 300 bp)  #predicted genes (>= 1500 bp)  #predicted genes (>= 3000 bp)  #mismatches  #indels  Indels length  #mismatches per 100 kbp  #indels per 100 kbp  GC (%)  Reference GC (%)  Average %IDY  Largest alignment  NA50  NGA50  NA75  NGA75  LA50  LGA50  LA75  LGA75  #Mis_misassemblies  #Mis_relocations  #Mis_translocations  #Mis_inversions  #Mis_misassembled contigs  Mis_Misassembled contigs length  #Mis_local misassemblies  #Mis_short indels (<= 5 bp)  #Mis_long indels (> 5 bp)  #Una_fully unaligned contigs  Una_Fully unaligned length  #Una_partially unaligned contigs  #Una_with misassembly  #Una_both parts are significant  Una_Partially unaligned length  GAGE_Contigs #  GAGE_Min contig  GAGE_Max contig  GAGE_N50         GAGE_Genome size  GAGE_Assembly size  GAGE_Chaff bases  GAGE_Missing reference bases  GAGE_Missing assembly bases  GAGE_Missing assembly contigs  GAGE_Duplicated reference bases  GAGE_Compressed reference bases  GAGE_Bad trim  GAGE_Avg idy  GAGE_SNPs  GAGE_Indels < 5bp  GAGE_Indels >= 5  GAGE_Inversions  GAGE_Relocation  GAGE_Translocation  GAGE_Corrected contig #  GAGE_Corrected assembly size  GAGE_Min correct contig  GAGE_Max correct contig  GAGE_Corrected N50
ABYSS_PE_PGM_sakai_pgm_mu_318_400bp_IO_TS3.4_ms.0.075percent_52.final  2167      5056                1148                   34488           5169687       5445970                 4680942                    5594470           5174  4709  2505  1912  301  345   659  805   5                     2               2                      18623                        391                                 0 + 4 part          202                       128                          -73541                                     0     0.00              90.830               1.003              3733 + 1220 part  6370                       6371                        4737                          483                            38                             52           654      668            1.02                     12.87                50.46   50.48             99.892        34488              5169  4709   2462  1885   302   345    662   810    2                   2                 0                    0                2                          18623                            5                         654                          0                          0                             0                           4                                 0                      0                                202                             2167            200              34488            4709 COUNT: 345  5594470           5169687             0                 279060(4.99%)                 282(0.01%)                   0(0.00%)                       1400                             172671                           282            99.98         126        656                5                 0                3                0                   2165                     5168070                       200                      34493                    4708 COUNT: 345   
