Assembly	#Contigs (>= 0 bp)	#Contigs (>= 1000 bp)	Total length (>= 0 bp)	Total length (>= 1000 bp)	#Contigs	Largest contig	Total length	Reference length	GC (%)	Reference GC (%)	N50	NG50	N75	NG75	#misassemblies	#local misassemblies	#unaligned contigs	Unaligned contigs length	Genome fraction (%)	Duplication ratio	#N's per 100 kbp	#mismatches per 100 kbp	#indels per 100 kbp	#genes	#predicted genes (unique)	#predicted genes (>= 0 bp)	#predicted genes (>= 300 bp)	#predicted genes (>= 1500 bp)	#predicted genes (>= 3000 bp)	Largest alignment	NA50	NGA50	NA75	NGA75
VELVET_MIS_PE_sakai_mis-both_bi_2x250bp_SI_default.0.64percent_169.final.contigs_broken	562	346	5470589	5362064	562	93220	5470589	5594470	50.36	50.48	31078	30312	14560	13803	5	3	1 + 0 part	5554	95.486	1.002	0.00	2.17	0.32	4915 + 363 part	5608	5640	4671	646	60	93220	30862	30309	14560	13803
VELVET_MIS_PE_sakai_mis-both_bi_2x250bp_SI_default.0.64percent_169.final.contigs	429	235	5487753	5390900	429	223575	5487753	5594470	50.36	50.48	53324	53019	25593	24980	12	115	1 + 0 part	5554	95.527	1.006	312.77	3.20	5.84	4927 + 352 part	5584	5616	4673	647	60	222786	53323	53019	25491	24238
