Assembly	GAGE_Contigs #	GAGE_Min contig	GAGE_Max contig	GAGE_N50	GAGE_Genome size	GAGE_Assembly size	GAGE_Chaff bases	GAGE_Missing reference bases	GAGE_Missing assembly bases	GAGE_Missing assembly contigs	GAGE_Duplicated reference bases	GAGE_Compressed reference bases	GAGE_Bad trim	GAGE_Avg idy	GAGE_SNPs	GAGE_Indels < 5bp	GAGE_Indels >= 5	GAGE_Inversions	GAGE_Relocation	GAGE_Translocation	GAGE_Corrected contig #	GAGE_Corrected assembly size	GAGE_Min correct contig	GAGE_Max correct contig	GAGE_Corrected N50
CLC_MIS_PE_sakai_mis-2_bi_2x150bp_default__sakai_mis-1_bi_2x150bp_default.0.500percent.result_broken	272	201	374789	145332 COUNT: 14	5594470	5354985	0	28651(0.51%)	5516(0.10%)	1(0.37%)	4067	249166	107	99.99	113	14	7	1	3	0	268	5346906	201	313894	141496 COUNT: 16
CLC_MIS_PE_sakai_mis-2_bi_2x150bp_default__sakai_mis-1_bi_2x150bp_default.0.500percent.result	252	201	374789	148157 COUNT: 13	5594470	5357921	0	27694(0.50%)	7790(0.15%)	1(0.40%)	4067	247756	418	99.99	113	14	16	1	6	0	267	5346584	201	313894	141496 COUNT: 16
