All statistics are based on contigs of size >= 200 bp, unless otherwise noted (e.g., "# contigs (>= 0 bp)" and "Total length (>= 0 bp)" include all contigs).

Assembly                                                                                              #Contigs  #Contigs (>= 0 bp)  #Contigs (>= 1000 bp)  Largest contig  Total length  Total length (>= 0 bp)  Total length (>= 1000 bp)  Reference length  N50     NG50    N75    NG75   L50  LG50  L75  LG75  #local misassemblies  #misassemblies  #misassembled contigs  Misassembled contigs length  Misassemblies inter-contig overlap  #unaligned contigs  Unaligned contigs length  #ambiguously mapped contigs  Extra bases in ambiguously mapped contigs  #N's  #N's per 100 kbp  Genome fraction (%)  Duplication ratio  #genes           #predicted genes (unique)  #predicted genes (>= 0 bp)  #predicted genes (>= 300 bp)  #predicted genes (>= 1500 bp)  #predicted genes (>= 3000 bp)  #mismatches  #indels  Indels length  #mismatches per 100 kbp  #indels per 100 kbp  GC (%)  Reference GC (%)  Average %IDY  Largest alignment  NA50    NGA50   NA75   NGA75  LA50  LGA50  LA75  LGA75  #Mis_misassemblies  #Mis_relocations  #Mis_translocations  #Mis_inversions  #Mis_misassembled contigs  Mis_Misassembled contigs length  #Mis_local misassemblies  #Mis_short indels (<= 5 bp)  #Mis_long indels (> 5 bp)  #Una_fully unaligned contigs  Una_Fully unaligned length  #Una_partially unaligned contigs  #Una_with misassembly  #Una_both parts are significant  Una_Partially unaligned length  GAGE_Contigs #  GAGE_Min contig  GAGE_Max contig  GAGE_N50          GAGE_Genome size  GAGE_Assembly size  GAGE_Chaff bases  GAGE_Missing reference bases  GAGE_Missing assembly bases  GAGE_Missing assembly contigs  GAGE_Duplicated reference bases  GAGE_Compressed reference bases  GAGE_Bad trim  GAGE_Avg idy  GAGE_SNPs  GAGE_Indels < 5bp  GAGE_Indels >= 5  GAGE_Inversions  GAGE_Relocation  GAGE_Translocation  GAGE_Corrected contig #  GAGE_Corrected assembly size  GAGE_Min correct contig  GAGE_Max correct contig  GAGE_Corrected N50
CLC_MIS_PE_sakai_mis-2_bi_2x150bp_default__sakai_mis-1_bi_2x150bp_default.0.500percent.result_broken  272       276                 136                    374789          5354985       5355647                 5293066                    5594470           145600  145332  72032  64841  13   14    26   28    6                     4               4                      452662                       21541                               1 + 1 part          5492                      85                           -78281                                     8     0.15              94.230               1.004              4989 + 133 part  5249                       5250                        4437                          671                            66                             104          39       89             1.97                     0.74                 50.28   50.48             98.726        313894             145600  145332  72032  64841  14    15     27    29     4                   4                 0                    0                4                          452662                           6                         38                           1                          1                             5386                        1                                 0                      0                                106                             272             201              374789           145332 COUNT: 14  5594470           5354985             0                 28651(0.51%)                  5516(0.10%)                  1(0.37%)                       4067                             249166                           107            99.99         113        14                 7                 1                3                0                   268                      5346906                       201                      313894                   141496 COUNT: 16  
CLC_MIS_PE_sakai_mis-2_bi_2x150bp_default__sakai_mis-1_bi_2x150bp_default.0.500percent.result         252       252                 134                    374789          5357921       5357921                 5303497                    5594470           150068  148157  79461  73278  12   13    24   27    24                    6               6                      457575                       21838                               1 + 1 part          5492                      71                           -67937                                     2282  42.59             94.408               1.005              4995 + 139 part  5249                       5250                        4435                          670                            67                             145          62       229            2.75                     1.17                 50.28   50.48             98.729        313894             148157  147892  79461  73278  13    14     25    28     6                   6                 0                    0                6                          457575                           24                        58                           4                          1                             5386                        1                                 0                      0                                106                             252             201              374789           148157 COUNT: 13  5594470           5357921             0                 27694(0.50%)                  7790(0.15%)                  1(0.40%)                       4067                             247756                           418            99.99         113        14                 16                1                6                0                   267                      5346584                       201                      313894                   141496 COUNT: 16  
