All statistics are based on contigs of size >= 200 bp, unless otherwise noted (e.g., "# contigs (>= 0 bp)" and "Total length (>= 0 bp)" include all contigs).

Assembly                       SOAP2_MIS_PE_mrsa_mis-1_bi_2x150bp_default.0.527percent_19.final.scaf_broken  SOAP2_MIS_PE_mrsa_mis-1_bi_2x150bp_default.0.527percent_19.final.scaf
#Contigs (>= 0 bp)             9407                                                                          3952                                                                 
#Contigs (>= 1000 bp)          592                                                                           344                                                                  
Total length (>= 0 bp)         2988566                                                                       3246032                                                              
Total length (>= 1000 bp)      883922                                                                        2692139                                                              
#Contigs                       3666                                                                          667                                                                  
Largest contig                 4673                                                                          45598                                                                
Total length                   2314778                                                                       2810657                                                              
Reference length               2813862                                                                       2813862                                                              
GC (%)                         32.34                                                                         32.48                                                                
Reference GC (%)               32.81                                                                         32.81                                                                
N50                            811                                                                           12335                                                                
NG50                           646                                                                           12335                                                                
N75                            471                                                                           6027                                                                 
NG75                           296                                                                           5897                                                                 
#misassemblies                 3                                                                             7                                                                    
#local misassemblies           4                                                                             317                                                                  
#unaligned contigs             58 + 31 part                                                                  135 + 103 part                                                       
Unaligned contigs length       24007                                                                         924789                                                               
Genome fraction (%)            81.247                                                                        39.213                                                               
Duplication ratio              1.001                                                                         1.708                                                                
#N's per 100 kbp               65.97                                                                         9218.49                                                              
#mismatches per 100 kbp        3.19                                                                          3.84                                                                 
#indels per 100 kbp            33.94                                                                         895.11                                                               
#genes                         646 + 1864 part                                                               717 + 606 part                                                       
#predicted genes (unique)      4989                                                                          4615                                                                 
#predicted genes (>= 0 bp)     4989                                                                          4615                                                                 
#predicted genes (>= 300 bp)   2627                                                                          2712                                                                 
#predicted genes (>= 1500 bp)  18                                                                            38                                                                   
#predicted genes (>= 3000 bp)  0                                                                             0                                                                    
Largest alignment              4673                                                                          27022                                                                
NA50                           804                                                                           None                                                                 
NGA50                          640                                                                           None                                                                 
NA75                           464                                                                           None                                                                 
NGA75                          288                                                                           None                                                                 
