1: PREPARING DATA
2,3: RUNNING mummer AND CREATING CLUSTERS
# reading input file "/vol/codine-tmp/juene/tmp.yrZLxELW1c/quast/gage/tmp/VELVET_PGM_mrsa_pgm_200bp_es_316_IonOnev2_ts3.0_morestringent.0.230percent_73.final.contigs.ntref" of length 2813864
# construct suffix tree for sequence of length 2813864
# (maximum reference length is 536870908)
# (maximum query length is 4294967295)
# process 28138 characters per dot
#....................................................................................................
# CONSTRUCTIONTIME /vol/ngscomparison/software/analysis/quast-2.1/libs/MUMmer3.23-linux/mummer /vol/codine-tmp/juene/tmp.yrZLxELW1c/quast/gage/tmp/VELVET_PGM_mrsa_pgm_200bp_es_316_IonOnev2_ts3.0_morestringent.0.230percent_73.final.contigs.ntref 1.42
# reading input file "/vol/codine-tmp/juene/tmp.yrZLxELW1c/quast/corrected_input/VELVET_PGM_mrsa_pgm_200bp_es_316_IonOnev2_ts3.0_morestringent.0.230percent_73.final.contigs" of length 2741559
# matching query-file "/vol/codine-tmp/juene/tmp.yrZLxELW1c/quast/corrected_input/VELVET_PGM_mrsa_pgm_200bp_es_316_IonOnev2_ts3.0_morestringent.0.230percent_73.final.contigs"
# against subject-file "/vol/codine-tmp/juene/tmp.yrZLxELW1c/quast/gage/tmp/VELVET_PGM_mrsa_pgm_200bp_es_316_IonOnev2_ts3.0_morestringent.0.230percent_73.final.contigs.ntref"
# COMPLETETIME /vol/ngscomparison/software/analysis/quast-2.1/libs/MUMmer3.23-linux/mummer /vol/codine-tmp/juene/tmp.yrZLxELW1c/quast/gage/tmp/VELVET_PGM_mrsa_pgm_200bp_es_316_IonOnev2_ts3.0_morestringent.0.230percent_73.final.contigs.ntref 4.60
# SPACE /vol/ngscomparison/software/analysis/quast-2.1/libs/MUMmer3.23-linux/mummer /vol/codine-tmp/juene/tmp.yrZLxELW1c/quast/gage/tmp/VELVET_PGM_mrsa_pgm_200bp_es_316_IonOnev2_ts3.0_morestringent.0.230percent_73.final.contigs.ntref 5.42
4: FINISHING DATA
Filtering alignments
Extracting alignment coordinates
Analyzing SNPs
Extracting alignment breakpoints
Generating report file
Found genome size at position 4 with value 2813862 aka 2813862
Calculating point at 0 and the sum is 1006759 and i is822 and lens is 915 and length is 6785
Calculating point at 1 and the sum is 2002804 and i is603 and lens is 915 and length is 2911
