Assembly	#Contigs (>= 0 bp)	#Contigs (>= 1000 bp)	Total length (>= 0 bp)	Total length (>= 1000 bp)	#Contigs	Largest contig	Total length	Reference length	GC (%)	Reference GC (%)	N50	NG50	N75	NG75	#misassemblies	#local misassemblies	#unaligned contigs	Unaligned contigs length	Genome fraction (%)	Duplication ratio	#N's per 100 kbp	#mismatches per 100 kbp	#indels per 100 kbp	#genes	#predicted genes (unique)	#predicted genes (>= 0 bp)	#predicted genes (>= 300 bp)	#predicted genes (>= 1500 bp)	#predicted genes (>= 3000 bp)	Largest alignment	NA50	NGA50	NA75	NGA75
ABYSS_PE_MIS_PE_mtbh37-1_mis_2x250bp_nextera_default__mtbh37-2_mis_2x250bp_nextera_default_52-scaffolds_broken	327	159	4448626	4414719	199	170858	4436151	4411532	65.56	65.61	61697	66288	32378	32378	3	25	0 + 1 part	10	99.184	1.023	1.10	7.70	3.77	3983 + 123 part	4098	4193	3664	581	76	170858	61697	66288	32378	32378
ABYSS_PE_MIS_PE_mtbh37-1_mis_2x250bp_nextera_default__mtbh37-2_mis_2x250bp_nextera_default_52-scaffolds	279	125	4451369	4422841	154	207582	4439184	4411532	65.56	65.61	81559	81559	43576	49283	4	37	1 + 1 part	868	99.225	1.026	62.89	7.70	6.47	4006 + 100 part	4088	4183	3660	581	76	207367	81559	81559	43576	49283
