Assembly	VELVET_PGM_mtbh37_pgm_400bp_es_318v2_OT2_tsv3.6_morestringent_199.final.contigs
GAGE_Contigs #	1883
GAGE_Min contig	397
GAGE_Max contig	8812
GAGE_N50	1188 COUNT: 995
GAGE_Genome size	4411532
GAGE_Assembly size	2953887
GAGE_Chaff bases	0
GAGE_Missing reference bases	1528418(34.65%)
GAGE_Missing assembly bases	590(0.02%)
GAGE_Missing assembly contigs	0(0.00%)
GAGE_Duplicated reference bases	22749
GAGE_Compressed reference bases	28853
GAGE_Bad trim	440
GAGE_Avg idy	99.93
GAGE_SNPs	57
GAGE_Indels < 5bp	1688
GAGE_Indels >= 5	14
GAGE_Inversions	1
GAGE_Relocation	3
GAGE_Translocation	0
GAGE_Corrected contig #	1873
GAGE_Corrected assembly size	2932194
GAGE_Min correct contig	248
GAGE_Max correct contig	8818
GAGE_Corrected N50	1176 COUNT: 1015
