Assembly	SOAP2_MIS_PE_mrsa_mis-1_bi_2x150bp_default.0.527percent_15.final.scaf_broken	SOAP2_MIS_PE_mrsa_mis-1_bi_2x150bp_default.0.527percent_15.final.scaf
#Una_fully unaligned contigs	88	244
Una_Fully unaligned length	23824	308014
#Una_partially unaligned contigs	58	423
#Una_with misassembly	0	162
#Una_both parts are significant	0	181
Una_Partially unaligned length	3297	1380516
#N's	2028	938237
