1: PREPARING DATA
2,3: RUNNING mummer AND CREATING CLUSTERS
# reading input file "/vol/codine-tmp/juene/tmp.SBy1p4Ogxj/quast/gage/tmp/VELVET_PGM_mtbh37_pgm_400bp_es_318v2_OT2_tsv3.6_morestringent_53.final.contigs.ntref" of length 4411533
# construct suffix tree for sequence of length 4411533
# (maximum reference length is 536870908)
# (maximum query length is 4294967295)
# process 44115 characters per dot
#....................................................................................................
# CONSTRUCTIONTIME /vol/ngscomparison/software/analysis/quast-2.1/libs/MUMmer3.23-linux/mummer /vol/codine-tmp/juene/tmp.SBy1p4Ogxj/quast/gage/tmp/VELVET_PGM_mtbh37_pgm_400bp_es_318v2_OT2_tsv3.6_morestringent_53.final.contigs.ntref 2.47
# reading input file "/vol/codine-tmp/juene/tmp.SBy1p4Ogxj/quast/corrected_input/VELVET_PGM_mtbh37_pgm_400bp_es_318v2_OT2_tsv3.6_morestringent_53.final.contigs" of length 2115379
# matching query-file "/vol/codine-tmp/juene/tmp.SBy1p4Ogxj/quast/corrected_input/VELVET_PGM_mtbh37_pgm_400bp_es_318v2_OT2_tsv3.6_morestringent_53.final.contigs"
# against subject-file "/vol/codine-tmp/juene/tmp.SBy1p4Ogxj/quast/gage/tmp/VELVET_PGM_mtbh37_pgm_400bp_es_318v2_OT2_tsv3.6_morestringent_53.final.contigs.ntref"
# COMPLETETIME /vol/ngscomparison/software/analysis/quast-2.1/libs/MUMmer3.23-linux/mummer /vol/codine-tmp/juene/tmp.SBy1p4Ogxj/quast/gage/tmp/VELVET_PGM_mtbh37_pgm_400bp_es_318v2_OT2_tsv3.6_morestringent_53.final.contigs.ntref 5.09
# SPACE /vol/ngscomparison/software/analysis/quast-2.1/libs/MUMmer3.23-linux/mummer /vol/codine-tmp/juene/tmp.SBy1p4Ogxj/quast/gage/tmp/VELVET_PGM_mtbh37_pgm_400bp_es_318v2_OT2_tsv3.6_morestringent_53.final.contigs.ntref 6.54
4: FINISHING DATA
Filtering alignments
Extracting alignment coordinates
Analyzing SNPs
Extracting alignment breakpoints
Generating report file
Found genome size at position 4 with value 4411532 aka 4411532
Calculating point at 0 and the sum is 1000100 and i is4261 and lens is 6159 and length is 360
Calculating point at 1 and the sum is 2000105 and i is533 and lens is 6159 and length is 211
