All statistics are based on contigs of size >= 200 bp, unless otherwise noted (e.g., "# contigs (>= 0 bp)" and "Total length (>= 0 bp)" include all contigs).

Assembly                                                                                #Contigs  #Contigs (>= 0 bp)  #Contigs (>= 1000 bp)  Largest contig  Total length  Total length (>= 0 bp)  Total length (>= 1000 bp)  Reference length  N50   NG50  N75   NG75  L50  LG50  L75   LG75  #local misassemblies  #misassemblies  #misassembled contigs  Misassembled contigs length  Misassemblies inter-contig overlap  #unaligned contigs  Unaligned contigs length  #ambiguously mapped contigs  Extra bases in ambiguously mapped contigs  #N's  #N's per 100 kbp  Genome fraction (%)  Duplication ratio  #genes            #predicted genes (unique)  #predicted genes (>= 0 bp)  #predicted genes (>= 300 bp)  #predicted genes (>= 1500 bp)  #predicted genes (>= 3000 bp)  #mismatches  #indels  Indels length  #mismatches per 100 kbp  #indels per 100 kbp  GC (%)  Reference GC (%)  Average %IDY  Largest alignment  NA50  NGA50  NA75  NGA75  LA50  LGA50  LA75  LGA75  #Mis_misassemblies  #Mis_relocations  #Mis_translocations  #Mis_inversions  #Mis_misassembled contigs  Mis_Misassembled contigs length  #Mis_local misassemblies  #Mis_short indels (<= 5 bp)  #Mis_long indels (> 5 bp)  #Una_fully unaligned contigs  Una_Fully unaligned length  #Una_partially unaligned contigs  #Una_with misassembly  #Una_both parts are significant  Una_Partially unaligned length  GAGE_Contigs #  GAGE_Min contig  GAGE_Max contig  GAGE_N50         GAGE_Genome size  GAGE_Assembly size  GAGE_Chaff bases  GAGE_Missing reference bases  GAGE_Missing assembly bases  GAGE_Missing assembly contigs  GAGE_Duplicated reference bases  GAGE_Compressed reference bases  GAGE_Bad trim  GAGE_Avg idy  GAGE_SNPs  GAGE_Indels < 5bp  GAGE_Indels >= 5  GAGE_Inversions  GAGE_Relocation  GAGE_Translocation  GAGE_Corrected contig #  GAGE_Corrected assembly size  GAGE_Min correct contig  GAGE_Max correct contig  GAGE_Corrected N50
VELVET_PGM_sakai_pgm_mu_200bp_IO_TS3.0Disabled_stringent.0.34percent_135.final.contigs  3238      3238                1805                   11047           5037165       5037165                 4134859                    5594470           2180  1924  1244  962   719  854   1486  1868  34                    56              56                     175462                       665                                 0 + 32 part         918                       181                          -78863                                     820   16.28             85.766               1.033              2720 + 2222 part  7602                       7613                        5250                          253                            11                             280          2674     2774           5.84                     55.73                50.79   50.48             99.372        11047              2154  1907   1223  938    724   861    1500  1889   56                  52                0                    4                56                         175462                           34                        2673                         1                          0                             0                           32                                0                      0                                918                             3238            269              11047            1924 COUNT: 854  5594470           5037165             0                 557327(9.96%)                 2661(0.05%)                  0(0.00%)                       38889                            251210                           2400           99.93         135        2397               20                9                4                0                   3208                     4999511                       264                      11050                    1894 COUNT: 870   
