Assembly	#Contigs	#Contigs (>= 0 bp)	#Contigs (>= 1000 bp)	Largest contig	Total length	Total length (>= 0 bp)	Total length (>= 1000 bp)	Reference length	N50	NG50	N75	NG75	L50	LG50	L75	LG75	#local misassemblies	#misassemblies	#misassembled contigs	Misassembled contigs length	Misassemblies inter-contig overlap	#unaligned contigs	Unaligned contigs length	#ambiguously mapped contigs	Extra bases in ambiguously mapped contigs	#N's	#N's per 100 kbp	Genome fraction (%)	Duplication ratio	#genes	#predicted genes (unique)	#predicted genes (>= 0 bp)	#predicted genes (>= 300 bp)	#predicted genes (>= 1500 bp)	#predicted genes (>= 3000 bp)	#mismatches	#indels	Indels length	#mismatches per 100 kbp	#indels per 100 kbp	GC (%)	Reference GC (%)	Average %IDY	Largest alignment	NA50	NGA50	NA75	NGA75	LA50	LGA50	LA75	LGA75	#Mis_misassemblies	#Mis_relocations	#Mis_translocations	#Mis_inversions	#Mis_misassembled contigs	Mis_Misassembled contigs length	#Mis_local misassemblies	#Mis_short indels (<= 5 bp)	#Mis_long indels (> 5 bp)	#Una_fully unaligned contigs	Una_Fully unaligned length	#Una_partially unaligned contigs	#Una_with misassembly	#Una_both parts are significant	Una_Partially unaligned length	GAGE_Contigs #	GAGE_Min contig	GAGE_Max contig	GAGE_N50	GAGE_Genome size	GAGE_Assembly size	GAGE_Chaff bases	GAGE_Missing reference bases	GAGE_Missing assembly bases	GAGE_Missing assembly contigs	GAGE_Duplicated reference bases	GAGE_Compressed reference bases	GAGE_Bad trim	GAGE_Avg idy	GAGE_SNPs	GAGE_Indels < 5bp	GAGE_Indels >= 5	GAGE_Inversions	GAGE_Relocation	GAGE_Translocation	GAGE_Corrected contig #	GAGE_Corrected assembly size	GAGE_Min correct contig	GAGE_Max correct contig	GAGE_Corrected N50
ABYSS_PE_MIS_PE_sakai_mis-2_bi_2x150bp_default__sakai_mis-1_bi_2x150bp_default.0.650percent_52.final_broken	259	1152	179	292296	5464738	5553453	5419483	5594470	99960	99960	43144	41779	18	18	37	39	10	4	4	361387	3701	0 + 0 part	0	44	-48313	47	0.86	95.686	1.013	5044 + 165 part	5217	5338	4510	684	71	1131	56	232	21.13	1.05	50.39	50.48	98.967	228649	99960	98911	42176	41207	18	19	38	41	4	4	0	0	4	361387	10	50	6	0	0	0	0	0	0	259	203	292296	99960 COUNT: 18	5594470	5464738	0	72020(1.29%)	3(0.00%)	0(0.00%)	21245	205037	0	99.97	701	45	14	2	2	0	259	5448184	204	228653	77762 COUNT: 21
ABYSS_PE_MIS_PE_sakai_mis-2_bi_2x150bp_default__sakai_mis-1_bi_2x150bp_default.0.650percent_52.final	209	1099	163	376657	5467938	5556239	5440047	5594470	148453	148453	49888	45712	14	14	29	31	29	16	13	639368	3245	0 + 2 part	1399	25	-35059	2833	51.81	95.903	1.013	5059 + 166 part	5211	5331	4510	685	70	1148	88	446	21.40	1.64	50.39	50.48	98.952	261491	148008	148008	49888	45662	15	15	30	32	16	16	0	0	13	639368	29	75	13	0	0	2	0	2	1399	209	204	376657	148453 COUNT: 14	5594470	5467938	0	73193(1.31%)	2511(0.05%)	0(0.00%)	21196	204576	477	99.96	701	50	40	9	9	0	256	5449013	204	228653	77762 COUNT: 21
