Assembly	ABYSS_PE_MIS_PE_sakai_mis-1_bi_2x250bp_SI_default__sakai_mis-2_bi_2x250bp_SI_default.0.8percent_106.final_broken	ABYSS_PE_MIS_PE_sakai_mis-1_bi_2x250bp_SI_default__sakai_mis-2_bi_2x250bp_SI_default.0.8percent_106.final
#Contigs (>= 0 bp)	961	961
#Contigs (>= 1000 bp)	213	213
Total length (>= 0 bp)	5461949	5461949
Total length (>= 1000 bp)	5262727	5262727
#Contigs	653	653
Largest contig	259977	259977
Total length	5418360	5418360
Reference length	5594470	5594470
GC (%)	50.33	50.33
Reference GC (%)	50.48	50.48
N50	84298	84298
NG50	81515	81515
N75	35783	35783
NG75	30435	30435
#misassemblies	4	4
#local misassemblies	2	2
#unaligned contigs	0 + 0 part	0 + 0 part
Unaligned contigs length	0	0
Genome fraction (%)	94.481	94.481
Duplication ratio	1.002	1.002
#N's per 100 kbp	0.00	0.00
#mismatches per 100 kbp	1.51	1.53
#indels per 100 kbp	0.30	0.30
#genes	4910 + 263 part	4910 + 263 part
#predicted genes (unique)	5579	5579
#predicted genes (>= 0 bp)	5601	5601
#predicted genes (>= 300 bp)	4478	4478
#predicted genes (>= 1500 bp)	668	668
#predicted genes (>= 3000 bp)	66	66
Largest alignment	259977	259977
NA50	84298	84298
NGA50	81515	81515
NA75	30907	30907
NGA75	30019	30019
