Assembly	NEWBLER_PGM_mtbh37_pgm_400bp_es_318v2_OT2_tsv3.6_morestringent.0.550percent.contigs
#Mis_misassemblies	3
#Mis_relocations	3
#Mis_translocations	0
#Mis_inversions	0
#Mis_misassembled contigs	2
Mis_Misassembled contigs length	1533
#Mis_local misassemblies	16
#mismatches	191
#indels	873
#Mis_short indels (<= 5 bp)	871
#Mis_long indels (> 5 bp)	2
Indels length	959
