Assembly	VELVET_MIS_PE_sakai_mis-1_bi_2x150bp_default__sakai_mis-2_bi_2x150bp_default.0.826percent_71.final.contigs_broken	VELVET_MIS_PE_sakai_mis-1_bi_2x150bp_default__sakai_mis-2_bi_2x150bp_default.0.826percent_71.final.contigs
#Contigs (>= 0 bp)	555	479
#Contigs (>= 1000 bp)	177	130
Total length (>= 0 bp)	5417640	5422952
Total length (>= 1000 bp)	5294879	5312932
#Contigs	436	364
Largest contig	211556	374951
Total length	5397539	5403557
Reference length	5594470	5594470
GC (%)	50.31	50.31
Reference GC (%)	50.48	50.48
N50	90391	148258
NG50	86688	146409
N75	43710	81131
NG75	41291	77777
#misassemblies	4	7
#local misassemblies	7	46
#unaligned contigs	1 + 0 part	1 + 1 part
Unaligned contigs length	5456	5904
Genome fraction (%)	94.495	94.523
Duplication ratio	1.001	1.002
#N's per 100 kbp	0.00	98.31
#mismatches per 100 kbp	4.33	4.69
#indels per 100 kbp	0.45	5.58
#genes	4974 + 168 part	5005 + 149 part
#predicted genes (unique)	5420	5394
#predicted genes (>= 0 bp)	5424	5398
#predicted genes (>= 300 bp)	4485	4476
#predicted genes (>= 1500 bp)	670	671
#predicted genes (>= 3000 bp)	68	68
Largest alignment	211556	362439
NA50	90391	147896
NGA50	86688	145435
NA75	42298	77777
NGA75	37345	73943
