All statistics are based on contigs of size >= 200 bp, unless otherwise noted (e.g., "# contigs (>= 0 bp)" and "Total length (>= 0 bp)" include all contigs).

Assembly                                                                      #Contigs (>= 0 bp)  #Contigs (>= 1000 bp)  Total length (>= 0 bp)  Total length (>= 1000 bp)  #Contigs  Largest contig  Total length  Reference length  GC (%)  Reference GC (%)  N50    NG50   N75    NG75   #misassemblies  #local misassemblies  #unaligned contigs  Unaligned contigs length  Genome fraction (%)  Duplication ratio  #N's per 100 kbp  #mismatches per 100 kbp  #indels per 100 kbp  #genes            #predicted genes (unique)  #predicted genes (>= 0 bp)  #predicted genes (>= 300 bp)  #predicted genes (>= 1500 bp)  #predicted genes (>= 3000 bp)  Largest alignment  NA50   NGA50  NA75   NGA75
SOAP2_MIS_PE_mrsa_mis-1_bi_2x150bp_default.0.527percent_41.final.scaf_broken  9655                884                    3780876                 2167493                    1864      11494           2673025       2813862           32.55   32.81             2330   2215   1261   1092   1               5                     20 + 0 part         10273                     94.405               1.001              38.27             2.00                     21.31                1484 + 1127 part  3974                       3974                        2726                          135                            3                              11494              2330   2215   1258   1090 
SOAP2_MIS_PE_mrsa_mis-1_bi_2x150bp_default.0.527percent_41.final.scaf         7582                118                    3858280                 2755954                    219       135204          2796670       2813862           32.60   32.81             48528  48528  24515  24515  2               163                   24 + 7 part         38655                     94.018               1.042              2804.62           2.08                     750.36               2356 + 205 part   3474                       3474                        2640                          173                            5                              134475             47130  47130  21498  20189
