Assembly	VELVET_PGM_mtbh37_pgm_400bp_es_318v2_OT2_tsv3.6_morestringent_39.final.contigs
#Una_fully unaligned contigs	1
Una_Fully unaligned length	435
#Una_partially unaligned contigs	3
#Una_with misassembly	0
#Una_both parts are significant	0
Una_Partially unaligned length	117
#N's	0
