Assembly	ABYSS_PE_PGM_mrsa_pgm_200bp_es_316_IonOnev2_ts3.0_morestringent.0.050percent_42.final
#Una_fully unaligned contigs	0
Una_Fully unaligned length	0
#Una_partially unaligned contigs	49
#Una_with misassembly	0
#Una_both parts are significant	0
Una_Partially unaligned length	1843
#N's	0
