calling: java -cp /vol/ngscomparison/software/analysis/quast-2.1/libs/gage:. SizeFasta /vol/codine-tmp/juene/tmp.y8QdiOqfib/quast/corrected_input/MRSA_COL_Plasmid.fasta |awk '{SUM+=; print SUM}'|tail -n 1
Contig Stats
Total units: 207
Reference: 2813862
BasesInFasta: 2820822
Min: 200
Max: 328788
N10: 328788 COUNT: 1
N25: 238960 COUNT: 3
N50: 155026 COUNT: 6
N75: 107559 COUNT: 12
E-size:179693.47

Genome Size: 2813862
Assembly Size: 2820822
Chaff bases: 0
Missing Reference Bases: 6209(0.22%)
Missing Assembly Bases: 45093(1.60%)
Missing Assembly Contigs: 147(71.01%)
Duplicated Reference Bases: 552
Compressed Reference Bases: 34551
Bad Trim: 380
Avg Idy: 99.99
SNPs: 42
Indels < 5bp: 10
Indels >= 5: 10
Inversions: 0
Relocation: 2
Translocation: 0

Corrected Contig Stats
calling: java -cp /vol/ngscomparison/software/analysis/quast-2.1/libs/gage:.:. GetFastaStats -o -min 199 -genomeSize 2813862 /vol/codine-tmp/juene/tmp.y8QdiOqfib/quast/gage/tmp/CLC_MIS_PE_mrsa_mis-1_bi_2x250bp_default__mrsa_mis-2_bi_2x250bp_default.0.300percent.result.matches.lens 2> /dev/null
Total units: 71
Reference: 2813862
BasesInFasta: 2776615
Min: 204
Max: 326524
N10: 326524 COUNT: 1
N25: 208607 COUNT: 3
N50: 124927 COUNT: 8
N75: 91627 COUNT: 14
E-size:143740.19

Done
