Assembly	CLC_MIS_PE_mrsa_mis-1_bi_2x250bp_default__mrsa_mis-2_bi_2x250bp_default.0.800percent.result_broken	CLC_MIS_PE_mrsa_mis-1_bi_2x250bp_default__mrsa_mis-2_bi_2x250bp_default.0.800percent.result
#Mis_misassemblies	2	2
#Mis_relocations	2	2
#Mis_translocations	0	0
#Mis_inversions	0	0
#Mis_misassembled contigs	2	2
Mis_Misassembled contigs length	162293	162373
#Mis_local misassemblies	6	7
#mismatches	110	110
#indels	19	19
#Mis_short indels (<= 5 bp)	15	15
#Mis_long indels (> 5 bp)	4	4
Indels length	124	124
