All statistics are based on contigs of size >= 200 bp, unless otherwise noted (e.g., "# contigs (>= 0 bp)" and "Total length (>= 0 bp)" include all contigs).

Assembly                                                                                                           #Contigs (>= 0 bp)  #Contigs (>= 1000 bp)  Total length (>= 0 bp)  Total length (>= 1000 bp)  #Contigs  Largest contig  Total length  Reference length  GC (%)  Reference GC (%)  N50    NG50   N75    NG75   #misassemblies  #local misassemblies  #unaligned contigs  Unaligned contigs length  Genome fraction (%)  Duplication ratio  #N's per 100 kbp  #mismatches per 100 kbp  #indels per 100 kbp  #genes           #predicted genes (unique)  #predicted genes (>= 0 bp)  #predicted genes (>= 300 bp)  #predicted genes (>= 1500 bp)  #predicted genes (>= 3000 bp)  Largest alignment  NA50   NGA50  NA75   NGA75
VELVET_MIS_PE_sakai_mis-1_bi_2x150bp_default__sakai_mis-2_bi_2x150bp_default.0.826percent_19.final.contigs_broken  3066                846                    5323374                 5028582                    1217      40243           5200239       5594470           50.24   50.48             8346   7851   4768   3875   13              25                    2 + 3 part          6054                      91.512               1.001              0.00              28.07                    4.77                 4250 + 709 part  5773                       5773                        4613                          568                            38                             40243              8330   7839   4751   3861 
VELVET_MIS_PE_sakai_mis-1_bi_2x150bp_default__sakai_mis-2_bi_2x150bp_default.0.826percent_19.final.contigs         2239                191                    5343210                 5134828                    417       309706          5223487       5594470           50.24   50.48             67722  66404  31877  24869  65              160                   4 + 2 part          7823                      91.732               1.003              379.75            27.98                    45.95                4679 + 281 part  5440                       5440                        4497                          591                            49                             186653             48608  42175  23732  16737
