Assembly	VELVET_PGM_sakai_pgm_mu_200bp_IO_TS3.0Disabled_stringent.0.34percent_97.final.contigs
#Contigs	1951
#Contigs (>= 0 bp)	1975
#Contigs (>= 1000 bp)	1187
Largest contig	26485
Total length	5285320
Total length (>= 0 bp)	5290019
Total length (>= 1000 bp)	4895063
Reference length	5594470
N50	5467
NG50	5193
N75	2688
NG75	2218
L50	298
LG50	327
L75	641
LG75	735
#local misassemblies	28
#misassemblies	51
#misassembled contigs	47
Misassembled contigs length	256014
Misassemblies inter-contig overlap	2377
#unaligned contigs	0 + 2 part
Unaligned contigs length	133
#ambiguously mapped contigs	213
Extra bases in ambiguously mapped contigs	-91886
#N's	630
#N's per 100 kbp	11.92
Genome fraction (%)	92.062
Duplication ratio	1.009
#genes	3893 + 1190 part
#predicted genes (unique)	6937
#predicted genes (>= 0 bp)	6946
#predicted genes (>= 300 bp)	5052
#predicted genes (>= 1500 bp)	436
#predicted genes (>= 3000 bp)	20
#mismatches	236
#indels	1776
Indels length	1859
#mismatches per 100 kbp	4.58
#indels per 100 kbp	34.48
GC (%)	50.51
Reference GC (%)	50.48
Average %IDY	99.207
Largest alignment	26485
NA50	5436
NGA50	5069
NA75	2631
NGA75	2167
LA50	304
LGA50	333
LA75	654
LGA75	752
#Mis_misassemblies	51
#Mis_relocations	47
#Mis_translocations	0
#Mis_inversions	4
#Mis_misassembled contigs	47
Mis_Misassembled contigs length	256014
#Mis_local misassemblies	28
#Mis_short indels (<= 5 bp)	1773
#Mis_long indels (> 5 bp)	3
#Una_fully unaligned contigs	0
Una_Fully unaligned length	0
#Una_partially unaligned contigs	2
#Una_with misassembly	0
#Una_both parts are significant	0
Una_Partially unaligned length	133
GAGE_Contigs #	1951
GAGE_Min contig	201
GAGE_Max contig	26485
GAGE_N50	5193 COUNT: 327
GAGE_Genome size	5594470
GAGE_Assembly size	5285320
GAGE_Chaff bases	0
GAGE_Missing reference bases	165267(2.95%)
GAGE_Missing assembly bases	751(0.01%)
GAGE_Missing assembly contigs	0(0.00%)
GAGE_Duplicated reference bases	14375
GAGE_Compressed reference bases	271222
GAGE_Bad trim	281
GAGE_Avg idy	99.96
GAGE_SNPs	122
GAGE_Indels < 5bp	1798
GAGE_Indels >= 5	21
GAGE_Inversions	4
GAGE_Relocation	30
GAGE_Translocation	0
GAGE_Corrected contig #	1971
GAGE_Corrected assembly size	5274950
GAGE_Min correct contig	201
GAGE_Max correct contig	26489
GAGE_Corrected N50	4936 COUNT: 339
