All statistics are based on contigs of size >= 200 bp, unless otherwise noted (e.g., "# contigs (>= 0 bp)" and "Total length (>= 0 bp)" include all contigs).

Assembly                                                                                                          GAGE_Contigs #  GAGE_Min contig  GAGE_Max contig  GAGE_N50         GAGE_Genome size  GAGE_Assembly size  GAGE_Chaff bases  GAGE_Missing reference bases  GAGE_Missing assembly bases  GAGE_Missing assembly contigs  GAGE_Duplicated reference bases  GAGE_Compressed reference bases  GAGE_Bad trim  GAGE_Avg idy  GAGE_SNPs  GAGE_Indels < 5bp  GAGE_Indels >= 5  GAGE_Inversions  GAGE_Relocation  GAGE_Translocation  GAGE_Corrected contig #  GAGE_Corrected assembly size  GAGE_Min correct contig  GAGE_Max correct contig  GAGE_Corrected N50
VELVET_MIS_PE_mtbh37-1_mis_2x250bp_nextera_default__mtbh37-2_mis_2x250bp_nextera_default_79.final.contigs_broken  376             208              68062            21710 COUNT: 67  4411532           4264822             0                 103088(2.34%)                 1002(0.02%)                  0(0.00%)                       1456                             56368                            1002           99.99         234        28                 17                0                8                0                   398                      4266120                       208                      68060                    20087 COUNT: 69   
VELVET_MIS_PE_mtbh37-1_mis_2x250bp_nextera_default__mtbh37-2_mis_2x250bp_nextera_default_79.final.contigs         175             235              201988           63248 COUNT: 22  4411532           4284855             0                 102498(2.32%)                 20282(0.47%)                 0(0.00%)                       1625                             56368                            1283           99.98         233        40                 198               0                16               0                   390                      4266710                       208                      68060                    20214 COUNT: 68   
