Assembly	VELVET_MIS_PE_mtbh37-1_mis_2x250bp_nextera_default__mtbh37-2_mis_2x250bp_nextera_default_79.final.contigs_broken	VELVET_MIS_PE_mtbh37-1_mis_2x250bp_nextera_default__mtbh37-2_mis_2x250bp_nextera_default_79.final.contigs
#Contigs (>= 0 bp)	386	182
#Contigs (>= 1000 bp)	318	136
Total length (>= 0 bp)	4266374	4286081
Total length (>= 1000 bp)	4233829	4264548
#Contigs	376	175
Largest contig	68062	201988
Total length	4264822	4284855
Reference length	4411532	4411532
GC (%)	65.40	65.40
Reference GC (%)	65.61	65.61
N50	22157	65527
NG50	21710	63248
N75	12440	33124
NG75	11560	31438
#misassemblies	4	9
#local misassemblies	20	153
#unaligned contigs	0 + 1 part	0 + 1 part
Unaligned contigs length	112	112
Genome fraction (%)	96.259	96.318
Duplication ratio	1.003	1.007
#N's per 100 kbp	0.00	459.92
#mismatches per 100 kbp	5.93	5.18
#indels per 100 kbp	0.82	15.74
#genes	3745 + 296 part	3805 + 237 part
#predicted genes (unique)	4182	4157
#predicted genes (>= 0 bp)	4186	4160
#predicted genes (>= 300 bp)	3621	3613
#predicted genes (>= 1500 bp)	526	530
#predicted genes (>= 3000 bp)	62	62
Largest alignment	68062	201457
NA50	22065	63041
NGA50	21304	58604
NA75	12337	32804
NGA75	11560	28998
