Assembly	CLC_PGM_sakai_pgm_mu_318_400bp_IO_TS3.4_ms.0.85percent.result
#Mis_misassemblies	4
#Mis_relocations	4
#Mis_translocations	0
#Mis_inversions	0
#Mis_misassembled contigs	4
Mis_Misassembled contigs length	75693
#Mis_local misassemblies	8
#mismatches	246
#indels	444
#Mis_short indels (<= 5 bp)	439
#Mis_long indels (> 5 bp)	5
Indels length	536
