All statistics are based on contigs of size >= 200 bp, unless otherwise noted (e.g., "# contigs (>= 0 bp)" and "Total length (>= 0 bp)" include all contigs).

Assembly                                                                   #Contigs (>= 0 bp)  #Contigs (>= 1000 bp)  Total length (>= 0 bp)  Total length (>= 1000 bp)  #Contigs  Largest contig  Total length  Reference length  GC (%)  Reference GC (%)  N50    NG50   N75    NG75   #misassemblies  #local misassemblies  #unaligned contigs  Unaligned contigs length  Genome fraction (%)  Duplication ratio  #N's per 100 kbp  #mismatches per 100 kbp  #indels per 100 kbp  #genes           #predicted genes (unique)  #predicted genes (>= 0 bp)  #predicted genes (>= 300 bp)  #predicted genes (>= 1500 bp)  #predicted genes (>= 3000 bp)  Largest alignment  NA50   NGA50  NA75   NGA75
CLC_PGM_mrsa_pgm_400bp_es_318_IKA_ts3.2_morestringent.0.100percent.result  603                 219                    2840329                 2715308                    603       64514           2840329       2813862           32.62   32.81             20490  20490  10071  10106  4               1                     2 + 13 part         1306                      97.631               1.030              20.10             2.11                     20.82                2522 + 171 part  3155                       3158                        2380                          270                            21                             64514              20490  20490  10071  10106
