1: PREPARING DATA
2,3: RUNNING mummer AND CREATING CLUSTERS
# reading input file "/vol/codine-tmp/juene/tmp.QkX9Nj8Ou4/quast/gage/tmp/CLC_PGM_mrsa_pgm_400bp_es_318_IKA_ts3.2_morestringent.81coverage.result.ntref" of length 2813864
# construct suffix tree for sequence of length 2813864
# (maximum reference length is 536870908)
# (maximum query length is 4294967295)
# process 28138 characters per dot
#....................................................................................................
# CONSTRUCTIONTIME /vol/ngscomparison/software/analysis/quast-2.1/libs/MUMmer3.23-linux/mummer /vol/codine-tmp/juene/tmp.QkX9Nj8Ou4/quast/gage/tmp/CLC_PGM_mrsa_pgm_400bp_es_318_IKA_ts3.2_morestringent.81coverage.result.ntref 2.13
# reading input file "/vol/codine-tmp/juene/tmp.QkX9Nj8Ou4/quast/corrected_input/CLC_PGM_mrsa_pgm_400bp_es_318_IKA_ts3.2_morestringent.81coverage.result" of length 2847893
# matching query-file "/vol/codine-tmp/juene/tmp.QkX9Nj8Ou4/quast/corrected_input/CLC_PGM_mrsa_pgm_400bp_es_318_IKA_ts3.2_morestringent.81coverage.result"
# against subject-file "/vol/codine-tmp/juene/tmp.QkX9Nj8Ou4/quast/gage/tmp/CLC_PGM_mrsa_pgm_400bp_es_318_IKA_ts3.2_morestringent.81coverage.result.ntref"
# COMPLETETIME /vol/ngscomparison/software/analysis/quast-2.1/libs/MUMmer3.23-linux/mummer /vol/codine-tmp/juene/tmp.QkX9Nj8Ou4/quast/gage/tmp/CLC_PGM_mrsa_pgm_400bp_es_318_IKA_ts3.2_morestringent.81coverage.result.ntref 6.29
# SPACE /vol/ngscomparison/software/analysis/quast-2.1/libs/MUMmer3.23-linux/mummer /vol/codine-tmp/juene/tmp.QkX9Nj8Ou4/quast/gage/tmp/CLC_PGM_mrsa_pgm_400bp_es_318_IKA_ts3.2_morestringent.81coverage.result.ntref 5.50
4: FINISHING DATA
Filtering alignments
Extracting alignment coordinates
Analyzing SNPs
Extracting alignment breakpoints
Generating report file
Found genome size at position 4 with value 2813862 aka 2813862
Calculating point at 0 and the sum is 1012413 and i is237 and lens is 254 and length is 43206
Calculating point at 1 and the sum is 2012622 and i is203 and lens is 254 and length is 19403
