Assembly	VELVET_MIS_PE_mtbh37-1_mis_2x250bp_nextera_default__mtbh37-2_mis_2x250bp_nextera_default_67.final.contigs_broken	VELVET_MIS_PE_mtbh37-1_mis_2x250bp_nextera_default__mtbh37-2_mis_2x250bp_nextera_default_67.final.contigs
GAGE_Contigs #	471	186
GAGE_Min contig	208	208
GAGE_Max contig	62983	161333
GAGE_N50	17613 COUNT: 78	70812 COUNT: 22
GAGE_Genome size	4411532	4411532
GAGE_Assembly size	4257385	4281564
GAGE_Chaff bases	0	0
GAGE_Missing reference bases	110988(2.52%)	110301(2.50%)
GAGE_Missing assembly bases	1012(0.02%)	24536(0.57%)
GAGE_Missing assembly contigs	0(0.00%)	0(0.00%)
GAGE_Duplicated reference bases	1595	1595
GAGE_Compressed reference bases	56869	55776
GAGE_Bad trim	1012	975
GAGE_Avg idy	99.99	99.98
GAGE_SNPs	275	275
GAGE_Indels < 5bp	42	83
GAGE_Indels >= 5	15	273
GAGE_Inversions	0	3
GAGE_Relocation	14	25
GAGE_Translocation	0	0
GAGE_Corrected contig #	494	481
GAGE_Corrected assembly size	4258412	4258827
GAGE_Min correct contig	216	216
GAGE_Max correct contig	62983	62983
GAGE_Corrected N50	16077 COUNT: 83	16424 COUNT: 81
