Assembly	CLC_MIS_PE_mrsa_mis-1_bi_2x150bp_default__mrsa_mis-2_bi_2x150bp_default.46coverage.result_broken	CLC_MIS_PE_mrsa_mis-1_bi_2x150bp_default__mrsa_mis-2_bi_2x150bp_default.46coverage.result
#Mis_misassemblies	3	3
#Mis_relocations	3	3
#Mis_translocations	0	0
#Mis_inversions	0	0
#Mis_misassembled contigs	3	3
Mis_Misassembled contigs length	359283	454528
#Mis_local misassemblies	7	11
#mismatches	102	106
#indels	31	33
#Mis_short indels (<= 5 bp)	22	22
#Mis_long indels (> 5 bp)	9	11
Indels length	271	365
