Assembly	#Contigs (>= 0 bp)	#Contigs (>= 1000 bp)	Total length (>= 0 bp)	Total length (>= 1000 bp)	#Contigs	Largest contig	Total length	Reference length	GC (%)	Reference GC (%)	N50	NG50	N75	NG75	#misassemblies	#local misassemblies	#unaligned contigs	Unaligned contigs length	Genome fraction (%)	Duplication ratio	#N's per 100 kbp	#mismatches per 100 kbp	#indels per 100 kbp	#genes	#predicted genes (unique)	#predicted genes (>= 0 bp)	#predicted genes (>= 300 bp)	#predicted genes (>= 1500 bp)	#predicted genes (>= 3000 bp)	Largest alignment	NA50	NGA50	NA75	NGA75
ABYSS_PE_MIS_PE_mrsa_mis-1_bi_2x250bp_default__mrsa_mis-2_bi_2x250bp_default.0.460percent_92-scaffolds_broken	279	67	2884988	2843284	111	207877	2861294	2813862	32.71	32.81	107135	107135	46921	46921	3	1	0 + 0 part	0	98.712	1.028	0.17	2.16	0.36	2669 + 42 part	2663	2739	2354	305	29	207877	107135	107135	45892	46921
ABYSS_PE_MIS_PE_mrsa_mis-1_bi_2x250bp_default__mrsa_mis-2_bi_2x250bp_default.0.460percent_92-scaffolds	269	65	2885449	2847939	101	207877	2861755	2813862	32.71	32.81	107135	107135	50506	50506	6	1	0 + 0 part	0	98.768	1.028	16.28	2.23	0.43	2670 + 42 part	2660	2736	2354	305	29	207877	107135	107135	46921	50506
