Assembly	ABYSS_PE_PGM_sakai_pgm_mu_200bp_IO_TS3.0Disabled_stringent.0.34percent_50-unitigs
#Contigs (>= 0 bp)	6634
#Contigs (>= 1000 bp)	742
Total length (>= 0 bp)	5709882
Total length (>= 1000 bp)	5035557
#Contigs	1200
Largest contig	48085
Total length	5230625
Reference length	5594470
GC (%)	50.21
Reference GC (%)	50.48
N50	10071
NG50	9214
N75	5360
NG75	4350
#misassemblies	2
#local misassemblies	6
#unaligned contigs	0 + 2 part
Unaligned contigs length	132
Genome fraction (%)	92.346
Duplication ratio	1.001
#N's per 100 kbp	0.00
#mismatches per 100 kbp	1.59
#indels per 100 kbp	22.96
#genes	4275 + 703 part
#predicted genes (unique)	6201
#predicted genes (>= 0 bp)	6203
#predicted genes (>= 300 bp)	4788
#predicted genes (>= 1500 bp)	506
#predicted genes (>= 3000 bp)	34
Largest alignment	48085
NA50	10062
NGA50	9214
NA75	5360
NGA75	4343
