Assembly	#Contigs	#Contigs (>= 0 bp)	#Contigs (>= 1000 bp)	Largest contig	Total length	Total length (>= 0 bp)	Total length (>= 1000 bp)	Reference length	N50	NG50	N75	NG75	L50	LG50	L75	LG75	#local misassemblies	#misassemblies	#misassembled contigs	Misassembled contigs length	Misassemblies inter-contig overlap	#unaligned contigs	Unaligned contigs length	#ambiguously mapped contigs	Extra bases in ambiguously mapped contigs	#N's	#N's per 100 kbp	Genome fraction (%)	Duplication ratio	#genes	#predicted genes (unique)	#predicted genes (>= 0 bp)	#predicted genes (>= 300 bp)	#predicted genes (>= 1500 bp)	#predicted genes (>= 3000 bp)	#mismatches	#indels	Indels length	#mismatches per 100 kbp	#indels per 100 kbp	GC (%)	Reference GC (%)	Average %IDY	Largest alignment	NA50	NGA50	NA75	NGA75	LA50	LGA50	LA75	LGA75	#Mis_misassemblies	#Mis_relocations	#Mis_translocations	#Mis_inversions	#Mis_misassembled contigs	Mis_Misassembled contigs length	#Mis_local misassemblies	#Mis_short indels (<= 5 bp)	#Mis_long indels (> 5 bp)	#Una_fully unaligned contigs	Una_Fully unaligned length	#Una_partially unaligned contigs	#Una_with misassembly	#Una_both parts are significant	Una_Partially unaligned length	GAGE_Contigs #	GAGE_Min contig	GAGE_Max contig	GAGE_N50	GAGE_Genome size	GAGE_Assembly size	GAGE_Chaff bases	GAGE_Missing reference bases	GAGE_Missing assembly bases	GAGE_Missing assembly contigs	GAGE_Duplicated reference bases	GAGE_Compressed reference bases	GAGE_Bad trim	GAGE_Avg idy	GAGE_SNPs	GAGE_Indels < 5bp	GAGE_Indels >= 5	GAGE_Inversions	GAGE_Relocation	GAGE_Translocation	GAGE_Corrected contig #	GAGE_Corrected assembly size	GAGE_Min correct contig	GAGE_Max correct contig	GAGE_Corrected N50
VELVET_MIS_PE_sakai_mis-both_bi_2x250bp_SI_default.0.64percent_137.final.contigs_broken	552	555	297	127811	5446367	5446813	5334623	5594470	34379	33066	18839	17142	47	49	98	105	3	4	4	129116	1575	1 + 0 part	5385	203	-111883	0	0.00	95.198	1.001	4940 + 298 part	5579	5593	4602	652	63	118	31	31	2.22	0.58	50.35	50.48	98.835	127811	34379	32991	18028	17059	47	50	99	106	4	4	0	0	4	129116	3	31	0	1	5385	0	0	0	0	552	270	127811	33066 COUNT: 49	5594470	5446367	0	15369(0.27%)	5457(0.10%)	1(0.18%)	10666	240515	72	100.00	74	15	2	1	4	0	530	5430927	273	127811	32992 COUNT: 50
VELVET_MIS_PE_sakai_mis-both_bi_2x250bp_SI_default.0.64percent_137.final.contigs	433	433	204	146901	5461345	5461345	5363094	5594470	61881	61471	32982	31394	30	31	60	64	99	14	12	342783	3609	1 + 1 part	5721	195	-104762	14532	266.09	95.333	1.004	4955 + 293 part	5545	5560	4595	655	63	148	143	323	2.77	2.68	50.35	50.48	98.826	146201	59946	59527	31237	30828	31	32	63	66	14	14	0	0	12	342783	99	134	9	1	5385	1	0	1	336	433	273	146901	61471 COUNT: 31	5594470	5461345	0	15322(0.27%)	19930(0.36%)	1(0.23%)	11335	241367	887	99.99	73	24	90	6	11	0	526	5430866	273	127811	32992 COUNT: 50
