Assembly	#Contigs (>= 0 bp)	#Contigs (>= 1000 bp)	Total length (>= 0 bp)	Total length (>= 1000 bp)	#Contigs	Largest contig	Total length	Reference length	GC (%)	Reference GC (%)	N50	NG50	N75	NG75	#misassemblies	#local misassemblies	#unaligned contigs	Unaligned contigs length	Genome fraction (%)	Duplication ratio	#N's per 100 kbp	#mismatches per 100 kbp	#indels per 100 kbp	#genes	#predicted genes (unique)	#predicted genes (>= 0 bp)	#predicted genes (>= 300 bp)	#predicted genes (>= 1500 bp)	#predicted genes (>= 3000 bp)	Largest alignment	NA50	NGA50	NA75	NGA75
VELVET_MIS_PE_sakai_mis-both_bi_2x250bp_SI_default.0.64percent_137.final.contigs_broken	555	297	5446813	5334623	552	127811	5446367	5594470	50.35	50.48	34379	33066	18839	17142	4	3	1 + 0 part	5385	95.198	1.001	0.00	2.22	0.58	4940 + 298 part	5579	5593	4602	652	63	127811	34379	32991	18028	17059
VELVET_MIS_PE_sakai_mis-both_bi_2x250bp_SI_default.0.64percent_137.final.contigs	433	204	5461345	5363094	433	146901	5461345	5594470	50.35	50.48	61881	61471	32982	31394	14	99	1 + 1 part	5721	95.333	1.004	266.09	2.77	2.68	4955 + 293 part	5545	5560	4595	655	63	146201	59946	59527	31237	30828
