All statistics are based on contigs of size >= 200 bp, unless otherwise noted (e.g., "# contigs (>= 0 bp)" and "Total length (>= 0 bp)" include all contigs).

Assembly                         VELVET_MIS_PE_sakai_mis-1_bi_2x150bp_default__sakai_mis-2_bi_2x150bp_default.0.826percent_117.final.contigs_broken  VELVET_MIS_PE_sakai_mis-1_bi_2x150bp_default__sakai_mis-2_bi_2x150bp_default.0.826percent_117.final.contigs
#Mis_misassemblies               6                                                                                                                   24                                                                                                         
#Mis_relocations                 6                                                                                                                   23                                                                                                         
#Mis_translocations              0                                                                                                                   1                                                                                                          
#Mis_inversions                  0                                                                                                                   0                                                                                                          
#Mis_misassembled contigs        6                                                                                                                   18                                                                                                         
Mis_Misassembled contigs length  63987                                                                                                               944360                                                                                                     
#Mis_local misassemblies         1                                                                                                                   255                                                                                                        
#mismatches                      246                                                                                                                 316                                                                                                        
#indels                          20                                                                                                                  9930                                                                                                       
#Mis_short indels (<= 5 bp)      20                                                                                                                  9768                                                                                                       
#Mis_long indels (> 5 bp)        0                                                                                                                   162                                                                                                        
Indels length                    20                                                                                                                  18705                                                                                                      
