1: PREPARING DATA
2,3: RUNNING mummer AND CREATING CLUSTERS
# reading input file "/vol/codine-tmp/juene/tmp.mzl3Yx7XlH/quast/contigs_reports/nucmer_output/VELVET_PGM_sakai_pgm_mu_318_400bp_IO_TS3.4_ms_0.395percent_53.final.contigs.ntref" of length 5594473
# construct suffix tree for sequence of length 5594473
# (maximum reference length is 536870908)
# (maximum query length is 4294967295)
# process 55944 characters per dot
#....................................................................................................
# CONSTRUCTIONTIME /vol/ngscomparison/software/analysis/quast-2.1/libs/MUMmer3.23-linux/mummer /vol/codine-tmp/juene/tmp.mzl3Yx7XlH/quast/contigs_reports/nucmer_output/VELVET_PGM_sakai_pgm_mu_318_400bp_IO_TS3.4_ms_0.395percent_53.final.contigs.ntref 3.61
# reading input file "/vol/codine-tmp/juene/tmp.mzl3Yx7XlH/quast/corrected_input/VELVET_PGM_sakai_pgm_mu_318_400bp_IO_TS3.4_ms_0.395percent_53.final.contigs" of length 1736866
# matching query-file "/vol/codine-tmp/juene/tmp.mzl3Yx7XlH/quast/corrected_input/VELVET_PGM_sakai_pgm_mu_318_400bp_IO_TS3.4_ms_0.395percent_53.final.contigs"
# against subject-file "/vol/codine-tmp/juene/tmp.mzl3Yx7XlH/quast/contigs_reports/nucmer_output/VELVET_PGM_sakai_pgm_mu_318_400bp_IO_TS3.4_ms_0.395percent_53.final.contigs.ntref"
# COMPLETETIME /vol/ngscomparison/software/analysis/quast-2.1/libs/MUMmer3.23-linux/mummer /vol/codine-tmp/juene/tmp.mzl3Yx7XlH/quast/contigs_reports/nucmer_output/VELVET_PGM_sakai_pgm_mu_318_400bp_IO_TS3.4_ms_0.395percent_53.final.contigs.ntref 5.60
# SPACE /vol/ngscomparison/software/analysis/quast-2.1/libs/MUMmer3.23-linux/mummer /vol/codine-tmp/juene/tmp.mzl3Yx7XlH/quast/contigs_reports/nucmer_output/VELVET_PGM_sakai_pgm_mu_318_400bp_IO_TS3.4_ms_0.395percent_53.final.contigs.ntref 7.32
4: FINISHING DATA
