All statistics are based on contigs of size >= 200 bp, unless otherwise noted (e.g., "# contigs (>= 0 bp)" and "Total length (>= 0 bp)" include all contigs).

Assembly                                                                               #Contigs (>= 0 bp)  #Contigs (>= 1000 bp)  Total length (>= 0 bp)  Total length (>= 1000 bp)  #Contigs  Largest contig  Total length  Reference length  GC (%)  Reference GC (%)  N50   NG50  N75   NG75  #misassemblies  #local misassemblies  #unaligned contigs  Unaligned contigs length  Genome fraction (%)  Duplication ratio  #N's per 100 kbp  #mismatches per 100 kbp  #indels per 100 kbp  #genes            #predicted genes (unique)  #predicted genes (>= 0 bp)  #predicted genes (>= 300 bp)  #predicted genes (>= 1500 bp)  #predicted genes (>= 3000 bp)  Largest alignment  NA50  NGA50  NA75  NGA75
ABYSS_PE_PGM_mtbh37_pgm_400bp_es_318v2_OT2_tsv3.6_morestringent.0.600percent_38.final  6556                1151                   4515873                 3847356                    1778      20712           4182126       4411532           65.27   65.61             3914  3709  2220  1932  1               3                     1 + 2 part          867                       94.396               1.001              0.00              2.95                     16.86                2791 + 1225 part  5340                       5340                        4070                          342                            21                             20712              3914  3709   2220  1932 
