All statistics are based on contigs of size >= 200 bp, unless otherwise noted (e.g., "# contigs (>= 0 bp)" and "Total length (>= 0 bp)" include all contigs).

Assembly                                                                              GAGE_Contigs #  GAGE_Min contig  GAGE_Max contig  GAGE_N50         GAGE_Genome size  GAGE_Assembly size  GAGE_Chaff bases  GAGE_Missing reference bases  GAGE_Missing assembly bases  GAGE_Missing assembly contigs  GAGE_Duplicated reference bases  GAGE_Compressed reference bases  GAGE_Bad trim  GAGE_Avg idy  GAGE_SNPs  GAGE_Indels < 5bp  GAGE_Indels >= 5  GAGE_Inversions  GAGE_Relocation  GAGE_Translocation  GAGE_Corrected contig #  GAGE_Corrected assembly size  GAGE_Min correct contig  GAGE_Max correct contig  GAGE_Corrected N50
SOAP2_PGM_mrsa_pgm_400bp_es_318_IKA_ts3.2_morestringent.0.165percent_95.final.contig  24387           200              846              364 COUNT: 3517  2813862           7727331             0                 178151(6.33%)                 400736(5.19%)                803(3.29%)                     3919716                          50822                            131821         98.39         1716       29250              1                 12               9                2                   10902                    3375915                       200                      822                      323 COUNT: 3834   
