Assembly	SOAP2_MIS_PE_mtbh37-1_mis_2x250bp_nextera_default_119.final.scaf_broken	SOAP2_MIS_PE_mtbh37-1_mis_2x250bp_nextera_default_119.final.scaf
#Mis_misassemblies	15	15
#Mis_relocations	5	5
#Mis_translocations	0	0
#Mis_inversions	10	10
#Mis_misassembled contigs	14	14
Mis_Misassembled contigs length	37966	182645
#Mis_local misassemblies	15	376
#mismatches	409	413
#indels	81	874
#Mis_short indels (<= 5 bp)	71	798
#Mis_long indels (> 5 bp)	10	76
Indels length	371	2753
