Assembly	VELVET_MIS_PE_mrsa_mis-1_bi_2x250bp_default__mrsa_mis-2_bi_2x250bp_default.0.460percent_149.final.contigs_broken	VELVET_MIS_PE_mrsa_mis-1_bi_2x250bp_default__mrsa_mis-2_bi_2x250bp_default.0.460percent_149.final.contigs
#Contigs (>= 0 bp)	135	125
#Contigs (>= 1000 bp)	88	83
Total length (>= 0 bp)	2807939	2808338
Total length (>= 1000 bp)	2790076	2792692
#Contigs	134	125
Largest contig	196520	196520
Total length	2807795	2808338
Reference length	2813862	2813862
GC (%)	32.73	32.73
Reference GC (%)	32.81	32.81
N50	60493	63248
NG50	60493	63248
N75	30539	38539
NG75	30539	38539
#misassemblies	2	4
#local misassemblies	0	1
#unaligned contigs	1 + 0 part	1 + 0 part
Unaligned contigs length	5534	5534
Genome fraction (%)	98.790	98.829
Duplication ratio	1.003	1.004
#N's per 100 kbp	0.00	14.21
#mismatches per 100 kbp	1.30	1.29
#indels per 100 kbp	0.32	5.47
#genes	2666 + 47 part	2671 + 42 part
#predicted genes (unique)	2683	2680
#predicted genes (>= 0 bp)	2685	2683
#predicted genes (>= 300 bp)	2310	2309
#predicted genes (>= 1500 bp)	301	302
#predicted genes (>= 3000 bp)	27	27
Largest alignment	196520	196520
NA50	54494	60493
NGA50	54494	60493
NA75	30286	38539
NGA75	30286	38539
