Assembly	NEWBLER_PGM_sakai_pgm_mu_318_400bp_IO_TS3.4_ms.41coverage.contigs
GAGE_Contigs #	283
GAGE_Min contig	200
GAGE_Max contig	316768
GAGE_N50	95922 COUNT: 17
GAGE_Genome size	5594470
GAGE_Assembly size	5357355
GAGE_Chaff bases	0
GAGE_Missing reference bases	23917(0.43%)
GAGE_Missing assembly bases	9(0.00%)
GAGE_Missing assembly contigs	0(0.00%)
GAGE_Duplicated reference bases	4358
GAGE_Compressed reference bases	234525
GAGE_Bad trim	9
GAGE_Avg idy	99.99
GAGE_SNPs	86
GAGE_Indels < 5bp	322
GAGE_Indels >= 5	6
GAGE_Inversions	0
GAGE_Relocation	7
GAGE_Translocation	0
GAGE_Corrected contig #	284
GAGE_Corrected assembly size	5355267
GAGE_Min correct contig	204
GAGE_Max correct contig	313770
GAGE_Corrected N50	94422 COUNT: 20
