calling: java -cp /vol/ngscomparison/software/analysis/quast-2.1/libs/gage:. SizeFasta /vol/codine-tmp/juene/tmp.2aUyJAGbkn/quast/corrected_input/Ecoli_Sakai_editedNew_plasmids.fasta |awk '{SUM+=; print SUM}'|tail -n 1
Contig Stats
Total units: 276
Reference: 5594470
BasesInFasta: 5357167
Min: 200
Max: 374824
N10: 317341 COUNT: 2
N25: 234188 COUNT: 5
N50: 145533 COUNT: 14
N75: 66136 COUNT: 29
E-size:145939.02

Genome Size: 5594470
Assembly Size: 5357167
Chaff bases: 0
Missing Reference Bases: 22685(0.41%)
Missing Assembly Bases: 7471(0.14%)
Missing Assembly Contigs: 1(0.36%)
Duplicated Reference Bases: 9270
Compressed Reference Bases: 260277
Bad Trim: 17
Avg Idy: 99.99
SNPs: 143
Indels < 5bp: 19
Indels >= 5: 17
Inversions: 0
Relocation: 9
Translocation: 0

Corrected Contig Stats
calling: java -cp /vol/ngscomparison/software/analysis/quast-2.1/libs/gage:.:. GetFastaStats -o -min 199 -genomeSize 5594470 /vol/codine-tmp/juene/tmp.2aUyJAGbkn/quast/gage/tmp/CLC_MIS_PE_sakai_mis-1_bi_2x150bp_default__sakai_mis-2_bi_2x150bp_default.26coverage.result.matches.lens 2> /dev/null
Total units: 286
Reference: 5594470
BasesInFasta: 5339850
Min: 200
Max: 317341
N10: 210036 COUNT: 3
N25: 180134 COUNT: 7
N50: 104371 COUNT: 17
N75: 43917 COUNT: 37
E-size:115089

Done
