1: PREPARING DATA
2,3: RUNNING mummer AND CREATING CLUSTERS
# reading input file "/vol/codine-tmp/juene/tmp.v5iNaJWqm7/quast/contigs_reports/nucmer_output/CLC_MIS_PE_mrsa_mis-1_bi_2x250bp_default__mrsa_mis-2_bi_2x250bp_default.81coverage.result_broken.ntref" of length 2813864
# construct suffix tree for sequence of length 2813864
# (maximum reference length is 536870908)
# (maximum query length is 4294967295)
# process 28138 characters per dot
#....................................................................................................
# CONSTRUCTIONTIME /vol/ngscomparison/software/analysis/quast-2.1/libs/MUMmer3.23-linux/mummer /vol/codine-tmp/juene/tmp.v5iNaJWqm7/quast/contigs_reports/nucmer_output/CLC_MIS_PE_mrsa_mis-1_bi_2x250bp_default__mrsa_mis-2_bi_2x250bp_default.81coverage.result_broken.ntref 1.42
# reading input file "/vol/codine-tmp/juene/tmp.v5iNaJWqm7/quast/corrected_input/CLC_MIS_PE_mrsa_mis-1_bi_2x250bp_default__mrsa_mis-2_bi_2x250bp_default.81coverage.result_broken" of length 2843314
# matching query-file "/vol/codine-tmp/juene/tmp.v5iNaJWqm7/quast/corrected_input/CLC_MIS_PE_mrsa_mis-1_bi_2x250bp_default__mrsa_mis-2_bi_2x250bp_default.81coverage.result_broken"
# against subject-file "/vol/codine-tmp/juene/tmp.v5iNaJWqm7/quast/contigs_reports/nucmer_output/CLC_MIS_PE_mrsa_mis-1_bi_2x250bp_default__mrsa_mis-2_bi_2x250bp_default.81coverage.result_broken.ntref"
# COMPLETETIME /vol/ngscomparison/software/analysis/quast-2.1/libs/MUMmer3.23-linux/mummer /vol/codine-tmp/juene/tmp.v5iNaJWqm7/quast/contigs_reports/nucmer_output/CLC_MIS_PE_mrsa_mis-1_bi_2x250bp_default__mrsa_mis-2_bi_2x250bp_default.81coverage.result_broken.ntref 4.64
# SPACE /vol/ngscomparison/software/analysis/quast-2.1/libs/MUMmer3.23-linux/mummer /vol/codine-tmp/juene/tmp.v5iNaJWqm7/quast/contigs_reports/nucmer_output/CLC_MIS_PE_mrsa_mis-1_bi_2x250bp_default__mrsa_mis-2_bi_2x250bp_default.81coverage.result_broken.ntref 5.49
4: FINISHING DATA
