All statistics are based on contigs of size >= 200 bp, unless otherwise noted (e.g., "# contigs (>= 0 bp)" and "Total length (>= 0 bp)" include all contigs).

Assembly                                                                      #Una_fully unaligned contigs  Una_Fully unaligned length  #Una_partially unaligned contigs  #Una_with misassembly  #Una_both parts are significant  Una_Partially unaligned length  #N's 
SOAP2_MIS_PE_mrsa_mis-1_bi_2x250bp_default.0.460percent_37.final.scaf_broken  3063                          757574                      4                                 0                      0                                259                             1173 
SOAP2_MIS_PE_mrsa_mis-1_bi_2x250bp_default.0.460percent_37.final.scaf         3225                          925707                      65                                0                      36                               42930                           37501
