Assembly	SOAP2_MIS_PE_mrsa_mis-1_bi_2x250bp_default.0.460percent_37.final.scaf_broken	SOAP2_MIS_PE_mrsa_mis-1_bi_2x250bp_default.0.460percent_37.final.scaf
#Una_fully unaligned contigs	3063	3225
Una_Fully unaligned length	757574	925707
#Una_partially unaligned contigs	4	65
#Una_with misassembly	0	0
#Una_both parts are significant	0	36
Una_Partially unaligned length	259	42930
#N's	1173	37501
