Assembly	NEWBLER_PGM_sakai_pgm_mu_318_400bp_IO_TS3.4_ms.66coverage.contigs
GAGE_Contigs #	282
GAGE_Min contig	202
GAGE_Max contig	327105
GAGE_N50	105965 COUNT: 15
GAGE_Genome size	5594470
GAGE_Assembly size	5354426
GAGE_Chaff bases	0
GAGE_Missing reference bases	32177(0.58%)
GAGE_Missing assembly bases	4(0.00%)
GAGE_Missing assembly contigs	0(0.00%)
GAGE_Duplicated reference bases	4482
GAGE_Compressed reference bases	227037
GAGE_Bad trim	4
GAGE_Avg idy	99.99
GAGE_SNPs	75
GAGE_Indels < 5bp	247
GAGE_Indels >= 5	5
GAGE_Inversions	0
GAGE_Relocation	7
GAGE_Translocation	0
GAGE_Corrected contig #	278
GAGE_Corrected assembly size	5352047
GAGE_Min correct contig	201
GAGE_Max correct contig	313770
GAGE_Corrected N50	103073 COUNT: 18
