1: PREPARING DATA
2,3: RUNNING mummer AND CREATING CLUSTERS
# reading input file "/vol/codine-tmp/juene/tmp.cjsVeSsI5c/quast/gage/tmp/ABYSS_PE_PGM_sakai_pgm_mu_318_400bp_IO_TS3.4_ms.36coverage_48.final.ntref" of length 5594473
# construct suffix tree for sequence of length 5594473
# (maximum reference length is 536870908)
# (maximum query length is 4294967295)
# process 55944 characters per dot
#....................................................................................................
# CONSTRUCTIONTIME /vol/ngscomparison/software/analysis/quast-2.1/libs/MUMmer3.23-linux/mummer /vol/codine-tmp/juene/tmp.cjsVeSsI5c/quast/gage/tmp/ABYSS_PE_PGM_sakai_pgm_mu_318_400bp_IO_TS3.4_ms.36coverage_48.final.ntref 5.01
# reading input file "/vol/codine-tmp/juene/tmp.cjsVeSsI5c/quast/corrected_input/ABYSS_PE_PGM_sakai_pgm_mu_318_400bp_IO_TS3.4_ms.36coverage_48.final" of length 5240969
# matching query-file "/vol/codine-tmp/juene/tmp.cjsVeSsI5c/quast/corrected_input/ABYSS_PE_PGM_sakai_pgm_mu_318_400bp_IO_TS3.4_ms.36coverage_48.final"
# against subject-file "/vol/codine-tmp/juene/tmp.cjsVeSsI5c/quast/gage/tmp/ABYSS_PE_PGM_sakai_pgm_mu_318_400bp_IO_TS3.4_ms.36coverage_48.final.ntref"
# COMPLETETIME /vol/ngscomparison/software/analysis/quast-2.1/libs/MUMmer3.23-linux/mummer /vol/codine-tmp/juene/tmp.cjsVeSsI5c/quast/gage/tmp/ABYSS_PE_PGM_sakai_pgm_mu_318_400bp_IO_TS3.4_ms.36coverage_48.final.ntref 13.87
# SPACE /vol/ngscomparison/software/analysis/quast-2.1/libs/MUMmer3.23-linux/mummer /vol/codine-tmp/juene/tmp.cjsVeSsI5c/quast/gage/tmp/ABYSS_PE_PGM_sakai_pgm_mu_318_400bp_IO_TS3.4_ms.36coverage_48.final.ntref 10.54
4: FINISHING DATA
Filtering alignments
Extracting alignment coordinates
Analyzing SNPs
Extracting alignment breakpoints
Generating report file
Found genome size at position 4 with value 5594470 aka 5594470
Calculating point at 0 and the sum is 1027034 and i is1135 and lens is 1161 and length is 27517
Calculating point at 1 and the sum is 2005200 and i is1092 and lens is 1161 and length is 19239
Calculating point at 2 and the sum is 3009012 and i is1023 and lens is 1161 and length is 11417
Calculating point at 3 and the sum is 4002662 and i is905 and lens is 1161 and length is 6240
Calculating point at 4 and the sum is 5000527 and i is541 and lens is 1161 and length is 1007
