calling: java -cp /vol/ngscomparison/software/analysis/quast-2.1/libs/gage:. SizeFasta /vol/codine-tmp/juene/tmp.cjsVeSsI5c/quast/corrected_input/Ecoli_Sakai_editedNew_plasmids.fasta |awk '{SUM+=; print SUM}'|tail -n 1
Contig Stats
Total units: 1154
Reference: 5594470
BasesInFasta: 5239816
Min: 202
Max: 76104
N10: 40810 COUNT: 12
N25: 24603 COUNT: 40
N50: 12734 COUNT: 118
N75: 5311 COUNT: 285
E-size:16993.57

Genome Size: 5594470
Assembly Size: 5239816
Chaff bases: 0
Missing Reference Bases: 226774(4.05%)
Missing Assembly Bases: 51(0.00%)
Missing Assembly Contigs: 0(0.00%)
Duplicated Reference Bases: 679
Compressed Reference Bases: 145471
Bad Trim: 51
Avg Idy: 99.99
SNPs: 129
Indels < 5bp: 394
Indels >= 5: 5
Inversions: 0
Relocation: 5
Translocation: 0

Corrected Contig Stats
calling: java -cp /vol/ngscomparison/software/analysis/quast-2.1/libs/gage:.:. GetFastaStats -o -min 199 -genomeSize 5594470 /vol/codine-tmp/juene/tmp.cjsVeSsI5c/quast/gage/tmp/ABYSS_PE_PGM_sakai_pgm_mu_318_400bp_IO_TS3.4_ms.36coverage_48.final.matches.lens 2> /dev/null
Total units: 1158
Reference: 5594470
BasesInFasta: 5239781
Min: 202
Max: 76109
N10: 39555 COUNT: 12
N25: 23427 COUNT: 41
N50: 12357 COUNT: 121
N75: 5312 COUNT: 290
E-size:16690.53

Done
