Assembly	VELVET_PGM_sakai_pgm_mu_318_400bp_IO_TS3.4_ms_0.395percent_23.final.contigs
#Mis_misassemblies	2
#Mis_relocations	2
#Mis_translocations	0
#Mis_inversions	0
#Mis_misassembled contigs	2
Mis_Misassembled contigs length	1765
#Mis_local misassemblies	9
#mismatches	265
#indels	1775
#Mis_short indels (<= 5 bp)	1770
#Mis_long indels (> 5 bp)	5
Indels length	2056
