1: PREPARING DATA
2,3: RUNNING mummer AND CREATING CLUSTERS
# reading input file "/vol/codine-tmp/juene/tmp.nyPb8jPD6x/quast/gage/tmp/SOAP2_MIS_PE_sakai_mis-1_bi_2x150bp_default.0.826percent_67.final.scaf.ntref" of length 5594473
# construct suffix tree for sequence of length 5594473
# (maximum reference length is 536870908)
# (maximum query length is 4294967295)
# process 55944 characters per dot
#....................................................................................................
# CONSTRUCTIONTIME /vol/ngscomparison/software/analysis/quast-2.1/libs/MUMmer3.23-linux/mummer /vol/codine-tmp/juene/tmp.nyPb8jPD6x/quast/gage/tmp/SOAP2_MIS_PE_sakai_mis-1_bi_2x150bp_default.0.826percent_67.final.scaf.ntref 3.78
# reading input file "/vol/codine-tmp/juene/tmp.nyPb8jPD6x/quast/corrected_input/SOAP2_MIS_PE_sakai_mis-1_bi_2x150bp_default.0.826percent_67.final.scaf" of length 5356267
# matching query-file "/vol/codine-tmp/juene/tmp.nyPb8jPD6x/quast/corrected_input/SOAP2_MIS_PE_sakai_mis-1_bi_2x150bp_default.0.826percent_67.final.scaf"
# against subject-file "/vol/codine-tmp/juene/tmp.nyPb8jPD6x/quast/gage/tmp/SOAP2_MIS_PE_sakai_mis-1_bi_2x150bp_default.0.826percent_67.final.scaf.ntref"
# COMPLETETIME /vol/ngscomparison/software/analysis/quast-2.1/libs/MUMmer3.23-linux/mummer /vol/codine-tmp/juene/tmp.nyPb8jPD6x/quast/gage/tmp/SOAP2_MIS_PE_sakai_mis-1_bi_2x150bp_default.0.826percent_67.final.scaf.ntref 11.51
# SPACE /vol/ngscomparison/software/analysis/quast-2.1/libs/MUMmer3.23-linux/mummer /vol/codine-tmp/juene/tmp.nyPb8jPD6x/quast/gage/tmp/SOAP2_MIS_PE_sakai_mis-1_bi_2x150bp_default.0.826percent_67.final.scaf.ntref 10.62
4: FINISHING DATA
Filtering alignments
Extracting alignment coordinates
Analyzing SNPs
Extracting alignment breakpoints
Generating report file
Found genome size at position 4 with value 5594470 aka 5594470
Calculating point at 0 and the sum is 1067369 and i is876 and lens is 888 and length is 69933
Calculating point at 1 and the sum is 2032183 and i is857 and lens is 888 and length is 38551
Calculating point at 2 and the sum is 3021482 and i is826 and lens is 888 and length is 24565
Calculating point at 3 and the sum is 4014188 and i is774 and lens is 888 and length is 15017
Calculating point at 4 and the sum is 5001188 and i is646 and lens is 888 and length is 2954
