All statistics are based on contigs of size >= 200 bp, unless otherwise noted (e.g., "# contigs (>= 0 bp)" and "Total length (>= 0 bp)" include all contigs).

Assembly                                                                           #Contigs (>= 0 bp)  #Contigs (>= 1000 bp)  Total length (>= 0 bp)  Total length (>= 1000 bp)  #Contigs  Largest contig  Total length  Reference length  GC (%)  Reference GC (%)  N50    NG50   N75    NG75   #misassemblies  #local misassemblies  #unaligned contigs  Unaligned contigs length  Genome fraction (%)  Duplication ratio  #N's per 100 kbp  #mismatches per 100 kbp  #indels per 100 kbp  #genes           #predicted genes (unique)  #predicted genes (>= 0 bp)  #predicted genes (>= 300 bp)  #predicted genes (>= 1500 bp)  #predicted genes (>= 3000 bp)  Largest alignment  NA50   NGA50  NA75   NGA75
NEWBLER_PGM_mrsa_pgm_200bp_es_316_IonOnev2_ts3.0_morestringent.16coverage.contigs  323                 216                    2764088                 2731631                    272       69371           2757034       2813862           32.63   32.81             20867  20800  11058  10849  3               7                     1 + 5 part          407                       97.553               1.002              0.00              3.90                     19.85                2523 + 157 part  2899                       2899                        2373                          267                            21                             69371              20867  20800  10931  10713
