Assembly	ABYSS_PE_MIS_PE_sakai_mis-1_bi_2x150bp_default__sakai_mis-2_bi_2x150bp_default.0.826percent_40-scaffolds_broken	ABYSS_PE_MIS_PE_sakai_mis-1_bi_2x150bp_default__sakai_mis-2_bi_2x150bp_default.0.826percent_40-scaffolds
GAGE_Contigs #	271	191
GAGE_Min contig	201	201
GAGE_Max contig	290504	375137
GAGE_N50	87529 COUNT: 20	145515 COUNT: 12
GAGE_Genome size	5594470	5594470
GAGE_Assembly size	5387560	5395850
GAGE_Chaff bases	0	0
GAGE_Missing reference bases	112300(2.01%)	120983(2.16%)
GAGE_Missing assembly bases	1(0.00%)	6791(0.13%)
GAGE_Missing assembly contigs	0(0.00%)	0(0.00%)
GAGE_Duplicated reference bases	4774	3588
GAGE_Compressed reference bases	192523	181017
GAGE_Bad trim	0	174
GAGE_Avg idy	99.97	99.95
GAGE_SNPs	707	725
GAGE_Indels < 5bp	29	42
GAGE_Indels >= 5	15	53
GAGE_Inversions	1	9
GAGE_Relocation	3	17
GAGE_Translocation	0	0
GAGE_Corrected contig #	282	272
GAGE_Corrected assembly size	5386350	5389351
GAGE_Min correct contig	201	201
GAGE_Max correct contig	226866	311432
GAGE_Corrected N50	75230 COUNT: 23	75913 COUNT: 21
