1: PREPARING DATA
2,3: RUNNING mummer AND CREATING CLUSTERS
# reading input file "/vol/codine-tmp/juene/tmp.Thrp7qsTTN/quast/gage/tmp/SOAP2_MIS_PE_sakai_mis-1_bi_2x150bp_default.0.826percent_83.final.scaf.ntref" of length 5594473
# construct suffix tree for sequence of length 5594473
# (maximum reference length is 536870908)
# (maximum query length is 4294967295)
# process 55944 characters per dot
#....................................................................................................
# CONSTRUCTIONTIME /vol/ngscomparison/software/analysis/quast-2.1/libs/MUMmer3.23-linux/mummer /vol/codine-tmp/juene/tmp.Thrp7qsTTN/quast/gage/tmp/SOAP2_MIS_PE_sakai_mis-1_bi_2x150bp_default.0.826percent_83.final.scaf.ntref 4.24
# reading input file "/vol/codine-tmp/juene/tmp.Thrp7qsTTN/quast/corrected_input/SOAP2_MIS_PE_sakai_mis-1_bi_2x150bp_default.0.826percent_83.final.scaf" of length 5390841
# matching query-file "/vol/codine-tmp/juene/tmp.Thrp7qsTTN/quast/corrected_input/SOAP2_MIS_PE_sakai_mis-1_bi_2x150bp_default.0.826percent_83.final.scaf"
# against subject-file "/vol/codine-tmp/juene/tmp.Thrp7qsTTN/quast/gage/tmp/SOAP2_MIS_PE_sakai_mis-1_bi_2x150bp_default.0.826percent_83.final.scaf.ntref"
# COMPLETETIME /vol/ngscomparison/software/analysis/quast-2.1/libs/MUMmer3.23-linux/mummer /vol/codine-tmp/juene/tmp.Thrp7qsTTN/quast/gage/tmp/SOAP2_MIS_PE_sakai_mis-1_bi_2x150bp_default.0.826percent_83.final.scaf.ntref 11.24
# SPACE /vol/ngscomparison/software/analysis/quast-2.1/libs/MUMmer3.23-linux/mummer /vol/codine-tmp/juene/tmp.Thrp7qsTTN/quast/gage/tmp/SOAP2_MIS_PE_sakai_mis-1_bi_2x150bp_default.0.826percent_83.final.scaf.ntref 10.66
4: FINISHING DATA
Filtering alignments
Extracting alignment coordinates
Analyzing SNPs
Extracting alignment breakpoints
Generating report file
Found genome size at position 4 with value 5594470 aka 5594470
Calculating point at 0 and the sum is 1105119 and i is692 and lens is 699 and length is 139130
Calculating point at 1 and the sum is 2076700 and i is684 and lens is 699 and length is 94388
Calculating point at 2 and the sum is 3006465 and i is671 and lens is 699 and length is 60298
Calculating point at 3 and the sum is 4019194 and i is647 and lens is 699 and length is 30774
Calculating point at 4 and the sum is 5001358 and i is581 and lens is 699 and length is 4519
