Assembly	ABYSS_PE_PGM_mrsa_pgm_400bp_es_318_IKA_ts3.2_morestringent.0.800percent_36.final
GAGE_Contigs #	3884
GAGE_Min contig	200
GAGE_Max contig	5496
GAGE_N50	587 COUNT: 1349
GAGE_Genome size	2813862
GAGE_Assembly size	2311782
GAGE_Chaff bases	0
GAGE_Missing reference bases	504478(17.93%)
GAGE_Missing assembly bases	2(0.00%)
GAGE_Missing assembly contigs	0(0.00%)
GAGE_Duplicated reference bases	0
GAGE_Compressed reference bases	526
GAGE_Bad trim	2
GAGE_Avg idy	100.00
GAGE_SNPs	27
GAGE_Indels < 5bp	34
GAGE_Indels >= 5	0
GAGE_Inversions	0
GAGE_Relocation	1
GAGE_Translocation	0
GAGE_Corrected contig #	3885
GAGE_Corrected assembly size	2311810
GAGE_Min correct contig	200
GAGE_Max correct contig	5496
GAGE_Corrected N50	587 COUNT: 1349
