Assembly	ABYSS_PE_MIS_PE_mrsa_mis-1_bi_2x250bp_default__mrsa_mis-2_bi_2x250bp_default.21coverage_44.final_broken	ABYSS_PE_MIS_PE_mrsa_mis-1_bi_2x250bp_default__mrsa_mis-2_bi_2x250bp_default.21coverage_44.final
#Mis_misassemblies	2	2
#Mis_relocations	2	2
#Mis_translocations	0	0
#Mis_inversions	0	0
#Mis_misassembled contigs	2	2
Mis_Misassembled contigs length	10223	13609
#Mis_local misassemblies	0	0
#mismatches	73	73
#indels	7	9
#Mis_short indels (<= 5 bp)	6	7
#Mis_long indels (> 5 bp)	1	2
Indels length	49	79
