Assembly	#Contigs (>= 0 bp)	#Contigs (>= 1000 bp)	Total length (>= 0 bp)	Total length (>= 1000 bp)	#Contigs	Largest contig	Total length	Reference length	GC (%)	Reference GC (%)	N50	NG50	N75	NG75	#misassemblies	#local misassemblies	#unaligned contigs	Unaligned contigs length	Genome fraction (%)	Duplication ratio	#N's per 100 kbp	#mismatches per 100 kbp	#indels per 100 kbp	#genes	#predicted genes (unique)	#predicted genes (>= 0 bp)	#predicted genes (>= 300 bp)	#predicted genes (>= 1500 bp)	#predicted genes (>= 3000 bp)	Largest alignment	NA50	NGA50	NA75	NGA75
SOAP2_MIS_PE_sakai_mis-1_bi_2x250bp_SI_default.0.64percent_121.final.scaf_broken	2761	538	5742527	5188095	2125	72923	5646389	5594470	50.46	50.48	15868	16003	7291	7451	9	20	7 + 0 part	8119	94.829	1.030	3.10	5.64	1.13	4560 + 643 part	6883	6958	4638	606	49	72923	15868	16003	7184	7367
SOAP2_MIS_PE_sakai_mis-1_bi_2x250bp_SI_default.0.64percent_121.final.scaf	2247	253	5766140	5299903	1644	174629	5675222	5594470	50.46	50.48	51047	51181	22772	23593	23	352	18 + 10 part	32032	94.786	1.037	419.16	7.66	20.10	4600 + 585 part	6735	6805	4628	619	52	172833	50886	50886	21058	23292
