1: PREPARING DATA
2,3: RUNNING mummer AND CREATING CLUSTERS
# reading input file "/vol/codine-tmp/juene/tmp.OWUXulFcgL/quast/gage/tmp/ABYSS_PE_PGM_sakai_pgm_mu_200bp_IO_TS3.0Disabled_stringent.36coverage_44.final.ntref" of length 5594473
# construct suffix tree for sequence of length 5594473
# (maximum reference length is 536870908)
# (maximum query length is 4294967295)
# process 55944 characters per dot
#....................................................................................................
# CONSTRUCTIONTIME /vol/ngscomparison/software/analysis/quast-2.1/libs/MUMmer3.23-linux/mummer /vol/codine-tmp/juene/tmp.OWUXulFcgL/quast/gage/tmp/ABYSS_PE_PGM_sakai_pgm_mu_200bp_IO_TS3.0Disabled_stringent.36coverage_44.final.ntref 2.76
# reading input file "/vol/codine-tmp/juene/tmp.OWUXulFcgL/quast/corrected_input/ABYSS_PE_PGM_sakai_pgm_mu_200bp_IO_TS3.0Disabled_stringent.36coverage_44.final" of length 5216878
# matching query-file "/vol/codine-tmp/juene/tmp.OWUXulFcgL/quast/corrected_input/ABYSS_PE_PGM_sakai_pgm_mu_200bp_IO_TS3.0Disabled_stringent.36coverage_44.final"
# against subject-file "/vol/codine-tmp/juene/tmp.OWUXulFcgL/quast/gage/tmp/ABYSS_PE_PGM_sakai_pgm_mu_200bp_IO_TS3.0Disabled_stringent.36coverage_44.final.ntref"
# COMPLETETIME /vol/ngscomparison/software/analysis/quast-2.1/libs/MUMmer3.23-linux/mummer /vol/codine-tmp/juene/tmp.OWUXulFcgL/quast/gage/tmp/ABYSS_PE_PGM_sakai_pgm_mu_200bp_IO_TS3.0Disabled_stringent.36coverage_44.final.ntref 10.89
# SPACE /vol/ngscomparison/software/analysis/quast-2.1/libs/MUMmer3.23-linux/mummer /vol/codine-tmp/juene/tmp.OWUXulFcgL/quast/gage/tmp/ABYSS_PE_PGM_sakai_pgm_mu_200bp_IO_TS3.0Disabled_stringent.36coverage_44.final.ntref 10.52
4: FINISHING DATA
Filtering alignments
Extracting alignment coordinates
Analyzing SNPs
Extracting alignment breakpoints
Generating report file
Found genome size at position 4 with value 5594470 aka 5594470
Calculating point at 0 and the sum is 1008466 and i is1105 and lens is 1146 and length is 19148
Calculating point at 1 and the sum is 2009379 and i is1045 and lens is 1146 and length is 13785
Calculating point at 2 and the sum is 3003670 and i is957 and lens is 1146 and length is 9029
Calculating point at 3 and the sum is 4004262 and i is816 and lens is 1146 and length is 5581
Calculating point at 4 and the sum is 5000561 and i is465 and lens is 1146 and length is 1116
