calling: java -cp /vol/ngscomparison/software/analysis/quast-2.1/libs/gage:. SizeFasta /vol/codine-tmp/juene/tmp.d2BacXrggX/quast/corrected_input/MRSA_COL_Plasmid.fasta |awk '{SUM+=; print SUM}'|tail -n 1
Contig Stats
Total units: 280
Reference: 2813862
BasesInFasta: 64491
Min: 200
Max: 401
N10: 0 COUNT: 0
N25: 0 COUNT: 0
N50: 0 COUNT: 0
N75: 0 COUNT: 0
E-size:5.38

Genome Size: 2813862
Assembly Size: 64491
Chaff bases: 0
Missing Reference Bases: 2752790(97.83%)
Missing Assembly Bases: 3323(5.15%)
Missing Assembly Contigs: 15(5.36%)
Duplicated Reference Bases: 0
Compressed Reference Bases: 0
Bad Trim: 59
Avg Idy: 99.78
SNPs: 26
Indels < 5bp: 95
Indels >= 5: 0
Inversions: 0
Relocation: 0
Translocation: 0

Corrected Contig Stats
calling: java -cp /vol/ngscomparison/software/analysis/quast-2.1/libs/gage:.:. GetFastaStats -o -min 199 -genomeSize 2813862 /vol/codine-tmp/juene/tmp.d2BacXrggX/quast/gage/tmp/SOAP2_PGM_mrsa_pgm_200bp_es_316_IonOnev2_ts3.0_morestringent.0.230percent_25.final.contig.matches.lens 2> /dev/null
Total units: 263
Reference: 2813862
BasesInFasta: 60750
Min: 200
Max: 401
N10: 0 COUNT: 0
N25: 0 COUNT: 0
N50: 0 COUNT: 0
N75: 0 COUNT: 0
E-size:5.08

Done
