Assembly	VELVET_PGM_sakai_pgm_mu_318_400bp_IO_TS3.4_ms_0.395percent_39.final.contigs
#Contigs (>= 0 bp)	28585
#Contigs (>= 1000 bp)	0
Total length (>= 0 bp)	4012184
Total length (>= 1000 bp)	0
#Contigs	4239
Largest contig	908
Total length	1162948
Reference length	5594470
GC (%)	52.59
Reference GC (%)	50.48
N50	266
NG50	None
N75	227
NG75	None
#misassemblies	0
#local misassemblies	0
#unaligned contigs	0 + 2 part
Unaligned contigs length	75
Genome fraction (%)	20.661
Duplication ratio	1.003
#N's per 100 kbp	0.00
#mismatches per 100 kbp	2.77
#indels per 100 kbp	23.96
#genes	19 + 2578 part
#predicted genes (unique)	4278
#predicted genes (>= 0 bp)	4278
#predicted genes (>= 300 bp)	846
#predicted genes (>= 1500 bp)	0
#predicted genes (>= 3000 bp)	0
Largest alignment	908
NA50	266
NGA50	None
NA75	226
NGA75	None
