Assembly	CLC_PGM_mrsa_pgm_400bp_es_318_IKA_ts3.2_morestringent.91coverage.result
#Una_fully unaligned contigs	11
Una_Fully unaligned length	4128
#Una_partially unaligned contigs	8
#Una_with misassembly	0
#Una_both parts are significant	1
Una_Partially unaligned length	639
#N's	1063
