1: PREPARING DATA
2,3: RUNNING mummer AND CREATING CLUSTERS
# reading input file "/vol/codine-tmp/juene/tmp.FJWzKPCTWA/quast/contigs_reports/nucmer_output/SOAP2_PGM_mrsa_pgm_200bp_es_316_IonOnev2_ts3.0_morestringent.0.230percent_79.final.contig.ntref" of length 2813864
# construct suffix tree for sequence of length 2813864
# (maximum reference length is 536870908)
# (maximum query length is 4294967295)
# process 28138 characters per dot
#....................................................................................................
# CONSTRUCTIONTIME /vol/ngscomparison/software/analysis/quast-2.1/libs/MUMmer3.23-linux/mummer /vol/codine-tmp/juene/tmp.FJWzKPCTWA/quast/contigs_reports/nucmer_output/SOAP2_PGM_mrsa_pgm_200bp_es_316_IonOnev2_ts3.0_morestringent.0.230percent_79.final.contig.ntref 1.17
# reading input file "/vol/codine-tmp/juene/tmp.FJWzKPCTWA/quast/corrected_input/SOAP2_PGM_mrsa_pgm_200bp_es_316_IonOnev2_ts3.0_morestringent.0.230percent_79.final.contig" of length 3359104
# matching query-file "/vol/codine-tmp/juene/tmp.FJWzKPCTWA/quast/corrected_input/SOAP2_PGM_mrsa_pgm_200bp_es_316_IonOnev2_ts3.0_morestringent.0.230percent_79.final.contig"
# against subject-file "/vol/codine-tmp/juene/tmp.FJWzKPCTWA/quast/contigs_reports/nucmer_output/SOAP2_PGM_mrsa_pgm_200bp_es_316_IonOnev2_ts3.0_morestringent.0.230percent_79.final.contig.ntref"
# COMPLETETIME /vol/ngscomparison/software/analysis/quast-2.1/libs/MUMmer3.23-linux/mummer /vol/codine-tmp/juene/tmp.FJWzKPCTWA/quast/contigs_reports/nucmer_output/SOAP2_PGM_mrsa_pgm_200bp_es_316_IonOnev2_ts3.0_morestringent.0.230percent_79.final.contig.ntref 6.39
# SPACE /vol/ngscomparison/software/analysis/quast-2.1/libs/MUMmer3.23-linux/mummer /vol/codine-tmp/juene/tmp.FJWzKPCTWA/quast/contigs_reports/nucmer_output/SOAP2_PGM_mrsa_pgm_200bp_es_316_IonOnev2_ts3.0_morestringent.0.230percent_79.final.contig.ntref 6.17
4: FINISHING DATA
