Assembly	#Contigs (>= 0 bp)	#Contigs (>= 1000 bp)	Total length (>= 0 bp)	Total length (>= 1000 bp)	#Contigs	Largest contig	Total length	Reference length	GC (%)	Reference GC (%)	N50	NG50	N75	NG75	#misassemblies	#local misassemblies	#unaligned contigs	Unaligned contigs length	Genome fraction (%)	Duplication ratio	#N's per 100 kbp	#mismatches per 100 kbp	#indels per 100 kbp	#genes	#predicted genes (unique)	#predicted genes (>= 0 bp)	#predicted genes (>= 300 bp)	#predicted genes (>= 1500 bp)	#predicted genes (>= 3000 bp)	Largest alignment	NA50	NGA50	NA75	NGA75
VELVET_MIS_PE_sakai_mis-1_bi_2x150bp_default__sakai_mis-2_bi_2x150bp_default.0.826percent_133.final.contigs_broken	6675	1112	4571243	1555026	6672	3751	4570871	5594470	50.73	50.48	760	647	519	374	7	3	4 + 0 part	5154	79.799	1.001	0.00	7.26	0.47	1121 + 3849 part	9242	9252	5783	47	1	3751	748	634	505	351
VELVET_MIS_PE_sakai_mis-1_bi_2x150bp_default__sakai_mis-2_bi_2x150bp_default.0.826percent_133.final.contigs	2260	1469	5047849	4579691	2260	19980	5047849	5594470	50.74	50.48	3572	3136	1951	1456	36	2821	62 + 97 part	257511	67.409	1.247	9441.76	11.38	301.23	1157 + 3358 part	8673	8680	5998	51	1	15526	1888	1556	404	None
