All statistics are based on contigs of size >= 200 bp, unless otherwise noted (e.g., "# contigs (>= 0 bp)" and "Total length (>= 0 bp)" include all contigs).

Assembly                         ABYSS_PE_MIS_PE_mrsa_mis-1_bi_2x150bp_default__mrsa_mis-2_bi_2x150bp_default.0.250percent_62.final_broken  ABYSS_PE_MIS_PE_mrsa_mis-1_bi_2x150bp_default__mrsa_mis-2_bi_2x150bp_default.0.250percent_62.final
#Mis_misassemblies               2                                                                                                          2                                                                                                 
#Mis_relocations                 2                                                                                                          2                                                                                                 
#Mis_translocations              0                                                                                                          0                                                                                                 
#Mis_inversions                  0                                                                                                          0                                                                                                 
#Mis_misassembled contigs        2                                                                                                          2                                                                                                 
Mis_Misassembled contigs length  33322                                                                                                      37486                                                                                             
#Mis_local misassemblies         4                                                                                                          9                                                                                                 
#mismatches                      162                                                                                                        162                                                                                               
#indels                          8                                                                                                          67                                                                                                
#Mis_short indels (<= 5 bp)      7                                                                                                          64                                                                                                
#Mis_long indels (> 5 bp)        1                                                                                                          3                                                                                                 
Indels length                    29                                                                                                         117                                                                                               
