calling: java -cp /vol/ngscomparison/software/analysis/quast-2.1/libs/gage:. SizeFasta /vol/codine-tmp/juene/tmp.wClrfhx68Z/quast/corrected_input/Ecoli_Sakai_editedNew_plasmids.fasta |awk '{SUM+=; print SUM}'|tail -n 1
Contig Stats
Total units: 348
Reference: 5594470
BasesInFasta: 160453
Min: 203
Max: 3192
N10: 0 COUNT: 0
N25: 0 COUNT: 0
N50: 0 COUNT: 0
N75: 0 COUNT: 0
E-size:18.61

Genome Size: 5594470
Assembly Size: 160453
Chaff bases: 0
Missing Reference Bases: 5229133(93.47%)
Missing Assembly Bases: 726(0.45%)
Missing Assembly Contigs: 1(0.29%)
Duplicated Reference Bases: 637
Compressed Reference Bases: 201169
Bad Trim: 201
Avg Idy: 99.50
SNPs: 391
Indels < 5bp: 223
Indels >= 5: 5
Inversions: 10
Relocation: 4
Translocation: 0

Corrected Contig Stats
calling: java -cp /vol/ngscomparison/software/analysis/quast-2.1/libs/gage:.:. GetFastaStats -o -min 199 -genomeSize 5594470 /vol/codine-tmp/juene/tmp.wClrfhx68Z/quast/gage/tmp/NEWBLER_PGM_sakai_pgm_mu_200bp_IO_TS3.0Disabled_stringent.1coverage.contigs.matches.lens 2> /dev/null
Total units: 357
Reference: 5594470
BasesInFasta: 162825
Min: 203
Max: 2921
N10: 0 COUNT: 0
N25: 0 COUNT: 0
N50: 0 COUNT: 0
N75: 0 COUNT: 0
E-size:19.01

Done
