All statistics are based on contigs of size >= 200 bp, unless otherwise noted (e.g., "# contigs (>= 0 bp)" and "Total length (>= 0 bp)" include all contigs).

Assembly                         ABYSS_PE_MIS_PE_mrsa_mis-1_bi_2x150bp_default__mrsa_mis-2_bi_2x150bp_default.66coverage_84.final_broken  ABYSS_PE_MIS_PE_mrsa_mis-1_bi_2x150bp_default__mrsa_mis-2_bi_2x150bp_default.66coverage_84.final
#Mis_misassemblies               2                                                                                                        2                                                                                               
#Mis_relocations                 2                                                                                                        2                                                                                               
#Mis_translocations              0                                                                                                        0                                                                                               
#Mis_inversions                  0                                                                                                        0                                                                                               
#Mis_misassembled contigs        2                                                                                                        2                                                                                               
Mis_Misassembled contigs length  149197                                                                                                   149197                                                                                          
#Mis_local misassemblies         4                                                                                                        11                                                                                              
#mismatches                      85                                                                                                       85                                                                                              
#indels                          20                                                                                                       98                                                                                              
#Mis_short indels (<= 5 bp)      18                                                                                                       96                                                                                              
#Mis_long indels (> 5 bp)        2                                                                                                        2                                                                                               
Indels length                    58                                                                                                       136                                                                                             
