calling: java -cp /vol/ngscomparison/software/analysis/quast-2.1/libs/gage:. SizeFasta /vol/codine-tmp/juene/tmp.iRG3Xk6qAJ/quast/corrected_input/Ecoli_Sakai_editedNew_plasmids.fasta |awk '{SUM+=; print SUM}'|tail -n 1
Contig Stats
Total units: 841
Reference: 5594470
BasesInFasta: 5266691
Min: 200
Max: 89404
N10: 53111 COUNT: 8
N25: 35188 COUNT: 29
N50: 18900 COUNT: 85
N75: 8906 COUNT: 189
E-size:24374.92

Genome Size: 5594470
Assembly Size: 5266691
Chaff bases: 0
Missing Reference Bases: 198934(3.56%)
Missing Assembly Bases: 5505(0.10%)
Missing Assembly Contigs: 1(0.12%)
Duplicated Reference Bases: 2080
Compressed Reference Bases: 154656
Bad Trim: 81
Avg Idy: 100.00
SNPs: 82
Indels < 5bp: 36
Indels >= 5: 8
Inversions: 0
Relocation: 3
Translocation: 0

Corrected Contig Stats
calling: java -cp /vol/ngscomparison/software/analysis/quast-2.1/libs/gage:.:. GetFastaStats -o -min 199 -genomeSize 5594470 /vol/codine-tmp/juene/tmp.iRG3Xk6qAJ/quast/gage/tmp/SOAP2_MIS_PE_sakai_mis-1_bi_2x150bp_default.0.826percent_63.final.scaf_broken.matches.lens 2> /dev/null
Total units: 841
Reference: 5594470
BasesInFasta: 5258898
Min: 200
Max: 80562
N10: 49162 COUNT: 9
N25: 33662 COUNT: 30
N50: 18209 COUNT: 88
N75: 8487 COUNT: 194
E-size:23480.37

Done
