1: PREPARING DATA
2,3: RUNNING mummer AND CREATING CLUSTERS
# reading input file "/vol/codine-tmp/juene/tmp.0gIp0JHzPr/quast/contigs_reports/nucmer_output/NEWBLER_MIS_PE_mrsa_mis-1_bi_2x250bp_default__mrsa_mis-2_bi_2x250bp_default.0.025percent.contigs.ntref" of length 2813864
# construct suffix tree for sequence of length 2813864
# (maximum reference length is 536870908)
# (maximum query length is 4294967295)
# process 28138 characters per dot
#....................................................................................................
# CONSTRUCTIONTIME /vol/ngscomparison/software/analysis/quast-2.1/libs/MUMmer3.23-linux/mummer /vol/codine-tmp/juene/tmp.0gIp0JHzPr/quast/contigs_reports/nucmer_output/NEWBLER_MIS_PE_mrsa_mis-1_bi_2x250bp_default__mrsa_mis-2_bi_2x250bp_default.0.025percent.contigs.ntref 1.38
# reading input file "/vol/codine-tmp/juene/tmp.0gIp0JHzPr/quast/corrected_input/NEWBLER_MIS_PE_mrsa_mis-1_bi_2x250bp_default__mrsa_mis-2_bi_2x250bp_default.0.025percent.contigs" of length 156504
# matching query-file "/vol/codine-tmp/juene/tmp.0gIp0JHzPr/quast/corrected_input/NEWBLER_MIS_PE_mrsa_mis-1_bi_2x250bp_default__mrsa_mis-2_bi_2x250bp_default.0.025percent.contigs"
# against subject-file "/vol/codine-tmp/juene/tmp.0gIp0JHzPr/quast/contigs_reports/nucmer_output/NEWBLER_MIS_PE_mrsa_mis-1_bi_2x250bp_default__mrsa_mis-2_bi_2x250bp_default.0.025percent.contigs.ntref"
# COMPLETETIME /vol/ngscomparison/software/analysis/quast-2.1/libs/MUMmer3.23-linux/mummer /vol/codine-tmp/juene/tmp.0gIp0JHzPr/quast/contigs_reports/nucmer_output/NEWBLER_MIS_PE_mrsa_mis-1_bi_2x250bp_default__mrsa_mis-2_bi_2x250bp_default.0.025percent.contigs.ntref 1.55
# SPACE /vol/ngscomparison/software/analysis/quast-2.1/libs/MUMmer3.23-linux/mummer /vol/codine-tmp/juene/tmp.0gIp0JHzPr/quast/contigs_reports/nucmer_output/NEWBLER_MIS_PE_mrsa_mis-1_bi_2x250bp_default__mrsa_mis-2_bi_2x250bp_default.0.025percent.contigs.ntref 2.88
4: FINISHING DATA
