Assembly	VELVET_MIS_PE_mtbh37-1_mis_2x250bp_nextera_default__mtbh37-2_mis_2x250bp_nextera_default_17.final.contigs_broken	VELVET_MIS_PE_mtbh37-1_mis_2x250bp_nextera_default__mtbh37-2_mis_2x250bp_nextera_default_17.final.contigs
#Mis_misassemblies	0	0
#Mis_relocations	0	0
#Mis_translocations	0	0
#Mis_inversions	0	0
#Mis_misassembled contigs	0	0
Mis_Misassembled contigs length	0	0
#Mis_local misassemblies	0	0
#mismatches	0	0
#indels	0	0
#Mis_short indels (<= 5 bp)	0	0
#Mis_long indels (> 5 bp)	0	0
Indels length	0	0
