Assembly	VELVET_MIS_PE_mrsa_mis-1_bi_2x250bp_default__mrsa_mis-2_bi_2x250bp_default.0.460percent_37.final.contigs_broken	VELVET_MIS_PE_mrsa_mis-1_bi_2x250bp_default__mrsa_mis-2_bi_2x250bp_default.0.460percent_37.final.contigs
GAGE_Contigs #	181	141
GAGE_Min contig	200	200
GAGE_Max contig	148041	172303
GAGE_N50	33233 COUNT: 23	45785 COUNT: 18
GAGE_Genome size	2813862	2813862
GAGE_Assembly size	2758402	2759524
GAGE_Chaff bases	0	0
GAGE_Missing reference bases	24449(0.87%)	24382(0.87%)
GAGE_Missing assembly bases	5029(0.18%)	5906(0.21%)
GAGE_Missing assembly contigs	3(1.66%)	3(2.13%)
GAGE_Duplicated reference bases	528	691
GAGE_Compressed reference bases	40257	40257
GAGE_Bad trim	32	42
GAGE_Avg idy	99.98	99.98
GAGE_SNPs	206	239
GAGE_Indels < 5bp	34	49
GAGE_Indels >= 5	10	37
GAGE_Inversions	3	3
GAGE_Relocation	5	9
GAGE_Translocation	0	0
GAGE_Corrected contig #	194	186
GAGE_Corrected assembly size	2755682	2755092
GAGE_Min correct contig	200	200
GAGE_Max correct contig	148041	148041
GAGE_Corrected N50	30253 COUNT: 27	32464 COUNT: 25
