All statistics are based on contigs of size >= 200 bp, unless otherwise noted (e.g., "# contigs (>= 0 bp)" and "Total length (>= 0 bp)" include all contigs).

Assembly                                                                                                         #Contigs  #Contigs (>= 0 bp)  #Contigs (>= 1000 bp)  Largest contig  Total length  Total length (>= 0 bp)  Total length (>= 1000 bp)  Reference length  N50    NG50   N75    NG75   L50  LG50  L75  LG75  #local misassemblies  #misassemblies  #misassembled contigs  Misassembled contigs length  Misassemblies inter-contig overlap  #unaligned contigs  Unaligned contigs length  #ambiguously mapped contigs  Extra bases in ambiguously mapped contigs  #N's  #N's per 100 kbp  Genome fraction (%)  Duplication ratio  #genes          #predicted genes (unique)  #predicted genes (>= 0 bp)  #predicted genes (>= 300 bp)  #predicted genes (>= 1500 bp)  #predicted genes (>= 3000 bp)  #mismatches  #indels  Indels length  #mismatches per 100 kbp  #indels per 100 kbp  GC (%)  Reference GC (%)  Average %IDY  Largest alignment  NA50   NGA50  NA75   NGA75  LA50  LGA50  LA75  LGA75  #Mis_misassemblies  #Mis_relocations  #Mis_translocations  #Mis_inversions  #Mis_misassembled contigs  Mis_Misassembled contigs length  #Mis_local misassemblies  #Mis_short indels (<= 5 bp)  #Mis_long indels (> 5 bp)  #Una_fully unaligned contigs  Una_Fully unaligned length  #Una_partially unaligned contigs  #Una_with misassembly  #Una_both parts are significant  Una_Partially unaligned length  GAGE_Contigs #  GAGE_Min contig  GAGE_Max contig  GAGE_N50         GAGE_Genome size  GAGE_Assembly size  GAGE_Chaff bases  GAGE_Missing reference bases  GAGE_Missing assembly bases  GAGE_Missing assembly contigs  GAGE_Duplicated reference bases  GAGE_Compressed reference bases  GAGE_Bad trim  GAGE_Avg idy  GAGE_SNPs  GAGE_Indels < 5bp  GAGE_Indels >= 5  GAGE_Inversions  GAGE_Relocation  GAGE_Translocation  GAGE_Corrected contig #  GAGE_Corrected assembly size  GAGE_Min correct contig  GAGE_Max correct contig  GAGE_Corrected N50
VELVET_MIS_PE_mrsa_mis-1_bi_2x250bp_default__mrsa_mis-2_bi_2x250bp_default.0.460percent_37.final.contigs_broken  181       367                 133                    148041          2758402       2777491                 2737280                    2813862           35033  33233  20523  19593  22   23    49   51    13                    5               5                      189351                       2700                                4 + 1 part          5229                      14                           -10382                                     0     0.00              97.478               1.001              2574 + 90 part  2671                       2671                        2282                          294                            28                             328          80       84             11.96                    2.92                 32.66   32.81             99.225        148041             33233  32464  19668  19246  23    24     51    53     5                   5                 0                    0                5                          189351                           13                        80                           0                          4                             5219                        1                                 0                      0                                10                              181             200              148041           33233 COUNT: 23  2813862           2758402             0                 24449(0.87%)                  5029(0.18%)                  3(1.66%)                       528                              40257                            32             99.98         206        34                 10                3                5                0                   194                      2755682                       200                      148041                   30253 COUNT: 27   
VELVET_MIS_PE_mrsa_mis-1_bi_2x250bp_default__mrsa_mis-2_bi_2x250bp_default.0.460percent_37.final.contigs         141       325                 104                    172303          2759524       2778341                 2744097                    2813862           48592  45785  23820  23491  17   18    38   39    32                    7               6                      409186                       3387                                4 + 0 part          5219                      14                           -10382                                     850   30.80             97.498               1.001              2586 + 76 part  2659                       2659                        2277                          296                            28                             331          174      491            12.07                    6.34                 32.67   32.81             99.191        162173             45711  45711  23810  22723  18    18     39    41     7                   7                 0                    0                6                          409186                           32                        163                          11                         4                             5219                        0                                 0                      0                                0                               141             200              172303           45785 COUNT: 18  2813862           2759524             0                 24382(0.87%)                  5906(0.21%)                  3(2.13%)                       691                              40257                            42             99.98         239        49                 37                3                9                0                   186                      2755092                       200                      148041                   32464 COUNT: 25   
