All statistics are based on contigs of size >= 200 bp, unless otherwise noted (e.g., "# contigs (>= 0 bp)" and "Total length (>= 0 bp)" include all contigs).

Assembly                                                                                 #Contigs (>= 0 bp)  #Contigs (>= 1000 bp)  Total length (>= 0 bp)  Total length (>= 1000 bp)  #Contigs  Largest contig  Total length  Reference length  GC (%)  Reference GC (%)  N50    NG50   N75    NG75   #misassemblies  #local misassemblies  #unaligned contigs  Unaligned contigs length  Genome fraction (%)  Duplication ratio  #N's per 100 kbp  #mismatches per 100 kbp  #indels per 100 kbp  #genes           #predicted genes (unique)  #predicted genes (>= 0 bp)  #predicted genes (>= 300 bp)  #predicted genes (>= 1500 bp)  #predicted genes (>= 3000 bp)  Largest alignment  NA50   NGA50  NA75   NGA75
VELVET_MIS_PE_sakai_mis-both_bi_2x250bp_SI_default.0.64percent_163.final.contigs_broken  519                 305                    5464565                 5360303                    518       150466          5464418       5594470           50.36   50.48             33962  32090  17767  16122  6               2                     1 + 0 part          5548                      95.457               1.002              0.00              2.45                     0.34                 4949 + 327 part  5547                       5572                        4649                          653                            59                             150466             33962  32090  17605  16100
VELVET_MIS_PE_sakai_mis-both_bi_2x250bp_SI_default.0.64percent_163.final.contigs         402                 210                    5479362                 5388102                    402       240649          5479362       5594470           50.36   50.48             67085  65010  32804  31198  12              102                   1 + 0 part          5548                      95.586               1.005              270.05            2.66                     8.51                 4960 + 321 part  5532                       5557                        4647                          653                            59                             239826             66911  64844  31198  30855
