All statistics are based on contigs of size >= 200 bp, unless otherwise noted (e.g., "# contigs (>= 0 bp)" and "Total length (>= 0 bp)" include all contigs).

Assembly                                                                      #Contigs  #Contigs (>= 0 bp)  #Contigs (>= 1000 bp)  Largest contig  Total length  Total length (>= 0 bp)  Total length (>= 1000 bp)  Reference length  N50   NG50  N75   NG75  L50   LG50  L75   LG75  #local misassemblies  #misassemblies  #misassembled contigs  Misassembled contigs length  Misassemblies inter-contig overlap  #unaligned contigs  Unaligned contigs length  #ambiguously mapped contigs  Extra bases in ambiguously mapped contigs  #N's    #N's per 100 kbp  Genome fraction (%)  Duplication ratio  #genes           #predicted genes (unique)  #predicted genes (>= 0 bp)  #predicted genes (>= 300 bp)  #predicted genes (>= 1500 bp)  #predicted genes (>= 3000 bp)  #mismatches  #indels  Indels length  #mismatches per 100 kbp  #indels per 100 kbp  GC (%)  Reference GC (%)  Average %IDY  Largest alignment  NA50  NGA50  NA75  NGA75  LA50  LGA50  LA75  LGA75  #Mis_misassemblies  #Mis_relocations  #Mis_translocations  #Mis_inversions  #Mis_misassembled contigs  Mis_Misassembled contigs length  #Mis_local misassemblies  #Mis_short indels (<= 5 bp)  #Mis_long indels (> 5 bp)  #Una_fully unaligned contigs  Una_Fully unaligned length  #Una_partially unaligned contigs  #Una_with misassembly  #Una_both parts are significant  Una_Partially unaligned length  GAGE_Contigs #  GAGE_Min contig  GAGE_Max contig  GAGE_N50         GAGE_Genome size  GAGE_Assembly size  GAGE_Chaff bases  GAGE_Missing reference bases  GAGE_Missing assembly bases  GAGE_Missing assembly contigs  GAGE_Duplicated reference bases  GAGE_Compressed reference bases  GAGE_Bad trim  GAGE_Avg idy  GAGE_SNPs  GAGE_Indels < 5bp  GAGE_Indels >= 5  GAGE_Inversions  GAGE_Relocation  GAGE_Translocation  GAGE_Corrected contig #  GAGE_Corrected assembly size  GAGE_Min correct contig  GAGE_Max correct contig  GAGE_Corrected N50
SOAP2_MIS_PE_mrsa_mis-1_bi_2x150bp_default.0.527percent_17.final.scaf_broken  4353      10741               276                    2628            2097744       2827645                 364250                     2813862           549   412   360   None  1226  1976  2408  None  2                     0               0                      0                            0                                   75 + 29 part        28067                     3                            -799                                       2327    110.93            73.380               1.002              365 + 2076 part  5186                       5186                        2354                          6                              0                              92           1108     2201           4.46                     53.66                32.42   32.81             99.888        2628               546   408    354   None   1230  1987   2425  None   0                   0                 0                    0                0                          0                                2                         1020                         88                         75                            26707                       29                                0                      0                                1360                            4353            200              2628             412 COUNT: 1976  2813862           2097744             0                 732846(26.04%)                14096(0.67%)                 41(0.94%)                      767                              1094                             2151           99.94         131        750                182               0                0                0                   4368                     2066444                       200                      2628                     396 COUNT: 2055   
SOAP2_MIS_PE_mrsa_mis-1_bi_2x150bp_default.0.527percent_17.final.scaf         870       3455                417                    42333           2831182       3172406                 2653226                    2813862           9015  9112  4208  4229  90    89    205   202   276                   8               8                      202571                       0                                   202 + 172 part      1389439                   2                            -539                                       347218  12264.06          20.487               2.500              232 + 646 part   5033                       5033                        2640                          15                             1                              40           4261     9058           7.16                     762.27               32.48   32.81             99.214        8912               None  None   None  None   None  None   None  None   8                   8                 0                    0                8                          202571                           276                       4036                         225                        202                           539047                      172                               25                     104                              850392                          870             200              42333            9112 COUNT: 89   2813862           2831182             0                 532973(18.94%)                547699(19.35%)               42(4.83%)                      767                              2521                             50275          99.72         156        1198               5649              0                10               0                   3983                     1972585                       200                      2628                     392 COUNT: 1989   
