Assembly	CLC_MIS_PE_sakai_mis-1_bi_2x150bp_default__sakai_mis-2_bi_2x150bp_default.41coverage.result_broken	CLC_MIS_PE_sakai_mis-1_bi_2x150bp_default__sakai_mis-2_bi_2x150bp_default.41coverage.result
#Mis_misassemblies	2	3
#Mis_relocations	2	3
#Mis_translocations	0	0
#Mis_inversions	0	0
#Mis_misassembled contigs	2	3
Mis_Misassembled contigs length	206136	418444
#Mis_local misassemblies	5	23
#mismatches	111	111
#indels	20	23
#Mis_short indels (<= 5 bp)	16	16
#Mis_long indels (> 5 bp)	4	7
Indels length	205	318
