All statistics are based on contigs of size >= 200 bp, unless otherwise noted (e.g., "# contigs (>= 0 bp)" and "Total length (>= 0 bp)" include all contigs).

Assembly                         VELVET_MIS_PE_sakai_mis-1_bi_2x150bp_default__sakai_mis-2_bi_2x150bp_default.0.826percent_17.final.contigs_broken  VELVET_MIS_PE_sakai_mis-1_bi_2x150bp_default__sakai_mis-2_bi_2x150bp_default.0.826percent_17.final.contigs
#Mis_misassemblies               106                                                                                                                261                                                                                                       
#Mis_relocations                 104                                                                                                                259                                                                                                       
#Mis_translocations              2                                                                                                                  2                                                                                                         
#Mis_inversions                  0                                                                                                                  0                                                                                                         
#Mis_misassembled contigs        101                                                                                                                159                                                                                                       
Mis_Misassembled contigs length  72770                                                                                                              1554059                                                                                                   
#Mis_local misassemblies         19                                                                                                                 1210                                                                                                      
#mismatches                      2016                                                                                                               2103                                                                                                      
#indels                          776                                                                                                                6135                                                                                                      
#Mis_short indels (<= 5 bp)      734                                                                                                                5167                                                                                                      
#Mis_long indels (> 5 bp)        42                                                                                                                 968                                                                                                       
Indels length                    1339                                                                                                               27062                                                                                                     
