All statistics are based on contigs of size >= 200 bp, unless otherwise noted (e.g., "# contigs (>= 0 bp)" and "Total length (>= 0 bp)" include all contigs).

Assembly                         ABYSS_PE_MIS_PE_mtbh37-1_mis_2x250bp_nextera_default__mtbh37-2_mis_2x250bp_nextera_default.0.550percent_90.final_broken  ABYSS_PE_MIS_PE_mtbh37-1_mis_2x250bp_nextera_default__mtbh37-2_mis_2x250bp_nextera_default.0.550percent_90.final
GAGE_Contigs #                   264                                                                                                                      214                                                                                                             
GAGE_Min contig                  204                                                                                                                      204                                                                                                             
GAGE_Max contig                  117905                                                                                                                   144082                                                                                                          
GAGE_N50                         41648 COUNT: 35                                                                                                          58215 COUNT: 27                                                                                                 
GAGE_Genome size                 4411532                                                                                                                  4411532                                                                                                         
GAGE_Assembly size               4369531                                                                                                                  4371874                                                                                                         
GAGE_Chaff bases                 0                                                                                                                        0                                                                                                               
GAGE_Missing reference bases     47445(1.08%)                                                                                                             46964(1.06%)                                                                                                    
GAGE_Missing assembly bases      922(0.02%)                                                                                                               2770(0.06%)                                                                                                     
GAGE_Missing assembly contigs    0(0.00%)                                                                                                                 0(0.00%)                                                                                                        
GAGE_Duplicated reference bases  5302                                                                                                                     5302                                                                                                            
GAGE_Compressed reference bases  39129                                                                                                                    39019                                                                                                           
GAGE_Bad trim                    882                                                                                                                      882                                                                                                             
GAGE_Avg idy                     99.99                                                                                                                    99.98                                                                                                           
GAGE_SNPs                        198                                                                                                                      198                                                                                                             
GAGE_Indels < 5bp                43                                                                                                                       81                                                                                                              
GAGE_Indels >= 5                 36                                                                                                                       70                                                                                                              
GAGE_Inversions                  1                                                                                                                        2                                                                                                               
GAGE_Relocation                  3                                                                                                                        5                                                                                                               
GAGE_Translocation               0                                                                                                                        0                                                                                                               
GAGE_Corrected contig #          299                                                                                                                      286                                                                                                             
GAGE_Corrected assembly size     4368058                                                                                                                  4368539                                                                                                         
GAGE_Min correct contig          204                                                                                                                      204                                                                                                             
GAGE_Max correct contig          89387                                                                                                                    100320                                                                                                          
GAGE_Corrected N50               31108 COUNT: 44                                                                                                          32070 COUNT: 41                                                                                                 
