calling: java -cp /vol/ngscomparison/software/analysis/quast-2.1/libs/gage:. SizeFasta /vol/codine-tmp/juene/tmp.ttKKEdiSbw/quast/corrected_input/MRSA_COL_Plasmid.fasta |awk '{SUM+=; print SUM}'|tail -n 1
Contig Stats
Total units: 1143
Reference: 2813862
BasesInFasta: 2645481
Min: 201
Max: 37535
N10: 11565 COUNT: 17
N25: 7487 COUNT: 63
N50: 3890 COUNT: 200
N75: 1815 COUNT: 464
E-size:5556.06

Genome Size: 2813862
Assembly Size: 2645481
Chaff bases: 0
Missing Reference Bases: 140826(5.00%)
Missing Assembly Bases: 5363(0.20%)
Missing Assembly Contigs: 2(0.17%)
Duplicated Reference Bases: 0
Compressed Reference Bases: 36406
Bad Trim: 255
Avg Idy: 99.99
SNPs: 157
Indels < 5bp: 7
Indels >= 5: 2
Inversions: 0
Relocation: 2
Translocation: 0

Corrected Contig Stats
calling: java -cp /vol/ngscomparison/software/analysis/quast-2.1/libs/gage:.:. GetFastaStats -o -min 199 -genomeSize 2813862 /vol/codine-tmp/juene/tmp.ttKKEdiSbw/quast/gage/tmp/ABYSS_PE_MIS_PE_mrsa_mis-1_bi_2x150bp_default__mrsa_mis-2_bi_2x150bp_default.11coverage_32.final.matches.lens 2> /dev/null
Total units: 1144
Reference: 2813862
BasesInFasta: 2640132
Min: 201
Max: 37535
N10: 11565 COUNT: 17
N25: 7349 COUNT: 63
N50: 3864 COUNT: 201
N75: 1798 COUNT: 467
E-size:5539.37

Done
