Assembly	SOAP2_MIS_PE_mtbh37-1_mis_2x250bp_nextera_default_121.final.scaf_broken	SOAP2_MIS_PE_mtbh37-1_mis_2x250bp_nextera_default_121.final.scaf
#Una_fully unaligned contigs	2	2
Una_Fully unaligned length	507	507
#Una_partially unaligned contigs	4	5
#Una_with misassembly	0	0
#Una_both parts are significant	1	1
Una_Partially unaligned length	1073	1244
#N's	93	21768
