All statistics are based on contigs of size >= 200 bp, unless otherwise noted (e.g., "# contigs (>= 0 bp)" and "Total length (>= 0 bp)" include all contigs).

Assembly                                                                       #Contigs (>= 0 bp)  #Contigs (>= 1000 bp)  Total length (>= 0 bp)  Total length (>= 1000 bp)  #Contigs  Largest contig  Total length  Reference length  GC (%)  Reference GC (%)  N50     NG50    N75    NG75   #misassemblies  #local misassemblies  #unaligned contigs  Unaligned contigs length  Genome fraction (%)  Duplication ratio  #N's per 100 kbp  #mismatches per 100 kbp  #indels per 100 kbp  #genes           #predicted genes (unique)  #predicted genes (>= 0 bp)  #predicted genes (>= 300 bp)  #predicted genes (>= 1500 bp)  #predicted genes (>= 3000 bp)  Largest alignment  NA50    NGA50   NA75   NGA75
SOAP2_MIS_PE_sakai_mis-1_bi_2x150bp_default.0.826percent_91.final.scaf_broken  1444                209                    5489315                 5213598                    649       221594          5375678       5594470           50.28   50.48             66349   65925   31241  30316  6               3                     2 + 0 part          5941                      94.068               1.001              1.25              1.08                     0.49                 4859 + 268 part  5537                       5548                        4457                          659                            67                             217358             65925   63065   30783  29891
SOAP2_MIS_PE_sakai_mis-1_bi_2x150bp_default.0.826percent_91.final.scaf         1078                132                    5536083                 5335638                    396       374868          5439352       5594470           50.30   50.48             144802  144802  74561  73106  35              84                    7 + 10 part         20176                     94.194               1.012              861.04            4.27                     44.90                4949 + 190 part  5630                       5637                        4458                          656                            66                             362373             144769  144769  74475  73041
