All statistics are based on contigs of size >= 200 bp, unless otherwise noted (e.g., "# contigs (>= 0 bp)" and "Total length (>= 0 bp)" include all contigs).

Assembly                         NEWBLER_MIS_PE_mrsa_mis-1_bi_2x150bp_default__mrsa_mis-2_bi_2x150bp_default.0.650percent.contigs_broken  NEWBLER_MIS_PE_mrsa_mis-1_bi_2x150bp_default__mrsa_mis-2_bi_2x150bp_default.0.650percent.contigs
GAGE_Contigs #                   63                                                                                                       24                                                                                              
GAGE_Min contig                  532                                                                                                      4440                                                                                            
GAGE_Max contig                  326041                                                                                                   820492                                                                                          
GAGE_N50                         90535 COUNT: 9                                                                                           158592 COUNT: 4                                                                                 
GAGE_Genome size                 2813862                                                                                                  2813862                                                                                         
GAGE_Assembly size               2765237                                                                                                  2798722                                                                                         
GAGE_Chaff bases                 0                                                                                                        0                                                                                               
GAGE_Missing reference bases     23415(0.83%)                                                                                             23676(0.84%)                                                                                    
GAGE_Missing assembly bases      5386(0.19%)                                                                                              38871(1.39%)                                                                                    
GAGE_Missing assembly contigs    1(1.59%)                                                                                                 1(4.17%)                                                                                        
GAGE_Duplicated reference bases  0                                                                                                        0                                                                                               
GAGE_Compressed reference bases  31656                                                                                                    31395                                                                                           
GAGE_Bad trim                    0                                                                                                        0                                                                                               
GAGE_Avg idy                     99.99                                                                                                    99.99                                                                                           
GAGE_SNPs                        30                                                                                                       30                                                                                              
GAGE_Indels < 5bp                6                                                                                                        6                                                                                               
GAGE_Indels >= 5                 3                                                                                                        27                                                                                              
GAGE_Inversions                  0                                                                                                        0                                                                                               
GAGE_Relocation                  2                                                                                                        10                                                                                              
GAGE_Translocation               0                                                                                                        0                                                                                               
GAGE_Corrected contig #          67                                                                                                       67                                                                                              
GAGE_Corrected assembly size     2760307                                                                                                  2760307                                                                                         
GAGE_Min correct contig          532                                                                                                      532                                                                                             
GAGE_Max correct contig          326042                                                                                                   326042                                                                                          
GAGE_Corrected N50               87107 COUNT: 10                                                                                          87107 COUNT: 10                                                                                 
