Assembly	VELVET_MIS_PE_mrsa_mis-1_bi_2x250bp_default__mrsa_mis-2_bi_2x250bp_default.0.460percent_47.final.contigs_broken	VELVET_MIS_PE_mrsa_mis-1_bi_2x250bp_default__mrsa_mis-2_bi_2x250bp_default.0.460percent_47.final.contigs
#Contigs	147	119
#Contigs (>= 0 bp)	247	215
#Contigs (>= 1000 bp)	110	86
Largest contig	131646	144821
Total length	2767555	2768697
Total length (>= 0 bp)	2779626	2780485
Total length (>= 1000 bp)	2753353	2756260
Reference length	2813862	2813862
N50	42850	58084
NG50	42850	58084
N75	24874	33640
NG75	24804	32486
L50	20	17
LG50	20	17
L75	40	32
LG75	42	33
#local misassemblies	10	26
#misassemblies	4	5
#misassembled contigs	4	4
Misassembled contigs length	127303	324059
Misassemblies inter-contig overlap	2057	2300
#unaligned contigs	2 + 1 part	2 + 1 part
Unaligned contigs length	5384	5384
#ambiguously mapped contigs	17	16
Extra bases in ambiguously mapped contigs	-15462	-10716
#N's	0	859
#N's per 100 kbp	0.00	31.03
Genome fraction (%)	97.575	97.754
Duplication ratio	1.001	1.002
#genes	2591 + 76 part	2605 + 64 part
#predicted genes (unique)	2661	2649
#predicted genes (>= 0 bp)	2661	2649
#predicted genes (>= 300 bp)	2291	2287
#predicted genes (>= 1500 bp)	298	298
#predicted genes (>= 3000 bp)	28	28
#mismatches	275	257
#indels	93	141
Indels length	94	521
#mismatches per 100 kbp	10.02	9.34
#indels per 100 kbp	3.39	5.13
GC (%)	32.69	32.69
Reference GC (%)	32.81	32.81
Average %IDY	99.037	99.005
Largest alignment	131646	134791
NA50	40693	58013
NGA50	37867	58013
NA75	24807	32486
NGA75	24794	30948
LA50	20	18
LGA50	21	18
LA75	42	34
LGA75	43	35
#Mis_misassemblies	4	5
#Mis_relocations	4	5
#Mis_translocations	0	0
#Mis_inversions	0	0
#Mis_misassembled contigs	4	4
Mis_Misassembled contigs length	127303	324059
#Mis_local misassemblies	10	26
#Mis_short indels (<= 5 bp)	93	125
#Mis_long indels (> 5 bp)	0	16
#Una_fully unaligned contigs	2	2
Una_Fully unaligned length	5374	5374
#Una_partially unaligned contigs	1	1
#Una_with misassembly	0	0
#Una_both parts are significant	0	0
Una_Partially unaligned length	10	10
GAGE_Contigs #	147	119
GAGE_Min contig	200	200
GAGE_Max contig	131646	144821
GAGE_N50	42850 COUNT: 20	58084 COUNT: 17
GAGE_Genome size	2813862	2813862
GAGE_Assembly size	2767555	2768697
GAGE_Chaff bases	0	0
GAGE_Missing reference bases	16142(0.57%)	16087(0.57%)
GAGE_Missing assembly bases	5458(0.20%)	6443(0.23%)
GAGE_Missing assembly contigs	2(1.36%)	2(1.68%)
GAGE_Duplicated reference bases	2153	2315
GAGE_Compressed reference bases	43360	43524
GAGE_Bad trim	84	40
GAGE_Avg idy	99.98	99.98
GAGE_SNPs	205	203
GAGE_Indels < 5bp	35	35
GAGE_Indels >= 5	8	24
GAGE_Inversions	0	2
GAGE_Relocation	10	16
GAGE_Translocation	0	0
GAGE_Corrected contig #	155	154
GAGE_Corrected assembly size	2762273	2761884
GAGE_Min correct contig	200	200
GAGE_Max correct contig	131647	131647
GAGE_Corrected N50	36424 COUNT: 23	36424 COUNT: 23
