All statistics are based on contigs of size >= 200 bp, unless otherwise noted (e.g., "# contigs (>= 0 bp)" and "Total length (>= 0 bp)" include all contigs).

Assembly                         ABYSS_PE_MIS_PE_mrsa_mis-1_bi_2x250bp_default__mrsa_mis-2_bi_2x250bp_default.91coverage_128.final_broken  ABYSS_PE_MIS_PE_mrsa_mis-1_bi_2x250bp_default__mrsa_mis-2_bi_2x250bp_default.91coverage_128.final
GAGE_Contigs #                   109                                                                                                       105                                                                                              
GAGE_Min contig                  203                                                                                                       203                                                                                              
GAGE_Max contig                  350685                                                                                                    350685                                                                                           
GAGE_N50                         154996 COUNT: 6                                                                                           154996 COUNT: 6                                                                                  
GAGE_Genome size                 2813862                                                                                                   2813862                                                                                          
GAGE_Assembly size               2810840                                                                                                   2811034                                                                                          
GAGE_Chaff bases                 0                                                                                                         0                                                                                                
GAGE_Missing reference bases     274(0.01%)                                                                                                274(0.01%)                                                                                       
GAGE_Missing assembly bases      1(0.00%)                                                                                                  195(0.01%)                                                                                       
GAGE_Missing assembly contigs    0(0.00%)                                                                                                  0(0.00%)                                                                                         
GAGE_Duplicated reference bases  11136                                                                                                     11136                                                                                            
GAGE_Compressed reference bases  24167                                                                                                     24537                                                                                            
GAGE_Bad trim                    0                                                                                                         100                                                                                              
GAGE_Avg idy                     99.99                                                                                                     99.99                                                                                            
GAGE_SNPs                        41                                                                                                        41                                                                                               
GAGE_Indels < 5bp                9                                                                                                         9                                                                                                
GAGE_Indels >= 5                 1                                                                                                         2                                                                                                
GAGE_Inversions                  1                                                                                                         1                                                                                                
GAGE_Relocation                  2                                                                                                         3                                                                                                
GAGE_Translocation               0                                                                                                         0                                                                                                
GAGE_Corrected contig #          88                                                                                                        88                                                                                               
GAGE_Corrected assembly size     2801457                                                                                                   2801457                                                                                          
GAGE_Min correct contig          203                                                                                                       203                                                                                              
GAGE_Max correct contig          350684                                                                                                    350684                                                                                           
GAGE_Corrected N50               146538 COUNT: 6                                                                                           146538 COUNT: 6                                                                                  
