1: PREPARING DATA
2,3: RUNNING mummer AND CREATING CLUSTERS
# reading input file "/vol/codine-tmp/juene/tmp.2Yal4bltjL/quast/gage/tmp/ABYSS_PE_MIS_PE_sakai_mis-2_bi_2x150bp_default__sakai_mis-1_bi_2x150bp_default.0.175percent_44.final_broken.ntref" of length 5594473
# construct suffix tree for sequence of length 5594473
# (maximum reference length is 536870908)
# (maximum query length is 4294967295)
# process 55944 characters per dot
#....................................................................................................
# CONSTRUCTIONTIME /vol/ngscomparison/software/analysis/quast-2.1/libs/MUMmer3.23-linux/mummer /vol/codine-tmp/juene/tmp.2Yal4bltjL/quast/gage/tmp/ABYSS_PE_MIS_PE_sakai_mis-2_bi_2x150bp_default__sakai_mis-1_bi_2x150bp_default.0.175percent_44.final_broken.ntref 3.05
# reading input file "/vol/codine-tmp/juene/tmp.2Yal4bltjL/quast/corrected_input/ABYSS_PE_MIS_PE_sakai_mis-2_bi_2x150bp_default__sakai_mis-1_bi_2x150bp_default.0.175percent_44.final_broken" of length 5295593
# matching query-file "/vol/codine-tmp/juene/tmp.2Yal4bltjL/quast/corrected_input/ABYSS_PE_MIS_PE_sakai_mis-2_bi_2x150bp_default__sakai_mis-1_bi_2x150bp_default.0.175percent_44.final_broken"
# against subject-file "/vol/codine-tmp/juene/tmp.2Yal4bltjL/quast/gage/tmp/ABYSS_PE_MIS_PE_sakai_mis-2_bi_2x150bp_default__sakai_mis-1_bi_2x150bp_default.0.175percent_44.final_broken.ntref"
# COMPLETETIME /vol/ngscomparison/software/analysis/quast-2.1/libs/MUMmer3.23-linux/mummer /vol/codine-tmp/juene/tmp.2Yal4bltjL/quast/gage/tmp/ABYSS_PE_MIS_PE_sakai_mis-2_bi_2x150bp_default__sakai_mis-1_bi_2x150bp_default.0.175percent_44.final_broken.ntref 8.60
# SPACE /vol/ngscomparison/software/analysis/quast-2.1/libs/MUMmer3.23-linux/mummer /vol/codine-tmp/juene/tmp.2Yal4bltjL/quast/gage/tmp/ABYSS_PE_MIS_PE_sakai_mis-2_bi_2x150bp_default__sakai_mis-1_bi_2x150bp_default.0.175percent_44.final_broken.ntref 10.56
4: FINISHING DATA
Filtering alignments
Extracting alignment coordinates
Analyzing SNPs
Extracting alignment breakpoints
Generating report file
Found genome size at position 4 with value 5594470 aka 5594470
Calculating point at 0 and the sum is 1039259 and i is576 and lens is 595 and length is 44357
Calculating point at 1 and the sum is 2000770 and i is550 and lens is 595 and length is 31382
Calculating point at 2 and the sum is 3008451 and i is511 and lens is 595 and length is 21926
Calculating point at 3 and the sum is 4004394 and i is455 and lens is 595 and length is 13333
Calculating point at 4 and the sum is 5002071 and i is311 and lens is 595 and length is 2957
