All statistics are based on contigs of size >= 200 bp, unless otherwise noted (e.g., "# contigs (>= 0 bp)" and "Total length (>= 0 bp)" include all contigs).

Assembly                                   NEWBLER_PGM_sakai_pgm_mu_200bp_IO_TS3.0Disabled_stringent.0.55percent.contigs
#Contigs                                   365                                                                          
#Contigs (>= 0 bp)                         466                                                                          
#Contigs (>= 1000 bp)                      164                                                                          
Largest contig                             343325                                                                       
Total length                               5318688                                                                      
Total length (>= 0 bp)                     5332734                                                                      
Total length (>= 1000 bp)                  5229971                                                                      
Reference length                           5594470                                                                      
N50                                        99556                                                                        
NG50                                       92023                                                                        
N75                                        46441                                                                        
NG75                                       40904                                                                        
L50                                        16                                                                           
LG50                                       18                                                                           
L75                                        35                                                                           
LG75                                       40                                                                           
#local misassemblies                       4                                                                            
#misassemblies                             5                                                                            
#misassembled contigs                      5                                                                            
Misassembled contigs length                193833                                                                       
Misassemblies inter-contig overlap         689                                                                          
#unaligned contigs                         0 + 0 part                                                                   
Unaligned contigs length                   0                                                                            
#ambiguously mapped contigs                126                                                                          
Extra bases in ambiguously mapped contigs  -88657                                                                       
#N's                                       0                                                                            
#N's per 100 kbp                           0.00                                                                         
Genome fraction (%)                        93.506                                                                       
Duplication ratio                          1.000                                                                        
#genes                                     4905 + 179 part                                                              
#predicted genes (unique)                  5696                                                                         
#predicted genes (>= 0 bp)                 5696                                                                         
#predicted genes (>= 300 bp)               4633                                                                         
#predicted genes (>= 1500 bp)              572                                                                          
#predicted genes (>= 3000 bp)              55                                                                           
#mismatches                                63                                                                           
#indels                                    974                                                                          
Indels length                              1024                                                                         
#mismatches per 100 kbp                    1.20                                                                         
#indels per 100 kbp                        18.62                                                                        
GC (%)                                     50.27                                                                        
Reference GC (%)                           50.48                                                                        
Average %IDY                               99.063                                                                       
Largest alignment                          343325                                                                       
NA50                                       92023                                                                        
NGA50                                      89007                                                                        
NA75                                       46441                                                                        
NGA75                                      40904                                                                        
LA50                                       17                                                                           
LGA50                                      18                                                                           
LA75                                       36                                                                           
LGA75                                      41                                                                           
#Mis_misassemblies                         5                                                                            
#Mis_relocations                           3                                                                            
#Mis_translocations                        0                                                                            
#Mis_inversions                            2                                                                            
#Mis_misassembled contigs                  5                                                                            
Mis_Misassembled contigs length            193833                                                                       
#Mis_local misassemblies                   4                                                                            
#Mis_short indels (<= 5 bp)                973                                                                          
#Mis_long indels (> 5 bp)                  1                                                                            
#Una_fully unaligned contigs               0                                                                            
Una_Fully unaligned length                 0                                                                            
#Una_partially unaligned contigs           0                                                                            
#Una_with misassembly                      0                                                                            
#Una_both parts are significant            0                                                                            
Una_Partially unaligned length             0                                                                            
GAGE_Contigs #                             365                                                                          
GAGE_Min contig                            200                                                                          
GAGE_Max contig                            343325                                                                       
GAGE_N50                                   92023 COUNT: 18                                                              
GAGE_Genome size                           5594470                                                                      
GAGE_Assembly size                         5318688                                                                      
GAGE_Chaff bases                           0                                                                            
GAGE_Missing reference bases               70940(1.27%)                                                                 
GAGE_Missing assembly bases                2(0.00%)                                                                     
GAGE_Missing assembly contigs              0(0.00%)                                                                     
GAGE_Duplicated reference bases            675                                                                          
GAGE_Compressed reference bases            213793                                                                       
GAGE_Bad trim                              2                                                                            
GAGE_Avg idy                               99.98                                                                        
GAGE_SNPs                                  93                                                                           
GAGE_Indels < 5bp                          1042                                                                         
GAGE_Indels >= 5                           5                                                                            
GAGE_Inversions                            0                                                                            
GAGE_Relocation                            3                                                                            
GAGE_Translocation                         0                                                                            
GAGE_Corrected contig #                    369                                                                          
GAGE_Corrected assembly size               5319662                                                                      
GAGE_Min correct contig                    200                                                                          
GAGE_Max correct contig                    313854                                                                       
GAGE_Corrected N50                         89033 COUNT: 19                                                              
