Assembly	NEWBLER_MIS_PE_sakai_mis-1_bi_2x250bp_SI_default__sakai_mis-2_bi_2x250bp_SI_default.0.2percent.contigs_broken	NEWBLER_MIS_PE_sakai_mis-1_bi_2x250bp_SI_default__sakai_mis-2_bi_2x250bp_SI_default.0.2percent.contigs
#Mis_misassemblies	4	12
#Mis_relocations	4	12
#Mis_translocations	0	0
#Mis_inversions	0	0
#Mis_misassembled contigs	4	10
Mis_Misassembled contigs length	126276	1028116
#Mis_local misassemblies	4	59
#mismatches	94	200
#indels	16	21
#Mis_short indels (<= 5 bp)	16	21
#Mis_long indels (> 5 bp)	0	0
Indels length	18	25
