1: PREPARING DATA
2,3: RUNNING mummer AND CREATING CLUSTERS
# reading input file "/vol/codine-tmp/juene/tmp.iCyVgnPYYP/quast/contigs_reports/nucmer_output/ABYSS_PE_MIS_PE_sakai_mis-1_bi_2x150bp_default__sakai_mis-2_bi_2x150bp_default.0.826percent_98-scaffolds.ntref" of length 5594473
# construct suffix tree for sequence of length 5594473
# (maximum reference length is 536870908)
# (maximum query length is 4294967295)
# process 55944 characters per dot
#....................................................................................................
# CONSTRUCTIONTIME /vol/ngscomparison/software/analysis/quast-2.1/libs/MUMmer3.23-linux/mummer /vol/codine-tmp/juene/tmp.iCyVgnPYYP/quast/contigs_reports/nucmer_output/ABYSS_PE_MIS_PE_sakai_mis-1_bi_2x150bp_default__sakai_mis-2_bi_2x150bp_default.0.826percent_98-scaffolds.ntref 3.59
# reading input file "/vol/codine-tmp/juene/tmp.iCyVgnPYYP/quast/corrected_input/ABYSS_PE_MIS_PE_sakai_mis-1_bi_2x150bp_default__sakai_mis-2_bi_2x150bp_default.0.826percent_98-scaffolds" of length 5573813
# matching query-file "/vol/codine-tmp/juene/tmp.iCyVgnPYYP/quast/corrected_input/ABYSS_PE_MIS_PE_sakai_mis-1_bi_2x150bp_default__sakai_mis-2_bi_2x150bp_default.0.826percent_98-scaffolds"
# against subject-file "/vol/codine-tmp/juene/tmp.iCyVgnPYYP/quast/contigs_reports/nucmer_output/ABYSS_PE_MIS_PE_sakai_mis-1_bi_2x150bp_default__sakai_mis-2_bi_2x150bp_default.0.826percent_98-scaffolds.ntref"
# COMPLETETIME /vol/ngscomparison/software/analysis/quast-2.1/libs/MUMmer3.23-linux/mummer /vol/codine-tmp/juene/tmp.iCyVgnPYYP/quast/contigs_reports/nucmer_output/ABYSS_PE_MIS_PE_sakai_mis-1_bi_2x150bp_default__sakai_mis-2_bi_2x150bp_default.0.826percent_98-scaffolds.ntref 9.82
# SPACE /vol/ngscomparison/software/analysis/quast-2.1/libs/MUMmer3.23-linux/mummer /vol/codine-tmp/juene/tmp.iCyVgnPYYP/quast/contigs_reports/nucmer_output/ABYSS_PE_MIS_PE_sakai_mis-1_bi_2x150bp_default__sakai_mis-2_bi_2x150bp_default.0.826percent_98-scaffolds.ntref 10.84
4: FINISHING DATA
