Assembly	NEWBLER_PGM_sakai_pgm_mu_200bp_IO_TS3.0Disabled_stringent.0.35percent.contigs
#Mis_misassemblies	3
#Mis_relocations	3
#Mis_translocations	0
#Mis_inversions	0
#Mis_misassembled contigs	3
Mis_Misassembled contigs length	417747
#Mis_local misassemblies	7
#mismatches	119
#indels	1052
#Mis_short indels (<= 5 bp)	1052
#Mis_long indels (> 5 bp)	0
Indels length	1117
