All statistics are based on contigs of size >= 200 bp, unless otherwise noted (e.g., "# contigs (>= 0 bp)" and "Total length (>= 0 bp)" include all contigs).

Assembly                                                                                 GAGE_Contigs #  GAGE_Min contig  GAGE_Max contig  GAGE_N50          GAGE_Genome size  GAGE_Assembly size  GAGE_Chaff bases  GAGE_Missing reference bases  GAGE_Missing assembly bases  GAGE_Missing assembly contigs  GAGE_Duplicated reference bases  GAGE_Compressed reference bases  GAGE_Bad trim  GAGE_Avg idy  GAGE_SNPs  GAGE_Indels < 5bp  GAGE_Indels >= 5  GAGE_Inversions  GAGE_Relocation  GAGE_Translocation  GAGE_Corrected contig #  GAGE_Corrected assembly size  GAGE_Min correct contig  GAGE_Max correct contig  GAGE_Corrected N50
VELVET_MIS_PE_sakai_mis-both_bi_2x250bp_SI_default.0.64percent_199.final.contigs_broken  1575            339              27924            5584 COUNT: 309   5594470           5502266             0                 51731(0.92%)                  5940(0.11%)                  1(0.06%)                       12768                            239252                           356            99.99         219        16                 2                 1                3                1                   1563                     5490117                       397                      27924                    5569 COUNT: 309   
VELVET_MIS_PE_sakai_mis-both_bi_2x250bp_SI_default.0.64percent_199.final.contigs         1031            397              43513            10232 COUNT: 166  5594470           5578714             0                 51667(0.92%)                  82343(1.48%)                 1(0.10%)                       12768                            238873                           273            99.99         216        21                 536               4                7                1                   1562                     5490157                       397                      27924                    5569 COUNT: 309   
