calling: java -cp /vol/ngscomparison/software/analysis/quast-2.1/libs/gage:. SizeFasta /vol/codine-tmp/juene/tmp.UdfM9FUnE8/quast/corrected_input/Ecoli_Sakai_editedNew_plasmids.fasta |awk '{SUM+=; print SUM}'|tail -n 1
Contig Stats
Total units: 2765
Reference: 5594470
BasesInFasta: 4559862
Min: 353
Max: 11556
N10: 5291 COUNT: 85
N25: 3485 COUNT: 286
N50: 1895 COUNT: 830
N75: 688 COUNT: 2014
E-size:2340.85

Genome Size: 5594470
Assembly Size: 4559862
Chaff bases: 0
Missing Reference Bases: 1021686(18.26%)
Missing Assembly Bases: 538(0.01%)
Missing Assembly Contigs: 0(0.00%)
Duplicated Reference Bases: 48654
Compressed Reference Bases: 221056
Bad Trim: 416
Avg Idy: 99.98
SNPs: 91
Indels < 5bp: 688
Indels >= 5: 14
Inversions: 3
Relocation: 2
Translocation: 1

Corrected Contig Stats
calling: java -cp /vol/ngscomparison/software/analysis/quast-2.1/libs/gage:.:. GetFastaStats -o -min 199 -genomeSize 5594470 /vol/codine-tmp/juene/tmp.UdfM9FUnE8/quast/gage/tmp/VELVET_PGM_sakai_pgm_mu_318_400bp_IO_TS3.4_ms_0.395percent_177.final.contigs.matches.lens 2> /dev/null
Total units: 2708
Reference: 5594470
BasesInFasta: 4509807
Min: 306
Max: 11555
N10: 5181 COUNT: 86
N25: 3458 COUNT: 288
N50: 1882 COUNT: 839
N75: 659 COUNT: 2048
E-size:2310.91

Done
