Assembly	SOAP2_MIS_PE_mrsa_mis-1_bi_2x250bp_default.0.460percent_73.final.scaf_broken	SOAP2_MIS_PE_mrsa_mis-1_bi_2x250bp_default.0.460percent_73.final.scaf
GAGE_Contigs #	9299	8978
GAGE_Min contig	200	200
GAGE_Max contig	10785	14948
GAGE_N50	2388 COUNT: 353	3197 COUNT: 274
GAGE_Genome size	2813862	2813862
GAGE_Assembly size	4599760	4620694
GAGE_Chaff bases	0	0
GAGE_Missing reference bases	29334(1.04%)	26477(0.94%)
GAGE_Missing assembly bases	1205828(26.22%)	1218369(26.37%)
GAGE_Missing assembly contigs	4679(50.32%)	4677(52.09%)
GAGE_Duplicated reference bases	532293	537575
GAGE_Compressed reference bases	51748	51812
GAGE_Bad trim	50801	51479
GAGE_Avg idy	99.92	99.92
GAGE_SNPs	980	945
GAGE_Indels < 5bp	232	259
GAGE_Indels >= 5	73	333
GAGE_Inversions	0	0
GAGE_Relocation	1	1
GAGE_Translocation	0	0
GAGE_Corrected contig #	2237	2219
GAGE_Corrected assembly size	2850256	2847926
GAGE_Min correct contig	200	200
GAGE_Max correct contig	10663	10663
GAGE_Corrected N50	2263 COUNT: 371	2269 COUNT: 371
