All statistics are based on contigs of size >= 200 bp, unless otherwise noted (e.g., "# contigs (>= 0 bp)" and "Total length (>= 0 bp)" include all contigs).

Assembly                                                                      GAGE_Contigs #  GAGE_Min contig  GAGE_Max contig  GAGE_N50         GAGE_Genome size  GAGE_Assembly size  GAGE_Chaff bases  GAGE_Missing reference bases  GAGE_Missing assembly bases  GAGE_Missing assembly contigs  GAGE_Duplicated reference bases  GAGE_Compressed reference bases  GAGE_Bad trim  GAGE_Avg idy  GAGE_SNPs  GAGE_Indels < 5bp  GAGE_Indels >= 5  GAGE_Inversions  GAGE_Relocation  GAGE_Translocation  GAGE_Corrected contig #  GAGE_Corrected assembly size  GAGE_Min correct contig  GAGE_Max correct contig  GAGE_Corrected N50
SOAP2_MIS_PE_mrsa_mis-1_bi_2x250bp_default.0.460percent_73.final.scaf_broken  9299            200              10785            2388 COUNT: 353  2813862           4599760             0                 29334(1.04%)                  1205828(26.22%)              4679(50.32%)                   532293                           51748                            50801          99.92         980        232                73                0                1                0                   2237                     2850256                       200                      10663                    2263 COUNT: 371   
SOAP2_MIS_PE_mrsa_mis-1_bi_2x250bp_default.0.460percent_73.final.scaf         8978            200              14948            3197 COUNT: 274  2813862           4620694             0                 26477(0.94%)                  1218369(26.37%)              4677(52.09%)                   537575                           51812                            51479          99.92         945        259                333               0                1                0                   2219                     2847926                       200                      10663                    2269 COUNT: 371   
