Assembly	VELVET_PGM_mrsa_pgm_400bp_es_318_IKA_ts3.2_morestringent.0.165percent_45.final.contigs
GAGE_Contigs #	764
GAGE_Min contig	200
GAGE_Max contig	361
GAGE_N50	0 COUNT: 0
GAGE_Genome size	2813862
GAGE_Assembly size	169969
GAGE_Chaff bases	0
GAGE_Missing reference bases	2730836(97.05%)
GAGE_Missing assembly bases	86279(50.76%)
GAGE_Missing assembly contigs	366(47.91%)
GAGE_Duplicated reference bases	403
GAGE_Compressed reference bases	1350
GAGE_Bad trim	3892
GAGE_Avg idy	96.39
GAGE_SNPs	155
GAGE_Indels < 5bp	2833
GAGE_Indels >= 5	1
GAGE_Inversions	0
GAGE_Relocation	0
GAGE_Translocation	0
GAGE_Corrected contig #	300
GAGE_Corrected assembly size	65792
GAGE_Min correct contig	200
GAGE_Max correct contig	335
GAGE_Corrected N50	0 COUNT: 0
