All statistics are based on contigs of size >= 200 bp, unless otherwise noted (e.g., "# contigs (>= 0 bp)" and "Total length (>= 0 bp)" include all contigs).

Assembly                                   VELVET_MIS_PE_sakai_mis-1_bi_2x150bp_default__sakai_mis-2_bi_2x150bp_default.0.826percent_107.final.contigs_broken  VELVET_MIS_PE_sakai_mis-1_bi_2x150bp_default__sakai_mis-2_bi_2x150bp_default.0.826percent_107.final.contigs
#Contigs                                   615                                                                                                                 415                                                                                                        
#Contigs (>= 0 bp)                         620                                                                                                                 415                                                                                                        
#Contigs (>= 1000 bp)                      296                                                                                                                 126                                                                                                        
Largest contig                             142951                                                                                                              423748                                                                                                     
Total length                               5453534                                                                                                             5468015                                                                                                    
Total length (>= 0 bp)                     5454128                                                                                                             5468015                                                                                                    
Total length (>= 1000 bp)                  5336135                                                                                                             5364910                                                                                                    
Reference length                           5594470                                                                                                             5594470                                                                                                    
N50                                        41061                                                                                                               148385                                                                                                     
NG50                                       39787                                                                                                               148385                                                                                                     
N75                                        18904                                                                                                               81276                                                                                                      
NG75                                       17509                                                                                                               76153                                                                                                      
L50                                        44                                                                                                                  12                                                                                                         
LG50                                       46                                                                                                                  12                                                                                                         
L75                                        92                                                                                                                  24                                                                                                         
LG75                                       98                                                                                                                  26                                                                                                         
#local misassemblies                       2                                                                                                                   79                                                                                                         
#misassemblies                             3                                                                                                                   20                                                                                                         
#misassembled contigs                      3                                                                                                                   13                                                                                                         
Misassembled contigs length                101959                                                                                                              1038030                                                                                                    
Misassemblies inter-contig overlap         373                                                                                                                 720                                                                                                        
#unaligned contigs                         1 + 0 part                                                                                                          1 + 0 part                                                                                                 
Unaligned contigs length                   5385                                                                                                                5385                                                                                                       
#ambiguously mapped contigs                259                                                                                                                 256                                                                                                        
Extra bases in ambiguously mapped contigs  -116622                                                                                                             -115272                                                                                                    
#N's                                       0                                                                                                                   13887                                                                                                      
#N's per 100 kbp                           0.00                                                                                                                253.97                                                                                                     
Genome fraction (%)                        95.241                                                                                                              95.284                                                                                                     
Duplication ratio                          1.001                                                                                                               1.003                                                                                                      
#genes                                     4939 + 288 part                                                                                                     5026 + 198 part                                                                                            
#predicted genes (unique)                  5619                                                                                                                5550                                                                                                       
#predicted genes (>= 0 bp)                 5634                                                                                                                5565                                                                                                       
#predicted genes (>= 300 bp)               4571                                                                                                                4553                                                                                                       
#predicted genes (>= 1500 bp)              659                                                                                                                 661                                                                                                        
#predicted genes (>= 3000 bp)              63                                                                                                                  63                                                                                                         
#mismatches                                101                                                                                                                 153                                                                                                        
#indels                                    15                                                                                                                  2414                                                                                                       
Indels length                              20                                                                                                                  4713                                                                                                       
#mismatches per 100 kbp                    1.90                                                                                                                2.87                                                                                                       
#indels per 100 kbp                        0.28                                                                                                                45.29                                                                                                      
GC (%)                                     50.35                                                                                                               50.35                                                                                                      
Reference GC (%)                           50.48                                                                                                               50.48                                                                                                      
Average %IDY                               98.826                                                                                                              98.808                                                                                                     
Largest alignment                          142951                                                                                                              314248                                                                                                     
NA50                                       41061                                                                                                               147939                                                                                                     
NGA50                                      39787                                                                                                               145682                                                                                                     
NA75                                       18904                                                                                                               78002                                                                                                      
NGA75                                      17509                                                                                                               71922                                                                                                      
LA50                                       44                                                                                                                  14                                                                                                         
LGA50                                      46                                                                                                                  15                                                                                                         
LA75                                       92                                                                                                                  27                                                                                                         
LGA75                                      98                                                                                                                  29                                                                                                         
#Mis_misassemblies                         3                                                                                                                   20                                                                                                         
#Mis_relocations                           3                                                                                                                   19                                                                                                         
#Mis_translocations                        0                                                                                                                   0                                                                                                          
#Mis_inversions                            0                                                                                                                   1                                                                                                          
#Mis_misassembled contigs                  3                                                                                                                   13                                                                                                         
Mis_Misassembled contigs length            101959                                                                                                              1038030                                                                                                    
#Mis_local misassemblies                   2                                                                                                                   79                                                                                                         
#Mis_short indels (<= 5 bp)                14                                                                                                                  2355                                                                                                       
#Mis_long indels (> 5 bp)                  1                                                                                                                   59                                                                                                         
#Una_fully unaligned contigs               1                                                                                                                   1                                                                                                          
Una_Fully unaligned length                 5385                                                                                                                5385                                                                                                       
#Una_partially unaligned contigs           0                                                                                                                   0                                                                                                          
#Una_with misassembly                      0                                                                                                                   0                                                                                                          
#Una_both parts are significant            0                                                                                                                   0                                                                                                          
Una_Partially unaligned length             0                                                                                                                   0                                                                                                          
GAGE_Contigs #                             615                                                                                                                 415                                                                                                        
GAGE_Min contig                            213                                                                                                                 213                                                                                                        
GAGE_Max contig                            142951                                                                                                              423748                                                                                                     
GAGE_N50                                   39787 COUNT: 46                                                                                                     148385 COUNT: 12                                                                                           
GAGE_Genome size                           5594470                                                                                                             5594470                                                                                                    
GAGE_Assembly size                         5453534                                                                                                             5468015                                                                                                    
GAGE_Chaff bases                           0                                                                                                                   0                                                                                                          
GAGE_Missing reference bases               5164(0.09%)                                                                                                         5056(0.09%)                                                                                                
GAGE_Missing assembly bases                5402(0.10%)                                                                                                         19248(0.35%)                                                                                               
GAGE_Missing assembly contigs              1(0.16%)                                                                                                            1(0.24%)                                                                                                   
GAGE_Duplicated reference bases            15035                                                                                                               15424                                                                                                      
GAGE_Compressed reference bases            237763                                                                                                              237294                                                                                                     
GAGE_Bad trim                              17                                                                                                                  710                                                                                                        
GAGE_Avg idy                               100.00                                                                                                              100.00                                                                                                     
GAGE_SNPs                                  54                                                                                                                  54                                                                                                         
GAGE_Indels < 5bp                          14                                                                                                                  36                                                                                                         
GAGE_Indels >= 5                           2                                                                                                                   155                                                                                                        
GAGE_Inversions                            0                                                                                                                   15                                                                                                         
GAGE_Relocation                            3                                                                                                                   6                                                                                                          
GAGE_Translocation                         0                                                                                                                   0                                                                                                          
GAGE_Corrected contig #                    572                                                                                                                 567                                                                                                        
GAGE_Corrected assembly size               5432673                                                                                                             5433809                                                                                                    
GAGE_Min correct contig                    213                                                                                                                 213                                                                                                        
GAGE_Max correct contig                    142950                                                                                                              142950                                                                                                     
GAGE_Corrected N50                         39787 COUNT: 46                                                                                                     41061 COUNT: 45                                                                                            
