calling: java -cp /vol/ngscomparison/software/analysis/quast-2.1/libs/gage:. SizeFasta /vol/codine-tmp/juene/tmp.6ufuHDL0XH/quast/corrected_input/Ecoli_Sakai_editedNew_plasmids.fasta |awk '{SUM+=; print SUM}'|tail -n 1
Contig Stats
Total units: 1536
Reference: 5594470
BasesInFasta: 5267354
Min: 202
Max: 39536
N10: 17241 COUNT: 25
N25: 11246 COUNT: 86
N50: 6791 COUNT: 250
N75: 3056 COUNT: 554
E-size:8236.71

Genome Size: 5594470
Assembly Size: 5267354
Chaff bases: 0
Missing Reference Bases: 119155(2.13%)
Missing Assembly Bases: 10331(0.20%)
Missing Assembly Contigs: 2(0.13%)
Duplicated Reference Bases: 7929
Compressed Reference Bases: 268095
Bad Trim: 2122
Avg Idy: 99.93
SNPs: 1711
Indels < 5bp: 184
Indels >= 5: 174
Inversions: 29
Relocation: 24
Translocation: 2

Corrected Contig Stats
calling: java -cp /vol/ngscomparison/software/analysis/quast-2.1/libs/gage:.:. GetFastaStats -o -min 199 -genomeSize 5594470 /vol/codine-tmp/juene/tmp.6ufuHDL0XH/quast/gage/tmp/CLC_MIS_PE_sakai_mis-2_bi_2x150bp_default__sakai_mis-1_bi_2x150bp_default.0.075percent.result.matches.lens 2> /dev/null
Total units: 1759
Reference: 5594470
BasesInFasta: 5264545
Min: 200
Max: 36771
N10: 15172 COUNT: 29
N25: 9624 COUNT: 100
N50: 5562 COUNT: 291
N75: 2598 COUNT: 656
E-size:7040.8

Done
