Assembly	VELVET_PGM_mtbh37_pgm_400bp_es_318v2_OT2_tsv3.6_morestringent_153.final.contigs
#Contigs (>= 0 bp)	3460
#Contigs (>= 1000 bp)	576
Total length (>= 0 bp)	2385899
Total length (>= 1000 bp)	841258
#Contigs	3460
Largest contig	4439
Total length	2385899
Reference length	4411532
GC (%)	65.75
Reference GC (%)	65.61
N50	788
NG50	349
N75	519
NG75	None
#misassemblies	56
#local misassemblies	3
#unaligned contigs	0 + 1 part
Unaligned contigs length	520
Genome fraction (%)	50.251
Duplication ratio	1.073
#N's per 100 kbp	1.26
#mismatches per 100 kbp	2.17
#indels per 100 kbp	52.82
#genes	544 + 2095 part
#predicted genes (unique)	4957
#predicted genes (>= 0 bp)	4978
#predicted genes (>= 300 bp)	3051
#predicted genes (>= 1500 bp)	23
#predicted genes (>= 3000 bp)	1
Largest alignment	4439
NA50	781
NGA50	343
NA75	511
NGA75	None
