Assembly	GAGE_Contigs #	GAGE_Min contig	GAGE_Max contig	GAGE_N50	GAGE_Genome size	GAGE_Assembly size	GAGE_Chaff bases	GAGE_Missing reference bases	GAGE_Missing assembly bases	GAGE_Missing assembly contigs	GAGE_Duplicated reference bases	GAGE_Compressed reference bases	GAGE_Bad trim	GAGE_Avg idy	GAGE_SNPs	GAGE_Indels < 5bp	GAGE_Indels >= 5	GAGE_Inversions	GAGE_Relocation	GAGE_Translocation	GAGE_Corrected contig #	GAGE_Corrected assembly size	GAGE_Min correct contig	GAGE_Max correct contig	GAGE_Corrected N50
SOAP2_MIS_PE_mrsa_mis-1_bi_2x150bp_default.0.527percent_123.final.scaf_broken	1553	202	28424	2730 COUNT: 293	2813862	2740508	0	78281(2.78%)	6391(0.23%)	3(0.19%)	2908	42293	11	99.98	31	230	157	0	2	0	1699	2731760	202	22470	2415 COUNT: 332
SOAP2_MIS_PE_mrsa_mis-1_bi_2x150bp_default.0.527percent_123.final.scaf	601	202	57742	9556 COUNT: 81	2813862	2767575	0	75282(2.68%)	30229(1.09%)	3(0.50%)	2908	41660	16	99.86	31	694	933	0	4	0	1536	2734809	202	29795	2693 COUNT: 293
